<?xml version="1.0" standalone="no"?>
<svg width="567" height="384" viewBox="0 0 567 384" xmlns="http://www.w3.org/2000/svg">
<title>
../plots/17_05_08/electrons_10GeV_withSteel_nHits.svg
</title>
<desc>
Creator: ROOT Version 5.34/21
CreationDate: Mon May  8 15:10:11 2017</desc>
<defs>
</defs>
<rect x="0" y="0" width="567" height="384" fill="white"/>
<rect x="57" y="38" width="453" height="308" fill="white"/>
<rect x="57" y="38" width="453" height="308" fill="none" stroke="black"/>
<rect x="57" y="38" width="453" height="308" fill="white"/>
<rect x="57" y="38" width="453" height="308" fill="none" stroke="black"/>
<path d="M57,346h 38v -242h 3v -33h 2v -7h 2v -11h 2v 26h 3v 29h 2v 24h 2v 36h 2v 40h 3v 39h 2v 23h 2v 23h 2v 11h 3v 23h 2v 2h 2v 9h 3v -1h 2v 4h 2v 3h 2v 1h 3v -1h 2v 1h 4v 1h 9v -1h 3v 1h 351" fill="none" stroke="#006600" stroke-width="2"/>
<path d="M57,346h 453" fill="none" stroke="black"/>
<text x="406" y="377" fill="black" font-size="15" font-family="Helvetica">
Number of Hits
</text>
<path d="M57,336v 10" fill="none" stroke="black"/>
<path d="M68,341v 5" fill="none" stroke="black"/>
<path d="M79,341v 5" fill="none" stroke="black"/>
<path d="M91,341v 5" fill="none" stroke="black"/>
<path d="M102,336v 10" fill="none" stroke="black"/>
<path d="M113,341v 5" fill="none" stroke="black"/>
<path d="M125,341v 5" fill="none" stroke="black"/>
<path d="M136,341v 5" fill="none" stroke="black"/>
<path d="M147,336v 10" fill="none" stroke="black"/>
<path d="M159,341v 5" fill="none" stroke="black"/>
<path d="M170,341v 5" fill="none" stroke="black"/>
<path d="M181,341v 5" fill="none" stroke="black"/>
<path d="M193,336v 10" fill="none" stroke="black"/>
<path d="M204,341v 5" fill="none" stroke="black"/>
<path d="M215,341v 5" fill="none" stroke="black"/>
<path d="M227,341v 5" fill="none" stroke="black"/>
<path d="M238,336v 10" fill="none" stroke="black"/>
<path d="M249,341v 5" fill="none" stroke="black"/>
<path d="M261,341v 5" fill="none" stroke="black"/>
<path d="M272,341v 5" fill="none" stroke="black"/>
<path d="M283,336v 10" fill="none" stroke="black"/>
<path d="M295,341v 5" fill="none" stroke="black"/>
<path d="M306,341v 5" fill="none" stroke="black"/>
<path d="M317,341v 5" fill="none" stroke="black"/>
<path d="M329,336v 10" fill="none" stroke="black"/>
<path d="M340,341v 5" fill="none" stroke="black"/>
<path d="M351,341v 5" fill="none" stroke="black"/>
<path d="M363,341v 5" fill="none" stroke="black"/>
<path d="M374,336v 10" fill="none" stroke="black"/>
<path d="M386,341v 5" fill="none" stroke="black"/>
<path d="M397,341v 5" fill="none" stroke="black"/>
<path d="M408,341v 5" fill="none" stroke="black"/>
<path d="M420,336v 10" fill="none" stroke="black"/>
<path d="M431,341v 5" fill="none" stroke="black"/>
<path d="M442,341v 5" fill="none" stroke="black"/>
<path d="M454,341v 5" fill="none" stroke="black"/>
<path d="M465,336v 10" fill="none" stroke="black"/>
<path d="M476,341v 5" fill="none" stroke="black"/>
<path d="M488,341v 5" fill="none" stroke="black"/>
<path d="M499,341v 5" fill="none" stroke="black"/>
<path d="M510,336v 10" fill="none" stroke="black"/>
<text x="52" y="360" fill="black" font-size="15" font-family="Helvetica">
0
</text>
<text x="93" y="360" fill="black" font-size="15" font-family="Helvetica">
20
</text>
<text x="138" y="360" fill="black" font-size="15" font-family="Helvetica">
40
</text>
<text x="183" y="360" fill="black" font-size="15" font-family="Helvetica">
60
</text>
<text x="229" y="360" fill="black" font-size="15" font-family="Helvetica">
80
</text>
<text x="270" y="360" fill="black" font-size="15" font-family="Helvetica">
100
</text>
<text x="315" y="360" fill="black" font-size="15" font-family="Helvetica">
120
</text>
<text x="361" y="360" fill="black" font-size="15" font-family="Helvetica">
140
</text>
<text x="406" y="360" fill="black" font-size="15" font-family="Helvetica">
160
</text>
<text x="451" y="360" fill="black" font-size="15" font-family="Helvetica">
180
</text>
<text x="497" y="360" fill="black" font-size="15" font-family="Helvetica">
200
</text>
<path d="M57,346v -308" fill="none" stroke="black"/>
<g transform="rotate(-90,24,168)">
<text x="24" y="168" fill="black" font-size="15" font-family="Helvetica">
Normalized Entries
</text>
</g>
<path d="M70,346h -13" fill="none" stroke="black"/>
<path d="M63,333h -6" fill="none" stroke="black"/>
<path d="M63,321h -6" fill="none" stroke="black"/>
<path d="M63,309h -6" fill="none" stroke="black"/>
<path d="M70,296h -13" fill="none" stroke="black"/>
<path d="M63,284h -6" fill="none" stroke="black"/>
<path d="M63,272h -6" fill="none" stroke="black"/>
<path d="M63,260h -6" fill="none" stroke="black"/>
<path d="M70,247h -13" fill="none" stroke="black"/>
<path d="M63,235h -6" fill="none" stroke="black"/>
<path d="M63,223h -6" fill="none" stroke="black"/>
<path d="M63,211h -6" fill="none" stroke="black"/>
<path d="M70,198h -13" fill="none" stroke="black"/>
<path d="M63,186h -6" fill="none" stroke="black"/>
<path d="M63,174h -6" fill="none" stroke="black"/>
<path d="M63,162h -6" fill="none" stroke="black"/>
<path d="M70,149h -13" fill="none" stroke="black"/>
<path d="M63,137h -6" fill="none" stroke="black"/>
<path d="M63,125h -6" fill="none" stroke="black"/>
<path d="M63,112h -6" fill="none" stroke="black"/>
<path d="M70,100h -13" fill="none" stroke="black"/>
<path d="M63,88h -6" fill="none" stroke="black"/>
<path d="M63,76h -6" fill="none" stroke="black"/>
<path d="M63,63h -6" fill="none" stroke="black"/>
<path d="M70,51h -13" fill="none" stroke="black"/>
<path d="M70,51h -13" fill="none" stroke="black"/>
<path d="M63,39h -6" fill="none" stroke="black"/>
<text x="46" y="351" fill="black" font-size="15" font-family="Helvetica">
0
</text>
<text x="24" y="302" fill="black" font-size="15" font-family="Helvetica">
0.02
</text>
<text x="24" y="253" fill="black" font-size="15" font-family="Helvetica">
0.04
</text>
<text x="24" y="204" fill="black" font-size="15" font-family="Helvetica">
0.06
</text>
<text x="24" y="154" fill="black" font-size="15" font-family="Helvetica">
0.08
</text>
<text x="35" y="105" fill="black" font-size="15" font-family="Helvetica">
0.1
</text>
<text x="24" y="57" fill="black" font-size="15" font-family="Helvetica">
0.12
</text>
<path d="M57,346h 38v -10h 3v -6h 2v -12h 2v -16h 2v -18h 3v -21h 2v -25h 2v -31h 2v -17h 3v -25h 2v -7h 2v -4h 2v 6h 3v 5h 2v 11h 2v 25h 3v 22h 2v 21h 2v 16h 2v 21h 3v 10h 2v 17h 2v 8h 2v 9h 3v 6h 2v 4h 2v 2h 2v 3h 3v 1h 2v 2h 5v 1h 6v 1h 21v 1h
 317" fill="none" stroke="#66ff66" stroke-width="2"/>
<rect x="340" y="38" width="170" height="77" fill="white"/>
<path d="M340,115h 170" fill="none" stroke="black"/>
<path d="M510,115v -77" fill="none" stroke="black"/>
<path d="M510,38h -170" fill="none" stroke="black"/>
<path d="M340,38v 77" fill="none" stroke="black"/>
<text x="382" y="66" fill="black" font-size="20" font-family="Helvetica">
Simulation
</text>
<path d="M347,71h 29v -27h -29z" fill="white"/>
<path d="M347,57h 29" fill="none" stroke="#006600" stroke-width="2"/>
<g stroke="black" stroke-width="2" fill="none">
<line x1="360" y1="57" x2="361" y2="57"/>
</g>
<text x="382" y="104" fill="black" font-size="20" font-family="Helvetica">
Data
</text>
<path d="M347,109h 29v -27h -29z" fill="white"/>
<path d="M347,96h 29" fill="none" stroke="#66ff66" stroke-width="2"/>
<g stroke="black" stroke-width="2" fill="none">
<line x1="360" y1="96" x2="361" y2="96"/>
</g>
<text x="148" y="18" fill="black" font-size="16" font-family="Helvetica">
Number of Hits After Data Selection
</text></svg>
