<?xml version="1.0" standalone="no"?>
<svg width="567" height="439" viewBox="0 0 567 439" xmlns="http://www.w3.org/2000/svg">
<title>
../plots/17_05_08/muons_timeDistribution.svg
</title>
<desc>
Creator: ROOT Version 5.34/21
CreationDate: Mon May  8 14:48:42 2017</desc>
<defs>
</defs>
<rect x="0" y="0" width="567" height="439" fill="white"/>
<rect x="0" y="0" width="567" height="307" fill="white"/>
<rect x="57" y="30" width="453" height="277" fill="white"/>
<rect x="57" y="30" width="453" height="277" fill="none" stroke="black"/>
<rect x="57" y="30" width="453" height="277" fill="white"/>
<rect x="57" y="30" width="453" height="277" fill="none" stroke="black"/>
<path d="M57,282h 11v -27h 11v -24h 11v -23h 11v -7h 11v -13h 11v -10h 11v -16h 11v -9h 11v -10h 11v -12h 11v -6h 11v -12h 11v -11h 12v -12h 11v -10h 11v -9h 11v -8h 11v -6h 11v -3h 22v 3h 11v 5h 11v 8h 11v 9h 11v 11h 11v 13h 11v 13h 11v 8h 11v 11h
 12v 9h 11v 11h 11v 14h 11v 15h 11v 5h 11v 15h 11v 20h 11v 19h 11v 6h 11v 25h 11v 5h 11" fill="none" stroke="#990000" stroke-width="2"/>
<path d="M57,307h 453" fill="none" stroke="black"/>
<text x="-79029" y="21924" fill="black" font-size="14110" font-family="Helvetica">
Hit Time [ns]
</text>
<path d="M57,300v 7" fill="none" stroke="black"/>
<path d="M68,303v 4" fill="none" stroke="black"/>
<path d="M79,303v 4" fill="none" stroke="black"/>
<path d="M90,303v 4" fill="none" stroke="black"/>
<path d="M101,303v 4" fill="none" stroke="black"/>
<path d="M112,300v 7" fill="none" stroke="black"/>
<path d="M123,303v 4" fill="none" stroke="black"/>
<path d="M134,303v 4" fill="none" stroke="black"/>
<path d="M145,303v 4" fill="none" stroke="black"/>
<path d="M156,303v 4" fill="none" stroke="black"/>
<path d="M167,300v 7" fill="none" stroke="black"/>
<path d="M178,303v 4" fill="none" stroke="black"/>
<path d="M189,303v 4" fill="none" stroke="black"/>
<path d="M200,303v 4" fill="none" stroke="black"/>
<path d="M212,303v 4" fill="none" stroke="black"/>
<path d="M223,300v 7" fill="none" stroke="black"/>
<path d="M234,303v 4" fill="none" stroke="black"/>
<path d="M245,303v 4" fill="none" stroke="black"/>
<path d="M256,303v 4" fill="none" stroke="black"/>
<path d="M267,303v 4" fill="none" stroke="black"/>
<path d="M278,300v 7" fill="none" stroke="black"/>
<path d="M289,303v 4" fill="none" stroke="black"/>
<path d="M300,303v 4" fill="none" stroke="black"/>
<path d="M311,303v 4" fill="none" stroke="black"/>
<path d="M322,303v 4" fill="none" stroke="black"/>
<path d="M333,300v 7" fill="none" stroke="black"/>
<path d="M344,303v 4" fill="none" stroke="black"/>
<path d="M355,303v 4" fill="none" stroke="black"/>
<path d="M366,303v 4" fill="none" stroke="black"/>
<path d="M377,303v 4" fill="none" stroke="black"/>
<path d="M389,300v 7" fill="none" stroke="black"/>
<path d="M400,303v 4" fill="none" stroke="black"/>
<path d="M411,303v 4" fill="none" stroke="black"/>
<path d="M422,303v 4" fill="none" stroke="black"/>
<path d="M433,303v 4" fill="none" stroke="black"/>
<path d="M444,300v 7" fill="none" stroke="black"/>
<path d="M455,303v 4" fill="none" stroke="black"/>
<path d="M466,303v 4" fill="none" stroke="black"/>
<path d="M477,303v 4" fill="none" stroke="black"/>
<path d="M488,303v 4" fill="none" stroke="black"/>
<path d="M499,300v 7" fill="none" stroke="black"/>
<path d="M499,300v 7" fill="none" stroke="black"/>
<text x="49" y="317" fill="black" font-size="10" font-family="Helvetica">
-20
</text>
<text x="104" y="317" fill="black" font-size="10" font-family="Helvetica">
-15
</text>
<text x="159" y="317" fill="black" font-size="10" font-family="Helvetica">
-10
</text>
<text x="218" y="317" fill="black" font-size="10" font-family="Helvetica">
-5
</text>
<text x="275" y="317" fill="black" font-size="10" font-family="Helvetica">
0
</text>
<text x="330" y="317" fill="black" font-size="10" font-family="Helvetica">
5
</text>
<text x="383" y="317" fill="black" font-size="10" font-family="Helvetica">
10
</text>
<text x="438" y="317" fill="black" font-size="10" font-family="Helvetica">
15
</text>
<text x="493" y="317" fill="black" font-size="10" font-family="Helvetica">
20
</text>
<path d="M57,307v -277" fill="none" stroke="black"/>
<g transform="rotate(-90,10,189)">
<text x="10" y="189" fill="black" font-size="18" font-family="Helvetica">
Normalized Entries
</text>
</g>
<path d="M72,305h -15" fill="none" stroke="black"/>
<text x="42" y="306" fill="black" font-size="10" font-family="Helvetica">
-4
</text>
<text x="24" y="313" fill="black" font-size="16" font-family="Helvetica">
10
</text>
<path d="M64,280h -7" fill="none" stroke="black"/>
<path d="M64,265h -7" fill="none" stroke="black"/>
<path d="M64,255h -7" fill="none" stroke="black"/>
<path d="M64,246h -7" fill="none" stroke="black"/>
<path d="M64,240h -7" fill="none" stroke="black"/>
<path d="M64,234h -7" fill="none" stroke="black"/>
<path d="M64,229h -7" fill="none" stroke="black"/>
<path d="M64,225h -7" fill="none" stroke="black"/>
<path d="M72,221h -15" fill="none" stroke="black"/>
<text x="42" y="220" fill="black" font-size="10" font-family="Helvetica">
-3
</text>
<text x="24" y="228" fill="black" font-size="16" font-family="Helvetica">
10
</text>
<path d="M64,196h -7" fill="none" stroke="black"/>
<path d="M64,181h -7" fill="none" stroke="black"/>
<path d="M64,170h -7" fill="none" stroke="black"/>
<path d="M64,162h -7" fill="none" stroke="black"/>
<path d="M64,155h -7" fill="none" stroke="black"/>
<path d="M64,150h -7" fill="none" stroke="black"/>
<path d="M64,145h -7" fill="none" stroke="black"/>
<path d="M64,140h -7" fill="none" stroke="black"/>
<path d="M72,137h -15" fill="none" stroke="black"/>
<text x="42" y="137" fill="black" font-size="10" font-family="Helvetica">
-2
</text>
<text x="24" y="144" fill="black" font-size="16" font-family="Helvetica">
10
</text>
<path d="M64,111h -7" fill="none" stroke="black"/>
<path d="M64,96h -7" fill="none" stroke="black"/>
<path d="M64,86h -7" fill="none" stroke="black"/>
<path d="M64,78h -7" fill="none" stroke="black"/>
<path d="M64,71h -7" fill="none" stroke="black"/>
<path d="M64,65h -7" fill="none" stroke="black"/>
<path d="M64,60h -7" fill="none" stroke="black"/>
<path d="M64,56h -7" fill="none" stroke="black"/>
<path d="M72,52h -15" fill="none" stroke="black"/>
<text x="43" y="53" fill="black" font-size="10" font-family="Helvetica">
-1
</text>
<text x="26" y="59" fill="black" font-size="16" font-family="Helvetica">
10
</text>
<path d="M57,291v -20h 11v -20h 11v -18h 11v -18h 11v -17h 11v -15h 11v -13h 11v -13h 11v -13h 11v -10h 11v -10h 11v -9h 11v -9h 11v -8h 12v -8h 11v -8h 11v -8h 11v -6h 11v -5h 11v -3h 11v -1h 11v 1h 11v 4h 11v 6h 11v 7h 11v 9h 11v 9h 11v 11h 11v 9h
 11v 11h 12v 10h 11v 9h 11v 8h 11v 9h 11v 8h 11v 11h 11v 9h 11v 11h 11v 15h 11v 9h 11v 18h 11v 16" fill="none" stroke="#ff9933" stroke-width="2"/>
<rect x="340" y="30" width="170" height="62" fill="white"/>
<path d="M340,92h 170" fill="none" stroke="black"/>
<path d="M510,92v -62" fill="none" stroke="black"/>
<path d="M510,30h -170" fill="none" stroke="black"/>
<path d="M340,30v 62" fill="none" stroke="black"/>
<text x="383" y="53" fill="black" font-size="19" font-family="Helvetica">
Simulation
</text>
<path d="M347,56h 29v -21h -29z" fill="white"/>
<path d="M347,46h 29" fill="none" stroke="#990000" stroke-width="2"/>
<g stroke="black" stroke-width="2" fill="none">
<line x1="360" y1="46" x2="361" y2="46"/>
</g>
<text x="383" y="83" fill="black" font-size="19" font-family="Helvetica">
Data
</text>
<path d="M347,87h 29v -21h -29z" fill="white"/>
<path d="M347,76h 29" fill="none" stroke="#ff9933" stroke-width="2"/>
<g stroke="black" stroke-width="2" fill="none">
<line x1="360" y1="76" x2="361" y2="76"/>
</g>
<text x="203" y="14" fill="black" font-size="13" font-family="Helvetica">
Muon Hit Time Distribution
</text>
<rect x="0" y="307" width="567" height="110" fill="white"/>
<rect x="57" y="307" width="453" height="77" fill="white"/>
<rect x="57" y="307" width="453" height="77" fill="none" stroke="black"/>
<rect x="57" y="307" width="453" height="77" fill="white"/>
<rect x="57" y="307" width="453" height="77" fill="none" stroke="black"/>
<path d="M57,384h 453" fill="none" stroke="black"/>
<path d="M57,307v 77" fill="none" stroke="black" stroke-dasharray=" 1, 2"/>
<path d="M112,307v 77" fill="none" stroke="black" stroke-dasharray=" 1, 2"/>
<path d="M167,307v 77" fill="none" stroke="black" stroke-dasharray=" 1, 2"/>
<path d="M223,307v 77" fill="none" stroke="black" stroke-dasharray=" 1, 2"/>
<path d="M278,307v 77" fill="none" stroke="black" stroke-dasharray=" 1, 2"/>
<path d="M333,307v 77" fill="none" stroke="black" stroke-dasharray=" 1, 2"/>
<path d="M389,307v 77" fill="none" stroke="black" stroke-dasharray=" 1, 2"/>
<path d="M444,307v 77" fill="none" stroke="black" stroke-dasharray=" 1, 2"/>
<path d="M499,307v 77" fill="none" stroke="black" stroke-dasharray=" 1, 2"/>
<path d="M499,307v 77" fill="none" stroke="black" stroke-dasharray=" 1, 2"/>
<path d="M57,384v -77" fill="none" stroke="black"/>
<path d="M510,376h -453" fill="none" stroke="black" stroke-dasharray=" 1, 2"/>
<path d="M510,361h -453" fill="none" stroke="black" stroke-dasharray=" 1, 2"/>
<path d="M510,346h -453" fill="none" stroke="black" stroke-dasharray=" 1, 2"/>
<path d="M510,330h -453" fill="none" stroke="black" stroke-dasharray=" 1, 2"/>
<path d="M510,315h -453" fill="none" stroke="black" stroke-dasharray=" 1, 2"/>
<path d="M510,376h -453" fill="none" stroke="black" stroke-dasharray=" 1, 2"/>
<path d="M510,315h -453" fill="none" stroke="black" stroke-dasharray=" 1, 2"/>
<g stroke="#333399" stroke-width="1" fill="none">
<line x1="59" y1="366" x2="65" y2="366"/><line x1="62" y1="363" x2="62" y2="369"/><line x1="59" y1="363" x2="65" y2="369"/><line x1="59" y1="369" x2="65" y2="363"/>
<line x1="70" y1="353" x2="76" y2="353"/><line x1="73" y1="350" x2="73" y2="356"/><line x1="70" y1="350" x2="76" y2="356"/><line x1="70" y1="356" x2="76" y2="350"/>
<line x1="81" y1="340" x2="87" y2="340"/><line x1="84" y1="337" x2="84" y2="343"/><line x1="81" y1="337" x2="87" y2="343"/><line x1="81" y1="343" x2="87" y2="337"/>
<line x1="92" y1="330" x2="98" y2="330"/><line x1="95" y1="327" x2="95" y2="333"/><line x1="92" y1="327" x2="98" y2="333"/><line x1="92" y1="333" x2="98" y2="327"/>
<line x1="103" y1="351" x2="109" y2="351"/><line x1="106" y1="348" x2="106" y2="354"/><line x1="103" y1="348" x2="109" y2="354"/><line x1="103" y1="354" x2="109" y2="348"/>
<line x1="115" y1="356" x2="121" y2="356"/><line x1="118" y1="353" x2="118" y2="359"/><line x1="115" y1="353" x2="121" y2="359"/><line x1="115" y1="359" x2="121" y2="353"/>
<line x1="126" y1="361" x2="132" y2="361"/><line x1="129" y1="358" x2="129" y2="364"/><line x1="126" y1="358" x2="132" y2="364"/><line x1="126" y1="364" x2="132" y2="358"/>
<line x1="137" y1="357" x2="143" y2="357"/><line x1="140" y1="354" x2="140" y2="360"/><line x1="137" y1="354" x2="143" y2="360"/><line x1="137" y1="360" x2="143" y2="354"/>
<line x1="148" y1="362" x2="154" y2="362"/><line x1="151" y1="359" x2="151" y2="365"/><line x1="148" y1="359" x2="154" y2="365"/><line x1="148" y1="365" x2="154" y2="359"/>
<line x1="159" y1="363" x2="165" y2="363"/><line x1="162" y1="360" x2="162" y2="366"/><line x1="159" y1="360" x2="165" y2="366"/><line x1="159" y1="366" x2="165" y2="360"/>
<line x1="170" y1="361" x2="176" y2="361"/><line x1="173" y1="358" x2="173" y2="364"/><line x1="170" y1="358" x2="176" y2="364"/><line x1="170" y1="364" x2="176" y2="358"/>
<line x1="181" y1="364" x2="187" y2="364"/><line x1="184" y1="361" x2="184" y2="367"/><line x1="181" y1="361" x2="187" y2="367"/><line x1="181" y1="367" x2="187" y2="361"/>
<line x1="192" y1="359" x2="198" y2="359"/><line x1="195" y1="356" x2="195" y2="362"/><line x1="192" y1="356" x2="198" y2="362"/><line x1="192" y1="362" x2="198" y2="356"/>
<line x1="203" y1="354" x2="209" y2="354"/><line x1="206" y1="351" x2="206" y2="357"/><line x1="203" y1="351" x2="209" y2="357"/><line x1="203" y1="357" x2="209" y2="351"/>
<line x1="214" y1="346" x2="220" y2="346"/><line x1="217" y1="343" x2="217" y2="349"/><line x1="214" y1="343" x2="220" y2="349"/><line x1="214" y1="349" x2="220" y2="343"/>
<line x1="225" y1="341" x2="231" y2="341"/><line x1="228" y1="338" x2="228" y2="344"/><line x1="225" y1="338" x2="231" y2="344"/><line x1="225" y1="344" x2="231" y2="338"/>
<line x1="236" y1="338" x2="242" y2="338"/><line x1="239" y1="335" x2="239" y2="341"/><line x1="236" y1="335" x2="242" y2="341"/><line x1="236" y1="341" x2="242" y2="335"/>
<line x1="247" y1="335" x2="253" y2="335"/><line x1="250" y1="332" x2="250" y2="338"/><line x1="247" y1="332" x2="253" y2="338"/><line x1="247" y1="338" x2="253" y2="332"/>
<line x1="258" y1="333" x2="264" y2="333"/><line x1="261" y1="330" x2="261" y2="336"/><line x1="258" y1="330" x2="264" y2="336"/><line x1="258" y1="336" x2="264" y2="330"/>
<line x1="269" y1="334" x2="275" y2="334"/><line x1="272" y1="331" x2="272" y2="337"/><line x1="269" y1="331" x2="275" y2="337"/><line x1="269" y1="337" x2="275" y2="331"/>
<line x1="280" y1="334" x2="286" y2="334"/><line x1="283" y1="331" x2="283" y2="337"/><line x1="280" y1="331" x2="286" y2="337"/><line x1="280" y1="337" x2="286" y2="331"/>
<line x1="292" y1="338" x2="298" y2="338"/><line x1="295" y1="335" x2="295" y2="341"/><line x1="292" y1="335" x2="298" y2="341"/><line x1="292" y1="341" x2="298" y2="335"/>
<line x1="303" y1="341" x2="309" y2="341"/><line x1="306" y1="338" x2="306" y2="344"/><line x1="303" y1="338" x2="309" y2="344"/><line x1="303" y1="344" x2="309" y2="338"/>
<line x1="314" y1="346" x2="320" y2="346"/><line x1="317" y1="343" x2="317" y2="349"/><line x1="314" y1="343" x2="320" y2="349"/><line x1="314" y1="349" x2="320" y2="343"/>
<line x1="325" y1="349" x2="331" y2="349"/><line x1="328" y1="346" x2="328" y2="352"/><line x1="325" y1="346" x2="331" y2="352"/><line x1="325" y1="352" x2="331" y2="346"/>
<line x1="336" y1="354" x2="342" y2="354"/><line x1="339" y1="351" x2="339" y2="357"/><line x1="336" y1="351" x2="342" y2="357"/><line x1="336" y1="357" x2="342" y2="351"/>
<line x1="347" y1="361" x2="353" y2="361"/><line x1="350" y1="358" x2="350" y2="364"/><line x1="347" y1="358" x2="353" y2="364"/><line x1="347" y1="364" x2="353" y2="358"/>
<line x1="358" y1="364" x2="364" y2="364"/><line x1="361" y1="361" x2="361" y2="367"/><line x1="358" y1="361" x2="364" y2="367"/><line x1="358" y1="367" x2="364" y2="361"/>
<line x1="369" y1="362" x2="375" y2="362"/><line x1="372" y1="359" x2="372" y2="365"/><line x1="369" y1="359" x2="375" y2="365"/><line x1="369" y1="365" x2="375" y2="359"/>
<line x1="380" y1="362" x2="386" y2="362"/><line x1="383" y1="359" x2="383" y2="365"/><line x1="380" y1="359" x2="386" y2="365"/><line x1="380" y1="365" x2="386" y2="359"/>
<line x1="391" y1="361" x2="397" y2="361"/><line x1="394" y1="358" x2="394" y2="364"/><line x1="391" y1="358" x2="397" y2="364"/><line x1="391" y1="364" x2="397" y2="358"/>
<line x1="402" y1="365" x2="408" y2="365"/><line x1="405" y1="362" x2="405" y2="368"/><line x1="402" y1="362" x2="408" y2="368"/><line x1="402" y1="368" x2="408" y2="362"/>
<line x1="413" y1="373" x2="419" y2="373"/><line x1="416" y1="370" x2="416" y2="376"/><line x1="413" y1="370" x2="419" y2="376"/><line x1="413" y1="376" x2="419" y2="370"/>
<line x1="424" y1="381" x2="430" y2="381"/><line x1="427" y1="378" x2="427" y2="384"/><line x1="424" y1="378" x2="430" y2="384"/><line x1="424" y1="384" x2="430" y2="378"/>
<line x1="435" y1="377" x2="441" y2="377"/><line x1="438" y1="374" x2="438" y2="380"/><line x1="435" y1="374" x2="441" y2="380"/><line x1="435" y1="380" x2="441" y2="374"/>
<line x1="446" y1="382" x2="452" y2="382"/><line x1="449" y1="379" x2="449" y2="385"/><line x1="446" y1="379" x2="452" y2="385"/><line x1="446" y1="385" x2="452" y2="379"/>
</g>
<path d="M57,384h 453" fill="none" stroke="black"/>
<text x="406" y="423" fill="black" font-size="18" font-family="Helvetica">
Hit Time [ns]
</text>
<path d="M57,381v 3" fill="none" stroke="black"/>
<path d="M68,383v 1" fill="none" stroke="black"/>
<path d="M79,383v 1" fill="none" stroke="black"/>
<path d="M90,383v 1" fill="none" stroke="black"/>
<path d="M101,383v 1" fill="none" stroke="black"/>
<path d="M112,381v 3" fill="none" stroke="black"/>
<path d="M123,383v 1" fill="none" stroke="black"/>
<path d="M134,383v 1" fill="none" stroke="black"/>
<path d="M145,383v 1" fill="none" stroke="black"/>
<path d="M156,383v 1" fill="none" stroke="black"/>
<path d="M167,381v 3" fill="none" stroke="black"/>
<path d="M178,383v 1" fill="none" stroke="black"/>
<path d="M189,383v 1" fill="none" stroke="black"/>
<path d="M200,383v 1" fill="none" stroke="black"/>
<path d="M212,383v 1" fill="none" stroke="black"/>
<path d="M223,381v 3" fill="none" stroke="black"/>
<path d="M234,383v 1" fill="none" stroke="black"/>
<path d="M245,383v 1" fill="none" stroke="black"/>
<path d="M256,383v 1" fill="none" stroke="black"/>
<path d="M267,383v 1" fill="none" stroke="black"/>
<path d="M278,381v 3" fill="none" stroke="black"/>
<path d="M289,383v 1" fill="none" stroke="black"/>
<path d="M300,383v 1" fill="none" stroke="black"/>
<path d="M311,383v 1" fill="none" stroke="black"/>
<path d="M322,383v 1" fill="none" stroke="black"/>
<path d="M333,381v 3" fill="none" stroke="black"/>
<path d="M344,383v 1" fill="none" stroke="black"/>
<path d="M355,383v 1" fill="none" stroke="black"/>
<path d="M366,383v 1" fill="none" stroke="black"/>
<path d="M377,383v 1" fill="none" stroke="black"/>
<path d="M389,381v 3" fill="none" stroke="black"/>
<path d="M400,383v 1" fill="none" stroke="black"/>
<path d="M411,383v 1" fill="none" stroke="black"/>
<path d="M422,383v 1" fill="none" stroke="black"/>
<path d="M433,383v 1" fill="none" stroke="black"/>
<path d="M444,381v 3" fill="none" stroke="black"/>
<path d="M455,383v 1" fill="none" stroke="black"/>
<path d="M466,383v 1" fill="none" stroke="black"/>
<path d="M477,383v 1" fill="none" stroke="black"/>
<path d="M488,383v 1" fill="none" stroke="black"/>
<path d="M499,381v 3" fill="none" stroke="black"/>
<path d="M499,381v 3" fill="none" stroke="black"/>
<text x="45" y="398" fill="black" font-size="16" font-family="Helvetica">
-20
</text>
<text x="100" y="398" fill="black" font-size="16" font-family="Helvetica">
-15
</text>
<text x="155" y="398" fill="black" font-size="16" font-family="Helvetica">
-10
</text>
<text x="216" y="398" fill="black" font-size="16" font-family="Helvetica">
-5
</text>
<text x="273" y="398" fill="black" font-size="16" font-family="Helvetica">
0
</text>
<text x="328" y="398" fill="black" font-size="16" font-family="Helvetica">
5
</text>
<text x="380" y="398" fill="black" font-size="16" font-family="Helvetica">
10
</text>
<text x="435" y="398" fill="black" font-size="16" font-family="Helvetica">
15
</text>
<text x="490" y="398" fill="black" font-size="16" font-family="Helvetica">
20
</text>
<path d="M57,384v -77" fill="none" stroke="black"/>
<g transform="rotate(-90,10,391)">
<text x="10" y="391" fill="black" font-size="18" font-family="Helvetica">
MC / Data
</text>
</g>
<path d="M69,376h -12" fill="none" stroke="black"/>
<path d="M63,373h -6" fill="none" stroke="black"/>
<path d="M63,369h -6" fill="none" stroke="black"/>
<path d="M63,365h -6" fill="none" stroke="black"/>
<path d="M69,361h -12" fill="none" stroke="black"/>
<path d="M63,357h -6" fill="none" stroke="black"/>
<path d="M63,353h -6" fill="none" stroke="black"/>
<path d="M63,349h -6" fill="none" stroke="black"/>
<path d="M69,346h -12" fill="none" stroke="black"/>
<path d="M63,342h -6" fill="none" stroke="black"/>
<path d="M63,338h -6" fill="none" stroke="black"/>
<path d="M63,334h -6" fill="none" stroke="black"/>
<path d="M69,330h -12" fill="none" stroke="black"/>
<path d="M63,326h -6" fill="none" stroke="black"/>
<path d="M63,323h -6" fill="none" stroke="black"/>
<path d="M63,319h -6" fill="none" stroke="black"/>
<path d="M69,315h -12" fill="none" stroke="black"/>
<path d="M69,376h -12" fill="none" stroke="black"/>
<path d="M63,380h -6" fill="none" stroke="black"/>
<path d="M63,384h -6" fill="none" stroke="black"/>
<path d="M69,315h -12" fill="none" stroke="black"/>
<path d="M63,311h -6" fill="none" stroke="black"/>
<text x="32" y="382" fill="black" font-size="16" font-family="Helvetica">
0.6
</text>
<text x="32" y="366" fill="black" font-size="16" font-family="Helvetica">
0.8
</text>
<text x="48" y="351" fill="black" font-size="16" font-family="Helvetica">
1
</text>
<text x="32" y="336" fill="black" font-size="16" font-family="Helvetica">
1.2
</text>
<text x="32" y="321" fill="black" font-size="16" font-family="Helvetica">
1.4
</text></svg>
