<?xml version="1.0" standalone="no"?>
<svg width="567" height="384" viewBox="0 0 567 384" xmlns="http://www.w3.org/2000/svg">
<title>
../plots/17_05_08/pions_70GeV_nHits.svg
</title>
<desc>
Creator: ROOT Version 5.34/21
CreationDate: Tue May  9 14:13:31 2017</desc>
<defs>
</defs>
<rect x="0" y="0" width="567" height="384" fill="white"/>
<rect x="57" y="38" width="453" height="308" fill="white"/>
<rect x="57" y="38" width="453" height="308" fill="none" stroke="black"/>
<rect x="57" y="38" width="453" height="308" fill="white"/>
<rect x="57" y="38" width="453" height="308" fill="none" stroke="black"/>
<path d="M57,346h 47v -174h 3v -61h 2v 55h 2v 8h 2v 9h 3v -46h 2v 14h 2v 41h 2v -73h 3v 67h 2v -41h 2v -8h 3v 11h 2v -61h 2v 61h 2v -14h 3v 46h 2v -17h 2v 20h 2v -61h 3v 32h 2v -9h 2v -14h 2v 58h 3v -52h 2v 26h 2v 17h 3v -29h 2v 32h 2v -93h 2v 53h 3v
 5h 2v -29h 2v 55h 2v -5h 3v -3h 2v -15h 2v 12h 2v 3h 3v 3h 2v -47h 2v 21h 3v -27h 2v 41h 2v 55h 2v -98h 3v -9h 2v 17h 2v -3h 2v 53h 3v -61h 2v 58h 2v -29h 3v -6h 2v -26h 2v 3h 2v 8h 3v 35h 2v -49h 2v -6h 2v 75h 3v -23h 2v -40h 2v 40h 2v -3h 3v -20h
 2v -61h 2v 15h 3v -29h 2v 95h 2v -43h 2v 9h 3v 17h 2v -6h 2v 35h 2v -41h 3v -8h 2v 8h 2v -17h 2v 46h 3v -49h 2v -6h 2v 81h 3v -78h 2v 61h 2v -32h 2v -9h 3v 32h 2v -37h 2v 49h 2v -55h 3v 35h 2v -21h 2v 44h 2v 11h 3v -31h 2v -44h 2v 102h 3v -50h 2v
 26h 4v -3h 3v 21h 2v -38h 2v 20h 2v 35h 3v 15h 2v -35h 2v 38h 2v -24h 3v 35h 2v -32h 2v 58h 3v -40h 2v 29h 7v -15h 2v 52h 2v -52h 2v 44h 3v 17h 2v -20h 2v 26h 3v -6h 2v 23h 2v -17h 2v 3h 3v 14h 2v -11h 2v -9h 2v 14h 3v 12h 6v -9h 3v 18h 2v -6h 2v 3h
 3v 6h 2v -9h 2v 3h 2v 3h 3v 3h 2v -3h 2v -6h 2v 12h 3v -6h 2v -3h 2v 9h 7v -3h 5v 3h 2v -3h 4v 3h 50" fill="none" stroke="#000033" stroke-width="2"/>
<path d="M57,346h 453" fill="none" stroke="black"/>
<text x="406" y="377" fill="black" font-size="15" font-family="Helvetica">
Number of Hits
</text>
<path d="M57,336v 10" fill="none" stroke="black"/>
<path d="M68,341v 5" fill="none" stroke="black"/>
<path d="M79,341v 5" fill="none" stroke="black"/>
<path d="M91,341v 5" fill="none" stroke="black"/>
<path d="M102,336v 10" fill="none" stroke="black"/>
<path d="M113,341v 5" fill="none" stroke="black"/>
<path d="M125,341v 5" fill="none" stroke="black"/>
<path d="M136,341v 5" fill="none" stroke="black"/>
<path d="M147,336v 10" fill="none" stroke="black"/>
<path d="M159,341v 5" fill="none" stroke="black"/>
<path d="M170,341v 5" fill="none" stroke="black"/>
<path d="M181,341v 5" fill="none" stroke="black"/>
<path d="M193,336v 10" fill="none" stroke="black"/>
<path d="M204,341v 5" fill="none" stroke="black"/>
<path d="M215,341v 5" fill="none" stroke="black"/>
<path d="M227,341v 5" fill="none" stroke="black"/>
<path d="M238,336v 10" fill="none" stroke="black"/>
<path d="M249,341v 5" fill="none" stroke="black"/>
<path d="M261,341v 5" fill="none" stroke="black"/>
<path d="M272,341v 5" fill="none" stroke="black"/>
<path d="M283,336v 10" fill="none" stroke="black"/>
<path d="M295,341v 5" fill="none" stroke="black"/>
<path d="M306,341v 5" fill="none" stroke="black"/>
<path d="M317,341v 5" fill="none" stroke="black"/>
<path d="M329,336v 10" fill="none" stroke="black"/>
<path d="M340,341v 5" fill="none" stroke="black"/>
<path d="M351,341v 5" fill="none" stroke="black"/>
<path d="M363,341v 5" fill="none" stroke="black"/>
<path d="M374,336v 10" fill="none" stroke="black"/>
<path d="M386,341v 5" fill="none" stroke="black"/>
<path d="M397,341v 5" fill="none" stroke="black"/>
<path d="M408,341v 5" fill="none" stroke="black"/>
<path d="M420,336v 10" fill="none" stroke="black"/>
<path d="M431,341v 5" fill="none" stroke="black"/>
<path d="M442,341v 5" fill="none" stroke="black"/>
<path d="M454,341v 5" fill="none" stroke="black"/>
<path d="M465,336v 10" fill="none" stroke="black"/>
<path d="M476,341v 5" fill="none" stroke="black"/>
<path d="M488,341v 5" fill="none" stroke="black"/>
<path d="M499,341v 5" fill="none" stroke="black"/>
<path d="M510,336v 10" fill="none" stroke="black"/>
<text x="52" y="360" fill="black" font-size="15" font-family="Helvetica">
0
</text>
<text x="93" y="360" fill="black" font-size="15" font-family="Helvetica">
20
</text>
<text x="138" y="360" fill="black" font-size="15" font-family="Helvetica">
40
</text>
<text x="183" y="360" fill="black" font-size="15" font-family="Helvetica">
60
</text>
<text x="229" y="360" fill="black" font-size="15" font-family="Helvetica">
80
</text>
<text x="270" y="360" fill="black" font-size="15" font-family="Helvetica">
100
</text>
<text x="315" y="360" fill="black" font-size="15" font-family="Helvetica">
120
</text>
<text x="361" y="360" fill="black" font-size="15" font-family="Helvetica">
140
</text>
<text x="406" y="360" fill="black" font-size="15" font-family="Helvetica">
160
</text>
<text x="451" y="360" fill="black" font-size="15" font-family="Helvetica">
180
</text>
<text x="497" y="360" fill="black" font-size="15" font-family="Helvetica">
200
</text>
<path d="M57,346v -308" fill="none" stroke="black"/>
<g transform="rotate(-90,12,168)">
<text x="12" y="168" fill="black" font-size="15" font-family="Helvetica">
Normalized Entries
</text>
</g>
<path d="M70,346h -13" fill="none" stroke="black"/>
<path d="M63,334h -6" fill="none" stroke="black"/>
<path d="M63,322h -6" fill="none" stroke="black"/>
<path d="M63,310h -6" fill="none" stroke="black"/>
<path d="M70,298h -13" fill="none" stroke="black"/>
<path d="M63,286h -6" fill="none" stroke="black"/>
<path d="M63,274h -6" fill="none" stroke="black"/>
<path d="M63,263h -6" fill="none" stroke="black"/>
<path d="M70,251h -13" fill="none" stroke="black"/>
<path d="M63,239h -6" fill="none" stroke="black"/>
<path d="M63,227h -6" fill="none" stroke="black"/>
<path d="M63,215h -6" fill="none" stroke="black"/>
<path d="M70,203h -13" fill="none" stroke="black"/>
<path d="M63,191h -6" fill="none" stroke="black"/>
<path d="M63,180h -6" fill="none" stroke="black"/>
<path d="M63,168h -6" fill="none" stroke="black"/>
<path d="M70,156h -13" fill="none" stroke="black"/>
<path d="M63,144h -6" fill="none" stroke="black"/>
<path d="M63,132h -6" fill="none" stroke="black"/>
<path d="M63,120h -6" fill="none" stroke="black"/>
<path d="M70,109h -13" fill="none" stroke="black"/>
<path d="M63,97h -6" fill="none" stroke="black"/>
<path d="M63,85h -6" fill="none" stroke="black"/>
<path d="M63,73h -6" fill="none" stroke="black"/>
<path d="M70,61h -13" fill="none" stroke="black"/>
<path d="M70,61h -13" fill="none" stroke="black"/>
<path d="M63,49h -6" fill="none" stroke="black"/>
<text x="46" y="351" fill="black" font-size="15" font-family="Helvetica">
0
</text>
<text x="15" y="303" fill="black" font-size="15" font-family="Helvetica">
0.002
</text>
<text x="15" y="256" fill="black" font-size="15" font-family="Helvetica">
0.004
</text>
<text x="15" y="209" fill="black" font-size="15" font-family="Helvetica">
0.006
</text>
<text x="15" y="162" fill="black" font-size="15" font-family="Helvetica">
0.008
</text>
<text x="26" y="114" fill="black" font-size="15" font-family="Helvetica">
0.01
</text>
<text x="15" y="66" fill="black" font-size="15" font-family="Helvetica">
0.012
</text>
<path d="M57,346h 47v -110h 3v -13h 4v -8h 2v -21h 3v -13h 2v 25h 2v -27h 2v 3h 3v -3h 2v -4h 2v -8h 3v -7h 2v 10h 2v 1h 2v -8h 3v 12h 2v -7h 2v -7h 2v -5h 3v 3h 2v 10h 2v 2h 2v 4h 3v -2h 2v -9h 2v 7h 3v -1h 2v -1h 2v 4h 2v 3h 3v -4h 2v 4h 2v 14h 2v
 2h 3v -12h 2v 18h 2v -3h 2v 4h 3v 1h 2v 3h 2v -6h 3v 2h 2v 11h 2v 3h 2v -7h 5v 7h 2v -14h 2v 15h 3v -15h 2v 10h 2v 2h 3v -7h 2v -4h 2v -2h 2v -1h 3v -7h 2v 7h 2v -6h 2v -11h 3v -2h 2v 6h 2v -7h 2v 1h 3v -2h 2v -3h 2v -2h 3v -7h 2v 3h 2v -6h 2v 1h 3v
 -10h 2v 2h 2v 8h 2v -13h 5v -7h 2v -11h 2v 18h 3v -18h 2v -11h 2v 20h 3v -20h 2v 8h 2v -8h 2v -12h 3v -4h 2v -1h 2v 20h 2v -7h 3v -1h 2v -14h 2v 18h 2v -11h 3v 6h 2v -4h 2v 13h 3v -7h 2v 1h 2v 2h 2v 6h 3v -2h 2v 9h 2v -6h 2v 8h 3v -4h 2v 12h 2v 10h
 2v 5h 3v 4h 2v 3h 2v 2h 3v 4h 2v -2h 2v 18h 2v -12h 3v 15h 2v 15h 2v -12h 2v 22h 3v -5h 2v 13h 2v 5h 3v 5h 2v 6h 2v 7h 2v 12h 3v -9h 2v 24h 2v -6h 2v 3h 3v 5h 2v 5h 2v 6h 2v 6h 5v 6h 2v 7h 3v -1h 2v 9h 2v 3h 2v -2h 3v 2h 2v 1h 2v 10h 2v -4h 3v 2h 2v
 3h 4v 2h 3v 4h 2v -1h 2v 1h 3v -1h 2v 3h 4v 2h 3v -3h 2v 3h 2v -1h 2v 2h 12v 1h 7v 1h 4v 1h 5v 1h 2v -1h 4v 1h 5v -1h 2" fill="none" stroke="#333399" stroke-width="2"/>
<rect x="340" y="38" width="170" height="77" fill="white"/>
<path d="M340,115h 170" fill="none" stroke="black"/>
<path d="M510,115v -77" fill="none" stroke="black"/>
<path d="M510,38h -170" fill="none" stroke="black"/>
<path d="M340,38v 77" fill="none" stroke="black"/>
<text x="382" y="66" fill="black" font-size="20" font-family="Helvetica">
Simulation
</text>
<path d="M347,71h 29v -27h -29z" fill="white"/>
<path d="M347,57h 29" fill="none" stroke="#000033" stroke-width="2"/>
<g stroke="black" stroke-width="2" fill="none">
<line x1="360" y1="57" x2="361" y2="57"/>
</g>
<text x="382" y="104" fill="black" font-size="20" font-family="Helvetica">
Data
</text>
<path d="M347,109h 29v -27h -29z" fill="white"/>
<path d="M347,96h 29" fill="none" stroke="#333399" stroke-width="2"/>
<g stroke="black" stroke-width="2" fill="none">
<line x1="360" y1="96" x2="361" y2="96"/>
</g>
<text x="148" y="18" fill="black" font-size="16" font-family="Helvetica">
Number of Hits After Data Selection
</text></svg>
