<?xml version="1.0" standalone="no"?>
<svg width="567.429" height="384.969" viewBox="0 0 567.429 384.969" xmlns="http://www.w3.org/2000/svg">
<title>
../plots/17_05_15/pions_compare_extendedCalibrationenergySum.svg
</title>
<desc>
Creator: ROOT Version 5.34/30
CreationDate: Sun May 21 18:24:34 2017</desc>
<defs>
</defs>
<rect x="0.5" y="0" width="566.929" height="384.469" fill="white"/>
<rect x="57.1929" y="38.4469" width="453.543" height="307.575" fill="white"/>
<rect x="57.1929" y="38.4469" width="453.543" height="307.575" fill="none" stroke="black"/>
<rect x="57.1929" y="38.4469" width="453.543" height="307.575" fill="white"/>
<rect x="57.1929" y="38.4469" width="453.543" height="307.575" fill="none" stroke="black"/>
<path d="M57.1929,346.022h 10.885v -1.0652h 0.453543v 1.0652h 0.453543v -3.19559h 0.453543v -2.13039h 0.453543v -1.0652h 0.907087v -1.0652h 0.453543v 2.13039h 0.453543v -7.45637h 0.453543v -5.32598h 0.453543v -5.32598h 0.453543v 1.0652h 0.453543v
 3.19559h 0.907087v -17.0431h 0.453543v 6.39118h 0.453543v -19.1735h 0.453543v 12.7824h 0.453543v -22.3691h 0.453543v 9.58676h 0.453543v -7.45637h 0.453543v -8.52157h 0.453543v 10.652h 0.907087v -14.9127h 0.453543v -4.26078h 0.453543v 3.19559h
 0.453543v 5.32598h 0.453543v 5.32598h 0.453543v -22.3691h 0.453543v -3.19559h 0.453543v 8.52157h 0.453543v 9.58676h 0.453543v -51.1294h 0.453543v 36.2167h 0.453543v -15.9779h 0.453543v 3.19559h 0.907087v -23.4343h 0.453543v -13.8475h 0.453543v
 5.32598h 0.453543v -9.58676h 0.453543v 24.4995h 0.453543v 1.0652h 0.453543v -23.4343h 0.453543v 22.3691h 0.453543v -1.0652h 0.453543v -29.8255h 0.453543v 13.8475h 0.453543v 2.13039h 0.453543v 10.652h 0.453543v -23.4343h 0.453543v -4.26078h 0.453543v
 -5.32598h 0.453543v 8.52157h 0.453543v -8.52157h 0.453543v 2.13039h 0.453543v 2.13039h 0.453543v 12.7824h 0.453543v -26.6299h 0.907087v -5.32598h 0.453543v -4.26078h 0.453543v 27.6951h 0.453543v -13.8475h 0.453543v 2.13039h 0.453543v -12.7824h
 0.453543v -12.7824h 0.453543v 20.2387h 0.453543v -26.6299h 0.453543v -9.58676h 0.453543v 24.4995h 0.453543v -5.32598h 0.453543v 15.9779h 0.453543v -18.1083h 0.453543v -17.0431h 0.453543v 14.9127h 0.453543v -28.7603h 0.453543v 31.9559h 0.453543v
 -30.8907h 0.453543v 25.5647h 0.907087v -34.0863h 0.453543v 12.7824h 0.453543v 28.7603h 0.453543v -18.1083h 0.453543v 11.7172h 0.453543v 2.13039h 0.453543v -35.1515h 0.453543v 36.2167h 0.453543v -30.8907h 0.453543v 18.1083h 0.453543v -13.8475h
 0.453543v 2.13039h 0.453543v 10.652h 0.453543v -31.9559h 0.453543v 8.52157h 0.453543v 15.9779h 0.453543v -9.58676h 0.453543v 30.8907h 0.453543v -22.3691h 0.453543v 1.0652h 0.453543v -1.0652h 0.453543v 1.0652h 0.453543v 14.9127h 0.453543v -18.1083h
 0.453543v 3.19559h 0.453543v -8.52157h 0.453543v 17.0431h 0.453543v 8.52157h 0.453543v -5.32598h 0.453543v -33.0211h 0.453543v 4.26078h 0.453543v -6.39118h 0.453543v 24.4995h 0.453543v -7.45637h 0.453543v 2.13039h 0.453543v 8.52157h 0.453543v
 -11.7172h 0.453543v -24.4995h 0.453543v -1.0652h 0.453543v 27.6951h 0.453543v -14.9127h 0.453543v 8.52157h 0.453543v 9.58676h 0.453543v -8.52157h 0.453543v 26.6299h 0.453543v -27.6951h 0.453543v 10.652h 0.453543v -23.4343h 0.453543v 46.8686h
 0.453543v -40.4774h 0.453543v 10.652h 0.453543v 27.6951h 0.453543v -7.45637h 0.907087v -25.5647h 0.453543v 20.2387h 0.453543v -8.52157h 0.453543v 2.13039h 0.453543v 5.32598h 0.453543v -15.9779h 0.453543v 15.9779h 0.453543v -10.652h 0.453543v
 13.8475h 0.453543v -13.8475h 0.453543v 9.58676h 0.453543v -5.32598h 0.453543v 17.0431h 0.453543v -7.45637h 0.453543v 19.1735h 0.453543v 22.3691h 0.453543v -20.2387h 0.453543v -57.5206h 0.453543v 50.0642h 0.453543v -18.1083h 0.453543v 8.52157h
 0.453543v -3.19559h 0.453543v 4.26078h 0.453543v 19.1735h 0.453543v -17.0431h 0.453543v -7.45637h 0.907087v 7.45637h 0.453543v -1.0652h 0.453543v -8.52157h 0.453543v 20.2387h 0.453543v -2.13039h 0.453543v 4.26078h 0.453543v 10.652h 0.453543v
 -23.4343h 0.453543v 37.2819h 0.453543v -50.0642h 0.453543v 26.6299h 0.453543v -10.652h 0.453543v 17.0431h 0.453543v 12.7824h 0.453543v -25.5647h 0.453543v 19.1735h 0.453543v -2.13039h 0.453543v 18.1083h 0.453543v -23.4343h 0.453543v -3.19559h
 0.453543v -2.13039h 0.453543v -1.0652h 0.453543v -1.0652h 0.453543v -2.13039h 0.453543v 7.45637h 0.453543v -8.52157h 0.453543v 1.0652h 0.453543v 23.4343h 0.453543v -6.39118h 0.453543v -9.58676h 0.453543v 29.8255h 0.453543v -31.9559h 0.453543v
 24.4995h 0.453543v -35.1515h 0.453543v 20.2387h 0.907087v 11.7172h 0.453543v -3.19559h 0.453543v -9.58676h 0.453543v -1.0652h 0.453543v -1.0652h 0.453543v 21.3039h 0.453543v -12.7824h 0.453543v -9.58676h 0.453543v 12.7824h 0.453543v -8.52157h
 0.453543v 17.0431h 0.453543v -25.5647h 0.907087v 12.7824h 0.453543v 20.2387h 0.453543v -4.26078h 0.453543v 3.19559h 0.453543v -28.7603h 0.453543v 10.652h 0.453543v 6.39118h 0.453543v 14.9127h 0.453543v -23.4343h 0.453543v 17.0431h 0.453543v
 -24.4995h 0.453543v 26.6299h 0.453543v -14.9127h 0.453543v 20.2387h 0.453543v -40.4774h 0.453543v 41.5426h 0.453543v -7.45637h 0.453543v -7.45637h 0.453543v 7.45637h 0.453543v -15.9779h 0.453543v 13.8475h 0.453543v -5.32598h 0.453543v 4.26078h
 0.453543v -13.8475h 0.453543v 15.9779h 0.453543v -13.8475h 0.453543v 24.4995h 0.453543v -23.4343h 0.453543v 1.0652h 0.453543v 12.7824h 0.453543v -2.13039h 0.453543v 21.3039h 0.453543v -9.58676h 0.453543v -12.7824h 0.453543v -17.0431h 0.453543v
 12.7824h 0.453543v -1.0652h 0.453543v 17.0431h 0.453543v -22.3691h 0.453543v 13.8475h 0.453543v -13.8475h 0.453543v 3.19559h 0.453543v 5.32598h 0.453543v -13.8475h 0.453543v 13.8475h 0.453543v 2.13039h 0.453543v -12.7824h 0.453543v 11.7172h
 0.453543v -19.1735h 0.453543v 5.32598h 0.453543v 24.4995h 0.453543v -7.45637h 0.453543v -6.39118h 0.453543v -15.9779h 0.453543v -6.39118h 0.453543v 30.8907h 0.453543v -29.8255h 0.453543v 9.58676h 0.453543v -6.39118h 0.453543v -4.26078h 0.453543v
 15.9779h 0.453543v -52.1946h 0.453543v 51.1294h 0.453543v -2.13039h 0.453543v 21.3039h 0.453543v -27.6951h 0.453543v 9.58676h 0.453543v 7.45637h 0.453543v -33.0211h 0.453543v 2.13039h 0.453543v 20.2387h 0.453543v -4.26078h 0.453543v 7.45637h
 0.453543v -18.1083h 0.453543v 10.652h 0.453543v -10.652h 0.453543v -8.52157h 0.453543v 39.4123h 0.453543v -24.4995h 0.453543v -13.8475h 0.453543v 7.45637h 0.453543v -5.32598h 0.453543v -3.19559h 0.453543v -2.13039h 0.453543v -4.26078h 0.453543v
 15.9779h 0.453543v -7.45637h 0.907087v 5.32598h 0.453543v -5.32598h 0.453543v -5.32598h 0.453543v -5.32598h 0.453543v 53.2598h 0.453543v -48.999h 0.453543v -1.0652h 0.453543v 4.26078h 0.453543v -11.7172h 0.453543v 9.58676h 0.453543v -1.0652h
 0.453543v 20.2387h 0.453543v -34.0863h 0.453543v 12.7824h 0.453543v 3.19559h 0.453543v 6.39118h 0.453543v -10.652h 0.453543v -12.7824h 0.453543v -6.39118h 0.453543v 12.7824h 0.453543v -14.9127h 0.453543v 4.26078h 0.453543v -13.8475h 0.453543v
 23.4343h 0.453543v -5.32598h 0.453543v 7.45637h 0.453543v -34.0863h 0.453543v 35.1515h 0.453543v -10.652h 0.453543v -5.32598h 0.453543v 19.1735h 0.453543v -34.0863h 0.453543v -8.52157h 0.453543v 23.4343h 0.453543v 3.19559h 0.453543v 2.13039h
 0.907087v -6.39118h 0.453543v -11.7172h 0.453543v 2.13039h 0.453543v -2.13039h 0.453543v -1.0652h 0.453543v 13.8475h 0.453543v -7.45637h 0.453543v 4.26078h 0.453543v 12.7824h 0.453543v -25.5647h 0.453543v -25.5647h 0.453543v 29.8255h 0.453543v
 -33.0211h 0.453543v 26.6299h 0.453543v -5.32598h 0.453543v -11.7172h 0.453543v -2.13039h 0.453543v -9.58676h 0.453543v 22.3691h 0.453543v -8.52157h 0.453543v 31.9559h 0.453543v -25.5647h 0.453543v -4.26078h 0.453543v 25.5647h 0.453543v -8.52157h
 0.453543v -35.1515h 0.453543v 17.0431h 0.453543v 10.652h 0.453543v -12.7824h 0.453543v -3.19559h 0.453543v -29.8255h 0.453543v 30.8907h 0.453543v -19.1735h 0.453543v 35.1515h 0.453543v 3.19559h 0.453543v -37.2819h 0.453543v 44.7382h 0.453543v
 -23.4343h 0.453543v 8.52157h 0.453543v 5.32598h 0.453543v -66.0422h 0.453543v 76.6941h 0.453543v -41.5426h 0.453543v 6.39118h 0.453543v 23.4343h 0.907087v -13.8475h 0.453543v -6.39118h 0.453543v -9.58676h 0.453543v -6.39118h 0.453543v 25.5647h
 0.453543v -27.6951h 0.453543v 5.32598h 0.453543v 6.39118h 0.453543v -17.0431h 0.453543v 19.1735h 0.453543v 6.39118h 0.453543v -35.1515h 0.453543v 26.6299h 0.453543v 23.4343h 0.453543v -47.9338h 0.453543v 21.3039h 0.453543v 39.4123h 0.453543v
 -59.651h 0.453543v 10.652h 0.453543v 25.5647h 0.453543v -12.7824h 0.453543v -18.1083h 0.453543v 10.652h 0.453543v -1.0652h 0.453543v 18.1083h 0.453543v -44.7382h 0.453543v 7.45637h 0.453543v 7.45637h 0.453543v 14.9127h 0.453543v -5.32598h 0.453543v
 -12.7824h 0.453543v 2.13039h 0.453543v -5.32598h 0.453543v -17.0431h 0.453543v 26.6299h 0.453543v 7.45637h 0.453543v -4.26078h 0.453543v -2.13039h 0.453543v 8.52157h 0.453543v 42.6078h 0.453543v -37.2819h 0.453543v 15.9779h 0.453543v -24.4995h
 0.453543v 20.2387h 0.453543v -6.39118h 0.453543v -23.4343h 0.453543v -4.26078h 0.453543v 26.6299h 0.453543v -26.6299h 0.453543v 15.9779h 0.453543v -12.7824h 0.453543v 4.26078h 0.453543v -2.13039h 0.453543v 9.58676h 0.453543v -21.3039h 0.453543v
 -4.26078h 0.453543v 59.651h 0.453543v -45.8034h 0.453543v 11.7172h 0.453543v 3.19559h 0.453543v 5.32598h 0.453543v -17.0431h 0.453543v 15.9779h 0.453543v -14.9127h 0.453543v 31.9559h 0.453543v -24.4995h 0.453543v -20.2387h 0.453543v 51.1294h
 0.453543v -29.8255h 0.453543v 15.9779h 0.453543v -4.26078h 0.453543v 5.32598h 0.453543v 2.13039h 0.453543v -27.6951h 0.453543v -14.9127h 0.453543v 10.652h 0.453543v 1.0652h 0.453543v -20.2387h 0.453543v 17.0431h 0.907087v 18.1083h 0.453543v 8.52157h
 0.453543v -25.5647h 0.453543v 7.45637h 0.453543v 17.0431h 0.453543v 19.1735h 0.453543v -29.8255h 0.453543v 18.1083h 0.453543v -43.673h 0.453543v 50.0642h 0.453543v 12.7824h 0.453543v -40.4774h 0.453543v 37.2819h 0.907087v -35.1515h 0.453543v
 -1.0652h 0.453543v 26.6299h 0.453543v -21.3039h 0.453543v 28.7603h 0.453543v 1.0652h 0.453543v -35.1515h 0.453543v -2.13039h 0.453543v 41.5426h 0.453543v -26.6299h 0.453543v 1.0652h 0.453543v 21.3039h 0.453543v -22.3691h 0.453543v 21.3039h 0.453543v
 -19.1735h 0.453543v -7.45637h 0.453543v 9.58676h 0.453543v 7.45637h 0.453543v 3.19559h 0.453543v -11.7172h 0.453543v 34.0863h 0.453543v -8.52157h 0.453543v -2.13039h 0.453543v 11.7172h 0.453543v -9.58676h 0.453543v -6.39118h 0.453543v -3.19559h
 0.453543v -4.26078h 0.453543v 9.58676h 0.453543v -10.652h 0.453543v -1.0652h 0.453543v 14.9127h 0.453543v 21.3039h 0.453543v -39.4123h 0.453543v 13.8475h 0.453543v 9.58676h 0.453543v 15.9779h 0.453543v -8.52157h 0.453543v 5.32598h 0.453543v
 -7.45637h 0.453543v 1.0652h 0.453543v -9.58676h 0.453543v 13.8475h 0.453543v -22.3691h 0.453543v 22.3691h 0.453543v -7.45637h 0.453543v 18.1083h 0.907087v -12.7824h 0.453543v 2.13039h 0.453543v -8.52157h 0.453543v 11.7172h 0.453543v -19.1735h
 0.453543v 31.9559h 0.453543v -33.0211h 0.453543v 27.6951h 0.453543v -7.45637h 0.453543v 1.0652h 0.453543v 11.7172h 0.453543v 2.13039h 0.453543v 15.9779h 0.453543v -20.2387h 0.453543v 8.52157h 0.453543v -10.652h 0.453543v 20.2387h 0.453543v 11.7172h
 0.453543v -47.9338h 0.453543v 2.13039h 0.453543v 26.6299h 0.453543v 11.7172h 0.453543v -29.8255h 0.453543v -9.58676h 0.453543v 45.8034h 0.453543v -22.3691h 0.453543v -10.652h 0.453543v -15.9779h 0.453543v 21.3039h 0.453543v 23.4343h 0.453543v
 -10.652h 0.453543v 15.9779h 0.453543v -9.58676h 0.453543v -11.7172h 0.453543v -11.7172h 0.453543v 26.6299h 0.453543v 8.52157h 0.453543v -14.9127h 0.453543v 1.0652h 0.453543v 25.5647h 0.453543v -9.58676h 0.453543v -19.1735h 0.453543v 28.7603h
 0.453543v 3.19559h 0.453543v -26.6299h 0.453543v 21.3039h 0.453543v -23.4343h 0.453543v 31.9559h 0.453543v -13.8475h 0.453543v 7.45637h 0.453543v -5.32598h 0.453543v 2.13039h 0.453543v -35.1515h 0.453543v 44.7382h 0.453543v -2.13039h 0.453543v
 5.32598h 0.453543v -3.19559h 0.453543v 1.0652h 0.453543v -19.1735h 0.453543v 1.0652h 0.453543v 17.0431h 0.907087v -2.13039h 0.453543v -6.39118h 0.453543v 15.9779h 0.907087v -7.45637h 0.453543v -23.4343h 0.453543v 24.4995h 0.453543v 5.32598h
 0.453543v 15.9779h 0.453543v -18.1083h 0.453543v 10.652h 0.453543v -3.19559h 0.453543v -6.39118h 0.453543v 36.2167h 0.453543v -27.6951h 0.453543v -8.52157h 0.453543v -7.45637h 0.453543v 19.1735h 0.453543v 2.13039h 0.453543v -17.0431h 0.453543v
 5.32598h 0.453543v -3.19559h 0.453543v 18.1083h 0.453543v 8.52157h 0.453543v 4.26078h 0.453543v -1.0652h 0.453543v -4.26078h 0.453543v 6.39118h 0.453543v -36.2167h 0.453543v 44.7382h 0.453543v -18.1083h 0.453543v 8.52157h 0.453543v -4.26078h
 0.907087v -13.8475h 0.453543v 41.5426h 0.453543v -7.45637h 0.453543v -14.9127h 0.453543v -5.32598h 0.907087v 8.52157h 0.453543v 22.3691h 0.453543v -20.2387h 0.453543v -9.58676h 0.453543v 15.9779h 0.453543v -5.32598h 0.453543v 12.7824h 0.453543v
 7.45637h 0.453543v -10.652h 0.453543v 1.0652h 0.453543v -9.58676h 0.453543v 2.13039h 0.453543v 1.0652h 0.453543v 2.13039h 0.453543v 14.9127h 0.453543v 1.0652h 0.453543v -19.1735h 0.453543v -1.0652h 0.453543v 18.1083h 0.453543v -2.13039h 0.453543v
 -1.0652h 0.453543v -5.32598h 0.453543v -5.32598h 0.453543v 12.7824h 0.453543v 8.52157h 0.453543v -6.39118h 0.453543v -2.13039h 0.453543v -5.32598h 0.453543v 10.652h 0.453543v 3.19559h 0.453543v -12.7824h 0.453543v 8.52157h 0.453543v -7.45637h
 0.453543v 18.1083h 0.453543v -26.6299h 0.453543v 21.3039h 0.453543v -8.52157h 0.453543v 3.19559h 0.453543v 7.45637h 0.453543v -18.1083h 0.453543v 5.32598h 0.453543v 8.52157h 0.453543v -3.19559h 0.453543v 18.1083h 0.453543v -21.3039h 0.453543v
 18.1083h 0.453543v 7.45637h 0.453543v -11.7172h 0.453543v -4.26078h 0.453543v 18.1083h 0.453543v -17.0431h 0.453543v 5.32598h 0.453543v -4.26078h 0.453543v -13.8475h 0.453543v 17.0431h 0.453543v 6.39118h 0.453543v -14.9127h 0.453543v 1.0652h
 0.453543v 20.2387h 0.453543v -8.52157h 0.453543v 3.19559h 0.453543v -21.3039h 0.453543v 24.4995h 0.453543v -3.19559h 0.453543v 8.52157h 0.453543v -6.39118h 0.453543v 2.13039h 0.453543v -2.13039h 0.907087v 2.13039h 0.453543v -6.39118h 0.453543v
 14.9127h 0.453543v -6.39118h 0.453543v -4.26078h 0.453543v 6.39118h 0.453543v 8.52157h 0.453543v 2.13039h 0.453543v -20.2387h 0.453543v 22.3691h 0.453543v -20.2387h 0.453543v 17.0431h 0.453543v -14.9127h 0.453543v 6.39118h 0.453543v 6.39118h
 0.453543v -1.0652h 0.453543v 5.32598h 0.453543v -5.32598h 0.453543v -2.13039h 0.453543v -3.19559h 0.453543v 9.58676h 0.453543v -4.26078h 0.453543v 1.0652h 0.453543v -6.39118h 0.453543v 1.0652h 0.907087v 8.52157h 0.453543v 4.26078h 0.453543v
 -2.13039h 0.453543v -10.652h 0.453543v -3.19559h 0.453543v 21.3039h 0.453543v -8.52157h 0.907087v -4.26078h 0.453543v 1.0652h 0.453543v 13.8475h 0.453543v -5.32598h 0.453543v -3.19559h 0.453543v 11.7172h 0.453543v -6.39118h 0.453543v -5.32598h
 0.453543v 8.52157h 0.453543v -7.45637h 0.453543v -4.26078h 0.453543v 4.26078h 0.453543v 3.19559h 0.453543v -9.58676h 1.36063v 6.39118h 0.453543v 2.13039h 0.453543v -9.58676h 0.453543v 14.9127h 0.453543v -6.39118h 0.453543v 8.52157h 0.453543v
 -1.0652h 0.453543v -2.13039h 0.453543v -6.39118h 0.453543v 6.39118h 0.453543v -6.39118h 0.453543v 7.45637h 0.453543v 2.13039h 0.453543v -5.32598h 0.453543v 1.0652h 0.453543v 1.0652h 0.453543v -3.19559h 0.453543v 5.32598h 0.453543v -1.0652h 0.453543v
 -1.0652h 0.453543v -1.0652h 0.453543v 1.0652h 0.453543v 8.52157h 0.453543v -8.52157h 0.453543v 9.58676h 0.453543v -3.19559h 0.453543v 2.13039h 0.453543v -5.32598h 0.907087v -5.32598h 0.453543v 2.13039h 0.453543v 10.652h 0.453543v -5.32598h 0.907087v
 9.58676h 0.453543v -12.7824h 0.453543v 4.26078h 0.453543v 5.32598h 0.453543v -3.19559h 0.453543v -2.13039h 0.907087v 3.19559h 0.453543v -2.13039h 0.453543v -6.39118h 0.453543v 12.7824h 0.453543v -4.26078h 0.453543v -7.45637h 0.453543v 11.7172h
 0.453543v -2.13039h 0.453543v 3.19559h 0.453543v -2.13039h 0.453543v 3.19559h 0.453543v -3.19559h 0.453543v -2.13039h 0.907087v 4.26078h 0.907087v -7.45637h 0.453543v 1.0652h 0.453543v -1.0652h 0.453543v 2.13039h 0.453543v -7.45637h 0.453543v
 7.45637h 0.453543v 2.13039h 0.453543v -3.19559h 0.453543v 6.39118h 0.453543v -9.58676h 0.453543v 7.45637h 0.453543v -5.32598h 0.453543v 12.7824h 0.453543v -5.32598h 0.453543v -10.652h 0.453543v 6.39118h 0.453543v 6.39118h 0.453543v 1.0652h 0.453543v
 -3.19559h 0.453543v -2.13039h 0.453543v 5.32598h 0.453543v -3.19559h 0.453543v -5.32598h 0.907087v -1.0652h 0.453543v 1.0652h 0.453543v 7.45637h 0.453543v -2.13039h 0.453543v 1.0652h 0.907087v -2.13039h 0.453543v -3.19559h 0.453543v 3.19559h
 0.453543v 3.19559h 0.453543v -6.39118h 0.453543v 6.39118h 0.453543v -7.45637h 0.453543v 6.39118h 0.453543v 1.0652h 0.453543v -3.19559h 0.453543v 4.26078h 0.453543v -1.0652h 0.907087v 1.0652h 0.453543v 1.0652h 0.453543v -6.39118h 0.453543v 2.13039h
 0.453543v 2.13039h 0.453543v -3.19559h 0.453543v 3.19559h 0.453543v -1.0652h 0.453543v 2.13039h 0.453543v 1.0652h 0.453543v -1.0652h 0.453543v -3.19559h 0.453543v 1.0652h 0.453543v -3.19559h 0.453543v 2.13039h 0.453543v 2.13039h 0.453543v 1.0652h
 0.453543v 1.0652h 0.453543v 2.13039h 0.453543v -13.8475h 0.453543v 11.7172h 0.453543v 1.0652h 0.453543v -1.0652h 0.453543v 1.0652h 0.453543v -2.13039h 0.453543v 2.13039h 0.453543v -5.32598h 0.453543v 5.32598h 0.453543v -1.0652h 0.453543v 3.19559h
 1.36063v -3.19559h 0.907087v -1.0652h 0.453543v 4.26078h 0.453543v -4.26078h 0.907087v 2.13039h 0.453543v -1.0652h 0.453543v -1.0652h 0.907087v 2.13039h 0.453543v 1.0652h 0.453543v -3.19559h 0.453543v 2.13039h 0.453543v 3.19559h 0.453543v -9.58676h
 0.453543v 5.32598h 0.453543v 3.19559h 0.453543v 1.0652h 0.453543v -4.26078h 0.453543v 2.13039h 0.907087v 1.0652h 0.453543v -3.19559h 0.453543v 3.19559h 1.36063v -5.32598h 0.453543v 4.26078h 0.453543v -1.0652h 0.453543v -3.19559h 0.453543v 1.0652h
 0.453543v 1.0652h 0.453543v 3.19559h 0.907087v -3.19559h 0.453543v 2.13039h 0.907087v 1.0652h 0.453543v 1.0652h 0.453543v -1.0652h 0.453543v -2.13039h 0.907087v 1.0652h 0.907087v -2.13039h 0.453543v 3.19559h 0.453543v 1.0652h 0.453543v -3.19559h
 0.907087v 1.0652h 0.453543v -1.0652h 0.453543v 3.19559h 0.453543v -2.13039h 0.453543v -1.0652h 0.453543v 4.26078h 0.453543v -4.26078h 0.453543v 2.13039h 0.453543v -2.13039h 0.453543v 3.19559h 0.453543v -1.0652h 0.453543v 1.0652h 0.453543v -1.0652h
 1.36063v 2.13039h 0.453543v -2.13039h 0.453543v -1.0652h 0.453543v -2.13039h 0.453543v 4.26078h 0.453543v -1.0652h 1.36063v -1.0652h 0.453543v 2.13039h 0.453543v 1.0652h 0.453543v -1.0652h 0.453543v -2.13039h 0.453543v -2.13039h 0.453543v 4.26078h
 0.453543v 1.0652h 0.453543v -1.0652h 0.453543v 1.0652h 0.453543v -1.0652h 0.453543v -3.19559h 0.453543v 3.19559h 0.453543v 1.0652h 0.453543v -3.19559h 0.453543v -1.0652h 0.453543v 1.0652h 0.453543v 2.13039h 0.453543v 1.0652h 1.36063v -2.13039h
 0.453543v 2.13039h 0.453543v -4.26078h 0.453543v 3.19559h 0.453543" fill="none" stroke="#000033" stroke-width="2"/>
<path d="M57.1929,346.022h 453.543" fill="none" stroke="black"/>
<text x="-143890" y="30764.1" fill="black" font-size="17636.7" font-family="Helvetica">
Energy Sum [MIP]
</text>
<path d="M57.1929,336.795v 9.22726" fill="none" stroke="black"/>
<path d="M66.2638,341.409v 4.61363" fill="none" stroke="black"/>
<path d="M75.3346,341.409v 4.61363" fill="none" stroke="black"/>
<path d="M84.4055,341.409v 4.61363" fill="none" stroke="black"/>
<path d="M93.4764,341.409v 4.61363" fill="none" stroke="black"/>
<path d="M102.547,336.795v 9.22726" fill="none" stroke="black"/>
<path d="M111.618,341.409v 4.61363" fill="none" stroke="black"/>
<path d="M120.689,341.409v 4.61363" fill="none" stroke="black"/>
<path d="M129.76,341.409v 4.61363" fill="none" stroke="black"/>
<path d="M138.831,341.409v 4.61363" fill="none" stroke="black"/>
<path d="M147.902,336.795v 9.22726" fill="none" stroke="black"/>
<path d="M156.972,341.409v 4.61363" fill="none" stroke="black"/>
<path d="M166.043,341.409v 4.61363" fill="none" stroke="black"/>
<path d="M175.114,341.409v 4.61363" fill="none" stroke="black"/>
<path d="M184.185,341.409v 4.61363" fill="none" stroke="black"/>
<path d="M193.256,336.795v 9.22726" fill="none" stroke="black"/>
<path d="M202.327,341.409v 4.61363" fill="none" stroke="black"/>
<path d="M211.398,341.409v 4.61363" fill="none" stroke="black"/>
<path d="M220.469,341.409v 4.61363" fill="none" stroke="black"/>
<path d="M229.539,341.409v 4.61363" fill="none" stroke="black"/>
<path d="M238.61,336.795v 9.22726" fill="none" stroke="black"/>
<path d="M247.681,341.409v 4.61363" fill="none" stroke="black"/>
<path d="M256.752,341.409v 4.61363" fill="none" stroke="black"/>
<path d="M265.823,341.409v 4.61363" fill="none" stroke="black"/>
<path d="M274.894,341.409v 4.61363" fill="none" stroke="black"/>
<path d="M283.965,336.795v 9.22726" fill="none" stroke="black"/>
<path d="M293.035,341.409v 4.61363" fill="none" stroke="black"/>
<path d="M302.106,341.409v 4.61363" fill="none" stroke="black"/>
<path d="M311.177,341.409v 4.61363" fill="none" stroke="black"/>
<path d="M320.248,341.409v 4.61363" fill="none" stroke="black"/>
<path d="M329.319,336.795v 9.22726" fill="none" stroke="black"/>
<path d="M338.39,341.409v 4.61363" fill="none" stroke="black"/>
<path d="M347.461,341.409v 4.61363" fill="none" stroke="black"/>
<path d="M356.531,341.409v 4.61363" fill="none" stroke="black"/>
<path d="M365.602,341.409v 4.61363" fill="none" stroke="black"/>
<path d="M374.673,336.795v 9.22726" fill="none" stroke="black"/>
<path d="M383.744,341.409v 4.61363" fill="none" stroke="black"/>
<path d="M392.815,341.409v 4.61363" fill="none" stroke="black"/>
<path d="M401.886,341.409v 4.61363" fill="none" stroke="black"/>
<path d="M410.957,341.409v 4.61363" fill="none" stroke="black"/>
<path d="M420.028,336.795v 9.22726" fill="none" stroke="black"/>
<path d="M429.098,341.409v 4.61363" fill="none" stroke="black"/>
<path d="M438.169,341.409v 4.61363" fill="none" stroke="black"/>
<path d="M447.24,341.409v 4.61363" fill="none" stroke="black"/>
<path d="M456.311,341.409v 4.61363" fill="none" stroke="black"/>
<path d="M465.382,336.795v 9.22726" fill="none" stroke="black"/>
<path d="M474.453,341.409v 4.61363" fill="none" stroke="black"/>
<path d="M483.524,341.409v 4.61363" fill="none" stroke="black"/>
<path d="M492.594,341.409v 4.61363" fill="none" stroke="black"/>
<path d="M501.665,341.409v 4.61363" fill="none" stroke="black"/>
<path d="M510.736,336.795v 9.22726" fill="none" stroke="black"/>
<text x="53.446" y="358.403" fill="black" font-size="12.8453" font-family="Helvetica">
0
</text>
<text x="91.73" y="358.403" fill="black" font-size="12.8453" font-family="Helvetica">
100
</text>
<text x="136.53" y="358.403" fill="black" font-size="12.8453" font-family="Helvetica">
200
</text>
<text x="182.145" y="358.403" fill="black" font-size="12.8453" font-family="Helvetica">
300
</text>
<text x="227.76" y="358.403" fill="black" font-size="12.8453" font-family="Helvetica">
400
</text>
<text x="273.375" y="358.403" fill="black" font-size="12.8453" font-family="Helvetica">
500
</text>
<text x="318.176" y="358.403" fill="black" font-size="12.8453" font-family="Helvetica">
600
</text>
<text x="363.791" y="358.403" fill="black" font-size="12.8453" font-family="Helvetica">
700
</text>
<text x="409.406" y="358.403" fill="black" font-size="12.8453" font-family="Helvetica">
800
</text>
<text x="454.206" y="358.403" fill="black" font-size="12.8453" font-family="Helvetica">
900
</text>
<text x="496.563" y="358.403" fill="black" font-size="12.8453" font-family="Helvetica">
1000
</text>
<path d="M57.1929,346.022v -307.575" fill="none" stroke="black"/>
<g transform="rotate(-90,-11.7183,111.594)">
<text x="-11.7183" y="111.594" fill="black" font-size="19.1824" font-family="Helvetica">
# Entries
</text>
</g>
<path d="M70.7992,346.022h -13.6063" fill="none" stroke="black"/>
<path d="M63.9961,333.737h -6.80315" fill="none" stroke="black"/>
<path d="M63.9961,321.451h -6.80315" fill="none" stroke="black"/>
<path d="M63.9961,309.166h -6.80315" fill="none" stroke="black"/>
<path d="M63.9961,296.88h -6.80315" fill="none" stroke="black"/>
<path d="M70.7992,284.595h -13.6063" fill="none" stroke="black"/>
<path d="M63.9961,272.309h -6.80315" fill="none" stroke="black"/>
<path d="M63.9961,260.023h -6.80315" fill="none" stroke="black"/>
<path d="M63.9961,247.738h -6.80315" fill="none" stroke="black"/>
<path d="M63.9961,235.452h -6.80315" fill="none" stroke="black"/>
<path d="M70.7992,223.167h -13.6063" fill="none" stroke="black"/>
<path d="M63.9961,210.881h -6.80315" fill="none" stroke="black"/>
<path d="M63.9961,198.596h -6.80315" fill="none" stroke="black"/>
<path d="M63.9961,186.31h -6.80315" fill="none" stroke="black"/>
<path d="M63.9961,174.025h -6.80315" fill="none" stroke="black"/>
<path d="M70.7992,161.739h -13.6063" fill="none" stroke="black"/>
<path d="M63.9961,149.454h -6.80315" fill="none" stroke="black"/>
<path d="M63.9961,137.168h -6.80315" fill="none" stroke="black"/>
<path d="M63.9961,124.882h -6.80315" fill="none" stroke="black"/>
<path d="M63.9961,112.597h -6.80315" fill="none" stroke="black"/>
<path d="M70.7992,100.311h -13.6063" fill="none" stroke="black"/>
<path d="M63.9961,88.0258h -6.80315" fill="none" stroke="black"/>
<path d="M63.9961,75.7403h -6.80315" fill="none" stroke="black"/>
<path d="M63.9961,63.4547h -6.80315" fill="none" stroke="black"/>
<path d="M63.9961,51.1692h -6.80315" fill="none" stroke="black"/>
<path d="M70.7992,38.8837h -13.6063" fill="none" stroke="black"/>
<path d="M70.7992,38.8837h -13.6063" fill="none" stroke="black"/>
<text x="44.4859" y="352.702" fill="black" font-size="19.1824" font-family="Helvetica">
0
</text>
<text x="-2.75821" y="291.61" fill="black" font-size="19.1824" font-family="Helvetica">
0.0005
</text>
<text x="11.0892" y="229.704" fill="black" font-size="19.1824" font-family="Helvetica">
0.001
</text>
<text x="-2.75821" y="168.613" fill="black" font-size="19.1824" font-family="Helvetica">
0.0015
</text>
<text x="7.83098" y="107.521" fill="black" font-size="19.1824" font-family="Helvetica">
0.002
</text>
<text x="-2.75821" y="45.615" fill="black" font-size="19.1824" font-family="Helvetica">
0.0025
</text>
<path d="M57.1929,346.022h 10.885v -1.0652h 0.453543v 1.0652h 0.453543v -3.19559h 0.453543v -2.13039h 0.453543v -1.0652h 0.907087v -1.0652h 0.453543v 2.13039h 0.453543v -7.45637h 0.453543v -5.32598h 0.453543v -5.32598h 0.453543v 1.0652h 0.453543v
 3.19559h 0.907087v -17.0431h 0.453543v 6.39118h 0.453543v -19.1735h 0.453543v 12.7824h 0.453543v -22.3691h 0.453543v 9.58676h 0.453543v -7.45637h 0.453543v -8.52157h 0.453543v 10.652h 0.907087v -14.9127h 0.453543v -4.26078h 0.453543v 3.19559h
 0.453543v 5.32598h 0.453543v 5.32598h 0.453543v -22.3691h 0.453543v -3.19559h 0.453543v 8.52157h 0.453543v 9.58676h 0.453543v -51.1294h 0.453543v 36.2167h 0.453543v -15.9779h 0.453543v 3.19559h 0.907087v -23.4343h 0.453543v -13.8475h 0.453543v
 5.32598h 0.453543v -9.58676h 0.453543v 24.4995h 0.453543v 1.0652h 0.453543v -23.4343h 0.453543v 22.3691h 0.453543v -1.0652h 0.453543v -29.8255h 0.453543v 13.8475h 0.453543v 2.13039h 0.453543v 10.652h 0.453543v -23.4343h 0.453543v -4.26078h 0.453543v
 -5.32598h 0.453543v 8.52157h 0.453543v -8.52157h 0.453543v 2.13039h 0.453543v 2.13039h 0.453543v 12.7824h 0.453543v -26.6299h 0.907087v -5.32598h 0.453543v -4.26078h 0.453543v 27.6951h 0.453543v -13.8475h 0.453543v 2.13039h 0.453543v -12.7824h
 0.453543v -12.7824h 0.453543v 20.2387h 0.453543v -26.6299h 0.453543v -9.58676h 0.453543v 24.4995h 0.453543v -5.32598h 0.453543v 15.9779h 0.453543v -18.1083h 0.453543v -17.0431h 0.453543v 14.9127h 0.453543v -28.7603h 0.453543v 31.9559h 0.453543v
 -30.8907h 0.453543v 25.5647h 0.907087v -34.0863h 0.453543v 12.7824h 0.453543v 28.7603h 0.453543v -18.1083h 0.453543v 11.7172h 0.453543v 2.13039h 0.453543v -35.1515h 0.453543v 36.2167h 0.453543v -30.8907h 0.453543v 18.1083h 0.453543v -13.8475h
 0.453543v 2.13039h 0.453543v 10.652h 0.453543v -31.9559h 0.453543v 8.52157h 0.453543v 15.9779h 0.453543v -9.58676h 0.453543v 30.8907h 0.453543v -22.3691h 0.453543v 1.0652h 0.453543v -1.0652h 0.453543v 1.0652h 0.453543v 14.9127h 0.453543v -18.1083h
 0.453543v 3.19559h 0.453543v -8.52157h 0.453543v 17.0431h 0.453543v 8.52157h 0.453543v -5.32598h 0.453543v -33.0211h 0.453543v 4.26078h 0.453543v -6.39118h 0.453543v 24.4995h 0.453543v -7.45637h 0.453543v 2.13039h 0.453543v 8.52157h 0.453543v
 -11.7172h 0.453543v -24.4995h 0.453543v -1.0652h 0.453543v 27.6951h 0.453543v -14.9127h 0.453543v 8.52157h 0.453543v 9.58676h 0.453543v -8.52157h 0.453543v 26.6299h 0.453543v -27.6951h 0.453543v 10.652h 0.453543v -23.4343h 0.453543v 46.8686h
 0.453543v -40.4774h 0.453543v 10.652h 0.453543v 27.6951h 0.453543v -7.45637h 0.907087v -25.5647h 0.453543v 20.2387h 0.453543v -8.52157h 0.453543v 2.13039h 0.453543v 5.32598h 0.453543v -15.9779h 0.453543v 15.9779h 0.453543v -10.652h 0.453543v
 13.8475h 0.453543v -13.8475h 0.453543v 9.58676h 0.453543v -5.32598h 0.453543v 17.0431h 0.453543v -7.45637h 0.453543v 19.1735h 0.453543v 22.3691h 0.453543v -20.2387h 0.453543v -57.5206h 0.453543v 50.0642h 0.453543v -18.1083h 0.453543v 8.52157h
 0.453543v -3.19559h 0.453543v 4.26078h 0.453543v 19.1735h 0.453543v -17.0431h 0.453543v -7.45637h 0.907087v 7.45637h 0.453543v -1.0652h 0.453543v -8.52157h 0.453543v 20.2387h 0.453543v -2.13039h 0.453543v 4.26078h 0.453543v 10.652h 0.453543v
 -23.4343h 0.453543v 37.2819h 0.453543v -50.0642h 0.453543v 26.6299h 0.453543v -10.652h 0.453543v 17.0431h 0.453543v 12.7824h 0.453543v -25.5647h 0.453543v 19.1735h 0.453543v -2.13039h 0.453543v 18.1083h 0.453543v -23.4343h 0.453543v -3.19559h
 0.453543v -2.13039h 0.453543v -1.0652h 0.453543v -1.0652h 0.453543v -2.13039h 0.453543v 7.45637h 0.453543v -8.52157h 0.453543v 1.0652h 0.453543v 23.4343h 0.453543v -6.39118h 0.453543v -9.58676h 0.453543v 29.8255h 0.453543v -31.9559h 0.453543v
 24.4995h 0.453543v -35.1515h 0.453543v 20.2387h 0.907087v 11.7172h 0.453543v -3.19559h 0.453543v -9.58676h 0.453543v -1.0652h 0.453543v -1.0652h 0.453543v 21.3039h 0.453543v -12.7824h 0.453543v -9.58676h 0.453543v 12.7824h 0.453543v -8.52157h
 0.453543v 17.0431h 0.453543v -25.5647h 0.907087v 12.7824h 0.453543v 20.2387h 0.453543v -4.26078h 0.453543v 3.19559h 0.453543v -28.7603h 0.453543v 10.652h 0.453543v 6.39118h 0.453543v 14.9127h 0.453543v -23.4343h 0.453543v 17.0431h 0.453543v
 -24.4995h 0.453543v 26.6299h 0.453543v -14.9127h 0.453543v 20.2387h 0.453543v -40.4774h 0.453543v 41.5426h 0.453543v -7.45637h 0.453543v -7.45637h 0.453543v 7.45637h 0.453543v -15.9779h 0.453543v 13.8475h 0.453543v -5.32598h 0.453543v 4.26078h
 0.453543v -13.8475h 0.453543v 15.9779h 0.453543v -13.8475h 0.453543v 24.4995h 0.453543v -23.4343h 0.453543v 1.0652h 0.453543v 12.7824h 0.453543v -2.13039h 0.453543v 21.3039h 0.453543v -9.58676h 0.453543v -12.7824h 0.453543v -17.0431h 0.453543v
 12.7824h 0.453543v -1.0652h 0.453543v 17.0431h 0.453543v -22.3691h 0.453543v 13.8475h 0.453543v -13.8475h 0.453543v 3.19559h 0.453543v 5.32598h 0.453543v -13.8475h 0.453543v 13.8475h 0.453543v 2.13039h 0.453543v -12.7824h 0.453543v 11.7172h
 0.453543v -19.1735h 0.453543v 5.32598h 0.453543v 24.4995h 0.453543v -7.45637h 0.453543v -6.39118h 0.453543v -15.9779h 0.453543v -6.39118h 0.453543v 30.8907h 0.453543v -29.8255h 0.453543v 9.58676h 0.453543v -6.39118h 0.453543v -4.26078h 0.453543v
 15.9779h 0.453543v -52.1946h 0.453543v 51.1294h 0.453543v -2.13039h 0.453543v 21.3039h 0.453543v -27.6951h 0.453543v 9.58676h 0.453543v 7.45637h 0.453543v -33.0211h 0.453543v 2.13039h 0.453543v 20.2387h 0.453543v -4.26078h 0.453543v 7.45637h
 0.453543v -18.1083h 0.453543v 10.652h 0.453543v -10.652h 0.453543v -8.52157h 0.453543v 39.4123h 0.453543v -24.4995h 0.453543v -13.8475h 0.453543v 7.45637h 0.453543v -5.32598h 0.453543v -3.19559h 0.453543v -2.13039h 0.453543v -4.26078h 0.453543v
 15.9779h 0.453543v -7.45637h 0.907087v 5.32598h 0.453543v -5.32598h 0.453543v -5.32598h 0.453543v -5.32598h 0.453543v 53.2598h 0.453543v -48.999h 0.453543v -1.0652h 0.453543v 4.26078h 0.453543v -11.7172h 0.453543v 9.58676h 0.453543v -1.0652h
 0.453543v 20.2387h 0.453543v -34.0863h 0.453543v 12.7824h 0.453543v 3.19559h 0.453543v 6.39118h 0.453543v -10.652h 0.453543v -12.7824h 0.453543v -6.39118h 0.453543v 12.7824h 0.453543v -14.9127h 0.453543v 4.26078h 0.453543v -13.8475h 0.453543v
 23.4343h 0.453543v -5.32598h 0.453543v 7.45637h 0.453543v -34.0863h 0.453543v 35.1515h 0.453543v -10.652h 0.453543v -5.32598h 0.453543v 19.1735h 0.453543v -34.0863h 0.453543v -8.52157h 0.453543v 23.4343h 0.453543v 3.19559h 0.453543v 2.13039h
 0.907087v -6.39118h 0.453543v -11.7172h 0.453543v 2.13039h 0.453543v -2.13039h 0.453543v -1.0652h 0.453543v 13.8475h 0.453543v -7.45637h 0.453543v 4.26078h 0.453543v 12.7824h 0.453543v -25.5647h 0.453543v -25.5647h 0.453543v 29.8255h 0.453543v
 -33.0211h 0.453543v 26.6299h 0.453543v -5.32598h 0.453543v -11.7172h 0.453543v -2.13039h 0.453543v -9.58676h 0.453543v 22.3691h 0.453543v -8.52157h 0.453543v 31.9559h 0.453543v -25.5647h 0.453543v -4.26078h 0.453543v 25.5647h 0.453543v -8.52157h
 0.453543v -35.1515h 0.453543v 17.0431h 0.453543v 10.652h 0.453543v -12.7824h 0.453543v -3.19559h 0.453543v -29.8255h 0.453543v 30.8907h 0.453543v -19.1735h 0.453543v 35.1515h 0.453543v 3.19559h 0.453543v -37.2819h 0.453543v 44.7382h 0.453543v
 -23.4343h 0.453543v 8.52157h 0.453543v 5.32598h 0.453543v -66.0422h 0.453543v 76.6941h 0.453543v -41.5426h 0.453543v 6.39118h 0.453543v 23.4343h 0.907087v -13.8475h 0.453543v -6.39118h 0.453543v -9.58676h 0.453543v -6.39118h 0.453543v 25.5647h
 0.453543v -27.6951h 0.453543v 5.32598h 0.453543v 6.39118h 0.453543v -17.0431h 0.453543v 19.1735h 0.453543v 6.39118h 0.453543v -35.1515h 0.453543v 26.6299h 0.453543v 23.4343h 0.453543v -47.9338h 0.453543v 21.3039h 0.453543v 39.4123h 0.453543v
 -59.651h 0.453543v 10.652h 0.453543v 25.5647h 0.453543v -12.7824h 0.453543v -18.1083h 0.453543v 10.652h 0.453543v -1.0652h 0.453543v 18.1083h 0.453543v -44.7382h 0.453543v 7.45637h 0.453543v 7.45637h 0.453543v 14.9127h 0.453543v -5.32598h 0.453543v
 -12.7824h 0.453543v 2.13039h 0.453543v -5.32598h 0.453543v -17.0431h 0.453543v 26.6299h 0.453543v 7.45637h 0.453543v -4.26078h 0.453543v -2.13039h 0.453543v 8.52157h 0.453543v 42.6078h 0.453543v -37.2819h 0.453543v 15.9779h 0.453543v -24.4995h
 0.453543v 20.2387h 0.453543v -6.39118h 0.453543v -23.4343h 0.453543v -4.26078h 0.453543v 26.6299h 0.453543v -26.6299h 0.453543v 15.9779h 0.453543v -12.7824h 0.453543v 4.26078h 0.453543v -2.13039h 0.453543v 9.58676h 0.453543v -21.3039h 0.453543v
 -4.26078h 0.453543v 59.651h 0.453543v -45.8034h 0.453543v 11.7172h 0.453543v 3.19559h 0.453543v 5.32598h 0.453543v -17.0431h 0.453543v 15.9779h 0.453543v -14.9127h 0.453543v 31.9559h 0.453543v -24.4995h 0.453543v -20.2387h 0.453543v 51.1294h
 0.453543v -29.8255h 0.453543v 15.9779h 0.453543v -4.26078h 0.453543v 5.32598h 0.453543v 2.13039h 0.453543v -27.6951h 0.453543v -14.9127h 0.453543v 10.652h 0.453543v 1.0652h 0.453543v -20.2387h 0.453543v 17.0431h 0.907087v 18.1083h 0.453543v 8.52157h
 0.453543v -25.5647h 0.453543v 7.45637h 0.453543v 17.0431h 0.453543v 19.1735h 0.453543v -29.8255h 0.453543v 18.1083h 0.453543v -43.673h 0.453543v 50.0642h 0.453543v 12.7824h 0.453543v -40.4774h 0.453543v 37.2819h 0.907087v -35.1515h 0.453543v
 -1.0652h 0.453543v 26.6299h 0.453543v -21.3039h 0.453543v 28.7603h 0.453543v 1.0652h 0.453543v -35.1515h 0.453543v -2.13039h 0.453543v 41.5426h 0.453543v -26.6299h 0.453543v 1.0652h 0.453543v 21.3039h 0.453543v -22.3691h 0.453543v 21.3039h 0.453543v
 -19.1735h 0.453543v -7.45637h 0.453543v 9.58676h 0.453543v 7.45637h 0.453543v 3.19559h 0.453543v -11.7172h 0.453543v 34.0863h 0.453543v -8.52157h 0.453543v -2.13039h 0.453543v 11.7172h 0.453543v -9.58676h 0.453543v -6.39118h 0.453543v -3.19559h
 0.453543v -4.26078h 0.453543v 9.58676h 0.453543v -10.652h 0.453543v -1.0652h 0.453543v 14.9127h 0.453543v 21.3039h 0.453543v -39.4123h 0.453543v 13.8475h 0.453543v 9.58676h 0.453543v 15.9779h 0.453543v -8.52157h 0.453543v 5.32598h 0.453543v
 -7.45637h 0.453543v 1.0652h 0.453543v -9.58676h 0.453543v 13.8475h 0.453543v -22.3691h 0.453543v 22.3691h 0.453543v -7.45637h 0.453543v 18.1083h 0.907087v -12.7824h 0.453543v 2.13039h 0.453543v -8.52157h 0.453543v 11.7172h 0.453543v -19.1735h
 0.453543v 31.9559h 0.453543v -33.0211h 0.453543v 27.6951h 0.453543v -7.45637h 0.453543v 1.0652h 0.453543v 11.7172h 0.453543v 2.13039h 0.453543v 15.9779h 0.453543v -20.2387h 0.453543v 8.52157h 0.453543v -10.652h 0.453543v 20.2387h 0.453543v 11.7172h
 0.453543v -47.9338h 0.453543v 2.13039h 0.453543v 26.6299h 0.453543v 11.7172h 0.453543v -29.8255h 0.453543v -9.58676h 0.453543v 45.8034h 0.453543v -22.3691h 0.453543v -10.652h 0.453543v -15.9779h 0.453543v 21.3039h 0.453543v 23.4343h 0.453543v
 -10.652h 0.453543v 15.9779h 0.453543v -9.58676h 0.453543v -11.7172h 0.453543v -11.7172h 0.453543v 26.6299h 0.453543v 8.52157h 0.453543v -14.9127h 0.453543v 1.0652h 0.453543v 25.5647h 0.453543v -9.58676h 0.453543v -19.1735h 0.453543v 28.7603h
 0.453543v 3.19559h 0.453543v -26.6299h 0.453543v 21.3039h 0.453543v -23.4343h 0.453543v 31.9559h 0.453543v -13.8475h 0.453543v 7.45637h 0.453543v -5.32598h 0.453543v 2.13039h 0.453543v -35.1515h 0.453543v 44.7382h 0.453543v -2.13039h 0.453543v
 5.32598h 0.453543v -3.19559h 0.453543v 1.0652h 0.453543v -19.1735h 0.453543v 1.0652h 0.453543v 17.0431h 0.907087v -2.13039h 0.453543v -6.39118h 0.453543v 15.9779h 0.907087v -7.45637h 0.453543v -23.4343h 0.453543v 24.4995h 0.453543v 5.32598h
 0.453543v 15.9779h 0.453543v -18.1083h 0.453543v 10.652h 0.453543v -3.19559h 0.453543v -6.39118h 0.453543v 36.2167h 0.453543v -27.6951h 0.453543v -8.52157h 0.453543v -7.45637h 0.453543v 19.1735h 0.453543v 2.13039h 0.453543v -17.0431h 0.453543v
 5.32598h 0.453543v -3.19559h 0.453543v 18.1083h 0.453543v 8.52157h 0.453543v 4.26078h 0.453543v -1.0652h 0.453543v -4.26078h 0.453543v 6.39118h 0.453543v -36.2167h 0.453543v 44.7382h 0.453543v -18.1083h 0.453543v 8.52157h 0.453543v -4.26078h
 0.907087v -13.8475h 0.453543v 41.5426h 0.453543v -7.45637h 0.453543v -14.9127h 0.453543v -5.32598h 0.907087v 8.52157h 0.453543v 22.3691h 0.453543v -20.2387h 0.453543v -9.58676h 0.453543v 15.9779h 0.453543v -5.32598h 0.453543v 12.7824h 0.453543v
 7.45637h 0.453543v -10.652h 0.453543v 1.0652h 0.453543v -9.58676h 0.453543v 2.13039h 0.453543v 1.0652h 0.453543v 2.13039h 0.453543v 14.9127h 0.453543v 1.0652h 0.453543v -19.1735h 0.453543v -1.0652h 0.453543v 18.1083h 0.453543v -2.13039h 0.453543v
 -1.0652h 0.453543v -5.32598h 0.453543v -5.32598h 0.453543v 12.7824h 0.453543v 8.52157h 0.453543v -6.39118h 0.453543v -2.13039h 0.453543v -5.32598h 0.453543v 10.652h 0.453543v 3.19559h 0.453543v -12.7824h 0.453543v 8.52157h 0.453543v -7.45637h
 0.453543v 18.1083h 0.453543v -26.6299h 0.453543v 21.3039h 0.453543v -8.52157h 0.453543v 3.19559h 0.453543v 7.45637h 0.453543v -18.1083h 0.453543v 5.32598h 0.453543v 8.52157h 0.453543v -3.19559h 0.453543v 18.1083h 0.453543v -21.3039h 0.453543v
 18.1083h 0.453543v 7.45637h 0.453543v -11.7172h 0.453543v -4.26078h 0.453543v 18.1083h 0.453543v -17.0431h 0.453543v 5.32598h 0.453543v -4.26078h 0.453543v -13.8475h 0.453543v 17.0431h 0.453543v 6.39118h 0.453543v -14.9127h 0.453543v 1.0652h
 0.453543v 20.2387h 0.453543v -8.52157h 0.453543v 3.19559h 0.453543v -21.3039h 0.453543v 24.4995h 0.453543v -3.19559h 0.453543v 8.52157h 0.453543v -6.39118h 0.453543v 2.13039h 0.453543v -2.13039h 0.907087v 2.13039h 0.453543v -6.39118h 0.453543v
 14.9127h 0.453543v -6.39118h 0.453543v -4.26078h 0.453543v 6.39118h 0.453543v 8.52157h 0.453543v 2.13039h 0.453543v -20.2387h 0.453543v 22.3691h 0.453543v -20.2387h 0.453543v 17.0431h 0.453543v -14.9127h 0.453543v 6.39118h 0.453543v 6.39118h
 0.453543v -1.0652h 0.453543v 5.32598h 0.453543v -5.32598h 0.453543v -2.13039h 0.453543v -3.19559h 0.453543v 9.58676h 0.453543v -4.26078h 0.453543v 1.0652h 0.453543v -6.39118h 0.453543v 1.0652h 0.907087v 8.52157h 0.453543v 4.26078h 0.453543v
 -2.13039h 0.453543v -10.652h 0.453543v -3.19559h 0.453543v 21.3039h 0.453543v -8.52157h 0.907087v -4.26078h 0.453543v 1.0652h 0.453543v 13.8475h 0.453543v -5.32598h 0.453543v -3.19559h 0.453543v 11.7172h 0.453543v -6.39118h 0.453543v -5.32598h
 0.453543v 8.52157h 0.453543v -7.45637h 0.453543v -4.26078h 0.453543v 4.26078h 0.453543v 3.19559h 0.453543v -9.58676h 1.36063v 6.39118h 0.453543v 2.13039h 0.453543v -9.58676h 0.453543v 14.9127h 0.453543v -6.39118h 0.453543v 8.52157h 0.453543v
 -1.0652h 0.453543v -2.13039h 0.453543v -6.39118h 0.453543v 6.39118h 0.453543v -6.39118h 0.453543v 7.45637h 0.453543v 2.13039h 0.453543v -5.32598h 0.453543v 1.0652h 0.453543v 1.0652h 0.453543v -3.19559h 0.453543v 5.32598h 0.453543v -1.0652h 0.453543v
 -1.0652h 0.453543v -1.0652h 0.453543v 1.0652h 0.453543v 8.52157h 0.453543v -8.52157h 0.453543v 9.58676h 0.453543v -3.19559h 0.453543v 2.13039h 0.453543v -5.32598h 0.907087v -5.32598h 0.453543v 2.13039h 0.453543v 10.652h 0.453543v -5.32598h 0.907087v
 9.58676h 0.453543v -12.7824h 0.453543v 4.26078h 0.453543v 5.32598h 0.453543v -3.19559h 0.453543v -2.13039h 0.907087v 3.19559h 0.453543v -2.13039h 0.453543v -6.39118h 0.453543v 12.7824h 0.453543v -4.26078h 0.453543v -7.45637h 0.453543v 11.7172h
 0.453543v -2.13039h 0.453543v 3.19559h 0.453543v -2.13039h 0.453543v 3.19559h 0.453543v -3.19559h 0.453543v -2.13039h 0.907087v 4.26078h 0.907087v -7.45637h 0.453543v 1.0652h 0.453543v -1.0652h 0.453543v 2.13039h 0.453543v -7.45637h 0.453543v
 7.45637h 0.453543v 2.13039h 0.453543v -3.19559h 0.453543v 6.39118h 0.453543v -9.58676h 0.453543v 7.45637h 0.453543v -5.32598h 0.453543v 12.7824h 0.453543v -5.32598h 0.453543v -10.652h 0.453543v 6.39118h 0.453543v 6.39118h 0.453543v 1.0652h 0.453543v
 -3.19559h 0.453543v -2.13039h 0.453543v 5.32598h 0.453543v -3.19559h 0.453543v -5.32598h 0.907087v -1.0652h 0.453543v 1.0652h 0.453543v 7.45637h 0.453543v -2.13039h 0.453543v 1.0652h 0.907087v -2.13039h 0.453543v -3.19559h 0.453543v 3.19559h
 0.453543v 3.19559h 0.453543v -6.39118h 0.453543v 6.39118h 0.453543v -7.45637h 0.453543v 6.39118h 0.453543v 1.0652h 0.453543v -3.19559h 0.453543v 4.26078h 0.453543v -1.0652h 0.907087v 1.0652h 0.453543v 1.0652h 0.453543v -6.39118h 0.453543v 2.13039h
 0.453543v 2.13039h 0.453543v -3.19559h 0.453543v 3.19559h 0.453543v -1.0652h 0.453543v 2.13039h 0.453543v 1.0652h 0.453543v -1.0652h 0.453543v -3.19559h 0.453543v 1.0652h 0.453543v -3.19559h 0.453543v 2.13039h 0.453543v 2.13039h 0.453543v 1.0652h
 0.453543v 1.0652h 0.453543v 2.13039h 0.453543v -13.8475h 0.453543v 11.7172h 0.453543v 1.0652h 0.453543v -1.0652h 0.453543v 1.0652h 0.453543v -2.13039h 0.453543v 2.13039h 0.453543v -5.32598h 0.453543v 5.32598h 0.453543v -1.0652h 0.453543v 3.19559h
 1.36063v -3.19559h 0.907087v -1.0652h 0.453543v 4.26078h 0.453543v -4.26078h 0.907087v 2.13039h 0.453543v -1.0652h 0.453543v -1.0652h 0.907087v 2.13039h 0.453543v 1.0652h 0.453543v -3.19559h 0.453543v 2.13039h 0.453543v 3.19559h 0.453543v -9.58676h
 0.453543v 5.32598h 0.453543v 3.19559h 0.453543v 1.0652h 0.453543v -4.26078h 0.453543v 2.13039h 0.907087v 1.0652h 0.453543v -3.19559h 0.453543v 3.19559h 1.36063v -5.32598h 0.453543v 4.26078h 0.453543v -1.0652h 0.453543v -3.19559h 0.453543v 1.0652h
 0.453543v 1.0652h 0.453543v 3.19559h 0.907087v -3.19559h 0.453543v 2.13039h 0.907087v 1.0652h 0.453543v 1.0652h 0.453543v -1.0652h 0.453543v -2.13039h 0.907087v 1.0652h 0.907087v -2.13039h 0.453543v 3.19559h 0.453543v 1.0652h 0.453543v -3.19559h
 0.907087v 1.0652h 0.453543v -1.0652h 0.453543v 3.19559h 0.453543v -2.13039h 0.453543v -1.0652h 0.453543v 4.26078h 0.453543v -4.26078h 0.453543v 2.13039h 0.453543v -2.13039h 0.453543v 3.19559h 0.453543v -1.0652h 0.453543v 1.0652h 0.453543v -1.0652h
 1.36063v 2.13039h 0.453543v -2.13039h 0.453543v -1.0652h 0.453543v -2.13039h 0.453543v 4.26078h 0.453543v -1.0652h 1.36063v -1.0652h 0.453543v 2.13039h 0.453543v 1.0652h 0.453543v -1.0652h 0.453543v -2.13039h 0.453543v -2.13039h 0.453543v 4.26078h
 0.453543v 1.0652h 0.453543v -1.0652h 0.453543v 1.0652h 0.453543v -1.0652h 0.453543v -3.19559h 0.453543v 3.19559h 0.453543v 1.0652h 0.453543v -3.19559h 0.453543v -1.0652h 0.453543v 1.0652h 0.453543v 2.13039h 0.453543v 1.0652h 1.36063v -2.13039h
 0.453543v 2.13039h 0.453543v -4.26078h 0.453543v 3.19559h 0.453543" fill="none" stroke="#333399" stroke-width="2"/>
<rect x="340.657" y="38.4469" width="170.079" height="76.8938" fill="white"/>
<path d="M340.657,115.341h 170.079" fill="none" stroke="black"/>
<path d="M510.736,115.341v -76.8938" fill="none" stroke="black"/>
<path d="M510.736,38.4469h -170.079" fill="none" stroke="black"/>
<path d="M340.657,38.4469v 76.8938" fill="none" stroke="black"/>
<text x="382.526" y="65.9788" fill="black" font-size="27.1288" font-family="Helvetica">
old_data
</text>
<path d="M347.035,71.1268h 29.7638v -26.9128h -29.7638z" fill="white"/>
<path d="M347.035,57.6704h 29.7638" fill="none" stroke="#000033" stroke-width="2"/>
<g stroke="black" stroke-width="2" fill="none">
<line x1="360.917" y1="57.6704" x2="361.917" y2="57.6704"/>
</g>
<text x="382.526" y="104.263" fill="black" font-size="27.1288" font-family="Helvetica">
Extended
</text>
<path d="M347.035,109.574h 29.7638v -26.9128h -29.7638z" fill="white"/>
<path d="M347.035,96.1173h 29.7638" fill="none" stroke="#333399" stroke-width="2"/>
<g stroke="black" stroke-width="2" fill="none">
<line x1="360.917" y1="96.1173" x2="361.917" y2="96.1173"/>
</g>
<text x="109.65" y="18.7347" fill="black" font-size="18.7938" font-family="Helvetica">
Energy Sum of Event After Data Selection
</text></svg>
