<?xml version="1.0" standalone="no"?>
<svg width="567.429" height="384.969" viewBox="0 0 567.429 384.969" xmlns="http://www.w3.org/2000/svg">
<title>
../plots/17_05_15/pions_compare_extendedCalibrationfLateHits_layer.svg
</title>
<desc>
Creator: ROOT Version 5.34/30
CreationDate: Sun May 21 18:24:51 2017</desc>
<defs>
</defs>
<rect x="0.5" y="0" width="566.929" height="384.469" fill="white"/>
<rect x="57.1929" y="38.4469" width="453.543" height="307.575" fill="white"/>
<rect x="57.1929" y="38.4469" width="453.543" height="307.575" fill="none" stroke="black"/>
<rect x="57.1929" y="38.4469" width="453.543" height="307.575" fill="white"/>
<rect x="57.1929" y="38.4469" width="453.543" height="307.575" fill="none" stroke="black"/>
<path d="M57.1929,346.022h 90.7087v -239.088h 22.6772v 239.088h 45.3543v -159.082h 22.6772v -25.6909h 22.6772v 18.855h 22.6772v -38.4851h 22.6772v 54.2069h 22.6772v 150.196h 22.6772v -292.929h 22.6772v 22.4877h 22.6772v -1.58055h 22.6772v 272.022h
 90.7087" fill="none" stroke="#000033" stroke-width="2"/>
<path d="M57.1929,346.022h 453.543" fill="none" stroke="black"/>
<path d="M57.1929,336.795v 9.22726" fill="none" stroke="black"/>
<path d="M68.5315,341.409v 4.61363" fill="none" stroke="black"/>
<path d="M79.8701,341.409v 4.61363" fill="none" stroke="black"/>
<path d="M91.2087,341.409v 4.61363" fill="none" stroke="black"/>
<path d="M102.547,336.795v 9.22726" fill="none" stroke="black"/>
<path d="M113.886,341.409v 4.61363" fill="none" stroke="black"/>
<path d="M125.224,341.409v 4.61363" fill="none" stroke="black"/>
<path d="M136.563,341.409v 4.61363" fill="none" stroke="black"/>
<path d="M147.902,336.795v 9.22726" fill="none" stroke="black"/>
<path d="M159.24,341.409v 4.61363" fill="none" stroke="black"/>
<path d="M170.579,341.409v 4.61363" fill="none" stroke="black"/>
<path d="M181.917,341.409v 4.61363" fill="none" stroke="black"/>
<path d="M193.256,336.795v 9.22726" fill="none" stroke="black"/>
<path d="M204.594,341.409v 4.61363" fill="none" stroke="black"/>
<path d="M215.933,341.409v 4.61363" fill="none" stroke="black"/>
<path d="M227.272,341.409v 4.61363" fill="none" stroke="black"/>
<path d="M238.61,336.795v 9.22726" fill="none" stroke="black"/>
<path d="M249.949,341.409v 4.61363" fill="none" stroke="black"/>
<path d="M261.287,341.409v 4.61363" fill="none" stroke="black"/>
<path d="M272.626,341.409v 4.61363" fill="none" stroke="black"/>
<path d="M283.965,336.795v 9.22726" fill="none" stroke="black"/>
<path d="M295.303,341.409v 4.61363" fill="none" stroke="black"/>
<path d="M306.642,341.409v 4.61363" fill="none" stroke="black"/>
<path d="M317.98,341.409v 4.61363" fill="none" stroke="black"/>
<path d="M329.319,336.795v 9.22726" fill="none" stroke="black"/>
<path d="M340.657,341.409v 4.61363" fill="none" stroke="black"/>
<path d="M351.996,341.409v 4.61363" fill="none" stroke="black"/>
<path d="M363.335,341.409v 4.61363" fill="none" stroke="black"/>
<path d="M374.673,336.795v 9.22726" fill="none" stroke="black"/>
<path d="M386.012,341.409v 4.61363" fill="none" stroke="black"/>
<path d="M397.35,341.409v 4.61363" fill="none" stroke="black"/>
<path d="M408.689,341.409v 4.61363" fill="none" stroke="black"/>
<path d="M420.028,336.795v 9.22726" fill="none" stroke="black"/>
<path d="M431.366,341.409v 4.61363" fill="none" stroke="black"/>
<path d="M442.705,341.409v 4.61363" fill="none" stroke="black"/>
<path d="M454.043,341.409v 4.61363" fill="none" stroke="black"/>
<path d="M465.382,336.795v 9.22726" fill="none" stroke="black"/>
<path d="M476.72,341.409v 4.61363" fill="none" stroke="black"/>
<path d="M488.059,341.409v 4.61363" fill="none" stroke="black"/>
<path d="M499.398,341.409v 4.61363" fill="none" stroke="black"/>
<path d="M510.736,336.795v 9.22726" fill="none" stroke="black"/>
<text x="53.446" y="358.403" fill="black" font-size="12.8453" font-family="Helvetica">
0
</text>
<text x="99.061" y="358.403" fill="black" font-size="12.8453" font-family="Helvetica">
2
</text>
<text x="143.861" y="358.403" fill="black" font-size="12.8453" font-family="Helvetica">
4
</text>
<text x="189.476" y="358.403" fill="black" font-size="12.8453" font-family="Helvetica">
6
</text>
<text x="235.091" y="358.403" fill="black" font-size="12.8453" font-family="Helvetica">
8
</text>
<text x="276.634" y="358.403" fill="black" font-size="12.8453" font-family="Helvetica">
10
</text>
<text x="321.434" y="358.403" fill="black" font-size="12.8453" font-family="Helvetica">
12
</text>
<text x="367.049" y="358.403" fill="black" font-size="12.8453" font-family="Helvetica">
14
</text>
<text x="412.664" y="358.403" fill="black" font-size="12.8453" font-family="Helvetica">
16
</text>
<text x="457.464" y="358.403" fill="black" font-size="12.8453" font-family="Helvetica">
18
</text>
<text x="503.079" y="358.403" fill="black" font-size="12.8453" font-family="Helvetica">
20
</text>
<path d="M57.1929,346.022v -307.575" fill="none" stroke="black"/>
<path d="M70.7992,346.022h -13.6063" fill="none" stroke="black"/>
<path d="M63.9961,336.254h -6.80315" fill="none" stroke="black"/>
<path d="M63.9961,326.486h -6.80315" fill="none" stroke="black"/>
<path d="M63.9961,316.718h -6.80315" fill="none" stroke="black"/>
<path d="M63.9961,306.95h -6.80315" fill="none" stroke="black"/>
<path d="M70.7992,297.183h -13.6063" fill="none" stroke="black"/>
<path d="M63.9961,287.415h -6.80315" fill="none" stroke="black"/>
<path d="M63.9961,277.647h -6.80315" fill="none" stroke="black"/>
<path d="M63.9961,267.879h -6.80315" fill="none" stroke="black"/>
<path d="M63.9961,258.111h -6.80315" fill="none" stroke="black"/>
<path d="M70.7992,248.343h -13.6063" fill="none" stroke="black"/>
<path d="M63.9961,238.575h -6.80315" fill="none" stroke="black"/>
<path d="M63.9961,228.807h -6.80315" fill="none" stroke="black"/>
<path d="M63.9961,219.039h -6.80315" fill="none" stroke="black"/>
<path d="M63.9961,209.271h -6.80315" fill="none" stroke="black"/>
<path d="M70.7992,199.503h -13.6063" fill="none" stroke="black"/>
<path d="M63.9961,189.735h -6.80315" fill="none" stroke="black"/>
<path d="M63.9961,179.967h -6.80315" fill="none" stroke="black"/>
<path d="M63.9961,170.199h -6.80315" fill="none" stroke="black"/>
<path d="M63.9961,160.431h -6.80315" fill="none" stroke="black"/>
<path d="M70.7992,150.663h -13.6063" fill="none" stroke="black"/>
<path d="M63.9961,140.895h -6.80315" fill="none" stroke="black"/>
<path d="M63.9961,131.127h -6.80315" fill="none" stroke="black"/>
<path d="M63.9961,121.36h -6.80315" fill="none" stroke="black"/>
<path d="M63.9961,111.592h -6.80315" fill="none" stroke="black"/>
<path d="M70.7992,101.824h -13.6063" fill="none" stroke="black"/>
<path d="M63.9961,92.0557h -6.80315" fill="none" stroke="black"/>
<path d="M63.9961,82.2877h -6.80315" fill="none" stroke="black"/>
<path d="M63.9961,72.5198h -6.80315" fill="none" stroke="black"/>
<path d="M63.9961,62.7518h -6.80315" fill="none" stroke="black"/>
<path d="M70.7992,52.9839h -13.6063" fill="none" stroke="black"/>
<path d="M70.7992,52.9839h -13.6063" fill="none" stroke="black"/>
<path d="M63.9961,43.216h -6.80315" fill="none" stroke="black"/>
<text x="44.4859" y="352.702" fill="black" font-size="19.1824" font-family="Helvetica">
0
</text>
<text x="20.8638" y="303.828" fill="black" font-size="19.1824" font-family="Helvetica">
0.01
</text>
<text x="18.4202" y="254.955" fill="black" font-size="19.1824" font-family="Helvetica">
0.02
</text>
<text x="18.4202" y="206.082" fill="black" font-size="19.1824" font-family="Helvetica">
0.03
</text>
<text x="18.4202" y="157.209" fill="black" font-size="19.1824" font-family="Helvetica">
0.04
</text>
<text x="18.4202" y="109.15" fill="black" font-size="19.1824" font-family="Helvetica">
0.05
</text>
<text x="18.4202" y="60.2769" fill="black" font-size="19.1824" font-family="Helvetica">
0.06
</text>
<path d="M57.1929,346.022h 90.7087v -307.575" fill="none" stroke="#333399" stroke-width="2"/>
<path d="M170.579,38.4469v 307.575" fill="none" stroke="#333399" stroke-width="2"/>
<path d="M170.579,346.022h 45.3543v -228.13h 22.6772v -20.2512h 22.6772v 0.738697h 22.6772v -53.8767h 22.6772v 117.195h 22.6772v 184.324h 22.6772v -307.575" fill="none" stroke="#333399" stroke-width="2"/>
<path d="M420.028,38.4469v 307.575" fill="none" stroke="#333399" stroke-width="2"/>
<path d="M420.028,346.022h 90.7087" fill="none" stroke="#333399" stroke-width="2"/>
<rect x="340.657" y="38.4469" width="170.079" height="76.8938" fill="white"/>
<path d="M340.657,115.341h 170.079" fill="none" stroke="black"/>
<path d="M510.736,115.341v -76.8938" fill="none" stroke="black"/>
<path d="M510.736,38.4469h -170.079" fill="none" stroke="black"/>
<path d="M340.657,38.4469v 76.8938" fill="none" stroke="black"/>
<text x="382.526" y="65.9788" fill="black" font-size="27.1288" font-family="Helvetica">
old_data
</text>
<path d="M347.035,71.1268h 29.7638v -26.9128h -29.7638z" fill="white"/>
<path d="M347.035,57.6704h 29.7638" fill="none" stroke="#000033" stroke-width="2"/>
<g stroke="black" stroke-width="2" fill="none">
<line x1="360.917" y1="57.6704" x2="361.917" y2="57.6704"/>
</g>
<text x="382.526" y="104.263" fill="black" font-size="27.1288" font-family="Helvetica">
Extended
</text>
<path d="M347.035,109.574h 29.7638v -26.9128h -29.7638z" fill="white"/>
<path d="M347.035,96.1173h 29.7638" fill="none" stroke="#333399" stroke-width="2"/>
<g stroke="black" stroke-width="2" fill="none">
<line x1="360.917" y1="96.1173" x2="361.917" y2="96.1173"/>
</g>
<text x="160.967" y="17.9202" fill="black" font-size="18.7938" font-family="Helvetica">
Fraction of late hits over layer
</text></svg>
