<?xml version="1.0" standalone="no"?>
<svg width="567" height="384" viewBox="0 0 567 384" xmlns="http://www.w3.org/2000/svg">
<title>
../plots/17_05_20_Pions_Data_MC/electrons_20GeV_withSteelFar_no56_cogZ.svg
</title>
<desc>
Creator: ROOT Version 5.34/21
CreationDate: Wed May 31 16:07:59 2017</desc>
<defs>
</defs>
<rect x="0" y="0" width="567" height="384" fill="white"/>
<rect x="57" y="38" width="453" height="308" fill="white"/>
<rect x="57" y="38" width="453" height="308" fill="none" stroke="black"/>
<rect x="57" y="38" width="453" height="308" fill="white"/>
<rect x="57" y="38" width="453" height="308" fill="none" stroke="black"/>
<path d="M57,346h 37v -1h 1v -10h 1v -26h 1v -67h 1v -137h 1v -35v 4h 1v -21v 46h 1v 64h 1v 69h 1v 58v -2h 1v 36h 1v 7h 1v 4h 1v 6h 2v 3h 1v 1v -1h 1v 2h 399" fill="none" stroke="#663399" stroke-width="2"/>
<path d="M57,346h 453" fill="none" stroke="black"/>
<text x="426" y="376" fill="black" font-size="15" font-family="Helvetica">
CoG Z [mm]
</text>
<path d="M57,336v 10" fill="none" stroke="black"/>
<path d="M66,341v 5" fill="none" stroke="black"/>
<path d="M75,341v 5" fill="none" stroke="black"/>
<path d="M84,341v 5" fill="none" stroke="black"/>
<path d="M93,341v 5" fill="none" stroke="black"/>
<path d="M102,336v 10" fill="none" stroke="black"/>
<path d="M111,341v 5" fill="none" stroke="black"/>
<path d="M120,341v 5" fill="none" stroke="black"/>
<path d="M129,341v 5" fill="none" stroke="black"/>
<path d="M138,341v 5" fill="none" stroke="black"/>
<path d="M147,336v 10" fill="none" stroke="black"/>
<path d="M156,341v 5" fill="none" stroke="black"/>
<path d="M166,341v 5" fill="none" stroke="black"/>
<path d="M175,341v 5" fill="none" stroke="black"/>
<path d="M184,341v 5" fill="none" stroke="black"/>
<path d="M193,336v 10" fill="none" stroke="black"/>
<path d="M202,341v 5" fill="none" stroke="black"/>
<path d="M211,341v 5" fill="none" stroke="black"/>
<path d="M220,341v 5" fill="none" stroke="black"/>
<path d="M229,341v 5" fill="none" stroke="black"/>
<path d="M238,336v 10" fill="none" stroke="black"/>
<path d="M247,341v 5" fill="none" stroke="black"/>
<path d="M256,341v 5" fill="none" stroke="black"/>
<path d="M265,341v 5" fill="none" stroke="black"/>
<path d="M274,341v 5" fill="none" stroke="black"/>
<path d="M283,336v 10" fill="none" stroke="black"/>
<path d="M293,341v 5" fill="none" stroke="black"/>
<path d="M302,341v 5" fill="none" stroke="black"/>
<path d="M311,341v 5" fill="none" stroke="black"/>
<path d="M320,341v 5" fill="none" stroke="black"/>
<path d="M329,336v 10" fill="none" stroke="black"/>
<path d="M338,341v 5" fill="none" stroke="black"/>
<path d="M347,341v 5" fill="none" stroke="black"/>
<path d="M356,341v 5" fill="none" stroke="black"/>
<path d="M365,341v 5" fill="none" stroke="black"/>
<path d="M374,336v 10" fill="none" stroke="black"/>
<path d="M383,341v 5" fill="none" stroke="black"/>
<path d="M392,341v 5" fill="none" stroke="black"/>
<path d="M401,341v 5" fill="none" stroke="black"/>
<path d="M410,341v 5" fill="none" stroke="black"/>
<path d="M420,336v 10" fill="none" stroke="black"/>
<path d="M429,341v 5" fill="none" stroke="black"/>
<path d="M438,341v 5" fill="none" stroke="black"/>
<path d="M447,341v 5" fill="none" stroke="black"/>
<path d="M456,341v 5" fill="none" stroke="black"/>
<path d="M465,336v 10" fill="none" stroke="black"/>
<path d="M474,341v 5" fill="none" stroke="black"/>
<path d="M483,341v 5" fill="none" stroke="black"/>
<path d="M492,341v 5" fill="none" stroke="black"/>
<path d="M501,341v 5" fill="none" stroke="black"/>
<path d="M510,336v 10" fill="none" stroke="black"/>
<text x="52" y="360" fill="black" font-size="15" font-family="Helvetica">
0
</text>
<text x="89" y="360" fill="black" font-size="15" font-family="Helvetica">
100
</text>
<text x="134" y="360" fill="black" font-size="15" font-family="Helvetica">
200
</text>
<text x="179" y="360" fill="black" font-size="15" font-family="Helvetica">
300
</text>
<text x="225" y="360" fill="black" font-size="15" font-family="Helvetica">
400
</text>
<text x="270" y="360" fill="black" font-size="15" font-family="Helvetica">
500
</text>
<text x="315" y="360" fill="black" font-size="15" font-family="Helvetica">
600
</text>
<text x="361" y="360" fill="black" font-size="15" font-family="Helvetica">
700
</text>
<text x="406" y="360" fill="black" font-size="15" font-family="Helvetica">
800
</text>
<text x="451" y="360" fill="black" font-size="15" font-family="Helvetica">
900
</text>
<text x="493" y="360" fill="black" font-size="15" font-family="Helvetica">
1000
</text>
<path d="M57,346v -308" fill="none" stroke="black"/>
<g transform="rotate(-90,24,168)">
<text x="24" y="168" fill="black" font-size="15" font-family="Helvetica">
Normalized Entries
</text>
</g>
<path d="M70,346h -13" fill="none" stroke="black"/>
<path d="M63,331h -6" fill="none" stroke="black"/>
<path d="M63,316h -6" fill="none" stroke="black"/>
<path d="M63,301h -6" fill="none" stroke="black"/>
<path d="M70,287h -13" fill="none" stroke="black"/>
<path d="M63,272h -6" fill="none" stroke="black"/>
<path d="M63,257h -6" fill="none" stroke="black"/>
<path d="M63,242h -6" fill="none" stroke="black"/>
<path d="M70,228h -13" fill="none" stroke="black"/>
<path d="M63,213h -6" fill="none" stroke="black"/>
<path d="M63,198h -6" fill="none" stroke="black"/>
<path d="M63,183h -6" fill="none" stroke="black"/>
<path d="M70,169h -13" fill="none" stroke="black"/>
<path d="M63,154h -6" fill="none" stroke="black"/>
<path d="M63,139h -6" fill="none" stroke="black"/>
<path d="M63,124h -6" fill="none" stroke="black"/>
<path d="M70,110h -13" fill="none" stroke="black"/>
<path d="M63,95h -6" fill="none" stroke="black"/>
<path d="M63,80h -6" fill="none" stroke="black"/>
<path d="M63,65h -6" fill="none" stroke="black"/>
<path d="M70,51h -13" fill="none" stroke="black"/>
<path d="M70,51h -13" fill="none" stroke="black"/>
<text x="46" y="351" fill="black" font-size="15" font-family="Helvetica">
0
</text>
<text x="24" y="292" fill="black" font-size="15" font-family="Helvetica">
0.02
</text>
<text x="24" y="233" fill="black" font-size="15" font-family="Helvetica">
0.04
</text>
<text x="24" y="174" fill="black" font-size="15" font-family="Helvetica">
0.06
</text>
<text x="24" y="115" fill="black" font-size="15" font-family="Helvetica">
0.08
</text>
<text x="35" y="56" fill="black" font-size="15" font-family="Helvetica">
0.1
</text>
<path d="M57,346h 34v -1h 1v -1h 1v -17h 1v -34h 1v -38h 1v -46h 1v -32h 1v -15v 9h 1v 12h 1v 23h 1v 28h 1v 25h 1v 29h 1v 16h 1v 11h 1v 6h 1v 8h 1v 4h 1v 3h 1v 4h 1v -1v 7h 399" fill="none" stroke="#ff33ff" stroke-width="2"/>
<rect x="340" y="38" width="170" height="77" fill="white"/>
<path d="M340,115h 170" fill="none" stroke="black"/>
<path d="M510,115v -77" fill="none" stroke="black"/>
<path d="M510,38h -170" fill="none" stroke="black"/>
<path d="M340,38v 77" fill="none" stroke="black"/>
<text x="382" y="66" fill="black" font-size="20" font-family="Helvetica">
Simulation
</text>
<path d="M347,71h 29v -27h -29z" fill="white"/>
<path d="M347,57h 29" fill="none" stroke="#663399" stroke-width="2"/>
<g stroke="black" stroke-width="2" fill="none">
<line x1="360" y1="57" x2="361" y2="57"/>
</g>
<text x="382" y="104" fill="black" font-size="20" font-family="Helvetica">
Data
</text>
<path d="M347,109h 29v -27h -29z" fill="white"/>
<path d="M347,96h 29" fill="none" stroke="#ff33ff" stroke-width="2"/>
<g stroke="black" stroke-width="2" fill="none">
<line x1="360" y1="96" x2="361" y2="96"/>
</g>
<text x="101" y="17" fill="black" font-size="16" font-family="Helvetica">
Center of Gravity in Z Direction after data selection
</text></svg>
