<?xml version="1.0" standalone="no"?>
<svg width="567" height="407" viewBox="0 0 567 407" xmlns="http://www.w3.org/2000/svg">
<title>
../plots/17_05_20_Pions_Data_MC/pions_compare_70GeV_timeDistribution.svg
</title>
<desc>
Creator: ROOT Version 5.34/21
CreationDate: Wed May 31 15:04:49 2017</desc>
<defs>
</defs>
<rect x="0" y="0" width="567" height="407" fill="white"/>
<rect x="57" y="40" width="453" height="326" fill="white"/>
<rect x="57" y="40" width="453" height="326" fill="none" stroke="black"/>
<rect x="57" y="40" width="453" height="326" fill="white"/>
<rect x="57" y="40" width="453" height="326" fill="none" stroke="black"/>
<path d="M57,366h 18v -20h 1v 20h 9v -20h 1v 20h 2v -20h 1v 20h 2v -40h 1v 40h 1v -40h 1v -11v 51h 2v -40h 1v -31h 2v -8h 1v -27h 1v -11h 1v 11h 1v -19h 1v -11h 1v -7h 1v -10h 1v -9h 1v -6h 1v -5h 1v -17h 1v -4h 1v -6h 1v -11h 1v -6h 1v -7h 1v -11h
 1v -5h 1v -4h 1v -11h 1v -5h 1v -5h 1v -9h 1v -4h 1v -4h 1v -8h 1v -4h 1v -3h 1v -5h 1v -2h 1v -2h 1v -1h 2v 1h 1v 3h 1v 2h 1v 3h 1v 6h 1v 3h 1v 4h 1v 8h 1v 3h 1v 4h 1v 8h 1v 6h 1v 3h 1v 10h 1v 4h 1v 5h 1v 5h 1v 10h 1v 1h 1v 5h 1v 7h 1v 4h 1v 4h 1v
 5h 1v 4h 1v 2h 1v 5h 1v 3h 1v 1h 1v 6v -4h 1v 4h 2v 1h 1v -1h 1v 1h 1v 4h 1v -4h 1v 3h 1v 2h 1v -2h 1v -3h 1v 7v -3h 1v -4h 1v 8h 1v -7h 1v 2h 2v 3h 1v 4h 1v -6h 1v 4h 1v -5h 1v 4h 1v 2h 1v -5h 1v 4h 1v 2h 1v -5h 1v 2h 2v -4h 1v 5h 2v -3v 2h 1v -2h
 1v 6h 1v -6h 2v 4h 1v 2v -6h 1v 5h 2v -2h 1v -2h 2v 5v -3h 1v 2h 1v -1h 1v -1v 1h 1v -2h 1v 2h 1v -2v 2h 1v 1h 1v -1h 3v 3h 1v -5v 8h 1v -3h 1v -3h 1v 5h 1v -5h 1v 2h 1v 4v -6h 1v 6h 1v -5h 1v 3h 1v -4h 1v 8h 1v -3h 1v -5v 1h 1v -5h 1v 8h 1v -5v 3h
 1v 4h 2v -3h 1v -3h 1v 4h 1v 3v -7h 1v 8h 1v -8h 1v 6h 1v -1h 1v -2h 1v 3h 1v -6h 1v 6h 1v 2v -3h 1v -4h 2v 3v -1h 1v 4h 1v 3h 1v -4h 1v -1h 1v 3h 1v -4v 2h 1v 4h 1v -3h 1v -4h 1v 2h 1v -1h 1v 1h 1v 1h 1v 2h 1v -3h 1v 3v -7h 1v 8h 1v -7h 1v 2v -2h
 1v 3h 1v 8h 1v -6v 1h 2v -1h 1v -1v 1h 1v -2h 1v 3h 1v -8v 4h 1v 3h 1v 2h 1v -1v 2h 1v 1h 1v -2h 1v 1v -1h 1v 2h 1v -5h 2v 3h 1v -2h 1v -1v 5h 1v -1h 1v -2h 1v 7v -6h 1v -1h 1v 2h 1v 1v -3h 1v 4h 1v -4h 1v -4v 9h 1v -3h 1v 5h 1v -6h 1v 4h 1v 2h 1v
 -9v 8h 1v 2h 1v -1h 1v -2h 1v -1v 4h 1v -7h 1v 5h 1v -4h 1v 1h 1v -2h 1v 7v -4h 1v -2h 1v -2h 1v 9h 1v -9h 1v 6h 1v -2h 1v 5h 1v -6h 1v 5h 1v 3h 1v -6h 1v -3v 6h 1v 4h 1v -5h 1v -3h 1v 5h 1v 1h 1v -8h 1v 6h 1v 3h 1v -4v 1h 1v -3h 1v 2h 3v -1h 1v -3v
 2h 1v 2h 1v 5h 1v -6v 7h 1v -11h 1v 2h 1v 5h 1v -2v 1h 1v 4h 1v -5h 1v 9v -4h 1v -1h 1v -4h 1v -1h 1v 1h 1v 2h 1v -2h 1v 2h 1v 4h 1v -8h 1v 4h 1v -4h 1v 8v -7h 1v 1h 1v 8h 1v -8h 1v 5h 1v 6h 1v -11v 1h 3v 4v -4h 1v 6h 1v 3h 1v -6h 1v -7h 1v 4h 1v
 -3h 1v 6h 2v 3h 1v 1h 1v -6h 1v 5v -1h 1v -3h 1v 4h 1v 6h 1v -5h 1v 1h 1v -8h 1v -2h 1v 5h 1v 1h 1v 5h 2v -5h 1v 4v -5h 1v -5h 1v 14h 1v -9v 4h 1v -6h 1v 4h 1v 5v -1h 1v 2h 1v -7h 1v -3v 11h 1v -4h 1v -4h 1v 8v -6h 2v -5h 1v 3h 1v -2h 1v 1h 1v 12h
 1v -4h 1v -6h 1v 2h 1v 7h 1v -6h 1v -4h 1v 5h 1v -1h 1v -2v 1h 1v 5h 1v -2h 1v 7h 1v -12v 4h 1v -1h 1v -1h 1v 10v -13h 1v 4h 1v 9h 1v -11v 3h 1v -1h 1v 2h 1v -6v 6h 2v -5h 1v -2v 1h 1v 2h 1v 5h 1v 3h 1v 2h 1v -5h 1v -2v 6h 1v -13h 1v 6h 1v 15v -10h
 1v -8h 1v 14h 1v -12h 1v 7h 1v -4h 1v -2v 2h 1v 5h 1v -4h 1v -6v 5h 1v 5h 1v 3h 1v -14h 1v 11h 2v -10v 6h 1v -6h 1v 4h 1v 5h 1v -2v 1h 1v -1h 1v -4h 1v 3v -3h 1v 3h 1v 5h 1v -6h 1v 1h 1v 1h 1v 2v -3h 1v 3h 1v -2h 1v 2h 1v -2h 1v 5h 1v -7h 1v 6h 1v
 -1h 1v 1v -2h 1v -2h 1v 2h 1v -1v 5h 1v -9h 1v 6h 1v 3h 2v -2h 1v -4v 2h 2v 3h 1v -6h 1v 4h 1v -5h 1v 11h 1v -7h 1v 3h 1v -1h 1" fill="none" stroke="#000033" stroke-width="2"/>
<path d="M57,366h 453" fill="none" stroke="black"/>
<text x="419" y="399" fill="black" font-size="16" font-family="Helvetica">
Hit Time [ns]
</text>
<path d="M57,356v 10" fill="none" stroke="black"/>
<path d="M72,361v 5" fill="none" stroke="black"/>
<path d="M87,361v 5" fill="none" stroke="black"/>
<path d="M102,361v 5" fill="none" stroke="black"/>
<path d="M117,361v 5" fill="none" stroke="black"/>
<path d="M132,356v 10" fill="none" stroke="black"/>
<path d="M147,361v 5" fill="none" stroke="black"/>
<path d="M162,361v 5" fill="none" stroke="black"/>
<path d="M177,361v 5" fill="none" stroke="black"/>
<path d="M193,361v 5" fill="none" stroke="black"/>
<path d="M208,356v 10" fill="none" stroke="black"/>
<path d="M223,361v 5" fill="none" stroke="black"/>
<path d="M238,361v 5" fill="none" stroke="black"/>
<path d="M253,361v 5" fill="none" stroke="black"/>
<path d="M268,361v 5" fill="none" stroke="black"/>
<path d="M283,356v 10" fill="none" stroke="black"/>
<path d="M298,361v 5" fill="none" stroke="black"/>
<path d="M313,361v 5" fill="none" stroke="black"/>
<path d="M328,361v 5" fill="none" stroke="black"/>
<path d="M343,361v 5" fill="none" stroke="black"/>
<path d="M359,356v 10" fill="none" stroke="black"/>
<path d="M374,361v 5" fill="none" stroke="black"/>
<path d="M389,361v 5" fill="none" stroke="black"/>
<path d="M404,361v 5" fill="none" stroke="black"/>
<path d="M419,361v 5" fill="none" stroke="black"/>
<path d="M434,356v 10" fill="none" stroke="black"/>
<path d="M449,361v 5" fill="none" stroke="black"/>
<path d="M464,361v 5" fill="none" stroke="black"/>
<path d="M479,361v 5" fill="none" stroke="black"/>
<path d="M494,361v 5" fill="none" stroke="black"/>
<path d="M509,356v 10" fill="none" stroke="black"/>
<path d="M509,356v 10" fill="none" stroke="black"/>
<text x="40" y="382" fill="black" font-size="16" font-family="Helvetica">
-100
</text>
<text x="127" y="382" fill="black" font-size="16" font-family="Helvetica">
0
</text>
<text x="194" y="382" fill="black" font-size="16" font-family="Helvetica">
100
</text>
<text x="269" y="382" fill="black" font-size="16" font-family="Helvetica">
200
</text>
<text x="345" y="382" fill="black" font-size="16" font-family="Helvetica">
300
</text>
<text x="420" y="382" fill="black" font-size="16" font-family="Helvetica">
400
</text>
<text x="496" y="382" fill="black" font-size="16" font-family="Helvetica">
500
</text>
<path d="M57,366v -326" fill="none" stroke="black"/>
<g transform="rotate(-90,22,104)">
<text x="22" y="104" fill="black" font-size="16" font-family="Helvetica">
# Entries
</text>
</g>
<path d="M70,363h -13" fill="none" stroke="black"/>
<text x="41" y="363" fill="black" font-size="11" font-family="Helvetica">
-6
</text>
<text x="24" y="371" fill="black" font-size="16" font-family="Helvetica">
10
</text>
<path d="M63,343h -6" fill="none" stroke="black"/>
<path d="M63,332h -6" fill="none" stroke="black"/>
<path d="M63,324h -6" fill="none" stroke="black"/>
<path d="M63,317h -6" fill="none" stroke="black"/>
<path d="M63,312h -6" fill="none" stroke="black"/>
<path d="M63,307h -6" fill="none" stroke="black"/>
<path d="M63,304h -6" fill="none" stroke="black"/>
<path d="M63,300h -6" fill="none" stroke="black"/>
<path d="M70,297h -13" fill="none" stroke="black"/>
<text x="41" y="297" fill="black" font-size="11" font-family="Helvetica">
-5
</text>
<text x="24" y="304" fill="black" font-size="16" font-family="Helvetica">
10
</text>
<path d="M63,277h -6" fill="none" stroke="black"/>
<path d="M63,266h -6" fill="none" stroke="black"/>
<path d="M63,257h -6" fill="none" stroke="black"/>
<path d="M63,251h -6" fill="none" stroke="black"/>
<path d="M63,246h -6" fill="none" stroke="black"/>
<path d="M63,241h -6" fill="none" stroke="black"/>
<path d="M63,238h -6" fill="none" stroke="black"/>
<path d="M63,234h -6" fill="none" stroke="black"/>
<path d="M70,231h -13" fill="none" stroke="black"/>
<text x="41" y="232" fill="black" font-size="11" font-family="Helvetica">
-4
</text>
<text x="24" y="239" fill="black" font-size="16" font-family="Helvetica">
10
</text>
<path d="M63,211h -6" fill="none" stroke="black"/>
<path d="M63,200h -6" fill="none" stroke="black"/>
<path d="M63,191h -6" fill="none" stroke="black"/>
<path d="M63,185h -6" fill="none" stroke="black"/>
<path d="M63,180h -6" fill="none" stroke="black"/>
<path d="M63,175h -6" fill="none" stroke="black"/>
<path d="M63,171h -6" fill="none" stroke="black"/>
<path d="M63,168h -6" fill="none" stroke="black"/>
<path d="M70,165h -13" fill="none" stroke="black"/>
<text x="41" y="165" fill="black" font-size="11" font-family="Helvetica">
-3
</text>
<text x="24" y="173" fill="black" font-size="16" font-family="Helvetica">
10
</text>
<path d="M63,145h -6" fill="none" stroke="black"/>
<path d="M63,134h -6" fill="none" stroke="black"/>
<path d="M63,125h -6" fill="none" stroke="black"/>
<path d="M63,119h -6" fill="none" stroke="black"/>
<path d="M63,114h -6" fill="none" stroke="black"/>
<path d="M63,109h -6" fill="none" stroke="black"/>
<path d="M63,105h -6" fill="none" stroke="black"/>
<path d="M63,102h -6" fill="none" stroke="black"/>
<path d="M70,99h -13" fill="none" stroke="black"/>
<text x="41" y="99" fill="black" font-size="11" font-family="Helvetica">
-2
</text>
<text x="24" y="106" fill="black" font-size="16" font-family="Helvetica">
10
</text>
<path d="M63,79h -6" fill="none" stroke="black"/>
<path d="M63,68h -6" fill="none" stroke="black"/>
<path d="M63,59h -6" fill="none" stroke="black"/>
<path d="M63,53h -6" fill="none" stroke="black"/>
<path d="M63,48h -6" fill="none" stroke="black"/>
<path d="M63,43h -6" fill="none" stroke="black"/>
<path d="M57,315v -3h 1v 3h 1v -1h 1v -5v 5h 1v 2h 1v -2h 1v -1h 1v 8h 1v 3h 1v -7h 1v 1v -4h 1v -5h 1v 3h 1v 6h 1v -8h 1v -4h 1v 7h 1v -3h 1v -1h 1v 4v -3h 1v 2h 1v -5h 1v 6v -11h 1v 6h 1v -3h 1v -7v 4h 1v -3h 1v 4h 1v -2h 1v -8h 1v 5h 1v -5v 7h 1v
 -11h 1v -4h 1v 1v -3h 1v 6h 1v -7h 1v -13h 1v -2h 1v -5h 1v 1v -6h 1v -5h 1v -7h 1v -8h 1v -6h 1v -4h 1v -11h 1v -5h 1v -5h 1v -12h 1v -5h 1v -5h 1v -6h 1v -11h 1v -5h 1v -6h 1v -10h 1v -5h 1v -6h 1v -9h 1v -6h 1v -4h 1v -10h 1v -4h 1v -5h 1v -8h 1v
 -4h 1v -3h 1v -7h 1v -3h 1v -3h 1v -5h 1v -1h 1v -2h 1v -1h 1v 1h 1v 1h 1v 2h 1v 2h 1v 2h 1v 5h 1v 2h 1v 3h 1v 5h 1v 3h 1v 3h 1v 7h 1v 3h 1v 3h 1v 6h 1v 4h 1v 3h 1v 3h 1v 7h 1v 3h 1v 4h 1v 7h 1v 2h 1v 4h 1v 7h 1v 3h 1v 4h 1v 6h 1v 4h 1v 2h 1v 7h 1v
 2h 1v 4h 1v 5h 1v 1h 1v 2h 1v 5h 1v 3h 2v 4h 1v 2h 1v 1h 1v 2h 1v 2h 1v -1h 1v 1h 1v 3h 2v 1h 2v 2h 3v 2h 1v 2h 4v 1h 1v -1h 2v 2h 2v 1h 1v -1h 2v 2h 1v -1v 1h 1v -1h 1v 1h 1v -1h 1v 2h 1v -1h 1v 2h 2v -1h 1v -1h 1v 3h 1v -1h 1v 1v -1h 2v 2h 1v -3v
 1h 2v 2h 1v -2v 1h 1v 1h 1v -1h 1v 4h 1v -3h 1v 2h 1v -1h 2v 1h 1v -1h 1v 3h 3v 1v -2h 1v -1h 1v 1h 1v -1h 1v 2h 2v 2h 1v -4h 1v 2h 1v 1v -2h 1v 2h 1v -1h 1v 2v -2h 1v -1h 1v 2h 1v 3v -4h 1v 1h 1v 2h 1v -2h 1v 2h 1v -1h 1v 1v -2h 1v 3h 1v -1h 1v -2v
 2h 2v -2h 1v 4v -1h 1v -2h 1v 1h 1v 3h 1v -4h 1v 3h 1v -3h 1v 4h 1v -3h 1v 1v -1h 1v 1h 2v 2h 1v -1h 1v -1h 1v 2h 1v -2v 1h 1v -1h 1v 3h 1v -1v 2h 1v -2h 1v 1h 1v -1h 1v -1h 2v 2h 1v -2h 1v 2h 1v -1v 2h 2v -2h 1v -1h 1v 1h 1v -1h 1v 1v -1h 2v 2h 2v
 -1h 1v 2h 1v 1h 1v -4h 1v 1h 3v 1h 1v 2v -2h 1v 1h 1v -2h 1v 3v -2h 1v 1h 1v 1h 1v -2h 2v 4h 1v -5h 1v 4v -2h 1v 1h 2v -1v 1h 1v -1h 1v 1h 1v -1v 2h 1v -1h 1v 1h 1v -3v 2h 2v 3h 1v -4v 2h 1v 2h 1v -3h 1v 2v -2h 1v 3h 1v -2h 1v 2h 1v -2h 2v 2v -1h 2v
 -2h 1v 3v -4h 1v 2h 2v 2v -1h 1v -3h 1v 6h 1v -3h 1v -1h 1v 2h 1v -2v 3h 1v -1h 3v -1h 1v 2h 1v -1h 1v 2v -3h 1v 1h 2v 2v -1h 1v 1h 1v -2h 1v 2h 1v -3h 1v 3h 1v -1h 2v -1h 1v 3v -1h 1v 4h 1v -4h 1v 1v -3h 1v 2h 1v -1h 1v 1h 1v -2h 1v 3h 1v -1v 1h 1v
 -1h 2v -2v 4h 1v -3h 1v 1h 1v -1v 3h 1v -4h 1v 1h 1v -1v 3h 1v -1h 1v -1h 1v 2h 1v -1h 1v 1h 1v -1h 1v 1h 1v 2h 2v -3h 1v 2h 2v -3v 3h 1v -2h 2v 2v -3h 1v 1h 1v 2h 1v -1h 1v -2h 1v 1h 1v 2h 1v -2h 2v 1h 1v 1h 2v -3v 2h 1v 1h 1v 2h 1v -4v 1h 1v -2h
 1v 1h 1v 1v -2h 1v 4h 1v 1h 1v -4v 1h 1v 2h 1v -2h 1v 2h 1v -1h 1v -1h 1v 1v -2h 1v 6h 1v -3h 1v -1v 2h 1v 1h 1v -1h 2v -2v 1h 1v -1h 1v -2h 1v 2h 1v 1h 2v -1v 3h 1v -6h 1v 6h 1v -2h 1v 1h 1v 2h 1v -4v 3h 1v 1h 1v -4h 1v 3h 1v 1h 1v -2h 1v -1h 1v 1h
 1v -1h 1v 4h 1v -3h 1v 1h 1v -1v 2h 1v -1h 1v -1h 1v 3v -3h 1v -1h 1v 1h 1v 2v -1h 1v 1h 2v -2h 1v 2h 1v -1h 1v -1h 1v -1h 1v 2h 1v -2h 1v 2h 1v 4h 1v -6h 1v 3v -1h 2v -2h 1v 1h 1v 1h 2v 3v -2h 2v -1h 1v -1v 3h 1v -1h 1v -2h 1v -1v 1h 1v 1h 1v 2h 1v
 -2h 1v 3h 2v -2h 2v 2h 1v 4v -7h 1v 1h 1v 2h 1v -3h 1v 3h 1v -5h 1v 4v -3h 1v 3h 1v -1h 1v 3v -2h 2v -1h 1v 3v -3h 1v 2" fill="none" stroke="#3366ff" stroke-width="2"/>
<rect x="340" y="40" width="170" height="82" fill="white"/>
<path d="M340,122h 170" fill="none" stroke="black"/>
<path d="M510,122v -82" fill="none" stroke="black"/>
<path d="M510,40h -170" fill="none" stroke="black"/>
<path d="M340,40v 82" fill="none" stroke="black"/>
<text x="382" y="69" fill="black" font-size="20" font-family="Helvetica">
Simulation
</text>
<path d="M347,75h 29v -29h -29z" fill="white"/>
<path d="M347,61h 29" fill="none" stroke="#000033" stroke-width="2"/>
<g stroke="black" stroke-width="2" fill="none">
<line x1="360" y1="61" x2="361" y2="61"/>
</g>
<text x="382" y="110" fill="black" font-size="20" font-family="Helvetica">
Data
</text>
<path d="M347,116h 29v -29h -29z" fill="white"/>
<path d="M347,101h 29" fill="none" stroke="#3366ff" stroke-width="2"/>
<g stroke="black" stroke-width="2" fill="none">
<line x1="360" y1="101" x2="361" y2="101"/>
</g>
<text x="218" y="20" fill="black" font-size="17" font-family="Helvetica">
Hittime - T0 time
</text></svg>
