<?xml version="1.0" standalone="no"?>
<svg width="567" height="384" viewBox="0 0 567 384" xmlns="http://www.w3.org/2000/svg">
<title>
../plots/17_05_20_Pions_Data_MC/pions_compare_10GeV_mean_nHitsPerChip.svg
</title>
<desc>
Creator: ROOT Version 5.34/21
CreationDate: Wed May 31 16:30:33 2017</desc>
<defs>
</defs>
<rect x="0" y="0" width="567" height="384" fill="white"/>
<rect x="57" y="38" width="453" height="308" fill="white"/>
<rect x="57" y="38" width="453" height="308" fill="none" stroke="black"/>
<rect x="57" y="38" width="453" height="308" fill="white"/>
<rect x="57" y="38" width="453" height="308" fill="none" stroke="black"/>
<path d="M57,280h 4v -40h 5v -27h 4v -62h 5v -36h 4v 46h 5v -34h 4v -74h 5v 34h 5v -9h 4v 268h 5v -277h 4v 33h 5v -19h 4v -4h 5v -15h 4v 282h 5v -111h 4v -7h 5v -71h 4v 189h 37v -5h 4v -14h 5v 4h 4v -223h 5v 220h 4v 13h 5v -277h 4v 265h 5v -3h 5v
 -254h 4v 268h 5v -14h 4v -243h 5v 245h 4v -1h 5v 17h 4v -4h 5v -13h 4v -1h 5v -227h 4v 226h 5v 15h 4v -247h 5v 233h 9v -215h 5v 229h 4v -13h 5v -236h 4v 234h 5v 2h 4v 13h 9v -11h 9v -105h 5v 107h 4v 9h 5v -118h 5v 109h 4v -3h 5v -111h 4v 123h 5v
 -12h 4v -105h 5v 107h 4v -1h 5v 11h 4v 3h 5v -3h 9v -30h 5v 30h 4v 3h 5v -36h 4v 34h 9v -33h 5v 35h 4v -3h 5v -33h 4v 33h 5v -2h 4v 5h 5v -192h 4v -7h 5v 11h 5v -10h 4v 201h 18" fill="none" stroke="#000033" stroke-width="2"/>
<path d="M57,346h 453" fill="none" stroke="black"/>
<text x="-104869" y="30763" fill="black" font-size="17636" font-family="Helvetica">
Chip Number
</text>
<path d="M57,336v 10" fill="none" stroke="black"/>
<path d="M66,341v 5" fill="none" stroke="black"/>
<path d="M75,341v 5" fill="none" stroke="black"/>
<path d="M84,341v 5" fill="none" stroke="black"/>
<path d="M93,341v 5" fill="none" stroke="black"/>
<path d="M102,336v 10" fill="none" stroke="black"/>
<path d="M111,341v 5" fill="none" stroke="black"/>
<path d="M120,341v 5" fill="none" stroke="black"/>
<path d="M129,341v 5" fill="none" stroke="black"/>
<path d="M138,341v 5" fill="none" stroke="black"/>
<path d="M147,336v 10" fill="none" stroke="black"/>
<path d="M156,341v 5" fill="none" stroke="black"/>
<path d="M166,341v 5" fill="none" stroke="black"/>
<path d="M175,341v 5" fill="none" stroke="black"/>
<path d="M184,341v 5" fill="none" stroke="black"/>
<path d="M193,336v 10" fill="none" stroke="black"/>
<path d="M202,341v 5" fill="none" stroke="black"/>
<path d="M211,341v 5" fill="none" stroke="black"/>
<path d="M220,341v 5" fill="none" stroke="black"/>
<path d="M229,341v 5" fill="none" stroke="black"/>
<path d="M238,336v 10" fill="none" stroke="black"/>
<path d="M247,341v 5" fill="none" stroke="black"/>
<path d="M256,341v 5" fill="none" stroke="black"/>
<path d="M265,341v 5" fill="none" stroke="black"/>
<path d="M274,341v 5" fill="none" stroke="black"/>
<path d="M283,336v 10" fill="none" stroke="black"/>
<path d="M293,341v 5" fill="none" stroke="black"/>
<path d="M302,341v 5" fill="none" stroke="black"/>
<path d="M311,341v 5" fill="none" stroke="black"/>
<path d="M320,341v 5" fill="none" stroke="black"/>
<path d="M329,336v 10" fill="none" stroke="black"/>
<path d="M338,341v 5" fill="none" stroke="black"/>
<path d="M347,341v 5" fill="none" stroke="black"/>
<path d="M356,341v 5" fill="none" stroke="black"/>
<path d="M365,341v 5" fill="none" stroke="black"/>
<path d="M374,336v 10" fill="none" stroke="black"/>
<path d="M383,341v 5" fill="none" stroke="black"/>
<path d="M392,341v 5" fill="none" stroke="black"/>
<path d="M401,341v 5" fill="none" stroke="black"/>
<path d="M410,341v 5" fill="none" stroke="black"/>
<path d="M420,336v 10" fill="none" stroke="black"/>
<path d="M429,341v 5" fill="none" stroke="black"/>
<path d="M438,341v 5" fill="none" stroke="black"/>
<path d="M447,341v 5" fill="none" stroke="black"/>
<path d="M456,341v 5" fill="none" stroke="black"/>
<path d="M465,336v 10" fill="none" stroke="black"/>
<path d="M474,341v 5" fill="none" stroke="black"/>
<path d="M483,341v 5" fill="none" stroke="black"/>
<path d="M492,341v 5" fill="none" stroke="black"/>
<path d="M501,341v 5" fill="none" stroke="black"/>
<path d="M510,336v 10" fill="none" stroke="black"/>
<text x="46" y="358" fill="black" font-size="12" font-family="Helvetica">
140
</text>
<text x="91" y="358" fill="black" font-size="12" font-family="Helvetica">
150
</text>
<text x="136" y="358" fill="black" font-size="12" font-family="Helvetica">
160
</text>
<text x="182" y="358" fill="black" font-size="12" font-family="Helvetica">
170
</text>
<text x="227" y="358" fill="black" font-size="12" font-family="Helvetica">
180
</text>
<text x="273" y="358" fill="black" font-size="12" font-family="Helvetica">
190
</text>
<text x="318" y="358" fill="black" font-size="12" font-family="Helvetica">
200
</text>
<text x="363" y="358" fill="black" font-size="12" font-family="Helvetica">
210
</text>
<text x="409" y="358" fill="black" font-size="12" font-family="Helvetica">
220
</text>
<text x="454" y="358" fill="black" font-size="12" font-family="Helvetica">
230
</text>
<text x="499" y="358" fill="black" font-size="12" font-family="Helvetica">
240
</text>
<path d="M57,346v -308" fill="none" stroke="black"/>
<g transform="rotate(-90,-13,184)">
<text x="-13" y="184" fill="black" font-size="19" font-family="Helvetica">
&lt;# Hits per Chip&gt;
</text>
</g>
<path d="M70,346h -13" fill="none" stroke="black"/>
<path d="M63,332h -6" fill="none" stroke="black"/>
<path d="M63,319h -6" fill="none" stroke="black"/>
<path d="M63,305h -6" fill="none" stroke="black"/>
<path d="M70,292h -13" fill="none" stroke="black"/>
<path d="M63,278h -6" fill="none" stroke="black"/>
<path d="M63,265h -6" fill="none" stroke="black"/>
<path d="M63,251h -6" fill="none" stroke="black"/>
<path d="M70,238h -13" fill="none" stroke="black"/>
<path d="M63,224h -6" fill="none" stroke="black"/>
<path d="M63,211h -6" fill="none" stroke="black"/>
<path d="M63,197h -6" fill="none" stroke="black"/>
<path d="M70,184h -13" fill="none" stroke="black"/>
<path d="M63,171h -6" fill="none" stroke="black"/>
<path d="M63,157h -6" fill="none" stroke="black"/>
<path d="M63,144h -6" fill="none" stroke="black"/>
<path d="M70,130h -13" fill="none" stroke="black"/>
<path d="M63,117h -6" fill="none" stroke="black"/>
<path d="M63,103h -6" fill="none" stroke="black"/>
<path d="M63,90h -6" fill="none" stroke="black"/>
<path d="M70,76h -13" fill="none" stroke="black"/>
<path d="M70,76h -13" fill="none" stroke="black"/>
<path d="M63,63h -6" fill="none" stroke="black"/>
<path d="M63,49h -6" fill="none" stroke="black"/>
<text x="44" y="352" fill="black" font-size="19" font-family="Helvetica">
0
</text>
<text x="29" y="298" fill="black" font-size="19" font-family="Helvetica">
0.2
</text>
<text x="28" y="245" fill="black" font-size="19" font-family="Helvetica">
0.4
</text>
<text x="28" y="191" fill="black" font-size="19" font-family="Helvetica">
0.6
</text>
<text x="28" y="137" fill="black" font-size="19" font-family="Helvetica">
0.8
</text>
<text x="46" y="83" fill="black" font-size="19" font-family="Helvetica">
1
</text>
<path d="M57,290h 4v 36h 5v -12h 4v -155h 5v -5h 4v 14h 5v -64h 4v -66" fill="none" stroke="#3366ff" stroke-width="2"/>
<path d="M102,38v 308" fill="none" stroke="#3366ff" stroke-width="2"/>
<path d="M102,346h 5v -308" fill="none" stroke="#3366ff" stroke-width="2"/>
<path d="M111,38v 47" fill="none" stroke="#3366ff" stroke-width="2"/>
<path d="M111,85h 5v -16h 4v 36h 5v -67" fill="none" stroke="#3366ff" stroke-width="2"/>
<path d="M129,38v 308" fill="none" stroke="#3366ff" stroke-width="2"/>
<path d="M129,346h 5v -110h 4v 7h 5v -173h 4v 276h 37v -5h 4v -10h 5v 1h 4v -221h 5v 220h 4v 11h 5v -273h 4v 259h 5v -1h 5v -256h 4v 268h 5v -13h 4v -288" fill="none" stroke="#3366ff" stroke-width="2"/>
<path d="M243,38v 289" fill="none" stroke="#3366ff" stroke-width="2"/>
<path d="M243,327h 4v -1h 5v 18h 4v -3h 5v -11h 9v -176h 4v 175h 5v 12h 4v -211h 5v 198h 5v 1h 4v -192h 5v 203h 4v -11h 5v -254h 4v 253h 5v -1h 4v 13h 9v -8h 9v -66h 5v 65h 4v 9h 5v -77h 5v 68h 4v 1h 5v -66h 4v 74h 5v -8h 4v -76h 5v 75h 4v -1h 5v 10h
 4v 2h 5v -4h 9v -19h 5v 20h 4v 3h 5v -24h 4v 21h 9v -19h 5v 23h 4v -4h 5v -24h 4v 23h 9v 4h 5v -196h 4v -16h 5v 9h 5v -88h 4v 295h 18" fill="none" stroke="#3366ff" stroke-width="2"/>
<rect x="340" y="38" width="170" height="77" fill="white"/>
<path d="M340,115h 170" fill="none" stroke="black"/>
<path d="M510,115v -77" fill="none" stroke="black"/>
<path d="M510,38h -170" fill="none" stroke="black"/>
<path d="M340,38v 77" fill="none" stroke="black"/>
<text x="382" y="66" fill="black" font-size="20" font-family="Helvetica">
Simulation
</text>
<path d="M347,71h 29v -27h -29z" fill="white"/>
<path d="M347,57h 29" fill="none" stroke="#000033" stroke-width="2"/>
<g stroke="black" stroke-width="2" fill="none">
<line x1="360" y1="57" x2="361" y2="57"/>
</g>
<text x="382" y="104" fill="black" font-size="20" font-family="Helvetica">
Data
</text>
<path d="M347,109h 29v -27h -29z" fill="white"/>
<path d="M347,96h 29" fill="none" stroke="#3366ff" stroke-width="2"/>
<g stroke="black" stroke-width="2" fill="none">
<line x1="360" y1="96" x2="361" y2="96"/>
</g>
<text x="99" y="17" fill="black" font-size="16" font-family="Helvetica">
Mean Number of Hits per Chip After Data Selection
</text></svg>
