<?xml version="1.0" standalone="no"?>
<svg width="567.429" height="384.499" viewBox="0 0 567.429 384.499" xmlns="http://www.w3.org/2000/svg">
<title>
/home/iwsatlas1/cgraf/Analysis/2015_August_Testbeam_tdc/fit_calibration/plots/17_02_02/T0_tdc_example2.svg
</title>
<desc>
Creator: ROOT Version 5.34/30
CreationDate: Thu Feb  2 11:15:32 2017</desc>
<defs>
</defs>
<rect x="0.5" y="0" width="566.929" height="383.999" fill="white"/>
<rect x="57.1929" y="38.3999" width="453.543" height="307.199" fill="white"/>
<rect x="57.1929" y="38.3999" width="453.543" height="307.199" fill="none" stroke="black"/>
<rect x="57.1929" y="38.3999" width="453.543" height="307.199" fill="white"/>
<rect x="57.1929" y="38.3999" width="453.543" height="307.199" fill="none" stroke="black"/>
<path d="M57.1929,345.599h 85.2296v -2.36899h 3.04391v -26.0589h 3.04391v -148.062h 3.04391v -97.1287h 3.04391v -18.9519h 3.04391v 37.9039h 3.04391v 62.7783h 3.04391v -13.0295h 3.04391v 20.1364h 3.04391v 13.0295h 3.04391v 17.7674h 3.04391v 13.0295h
 3.04391v 17.7674h 3.04391v 8.29148h 3.04391v 3.55349h 3.04391v 2.36899h 3.04391v -23.6899h 3.04391v 2.36899h 3.04391v -5.92248h 3.04391v 15.3985h 3.04391v 13.0295h 3.04391v -22.5054h 3.04391v 26.0589h 3.04391v 1.1845h 3.04391v -3.55349h 3.04391v
 29.6124h 3.04391v -13.0295h 3.04391v -5.92248h 3.04391v 1.1845h 3.04391v -15.3985h 3.04391v 13.0295h 3.04391v -3.55349h 3.04391v 11.845h 3.04391v 8.29148h 3.04391v -24.8744h 3.04391v 10.6605h 3.04391v 1.1845h 3.04391v -4.73799h 3.04391v -9.47597h
 3.04391v 2.36899h 3.04391v -1.1845h 3.04391v -18.9519h 3.04391v 7.10698h 3.04391v 9.47597h 6.08783v -7.10698h 3.04391v 8.29148h 3.04391v 4.73799h 3.04391v -40.2729h 3.04391v 9.47597h 3.04391v -7.10698h 3.04391v 3.55349h 3.04391v 10.6605h 3.04391v
 -14.214h 3.04391v 20.1364h 3.04391v -13.0295h 3.04391v 11.845h 3.04391v 21.3209h 3.04391v -23.6899h 6.08783v -8.29148h 3.04391v -11.845h 3.04391v 10.6605h 3.04391v -27.2434h 3.04391v 4.73799h 3.04391v 9.47597h 3.04391v 17.7674h 3.04391v 7.10698h
 3.04391v -33.1659h 3.04391v 26.0589h 3.04391v -23.6899h 3.04391v 2.36899h 3.04391v -2.36899h 3.04391v 17.7674h 3.04391v -10.6605h 3.04391v 7.10698h 3.04391v -9.47597h 3.04391v -14.214h 3.04391v 18.9519h 3.04391v -1.1845h 3.04391v -26.0589h 3.04391v
 24.8744h 6.08783v 3.55349h 6.08783v -43.8264h 3.04391v 40.2729h 3.04391v -13.0295h 3.04391v -17.7674h 3.04391v 7.10698h 3.04391v -7.10698h 3.04391v 3.55349h 3.04391v 24.8744h 3.04391v -37.9039h 3.04391v 21.3209h 3.04391v 9.47597h 3.04391v -21.3209h
 3.04391v 10.6605h 6.08783v 4.73799h 3.04391v 31.9814h 3.04391v -33.1659h 3.04391v 10.6605h 3.04391v -2.36899h 3.04391v 8.29148h 3.04391v 22.5054h 3.04391v -28.4279h 3.04391v 18.9519h 3.04391v -27.2434h 3.04391v -5.92248h 3.04391v 3.55349h 3.04391v
 15.3985h 3.04391v -3.55349h 3.04391v -9.47597h 3.04391v 17.7674h 3.04391v -3.55349h 3.04391v 7.10698h 3.04391v -21.3209h 3.04391v 27.2434h 3.04391v -47.3799h 3.04391v 39.0884h 3.04391" fill="none" stroke="#000099"/>
<rect x="442.705" y="24.9599" width="113.386" height="61.4398" fill="white"/>
<path d="M442.705,86.3998h 113.386" fill="none" stroke="black"/>
<path d="M556.091,86.3998v -61.4398" fill="none" stroke="black"/>
<path d="M556.091,24.9599h -113.386" fill="none" stroke="black"/>
<path d="M442.705,24.9599v 61.4398" fill="none" stroke="black"/>
<text x="446.248" y="34.7336" fill="black" font-size="8.08104" font-family="Helvetica">
h_TDCs_CID_201_29_1_even
</text>
<path d="M442.705,40.3199h 113.386" fill="none" stroke="black"/>
<text x="448.177" y="52.8722" fill="black" font-size="13.4644" font-family="Helvetica">
Entries 
</text>
<text x="502.979" y="52.8722" fill="black" font-size="13.4644" font-family="Helvetica">
 304224
</text>
<text x="448.177" y="68.3094" fill="black" font-size="13.4644" font-family="Helvetica">
Mean  
</text>
<text x="510.312" y="68.3094" fill="black" font-size="13.4644" font-family="Helvetica">
  899.8
</text>
<text x="448.177" y="83.3606" fill="black" font-size="13.4644" font-family="Helvetica">
RMS   
</text>
<text x="510.312" y="83.3606" fill="black" font-size="13.4644" font-family="Helvetica">
  35.82
</text>
<path d="M57.1929,345.599h 453.543" fill="none" stroke="black"/>
<text x="493.717" y="372.035" fill="black" font-size="12.8302" font-family="Helvetica">
tdc
</text>
<path d="M90.676,336.383v 9.21597" fill="none" stroke="black"/>
<path d="M105.896,340.991v 4.60799" fill="none" stroke="black"/>
<path d="M121.115,340.991v 4.60799" fill="none" stroke="black"/>
<path d="M136.335,340.991v 4.60799" fill="none" stroke="black"/>
<path d="M151.554,336.383v 9.21597" fill="none" stroke="black"/>
<path d="M166.774,340.991v 4.60799" fill="none" stroke="black"/>
<path d="M181.993,340.991v 4.60799" fill="none" stroke="black"/>
<path d="M197.213,340.991v 4.60799" fill="none" stroke="black"/>
<path d="M212.433,336.383v 9.21597" fill="none" stroke="black"/>
<path d="M227.652,340.991v 4.60799" fill="none" stroke="black"/>
<path d="M242.872,340.991v 4.60799" fill="none" stroke="black"/>
<path d="M258.091,340.991v 4.60799" fill="none" stroke="black"/>
<path d="M273.311,336.383v 9.21597" fill="none" stroke="black"/>
<path d="M288.53,340.991v 4.60799" fill="none" stroke="black"/>
<path d="M303.75,340.991v 4.60799" fill="none" stroke="black"/>
<path d="M318.97,340.991v 4.60799" fill="none" stroke="black"/>
<path d="M334.189,336.383v 9.21597" fill="none" stroke="black"/>
<path d="M349.409,340.991v 4.60799" fill="none" stroke="black"/>
<path d="M364.628,340.991v 4.60799" fill="none" stroke="black"/>
<path d="M379.848,340.991v 4.60799" fill="none" stroke="black"/>
<path d="M395.067,336.383v 9.21597" fill="none" stroke="black"/>
<path d="M410.287,340.991v 4.60799" fill="none" stroke="black"/>
<path d="M425.507,340.991v 4.60799" fill="none" stroke="black"/>
<path d="M440.726,340.991v 4.60799" fill="none" stroke="black"/>
<path d="M455.946,336.383v 9.21597" fill="none" stroke="black"/>
<path d="M90.676,336.383v 9.21597" fill="none" stroke="black"/>
<path d="M75.4564,340.991v 4.60799" fill="none" stroke="black"/>
<path d="M60.2368,340.991v 4.60799" fill="none" stroke="black"/>
<path d="M455.946,336.383v 9.21597" fill="none" stroke="black"/>
<path d="M471.165,340.991v 4.60799" fill="none" stroke="black"/>
<path d="M486.385,340.991v 4.60799" fill="none" stroke="black"/>
<path d="M501.604,340.991v 4.60799" fill="none" stroke="black"/>
<text x="80.0013" y="358.142" fill="black" font-size="12.8302" font-family="Helvetica">
820
</text>
<text x="140.978" y="358.142" fill="black" font-size="12.8302" font-family="Helvetica">
840
</text>
<text x="201.955" y="358.142" fill="black" font-size="12.8302" font-family="Helvetica">
860
</text>
<text x="262.546" y="358.142" fill="black" font-size="12.8302" font-family="Helvetica">
880
</text>
<text x="323.522" y="358.142" fill="black" font-size="12.8302" font-family="Helvetica">
900
</text>
<text x="384.499" y="358.142" fill="black" font-size="12.8302" font-family="Helvetica">
920
</text>
<text x="445.476" y="358.142" fill="black" font-size="12.8302" font-family="Helvetica">
940
</text>
<path d="M57.1929,345.599v -307.199" fill="none" stroke="black"/>
<g transform="rotate(-90,29.8306,45.1536)">
<text x="29.8306" y="45.1536" fill="black" font-size="12.8302" font-family="Helvetica">
#
</text>
</g>
<path d="M70.7992,345.599h -13.6063" fill="none" stroke="black"/>
<path d="M63.9961,333.754h -6.80315" fill="none" stroke="black"/>
<path d="M63.9961,321.909h -6.80315" fill="none" stroke="black"/>
<path d="M63.9961,310.064h -6.80315" fill="none" stroke="black"/>
<path d="M63.9961,298.219h -6.80315" fill="none" stroke="black"/>
<path d="M70.7992,286.374h -13.6063" fill="none" stroke="black"/>
<path d="M63.9961,274.529h -6.80315" fill="none" stroke="black"/>
<path d="M63.9961,262.684h -6.80315" fill="none" stroke="black"/>
<path d="M63.9961,250.839h -6.80315" fill="none" stroke="black"/>
<path d="M63.9961,238.994h -6.80315" fill="none" stroke="black"/>
<path d="M70.7992,227.149h -13.6063" fill="none" stroke="black"/>
<path d="M63.9961,215.304h -6.80315" fill="none" stroke="black"/>
<path d="M63.9961,203.459h -6.80315" fill="none" stroke="black"/>
<path d="M63.9961,191.615h -6.80315" fill="none" stroke="black"/>
<path d="M63.9961,179.77h -6.80315" fill="none" stroke="black"/>
<path d="M70.7992,167.925h -13.6063" fill="none" stroke="black"/>
<path d="M63.9961,156.08h -6.80315" fill="none" stroke="black"/>
<path d="M63.9961,144.235h -6.80315" fill="none" stroke="black"/>
<path d="M63.9961,132.39h -6.80315" fill="none" stroke="black"/>
<path d="M63.9961,120.545h -6.80315" fill="none" stroke="black"/>
<path d="M70.7992,108.7h -13.6063" fill="none" stroke="black"/>
<path d="M63.9961,96.8548h -6.80315" fill="none" stroke="black"/>
<path d="M63.9961,85.0098h -6.80315" fill="none" stroke="black"/>
<path d="M63.9961,73.1649h -6.80315" fill="none" stroke="black"/>
<path d="M63.9961,61.3199h -6.80315" fill="none" stroke="black"/>
<path d="M70.7992,49.4749h -13.6063" fill="none" stroke="black"/>
<path d="M70.7992,49.4749h -13.6063" fill="none" stroke="black"/>
<text x="47.5833" y="350.037" fill="black" font-size="12.8302" font-family="Helvetica">
0
</text>
<text x="40.2506" y="290.99" fill="black" font-size="12.8302" font-family="Helvetica">
50
</text>
<text x="33.3039" y="231.557" fill="black" font-size="12.8302" font-family="Helvetica">
100
</text>
<text x="33.3039" y="172.51" fill="black" font-size="12.8302" font-family="Helvetica">
150
</text>
<text x="33.3039" y="113.077" fill="black" font-size="12.8302" font-family="Helvetica">
200
</text>
<text x="33.3039" y="54.03" fill="black" font-size="12.8302" font-family="Helvetica">
250
</text>
<rect x="442.705" y="24.9599" width="113.386" height="61.4398" fill="white"/>
<path d="M442.705,86.3998h 113.386" fill="none" stroke="black"/>
<path d="M556.091,86.3998v -61.4398" fill="none" stroke="black"/>
<path d="M556.091,24.9599h -113.386" fill="none" stroke="black"/>
<path d="M442.705,24.9599v 61.4398" fill="none" stroke="black"/>
<text x="446.248" y="34.7336" fill="black" font-size="8.08104" font-family="Helvetica">
h_TDCs_CID_201_29_1_even
</text>
<path d="M442.705,40.3199h 113.386" fill="none" stroke="black"/>
<text x="448.177" y="52.8722" fill="black" font-size="13.4644" font-family="Helvetica">
Entries 
</text>
<text x="502.979" y="52.8722" fill="black" font-size="13.4644" font-family="Helvetica">
 304224
</text>
<text x="448.177" y="68.3094" fill="black" font-size="13.4644" font-family="Helvetica">
Mean  
</text>
<text x="510.312" y="68.3094" fill="black" font-size="13.4644" font-family="Helvetica">
  899.8
</text>
<text x="448.177" y="83.3606" fill="black" font-size="13.4644" font-family="Helvetica">
RMS   
</text>
<text x="510.312" y="83.3606" fill="black" font-size="13.4644" font-family="Helvetica">
  35.82
</text>
<text x="99.6837" y="16.5949" fill="black" font-size="12.446" font-family="Helvetica">
TDCs for hitbit == 1, Chip 201, Channel, 29, MemCell 1, BXID even
</text></svg>
