<?xml version="1.0" standalone="no"?>
<svg width="567" height="456" viewBox="0 0 567 456" xmlns="http://www.w3.org/2000/svg">
<title>
/home/iwsatlas1/cgraf/Analysis/2015_August_Testbeam_tdc/fit_calibration/plots/17_06_20_usingEldwansConstants/timeResolution_muons_eldwansConstants.svg
</title>
<desc>
Creator: ROOT Version 5.34/21
CreationDate: Tue Jun 20 15:10:23 2017</desc>
<defs>
</defs>
<rect x="0" y="0" width="567" height="456" fill="white"/>
<rect x="57" y="46" width="453" height="364" fill="white"/>
<rect x="57" y="46" width="453" height="364" fill="none" stroke="black"/>
<rect x="57" y="46" width="453" height="364" fill="white"/>
<rect x="57" y="46" width="453" height="364" fill="none" stroke="black"/>
<path d="M57,410h 151v -1v 1h 1v -1v 1h 1v -1h 6v -1h 4v -1h 1v -1h 1v 1h 1v -1h 1v -1h 2v -1h 1v -1h 1v -1h 1v 1h 1v -2h 2v -3v 2v -2h 2v -2h 1v -1h 1v -1v 1h 1v -4v 2v -3h 1v 1h 1v -3h 1v -1v 1h 1v -1h 1v -3h 1v -3v 1h 1v -4h 1v -3v 1h 1v 1v -2h 1v
 -3v 1v -2h 1v -3h 1v 1v -3h 1v -4h 1v 1v -5h 1v 1v -4h 1v -4h 1v 1v -4h 1v -2h 1v -6h 1v 1v -3h 1v -4v 1h 1v -10h 1v 3v -4h 1v 4v -9h 1v -6h 1v 2v -5h 1v -6h 1v -4h 1v -5h 1v -3h 1v -9h 1v -6h 1v 2v -6h 1v -7v 3h 1v -8v 5h 1v -11v 1h 1v -3h 1v -4h
 1v -10v 3h 1v -8h 1v -13h 1v -7h 1v -6h 1v -7v 3h 1v -12h 1v -9h 1v -3h 1v -5v 3h 1v -14h 1v 1v -4h 1v -12v 4v -5h 1v -11h 1v 7v -1h 1v -12h 1v -6h 1v 2v -13h 1v 2v -8h 1v 12v -21h 1v 1v -5h 1v 5h 1v -16v 9h 1v -12v 16h 1v -14h 1v 4v -5h 1v -6h 1v
 3v -1h 1v -9v 5h 1v -2h 1v -4h 1v 4h 1v 3v -12h 1v 9v -6v 8h 1v -4v 7h 1v -1v 2h 1v -4v 4h 1v -5v 1h 1v 7v -2v 4h 1v -5v 3h 1v 6h 1v -1v 1h 1v 6h 1v -6v 11h 1v 4v -2h 1v 15h 1v -3v 1h 1v 12h 1v -4v 13h 1v 2h 1v 8h 1v 13h 1v -5v 3h 1v 14h 1v -1v 8h
 1v 8h 1v 4h 1v 15h 1v 4v -3v 10h 1v -5v 11h 1v 7h 1v 8h 1v 14h 1v -7v 13h 1v 10h 1v -1v 6h 1v 3v -2h 1v 13h 1v 7v -5v 3h 1v 11h 1v -1v 6h 1v 7h 1v 3h 1v 10h 1v 6v -3h 1v 4h 1v 5h 1v 3h 1v 7h 1v 5v -2h 1v 6h 1v -2v 4h 1v 2h 1v 2h 1v 4v -1v 3h 1v -2v
 7h 1v -2v 3h 1v -2v 1h 1v 3h 1v 6v -3h 1v -1h 1v 3h 1v 4h 1v -1h 1v 2v -1v 1h 1v 1h 1v 3v -4h 1v 5h 1v -1v 1h 1v -1v 2h 1v -1v 1h 1v 1v -1h 1v 3v -1h 1v 1h 1v 1h 1v 1h 1v -1v 2h 1v -1h 1v 2v -1h 1v 4h 1v -2v 1h 1v -1v 1h 1v 1h 1v -1v 1h 1v 1v -1h 1v
 1h 1v -1v 1h 1v 1h 3v 1v -1h 1v 1h 2v 1h 1v 1h 2v -1h 1v 1h 1v 1v -1h 1v 1h 4v 1h 1v -1v 1h 1v -1v 1h 7v 1h 92" fill="none" stroke="#000099"/>
<rect x="442" y="30" width="114" height="73" fill="white"/>
<path d="M442,103h 114" fill="none" stroke="black"/>
<path d="M556,103v -73" fill="none" stroke="black"/>
<path d="M556,30h -114" fill="none" stroke="black"/>
<path d="M442,30v 73" fill="none" stroke="black"/>
<text x="447" y="42" fill="black" font-size="11" font-family="Helvetica">
h_resolution_t0Time
</text>
<path d="M442,48h 114" fill="none" stroke="black"/>
<text x="448" y="62" fill="black" font-size="13" font-family="Helvetica">
Entries 
</text>
<text x="495" y="62" fill="black" font-size="13" font-family="Helvetica">
 1110503
</text>
<text x="448" y="80" fill="black" font-size="13" font-family="Helvetica">
Mean  
</text>
<text x="511" y="80" fill="black" font-size="13" font-family="Helvetica">
  15.11
</text>
<text x="448" y="98" fill="black" font-size="13" font-family="Helvetica">
RMS   
</text>
<text x="517" y="98" fill="black" font-size="13" font-family="Helvetica">
    6.3
</text>
<path d="M57,410h 453" fill="none" stroke="black"/>
<path d="M101,399v 11" fill="none" stroke="black"/>
<path d="M110,405v 5" fill="none" stroke="black"/>
<path d="M120,405v 5" fill="none" stroke="black"/>
<path d="M129,405v 5" fill="none" stroke="black"/>
<path d="M138,405v 5" fill="none" stroke="black"/>
<path d="M147,399v 11" fill="none" stroke="black"/>
<path d="M156,405v 5" fill="none" stroke="black"/>
<path d="M165,405v 5" fill="none" stroke="black"/>
<path d="M174,405v 5" fill="none" stroke="black"/>
<path d="M183,405v 5" fill="none" stroke="black"/>
<path d="M192,399v 11" fill="none" stroke="black"/>
<path d="M201,405v 5" fill="none" stroke="black"/>
<path d="M211,405v 5" fill="none" stroke="black"/>
<path d="M220,405v 5" fill="none" stroke="black"/>
<path d="M229,405v 5" fill="none" stroke="black"/>
<path d="M238,399v 11" fill="none" stroke="black"/>
<path d="M247,405v 5" fill="none" stroke="black"/>
<path d="M256,405v 5" fill="none" stroke="black"/>
<path d="M265,405v 5" fill="none" stroke="black"/>
<path d="M274,405v 5" fill="none" stroke="black"/>
<path d="M283,399v 11" fill="none" stroke="black"/>
<path d="M293,405v 5" fill="none" stroke="black"/>
<path d="M302,405v 5" fill="none" stroke="black"/>
<path d="M311,405v 5" fill="none" stroke="black"/>
<path d="M320,405v 5" fill="none" stroke="black"/>
<path d="M329,399v 11" fill="none" stroke="black"/>
<path d="M338,405v 5" fill="none" stroke="black"/>
<path d="M347,405v 5" fill="none" stroke="black"/>
<path d="M356,405v 5" fill="none" stroke="black"/>
<path d="M365,405v 5" fill="none" stroke="black"/>
<path d="M375,399v 11" fill="none" stroke="black"/>
<path d="M384,405v 5" fill="none" stroke="black"/>
<path d="M393,405v 5" fill="none" stroke="black"/>
<path d="M402,405v 5" fill="none" stroke="black"/>
<path d="M411,405v 5" fill="none" stroke="black"/>
<path d="M420,399v 11" fill="none" stroke="black"/>
<path d="M429,405v 5" fill="none" stroke="black"/>
<path d="M438,405v 5" fill="none" stroke="black"/>
<path d="M447,405v 5" fill="none" stroke="black"/>
<path d="M457,405v 5" fill="none" stroke="black"/>
<path d="M466,399v 11" fill="none" stroke="black"/>
<path d="M101,399v 11" fill="none" stroke="black"/>
<path d="M92,405v 5" fill="none" stroke="black"/>
<path d="M83,405v 5" fill="none" stroke="black"/>
<path d="M74,405v 5" fill="none" stroke="black"/>
<path d="M65,405v 5" fill="none" stroke="black"/>
<path d="M466,399v 11" fill="none" stroke="black"/>
<path d="M475,405v 5" fill="none" stroke="black"/>
<path d="M484,405v 5" fill="none" stroke="black"/>
<path d="M493,405v 5" fill="none" stroke="black"/>
<path d="M502,405v 5" fill="none" stroke="black"/>
<text x="90" y="425" fill="black" font-size="15" font-family="Helvetica">
-30
</text>
<text x="136" y="425" fill="black" font-size="15" font-family="Helvetica">
-20
</text>
<text x="181" y="425" fill="black" font-size="15" font-family="Helvetica">
-10
</text>
<text x="234" y="425" fill="black" font-size="15" font-family="Helvetica">
0
</text>
<text x="275" y="425" fill="black" font-size="15" font-family="Helvetica">
10
</text>
<text x="320" y="425" fill="black" font-size="15" font-family="Helvetica">
20
</text>
<text x="366" y="425" fill="black" font-size="15" font-family="Helvetica">
30
</text>
<text x="412" y="425" fill="black" font-size="15" font-family="Helvetica">
40
</text>
<text x="457" y="425" fill="black" font-size="15" font-family="Helvetica">
50
</text>
<path d="M57,410v -364" fill="none" stroke="black"/>
<path d="M70,410h -13" fill="none" stroke="black"/>
<path d="M63,401h -6" fill="none" stroke="black"/>
<path d="M63,392h -6" fill="none" stroke="black"/>
<path d="M63,383h -6" fill="none" stroke="black"/>
<path d="M63,373h -6" fill="none" stroke="black"/>
<path d="M70,364h -13" fill="none" stroke="black"/>
<path d="M63,355h -6" fill="none" stroke="black"/>
<path d="M63,346h -6" fill="none" stroke="black"/>
<path d="M63,337h -6" fill="none" stroke="black"/>
<path d="M63,327h -6" fill="none" stroke="black"/>
<path d="M70,318h -13" fill="none" stroke="black"/>
<path d="M63,309h -6" fill="none" stroke="black"/>
<path d="M63,300h -6" fill="none" stroke="black"/>
<path d="M63,290h -6" fill="none" stroke="black"/>
<path d="M63,281h -6" fill="none" stroke="black"/>
<path d="M70,272h -13" fill="none" stroke="black"/>
<path d="M63,263h -6" fill="none" stroke="black"/>
<path d="M63,253h -6" fill="none" stroke="black"/>
<path d="M63,244h -6" fill="none" stroke="black"/>
<path d="M63,235h -6" fill="none" stroke="black"/>
<path d="M70,226h -13" fill="none" stroke="black"/>
<path d="M63,217h -6" fill="none" stroke="black"/>
<path d="M63,207h -6" fill="none" stroke="black"/>
<path d="M63,198h -6" fill="none" stroke="black"/>
<path d="M63,189h -6" fill="none" stroke="black"/>
<path d="M70,180h -13" fill="none" stroke="black"/>
<path d="M63,170h -6" fill="none" stroke="black"/>
<path d="M63,161h -6" fill="none" stroke="black"/>
<path d="M63,152h -6" fill="none" stroke="black"/>
<path d="M63,143h -6" fill="none" stroke="black"/>
<path d="M70,133h -13" fill="none" stroke="black"/>
<path d="M63,124h -6" fill="none" stroke="black"/>
<path d="M63,115h -6" fill="none" stroke="black"/>
<path d="M63,106h -6" fill="none" stroke="black"/>
<path d="M63,97h -6" fill="none" stroke="black"/>
<path d="M70,87h -13" fill="none" stroke="black"/>
<path d="M70,87h -13" fill="none" stroke="black"/>
<path d="M63,78h -6" fill="none" stroke="black"/>
<path d="M63,69h -6" fill="none" stroke="black"/>
<path d="M63,60h -6" fill="none" stroke="black"/>
<path d="M63,50h -6" fill="none" stroke="black"/>
<text x="46" y="416" fill="black" font-size="15" font-family="Helvetica">
0
</text>
<text x="21" y="369" fill="black" font-size="15" font-family="Helvetica">
1000
</text>
<text x="21" y="324" fill="black" font-size="15" font-family="Helvetica">
2000
</text>
<text x="21" y="277" fill="black" font-size="15" font-family="Helvetica">
3000
</text>
<text x="21" y="231" fill="black" font-size="15" font-family="Helvetica">
4000
</text>
<text x="21" y="185" fill="black" font-size="15" font-family="Helvetica">
5000
</text>
<text x="21" y="139" fill="black" font-size="15" font-family="Helvetica">
6000
</text>
<text x="21" y="93" fill="black" font-size="15" font-family="Helvetica">
7000
</text>
<rect x="442" y="30" width="114" height="73" fill="white"/>
<path d="M442,103h 114" fill="none" stroke="black"/>
<path d="M556,103v -73" fill="none" stroke="black"/>
<path d="M556,30h -114" fill="none" stroke="black"/>
<path d="M442,30v 73" fill="none" stroke="black"/>
<text x="447" y="42" fill="black" font-size="11" font-family="Helvetica">
h_resolution_t0Time
</text>
<path d="M442,48h 114" fill="none" stroke="black"/>
<text x="448" y="62" fill="black" font-size="13" font-family="Helvetica">
Entries 
</text>
<text x="495" y="62" fill="black" font-size="13" font-family="Helvetica">
 1110503
</text>
<text x="448" y="80" fill="black" font-size="13" font-family="Helvetica">
Mean  
</text>
<text x="511" y="80" fill="black" font-size="13" font-family="Helvetica">
  15.11
</text>
<text x="448" y="98" fill="black" font-size="13" font-family="Helvetica">
RMS   
</text>
<text x="517" y="98" fill="black" font-size="13" font-family="Helvetica">
    6.3
</text>
<text x="211" y="22" fill="black" font-size="20" font-family="Helvetica">
Hittime - T0 time
</text></svg>
