<?xml version="1.0" standalone="no"?>
<svg width="567.429" height="407.891" viewBox="0 0 567.429 407.891" xmlns="http://www.w3.org/2000/svg">
<title>
../plots/17_07_05_double_particle_rejection/compare_pion_data_mc_timeDistribution.svg
</title>
<desc>
Creator: ROOT Version 5.34/30
CreationDate: Wed Jul  5 10:43:50 2017</desc>
<defs>
</defs>
<rect x="0.5" y="0" width="566.929" height="407.391" fill="white"/>
<rect x="57.1929" y="40.7391" width="453.543" height="325.913" fill="white"/>
<rect x="57.1929" y="40.7391" width="453.543" height="325.913" fill="none" stroke="black"/>
<rect x="57.1929" y="40.7391" width="453.543" height="325.913" fill="white"/>
<rect x="57.1929" y="40.7391" width="453.543" height="325.913" fill="none" stroke="black"/>
<path d="M57.1929,366.652h 33.2045v -20.0015h 0.754648v 20.0015h 0.754648v -40.0029h 0.754648v 40.0029h 0.754648v -20.0015h 2.26394v -40.0029h 0.754648v -11.7001h 0.754648v -11.7001h 0.754648v 23.4002h 0.754648v -20.0015h 0.754648v 20.0015h 0.754648v
 -20.0015h 0.754648v -24.9604h 0.754648v -7.91916h 0.754648v 5.03115h 0.754648v -15.5533h 0.754648v -6.43903h 0.754648v -1.25481h 0.754648v -11.4947h 0.754648v -4.56572h 0.754648v -8.73792h 0.754648v -4.11198h 0.754648v -8.6932h 0.754648v -6.40566h
 0.754648v -8.69938h 0.754648v -4.81291h 0.754648v -6.55589h 0.754648v -4.8922h 0.754648v -8.25914h 0.754648v -4.63467h 0.754648v -6.96669h 0.754648v -4.80529h 0.754648v -6.42946h 0.754648v -4.39616h 0.754648v -5.99165h 0.754648v -4.8462h 0.754648v
 -5.42999h 0.754648v -5.77269h 0.754648v -4.09253h 0.754648v -5.02077h 0.754648v -4.48645h 0.754648v -3.82329h 0.754648v -4.85336h 0.754648v -4.29709h 0.754648v -3.3156h 0.754648v -4.026h 0.754648v -3.7347h 0.754648v -2.65795h 0.754648v -3.18319h
 0.754648v -2.10851h 0.754648v -2.04287h 0.754648v -1.37323h 0.754648v -0.789262h 0.754648v -0.064014h 0.754648v 0.793082h 0.754648v 0.449574h 0.754648v 1.68448h 0.754648v 1.85309h 0.754648v 2.31761h 0.754648v 2.98524h 0.754648v 2.46611h 0.754648v
 3.2936h 0.754648v 3.72123h 0.754648v 2.86897h 0.754648v 3.95316h 0.754648v 4.30088h 0.754648v 3.56473h 0.754648v 4.48163h 0.754648v 3.88519h 0.754648v 4.64447h 0.754648v 4.85935h 0.754648v 5.0959h 0.754648v 3.8984h 0.754648v 3.8548h 0.754648v
 5.0755h 0.754648v 4.11865h 0.754648v 4.53424h 0.754648v 5.43218h 0.754648v 4.67931h 0.754648v 4.32537h 0.754648v 3.2277h 0.754648v 4.97091h 0.754648v 5.39816h 0.754648v 3.13204h 0.754648v 2.9655h 0.754648v 3.45822h 0.754648v 1.41172h 0.754648v
 2.51811h 0.754648v 4.44817h 0.754648v 4.41409h 0.754648v -0.590123h 0.754648v 3.47186h 0.754648v 0.132064h 0.754648v 4.58085h 0.754648v -2.66553h 0.754648v 2.97749h 0.754648v -0.620583h 1.5093v 1.73979h 1.5093v 1.50587h 0.754648v -1.17796h 0.754648v
 0.331682h 0.754648v 4.11649h 0.754648v -1.49935h 0.754648v 3.69707h 0.754648v -2.0047h 1.5093v -2.23513h 0.754648v 1.85038h 0.754648v -0.940019h 0.754648v 1.32477h 0.754648v 1.18603h 0.754648v 0.818665h 1.5093v -5.12234h 0.754648v 4.91549h 0.754648v
 -1.60352h 0.754648v 6.0517h 0.754648v -2.08689h 0.754648v -3.76918h 0.754648v 3.99374h 0.754648v -2.79123h 0.754648v -0.607518h 0.754648v 4.08311h 0.754648v -1.57231h 0.754648v 1.34238h 0.754648v -3.24567h 0.754648v -1.39814h 0.754648v 0.991713h
 0.754648v -0.201088h 0.754648v 0.812899h 0.754648v -2.18259h 0.754648v 0.971675h 0.754648v -1.53935h 0.754648v 1.73768h 0.754648v 0.603284h 0.754648v -0.603284h 0.754648v -0.395294h 0.754648v 1.61474h 0.754648v -1.81038h 0.754648v 2.65295h 0.754648v
 0.430695h 0.754648v 1.10573h 0.754648v 0.916141h 0.754648v -3.9113h 0.754648v -4.33182h 0.754648v 4.53575h 0.754648v 1.25481h 0.754648v -2.26035h 0.754648v -0.19697h 0.754648v 3.76918h 0.754648v -4.92357h 0.754648v 8.23856h 0.754648v -2.8641h
 0.754648v -4.02309h 0.754648v 1.41777h 0.754648v 2.60532h 0.754648v -2.39697h 0.754648v 2.39697h 0.754648v -1.5482h 0.754648v -0.638905h 0.754648v 4.3081h 0.754648v -6.53669h 0.754648v 6.53669h 0.754648v -2.7947h 0.754648v 3.04029h 0.754648v
 -7.92902h 0.754648v 8.93281h 0.754648v -5.34607h 0.754648v 3.61171h 0.754648v 1.48012h 0.754648v -2.4263h 0.754648v -2.45257h 0.754648v 2.92178h 0.754648v 0.718444h 0.754648v 1.49289h 0.754648v -1.73436h 0.754648v 0.241474h 0.754648v -2.55119h
 0.754648v 1.13175h 0.754648v 2.15622h 0.754648v 0.501857h 0.754648v -3.78983h 0.754648v -0.440558h 0.754648v 5.26107h 0.754648v -5.26107h 0.754648v 7.1584h 0.754648v -4.16665h 0.754648v -0.241474h 0.754648v -3.39875h 0.754648v 2.68622h 0.754648v
 -0.46543h 0.754648v 3.95229h 0.754648v 3.96687h 0.754648v -0.30216h 0.754648v -5.46077h 0.754648v 0.501857h 0.754648v -3.11612h 0.754648v 4.41033h 0.754648v 1.6338h 0.754648v -6.04413h 0.754648v 8.07504h 0.754648v -10.0507h 0.754648v 5.09183h
 0.754648v -0.995134h 0.754648v 5.0661h 0.754648v -3.81673h 0.754648v 4.10968h 0.754648v -1.15439h 0.754648v -3.46155h 0.754648v 2.90122h 0.754648v 3.22586h 0.754648v -2.94705h 0.754648v -5.35431h 0.754648v 4.79937h 0.754648v 1.99086h 0.754648v
 -6.79023h 0.754648v 6.79023h 0.754648v -1.99086h 0.754648v -4.33015h 0.754648v 0.47697h 0.754648v -0.23947h 0.754648v 6.98067h 0.754648v -1.48012h 0.754648v -4.28281h 0.754648v 1.2714h 0.754648v -1.02156h 0.754648v -1.2281h 0.754648v 2.77433h
 0.754648v -4.41033h 0.754648v 5.21567h 0.754648v 3.16153h 0.754648v -3.96687h 0.754648v -1.03997h 0.754648v 4.70467h 0.754648v -5.70846h 0.754648v 3.95908h 0.754648v -0.836465h 0.754648v -5.94007h 0.754648v 4.07775h 0.754648v 2.41727h 0.754648v
 3.25901h 0.754648v -2.11605h 0.754648v 5.79056h 0.754648v -8.83084h 0.754648v 1.89732h 0.754648v 1.14296h 0.754648v 2.11605h 0.754648v -2.11605h 0.754648v -0.290013h 0.754648v 1.78548h 0.754648v 0.308623h 0.754648v 0.946184h 0.754648v -9.24754h
 0.754648v 2.68054h 0.754648v 0.776442h 0.754648v 6.43903h 0.754648v 0.329787h 0.754648v 4.67015h 0.754648v -4.99993h 0.754648v -5.90955h 0.754648v -0.529483h 0.754648v 2.46315h 0.754648v 3.64983h 0.754648v -3.93413h 0.754648v 8.11337h 0.754648v
 -3.5234h 0.754648v -3.72854h 0.754648v -1.42177h 0.754648v 6.85826h 0.754648v -4.54854h 0.754648v -3.66471h 0.754648v 0.265956h 0.754648v 6.57294h 0.754648v 0.678997h 0.754648v -5.31827h 0.754648v 3.32741h 0.754648v -2.75027h 0.754648v 4.74113h
 0.754648v -2.62508h 0.754648v 0.634224h 0.754648v 6.84262h 0.754648v -4.85176h 0.754648v -6.71255h 0.754648v 4.08747h 0.754648v 2.62508h 0.754648v -6.1629h 0.754648v 2.30971h 1.5093v 1.86232h 0.754648v -3.04029h 0.754648v -5.0196h 0.754648v 5.0196h
 0.754648v 2.72143h 0.754648v 2.6553h 0.754648v -5.37673h 0.754648v 3.04029h 0.754648v 4.50166h 0.754648v -6.06183h 0.754648v 2.53843h 0.754648v 3.5234h 0.754648v 2.34096h 0.754648v -4.50618h 0.754648v 1.0623h 0.754648v -2.08689h 0.754648v -1.94609h
 0.754648v 1.94609h 0.754648v 7.20404h 0.754648v -7.53764h 0.754648v 2.06202h 0.754648v -3.98647h 0.754648v 4.34493h 0.754648v 1.10291h 0.754648v 0.759413h 0.754648v -2.57486h 0.754648v 8.06771h 0.754648v -3.50199h 0.754648v 0.415202h 0.754648v
 -3.90541h 0.754648v -2.11236h 0.754648v -1.64936h 0.754648v 4.87887h 0.754648v 5.87506h 0.754648v -3.9113h 0.754648v -1.58155h 0.754648v -1.86232h 1.5093v 4.68965h 0.754648v -2.43999h 0.754648v 0.790625h 0.754648v -3.04029h 0.754648v -2.08689h
 0.754648v 2.44986h 0.754648v -1.42528h 0.754648v 1.79288h 0.754648v -0.730571h 0.754648v -4.03297h 0.754648v -0.620583h 0.754648v 5.38413h 0.754648v 9.56165h 0.754648v -12.3791h 0.754648v 4.33655h 0.754648v -0.387335h 0.754648v -3.94921h 0.754648v
 -2.56667h 0.754648v 9.77071h 0.754648v -8.5159h 0.754648v 12.6784h 0.754648v -8.17671h 0.754648v -0.372341h 0.754648v 9.05091h 0.754648v -12.202h 0.754648v 3.15106h 0.754648v 4.38658h 0.754648v 0.433933h 0.754648v -2.10721h 0.754648v -4.85176h
 0.754648v 8.30136h 0.754648v -5.41335h 0.754648v -2.54243h 0.754648v 3.31196h 0.754648v 1.60352h 0.754648v -0.409312h 0.754648v -1.19421h 0.754648v 0.392605h 0.754648v 6.63736h 0.754648v -9.63809h 0.754648v 1.08904h 0.754648v 3.12261h 0.754648v
 -3.12261h 0.754648v 6.6246h 0.754648v -11.3881h 0.754648v 11.8574h 0.754648v -7.09382h 1.5093v 7.09382h 0.754648v -7.46142h 0.754648v 6.07606h 0.754648v -4.18937h 0.754648v 2.43999h 0.754648v -2.82732h 0.754648v 4.57671h 0.754648v -2.58585h
 0.754648v -1.99086h 0.754648v 4.12932h 0.754648v 2.7947h 0.754648v -8.78635h 0.754648v 5.99165h 0.754648v -4.51153h 0.754648v 2.37306h 0.754648v 2.58585h 0.754648v -0.447389h 0.754648v 2.30971h 0.754648v -7.57079h 0.754648v 4.82052h 0.754648v
 0.887948h 0.754648v 2.34731h 0.754648v -3.23526h 0.754648v -1.6979h 0.754648v 1.6979h 0.754648v 4.23039h 0.754648v -2.88801h 0.754648v -1.77632h 0.754648v -2.86749h 0.754648v 2.01873h 0.754648v 11.0795h 0.754648v -7.52352h 0.754648v 0.961956h
 0.754648v -2.34731h 0.754648v -0.887948h 0.754648v 3.23526h 0.754648v 5.95405h 0.754648v 4.54854h 0.754648v -14.1718h 0.754648v 2.23802h 0.754648v 1.92445h 0.754648v -2.38615h 0.754648v -0.454435h 0.754648v 0.454435h 0.754648v 3.39875h 0.754648v
 -4.30057h 0.754648v 3.78983h 0.754648v 1.03068h 0.754648v 1.06886h 0.754648v -3.09468h 0.754648v -0.961956h 0.754648v 0.47697h 0.754648v 5.84404h 0.754648v -4.86578h 0.754648v 0.501857h 0.754648v -7.53182h 0.754648v 11.3128h 0.754648v -5.26107h
 0.754648v 0.484987h 0.754648v -3.23526h 0.754648v 4.74113h 0.754648v -5.17507h 0.754648v 8.44528h 0.754648v 0.58297h 0.754648v -6.79023h 0.754648v 2.93704h 0.754648v 8.30136h 0.754648v -6.1629h 0.754648v -2.13846h 0.754648v -5.60257h 0.754648v
 6.652h 0.754648v 2.22079h 1.5093v -12.0823h 0.754648v 9.86152h 0.754648v 5.26107h 0.754648v -10.1637h 0.754648v 2.84059h 0.754648v -4.58997h 0.754648v 7.19138h 0.754648v -5.88938h 0.754648v 8.74875h 0.754648v -2.85937h 0.754648v -0.539381h 0.754648v
 4.00627h 0.754648v -5.56643h 0.754648v 7.46972h 0.754648v -12.9828h 0.754648v 4.51796h 0.754648v 0.995134h 0.754648v 9.50746h 0.754648v -5.14353h 0.754648v -1.15439h 0.754648v -1.64936h 0.754648v 4.00627h 0.754648v -7.52352h 0.754648v -1.38535h
 0.754648v 10.8122h 0.754648v -9.89602h 0.754648v 3.98647h 1.5093v 4.62685h 0.754648v -1.82309h 0.754648v -7.70637h 0.754648v 10.8122h 0.754648v -4.26019h 0.754648v -3.71139h 0.754648v 9.31396h 0.754648v -7.25193h 0.754648v -1.04943h 0.754648v
 5.05569h 0.754648v -4.00627h 0.754648v -1.56016h 0.754648v 13.2603h 0.754648v -16.1483h 0.754648v 10.3577h 0.754648v -1.90328h 1.5093v 0.620583h 0.754648v -5.67628h 0.754648v 3.85318h 0.754648v 1.20251h 0.754648v -7.04655h 0.754648v 0.484987h
 0.754648v 2.5553h 0.754648v 7.25193h 0.754648v -5.03115h 0.754648v 5.7265h 0.754648v -10.0093h 0.754648v 0.501857h 0.754648v 3.78095h 0.754648v -1.68141h 0.754648v 0.549655h 0.754648v 4.17204h 0.754648v -4.17204h 0.754648v -1.08904h 0.754648v
 7.25193h 0.754648v -5.03115h 0.754648v 7.91916h 0.754648v -4.87887h 0.754648v 0.648477h 0.754648v -9.89602h 0.754648v 11.2384h 0.754648v -5.03115h 0.754648v 5.03115h 0.754648v -6.71255h 0.754648v 2.26438h 0.754648v -2.80376h 0.754648v 7.94729h
 0.754648v -1.37436h 0.754648v -1.31186h 0.754648v -0.634224h 0.754648v 5.51309h 0.754648v 5.87506h 0.754648v -14.3656h 0.754648v 4.26019h 0.754648v -11.7001h 0.754648v 13.0425h 0.754648v 3.65755h 0.754648v -6.28263h 0.754648v -4.08747h 0.754648v
 10.3701h 0.754648v -0.769539h 0.754648v -6.74119h 0.754648v 7.51073h 0.754648v -2.96219h 1.5093v 0.712531h 0.754648v -2.75027h 0.754648v -5.90955h 0.754648v 6.57294h 0.754648v 3.56701h 0.754648v -8.49058h 0.754648v 3.61171h 0.754648v 7.25193h
 0.754648v -5.94007h 0.754648v 2.81746h 0.754648v 5.70846h 0.754648v -4.95891h 0.754648" fill="none" stroke="#000033" stroke-width="2"/>
<path d="M57.1929,366.652h 453.543" fill="none" stroke="black"/>
<text x="419.287" y="399.557" fill="black" font-size="16.8354" font-family="Helvetica">
Hit Time [ns]
</text>
<path d="M57.1929,356.875v 9.77739" fill="none" stroke="black"/>
<path d="M72.2859,361.763v 4.8887" fill="none" stroke="black"/>
<path d="M87.3788,361.763v 4.8887" fill="none" stroke="black"/>
<path d="M102.472,361.763v 4.8887" fill="none" stroke="black"/>
<path d="M117.565,361.763v 4.8887" fill="none" stroke="black"/>
<path d="M132.658,356.875v 9.77739" fill="none" stroke="black"/>
<path d="M147.751,361.763v 4.8887" fill="none" stroke="black"/>
<path d="M162.844,361.763v 4.8887" fill="none" stroke="black"/>
<path d="M177.937,361.763v 4.8887" fill="none" stroke="black"/>
<path d="M193.03,361.763v 4.8887" fill="none" stroke="black"/>
<path d="M208.122,356.875v 9.77739" fill="none" stroke="black"/>
<path d="M223.215,361.763v 4.8887" fill="none" stroke="black"/>
<path d="M238.308,361.763v 4.8887" fill="none" stroke="black"/>
<path d="M253.401,361.763v 4.8887" fill="none" stroke="black"/>
<path d="M268.494,361.763v 4.8887" fill="none" stroke="black"/>
<path d="M283.587,356.875v 9.77739" fill="none" stroke="black"/>
<path d="M298.68,361.763v 4.8887" fill="none" stroke="black"/>
<path d="M313.773,361.763v 4.8887" fill="none" stroke="black"/>
<path d="M328.866,361.763v 4.8887" fill="none" stroke="black"/>
<path d="M343.959,361.763v 4.8887" fill="none" stroke="black"/>
<path d="M359.052,356.875v 9.77739" fill="none" stroke="black"/>
<path d="M374.145,361.763v 4.8887" fill="none" stroke="black"/>
<path d="M389.238,361.763v 4.8887" fill="none" stroke="black"/>
<path d="M404.331,361.763v 4.8887" fill="none" stroke="black"/>
<path d="M419.424,361.763v 4.8887" fill="none" stroke="black"/>
<path d="M434.517,356.875v 9.77739" fill="none" stroke="black"/>
<path d="M449.61,361.763v 4.8887" fill="none" stroke="black"/>
<path d="M464.703,361.763v 4.8887" fill="none" stroke="black"/>
<path d="M479.796,361.763v 4.8887" fill="none" stroke="black"/>
<path d="M494.889,361.763v 4.8887" fill="none" stroke="black"/>
<path d="M509.982,356.875v 9.77739" fill="none" stroke="black"/>
<path d="M509.982,356.875v 9.77739" fill="none" stroke="black"/>
<text x="47.5067" y="382.464" fill="black" font-size="16.8354" font-family="Helvetica">
100
</text>
<text x="38.2478" y="382.464" fill="black" font-size="16.8354" font-family="Times">
&#8722;
</text>
<text x="127.988" y="382.464" fill="black" font-size="16.8354" font-family="Helvetica">
0
</text>
<text x="194.225" y="382.464" fill="black" font-size="16.8354" font-family="Helvetica">
100
</text>
<text x="269.72" y="382.464" fill="black" font-size="16.8354" font-family="Helvetica">
200
</text>
<text x="345.216" y="382.464" fill="black" font-size="16.8354" font-family="Helvetica">
300
</text>
<text x="420.711" y="382.464" fill="black" font-size="16.8354" font-family="Helvetica">
400
</text>
<text x="496.207" y="382.464" fill="black" font-size="16.8354" font-family="Helvetica">
500
</text>
<path d="M57.1929,366.652v -325.913" fill="none" stroke="black"/>
<g transform="rotate(-90,22.5789,104.697)">
<text x="22.5789" y="104.697" fill="black" font-size="16.8354" font-family="Helvetica">
# Entries
</text>
</g>
<path d="M70.7992,365.598h -13.6063" fill="none" stroke="black"/>
<text x="45.37" y="365.37" fill="black" font-size="11.3903" font-family="Helvetica">
6
</text>
<text x="38.96" y="365.37" fill="black" font-size="11.3903" font-family="Times">
&#8722;
</text>
<text x="21.1545" y="373.205" fill="black" font-size="16.8354" font-family="Helvetica">
10
</text>
<path d="M63.9961,345.597h -6.80315" fill="none" stroke="black"/>
<path d="M63.9961,333.897h -6.80315" fill="none" stroke="black"/>
<path d="M63.9961,325.595h -6.80315" fill="none" stroke="black"/>
<path d="M63.9961,319.156h -6.80315" fill="none" stroke="black"/>
<path d="M63.9961,313.895h -6.80315" fill="none" stroke="black"/>
<path d="M63.9961,309.447h -6.80315" fill="none" stroke="black"/>
<path d="M63.9961,305.594h -6.80315" fill="none" stroke="black"/>
<path d="M63.9961,302.195h -6.80315" fill="none" stroke="black"/>
<path d="M70.7992,299.155h -13.6063" fill="none" stroke="black"/>
<text x="45.37" y="299.133" fill="black" font-size="11.3903" font-family="Helvetica">
5
</text>
<text x="38.96" y="299.133" fill="black" font-size="11.3903" font-family="Times">
&#8722;
</text>
<text x="21.1545" y="306.968" fill="black" font-size="16.8354" font-family="Helvetica">
10
</text>
<path d="M63.9961,279.153h -6.80315" fill="none" stroke="black"/>
<path d="M63.9961,267.453h -6.80315" fill="none" stroke="black"/>
<path d="M63.9961,259.152h -6.80315" fill="none" stroke="black"/>
<path d="M63.9961,252.713h -6.80315" fill="none" stroke="black"/>
<path d="M63.9961,247.452h -6.80315" fill="none" stroke="black"/>
<path d="M63.9961,243.003h -6.80315" fill="none" stroke="black"/>
<path d="M63.9961,239.15h -6.80315" fill="none" stroke="black"/>
<path d="M63.9961,235.752h -6.80315" fill="none" stroke="black"/>
<path d="M70.7992,232.711h -13.6063" fill="none" stroke="black"/>
<text x="45.37" y="232.897" fill="black" font-size="11.3903" font-family="Helvetica">
4
</text>
<text x="38.96" y="232.897" fill="black" font-size="11.3903" font-family="Times">
&#8722;
</text>
<text x="21.1545" y="240.019" fill="black" font-size="16.8354" font-family="Helvetica">
10
</text>
<path d="M63.9961,212.71h -6.80315" fill="none" stroke="black"/>
<path d="M63.9961,201.01h -6.80315" fill="none" stroke="black"/>
<path d="M63.9961,192.708h -6.80315" fill="none" stroke="black"/>
<path d="M63.9961,186.269h -6.80315" fill="none" stroke="black"/>
<path d="M63.9961,181.008h -6.80315" fill="none" stroke="black"/>
<path d="M63.9961,176.56h -6.80315" fill="none" stroke="black"/>
<path d="M63.9961,172.707h -6.80315" fill="none" stroke="black"/>
<path d="M63.9961,169.308h -6.80315" fill="none" stroke="black"/>
<path d="M70.7992,166.268h -13.6063" fill="none" stroke="black"/>
<text x="45.37" y="165.948" fill="black" font-size="11.3903" font-family="Helvetica">
3
</text>
<text x="38.96" y="165.948" fill="black" font-size="11.3903" font-family="Times">
&#8722;
</text>
<text x="21.1545" y="173.782" fill="black" font-size="16.8354" font-family="Helvetica">
10
</text>
<path d="M63.9961,146.266h -6.80315" fill="none" stroke="black"/>
<path d="M63.9961,134.566h -6.80315" fill="none" stroke="black"/>
<path d="M63.9961,126.265h -6.80315" fill="none" stroke="black"/>
<path d="M63.9961,119.826h -6.80315" fill="none" stroke="black"/>
<path d="M63.9961,114.565h -6.80315" fill="none" stroke="black"/>
<path d="M63.9961,110.117h -6.80315" fill="none" stroke="black"/>
<path d="M63.9961,106.263h -6.80315" fill="none" stroke="black"/>
<path d="M63.9961,102.865h -6.80315" fill="none" stroke="black"/>
<path d="M70.7992,99.8244h -13.6063" fill="none" stroke="black"/>
<text x="45.37" y="100.423" fill="black" font-size="11.3903" font-family="Helvetica">
2
</text>
<text x="38.96" y="100.423" fill="black" font-size="11.3903" font-family="Times">
&#8722;
</text>
<text x="21.1545" y="107.546" fill="black" font-size="16.8354" font-family="Helvetica">
10
</text>
<path d="M63.9961,79.823h -6.80315" fill="none" stroke="black"/>
<path d="M63.9961,68.1228h -6.80315" fill="none" stroke="black"/>
<path d="M63.9961,59.8215h -6.80315" fill="none" stroke="black"/>
<path d="M63.9961,53.3825h -6.80315" fill="none" stroke="black"/>
<path d="M63.9961,48.1214h -6.80315" fill="none" stroke="black"/>
<path d="M63.9961,43.6732h -6.80315" fill="none" stroke="black"/>
<path d="M57.1929,309.943v -3.85318h 0.754648v 3.85318h 0.754648v -10.2922h 0.754648v 8.30136h 0.754648v -6.82124h 0.754648v 4.95891h 0.754648v -7.84692h 1.5093v 13.8386h 0.754648v -4.12932h 0.754648v 4.12932h 0.754648v -16.4637h 0.754648v 2.62508h
 0.754648v 24.4496h 0.754648v -21.5616h 2.26394v 4.95891h 0.754648v 3.85318h 0.754648v -13.0425h 0.754648v 11.0516h 0.754648v -8.30136h 0.754648v 1.48012h 0.754648v -10.1399h 0.754648v 5.90955h 0.754648v -1.2827h 0.754648v -10.4174h 0.754648v
 4.74113h 0.754648v 3.27021h 0.754648v -4.28281h 0.754648v 5.46077h 0.754648v -4.44817h 0.754648v 11.1894h 0.754648v -17.6284h 0.754648v -0.812899h 0.754648v 7.25193h 0.754648v -12.3791h 0.754648v 8.52592h 0.754648v 10.8122h 0.754648v -21.2842h
 0.754648v 12.3343h 0.754648v -0.946184h 0.754648v -4.31489h 0.754648v -5.79056h 0.754648v 3.48084h 0.754648v -7.74103h 0.754648v 2.97749h 0.754648v -1.2281h 0.754648v -9.62324h 0.754648v 5.69501h 0.754648v -2.5108h 0.754648v -8.30136h 0.754648v
 1.10291h 0.754648v -5.13589h 1.5093v -8.8451h 0.754648v 2.40606h 0.754648v -5.67628h 0.754648v -3.67227h 0.754648v -6.76387h 0.754648v -6.06334h 0.754648v -2.98205h 0.754648v -3.27021h 0.754648v -3.6062h 0.754648v -9.25688h 0.754648v -4.28488h
 0.754648v -5.36432h 0.754648v -5.49629h 0.754648v -4.49377h 0.754648v -5.58827h 0.754648v -7.12653h 0.754648v -5.93416h 0.754648v -5.01331h 0.754648v -5.15609h 0.754648v -5.08525h 0.754648v -5.66321h 0.754648v -5.71617h 0.754648v -5.07285h 0.754648v
 -5.04366h 0.754648v -4.80921h 0.754648v -5.337h 0.754648v -5.12287h 0.754648v -5.14364h 0.754648v -4.97647h 0.754648v -4.59666h 0.754648v -4.26732h 0.754648v -4.42487h 0.754648v -4.37264h 0.754648v -3.94096h 0.754648v -3.75448h 0.754648v -3.78039h
 0.754648v -3.48075h 0.754648v -3.2564h 0.754648v -2.51755h 0.754648v -2.85664h 0.754648v -2.27512h 0.754648v -1.66839h 0.754648v -1.39172h 0.754648v -0.631746h 0.754648v -0.300972h 0.754648v 0.312126h 0.754648v 0.76103h 0.754648v 1.20424h 0.754648v
 1.21407h 0.754648v 2.0026h 0.754648v 2.01037h 0.754648v 2.43099h 0.754648v 2.46047h 0.754648v 2.64919h 0.754648v 3.16508h 0.754648v 2.90143h 0.754648v 2.96335h 0.754648v 3.21657h 0.754648v 3.18948h 0.754648v 3.24406h 0.754648v 3.56074h 0.754648v
 3.71723h 0.754648v 3.36265h 0.754648v 3.61657h 0.754648v 3.84031h 0.754648v 3.70251h 0.754648v 3.93377h 0.754648v 2.89934h 0.754648v 3.87703h 0.754648v 3.43412h 0.754648v 3.83954h 0.754648v 3.51667h 0.754648v 3.53134h 0.754648v 3.75217h 0.754648v
 2.57821h 0.754648v 4.74371h 0.754648v 2.94953h 0.754648v 3.49803h 0.754648v 2.73642h 0.754648v 4.4228h 0.754648v 3.1726h 0.754648v 2.58156h 0.754648v 4.26814h 0.754648v 1.83528h 0.754648v 3.5226h 0.754648v 3.66761h 0.754648v 2.53964h 0.754648v
 3.13663h 0.754648v 1.01489h 0.754648v 4.61526h 0.754648v -0.885578h 0.754648v 3.33247h 0.754648v 2.67377h 0.754648v 1.24028h 0.754648v 0.491597h 0.754648v 1.52713h 0.754648v 0.157254h 0.754648v 3.81567h 0.754648v -1.2331h 0.754648v 2.64699h
 0.754648v 3.76332h 0.754648v -2.27657h 0.754648v 1.0126h 0.754648v 0.415202h 0.754648v -1.75758h 0.754648v 3.33324h 0.754648v 2.69879h 0.754648v -1.87748h 0.754648v -0.301371h 0.754648v 2.01764h 0.754648v 1.48435h 0.754648v -1.07963h 0.754648v
 2.20123h 0.754648v -1.1216h 0.754648v 4.7744h 0.754648v -3.4763h 0.754648v 0.0886514h 0.754648v 1.73829h 0.754648v -0.927926h 0.754648v 2.47762h 0.754648v -1.83121h 0.754648v -0.463188h 0.754648v -0.274386h 0.754648v 2.46946h 0.754648v -1.82512h
 0.754648v 3.66761h 0.754648v 2.30971h 0.754648v -3.4496h 0.754648v -2.15297h 0.754648v -2.17885h 0.754648v 6.0051h 0.754648v 0.76372h 0.754648v -0.438883h 0.754648v 3.58994h 0.754648v -3.26141h 0.754648v 3.26141h 0.754648v -5.58806h 0.754648v
 1.88943h 0.754648v 2.37306h 0.754648v 0.35552h 0.754648v -1.05368h 0.754648v 2.27142h 0.754648v -3.83763h 0.754648v 4.59373h 0.754648v 1.03997h 0.754648v -2.77433h 0.754648v 2.37994h 0.754648v -5.0207h 0.754648v 2.64076h 0.754648v 1.35384h 0.754648v
 -0.250923h 0.754648v 4.01424h 0.754648v -0.709029h 0.754648v -5.9303h 0.754648v 5.10184h 0.754648v -1.19973h 0.754648v 2.59401h 0.754648v -3.74585h 0.754648v 5.66537h 0.754648v -4.90261h 0.754648v -0.887948h 0.754648v 6.25226h 0.754648v -2.94705h
 0.754648v 0.852949h 0.754648v -0.712531h 0.754648v -0.968878h 0.754648v -1.84531h 0.754648v 4.10968h 0.754648v -0.14685h 0.754648v 2.4443h 0.754648v -2.00149h 0.754648v -1.02285h 0.754648v 4.66433h 0.754648v -6.20181h 0.754648v 3.16153h 0.754648v
 -3.56701h 0.754648v 3.71928h 0.754648v 1.24802h 0.754648v -2.14985h 0.754648v 1.20881h 0.754648v 1.10091h 0.754648v -4.03297h 0.754648v 1.2827h 0.754648v 4.74113h 0.754648v -4.59503h 0.754648v 4.42377h 0.754648v -1.33462h 0.754648v 0.659595h
 0.754648v -3.00691h 0.754648v 1.38535h 0.754648v -0.469214h 0.754648v 1.2686h 0.754648v -2.48377h 0.754648v 4.4978h 0.754648v 2.92463h 0.754648v -5.8953h 0.754648v 2.45383h 1.5093v -0.170243h 0.754648v -1.80923h 0.754648v 3.55862h 0.754648v
 -1.74939h 0.754648v -0.337501h 0.754648v 6.77654h 0.754648v -5.92526h 0.754648v 4.88342h 0.754648v -2.73166h 0.754648v 0.186771h 0.754648v -0.186771h 0.754648v -0.369954h 0.754648v 2.4941h 0.754648v -1.3697h 0.754648v -7.67351h 0.754648v 7.10583h
 0.754648v -1.46138h 0.754648v 2.80376h 0.754648v 0.395294h 0.754648v -1.54969h 0.754648v 0.18922h 1.5093v -2.36807h 0.754648v -0.519942h 0.754648v 3.27021h 0.754648v 1.58155h 0.754648v -2.34096h 0.754648v -2.5108h 0.754648v 0.519942h 0.754648v
 7.55331h 0.754648v -3.01755h 0.754648v -5.56643h 0.754648v 2.46482h 0.754648v 2.2944h 0.754648v -3.90289h 0.754648v 2.16522h 0.754648v 5.79056h 0.754648v -5.41335h 0.754648v 1.16214h 0.754648v -1.72612h 0.754648v 2.12414h 0.754648v -1.17796h
 0.754648v 3.47098h 0.754648v -0.430695h 0.754648v -4.90261h 0.754648v 0.546187h 0.754648v 4.35642h 0.754648v 2.22079h 0.754648v -3.4756h 1.5093v -0.807214h 0.754648v -1.17h 0.754648v 0.191735h 0.754648v 0.387335h 0.754648v 5.10552h 0.754648v
 -2.66553h 0.754648v -0.2114h 0.754648v -0.830446h 0.754648v 1.04185h 0.754648v -1.84906h 0.754648v 4.9838h 0.754648v -4.9838h 0.754648v -1.36047h 0.754648v 4.51153h 0.754648v 0.901824h 0.754648v -1.34238h 0.754648v 0.887948h 0.754648v -1.10573h
 0.754648v -0.643655h 0.754648v -0.629611h 0.754648v 3.76435h 0.754648v -4.9838h 0.754648v 4.05288h 0.754648v -2.20382h 0.754648v -1.64936h 0.754648v -1.17796h 0.754648v 2.40606h 0.754648v 0.634224h 0.754648v 2.22079h 0.754648v -1.79009h 0.754648v
 8.22913h 0.754648v -5.0196h 0.754648v -3.85318h 0.754648v -2.82732h 0.754648v 5.49285h 0.754648v -2.66553h 0.754648v -1.24578h 0.754648v -2.15297h 0.754648v 12.5615h 0.754648v -4.82052h 0.754648v -3.48084h 0.754648v 1.57231h 0.754648v 4.21825h
 0.754648v -5.79056h 0.754648v -1.6979h 0.754648v 5.42644h 0.754648v -4.16247h 0.754648v 0.874492h 0.754648v -2.54777h 0.754648v 5.58806h 0.754648v -5.38413h 0.754648v 1.04185h 0.754648v -3.01906h 0.754648v 3.8805h 0.754648v 5.79056h 0.754648v
 -2.30971h 0.754648v -1.90853h 0.754648v -1.35287h 0.754648v 3.75894h 0.754648v -0.49753h 0.754648v 1.00379h 0.754648v -5.76733h 0.754648v -0.208348h 0.754648v 7.01565h 0.754648v -1.29421h 0.754648v -2.19265h 0.754648v 4.56572h 0.754648v -2.62508h
 0.754648v 2.90122h 1.5093v -5.30728h 0.754648v -3.27021h 0.754648v 0.836465h 0.754648v 9.1628h 0.754648v -5.55109h 0.754648v 6.14001h 0.754648v -2.56034h 0.754648v -0.270951h 0.754648v -0.797913h 0.754648v -2.75027h 0.754648v 2.48913h 0.754648v
 -1.02156h 0.754648v -2.8641h 0.754648v 3.62686h 0.754648v -0.762759h 0.754648v -2.17428h 0.754648v 1.18766h 0.754648v -1.87748h 0.754648v 7.48005h 0.754648v -1.99086h 0.754648v -5.94007h 0.754648v 3.82125h 0.754648v -3.59668h 0.754648v 1.62285h
 0.754648v 0.970042h 0.754648v 2.57814h 0.754648v -0.534386h 0.754648v 3.06972h 0.754648v -2.80376h 0.754648v -3.98647h 0.754648v 3.45699h 0.754648v -2.5108h 0.754648v -0.712531h 0.754648v 3.48686h 0.754648v 0.534386h 0.754648v -4.02125h 0.754648v
 5.12066h 0.754648v -0.554941h 0.754648v 1.40789h 0.754648v 0.290013h 0.754648v -4.32299h 0.754648v -3.09043h 0.754648v 1.86232h 0.754648v 2.77433h 0.754648v 0.534386h 0.754648v -1.57436h 0.754648v 0.776442h 0.754648v -3.68876h 0.754648v 4.21825h
 0.754648v -2.5553h 0.754648v 6.25621h 0.754648v -5.26107h 0.754648v 0.769539h 0.754648v -3.88566h 0.754648v 6.32565h 0.754648v 2.05155h 0.754648v -6.49972h 0.754648v 3.06724h 0.754648v 1.95236h 0.754648v -5.50055h 0.754648v 5.50055h 0.754648v
 -1.40789h 0.754648v -1.86232h 0.754648v 0.783469h 0.754648v 1.07886h 0.754648v -1.86232h 0.754648v 5.67628h 0.754648v -4.62685h 0.754648v 4.94222h 0.754648v -3.85318h 0.754648v 1.71472h 0.754648v -0.292957h 0.754648v 1.19011h 0.754648v 0.613981h
 0.754648v -2.94705h 1.5093v -0.278804h 0.754648v 4.82052h 0.754648v -3.68876h 0.754648v -1.95236h 0.754648v -1.05906h 0.754648v 4.49154h 0.754648v 4.24638h 0.754648v -9.75948h 0.754648v 3.46155h 0.754648v -1.10998h 0.754648v 2.26438h 0.754648v
 -0.58297h 0.754648v -4.03297h 0.754648v 4.03297h 0.754648v -3.52671h 0.754648v 3.52671h 0.754648v -1.13175h 0.754648v 2.91723h 0.754648v 2.56667h 0.754648v -7.36356h 0.754648v 1.87966h 0.754648v 2.30971h 0.754648v 1.86232h 0.754648v 1.31186h
 0.754648v -1.31186h 0.754648v -0.634224h 0.754648v -1.52713h 0.754648v -1.16606h 0.754648v 0.287127h 0.754648v 2.40606h 0.754648v 2.97067h 0.754648v -4.19877h 0.754648v 1.2281h 0.754648v -1.52713h 0.754648v 2.48377h 0.754648v -6.37412h 0.754648v
 -0.2588h 0.754648v 7.28876h 0.754648v -5.42644h 0.754648v 2.28682h 0.754648v -1.16606h 0.754648v 4.30568h 0.754648v -1.29712h 0.754648v 3.00507h 0.754648v -2.68622h 0.754648v -3.04029h 0.754648v 3.04029h 0.754648v -4.72169h 0.754648v 8.12044h
 0.754648v -3.39875h 0.754648v -4.99264h 0.754648v 4.04646h 1.5093v -2.94705h 0.754648v 1.43592h 0.754648v -2.26438h 0.754648v 5.69996h 0.754648v -6.50529h 0.754648v 11.1754h 0.754648v -6.90322h 0.754648v -1.49547h 0.754648v -2.24237h 0.754648v
 3.43248h 0.754648v 4.95891h 0.754648v -8.92578h 0.754648v 6.50529h 0.754648v -1.29712h 0.754648v -5.4717h 0.754648v 5.79056h 0.754648v 4.50166h 0.754648v -2.16522h 0.754648v -2.01403h 0.754648v 0.989446h 0.754648v -2.25805h 0.754648v -1.21517h
 1.5093v 1.21517h 0.754648v 0.31196h 1.5093v 4.39595h 0.754648v -4.08058h 0.754648v 1.29712h 0.754648v -2.84059h 0.754648v 1.54347h 0.754648v 4.82052h 0.754648v 2.75027h 0.754648v -7.25193h 0.754648v 0.978264h 0.754648v 0.6711h 0.754648v 3.22951h
 0.754648v -3.22951h 0.754648v 0.687081h 0.754648v -2.97067h 0.754648v -5.67628h 0.754648v 7.28876h 0.754648v 1.35818h 0.754648v -0.687081h 0.754648v -5.26107h 0.754648v -4.20466h 0.754648v 2.5553h 0.754648v 7.25193h 0.754648v 2.5108h 0.754648v
 4.01424h 0.754648v -13.777h 0.754648v 2.5108h 0.754648v 2.43142h 0.754648v 5.57993h 0.754648v -3.61171h 0.754648v -2.90417h 0.754648v 0.935953h 0.754648v -1.24131h 0.754648v 2.87203h 0.754648v 4.72915h 0.754648v -9.36843h 0.754648v 3.00856h
 0.754648v 1.63072h 0.754648v 1.02458h 0.754648v 0.349774h 0.754648v -3.6324h 0.754648v -3.22586h 0.754648v 13.1219h 0.754648v -8.30136h 0.754648v -3.39875h 0.754648v 7.25193h 0.754648v -7.25193h 0.754648v 6.512h 0.754648v 3.90541h 0.754648v
 -2.01873h 0.754648v -2.24966h 0.754648v -3.7176h 0.754648v 7.57079h 0.754648v -4.56572h 0.754648v -4.24638h 0.754648v 5.68949h 0.754648v 1.91169h 0.754648v -1.53935h 0.754648v -7.54195h 0.754648v 8.30136h 0.754648v -9.98277h 0.754648v 2.85937h
 0.754648v 7.1234h 0.754648v -3.61171h 0.754648v -2.28359h 0.754648v 0.634224h 0.754648v 6.84262h 0.754648v -1.58155h 0.754648v -4.6126h 0.754648v -0.648477h 0.754648v 1.64936h 0.754648v -4.10668h 0.754648v 5.14353h 0.754648v -0.695359h 0.754648v
 -5.60257" fill="none" stroke="#3366ff" stroke-width="2"/>
<rect x="340.657" y="40.7391" width="170.079" height="81.4783" fill="white"/>
<path d="M340.657,122.217h 170.079" fill="none" stroke="black"/>
<path d="M510.736,122.217v -81.4783" fill="none" stroke="black"/>
<path d="M510.736,40.7391h -170.079" fill="none" stroke="black"/>
<path d="M340.657,40.7391v 81.4783" fill="none" stroke="black"/>
<text x="382.964" y="64.1" fill="black" font-size="9.76545" font-family="Helvetica">
Data simulation
</text>
<path d="M347.035,75.3674h 29.7638v -28.5174h -29.7638z" fill="white"/>
<path d="M347.035,61.1087h 29.7638" fill="none" stroke="#000033" stroke-width="2"/>
<g stroke="black" stroke-width="2" fill="none">
<line x1="360.917" y1="61.1087" x2="361.917" y2="61.1087"/>
</g>
<text x="382.964" y="104.697" fill="black" font-size="9.76545" font-family="Helvetica">
Data reject double particles
</text>
<path d="M347.035,116.107h 29.7638v -28.5174h -29.7638z" fill="white"/>
<path d="M347.035,101.848h 29.7638" fill="none" stroke="#3366ff" stroke-width="2"/>
<g stroke="black" stroke-width="2" fill="none">
<line x1="360.917" y1="101.848" x2="361.917" y2="101.848"/>
</g>
<text x="218.44" y="19.9422" fill="black" font-size="17.973" font-family="Helvetica">
Hittime - T0 time
</text></svg>
