<?xml version="1.0" standalone="no"?>
<svg width="567.429" height="384.969" viewBox="0 0 567.429 384.969" xmlns="http://www.w3.org/2000/svg">
<title>
../plots/17_07_05_double_particle_rejection/compare_pion_data_mc_fLateHits_radius.svg
</title>
<desc>
Creator: ROOT Version 5.34/30
CreationDate: Wed Jul  5 10:43:50 2017</desc>
<defs>
</defs>
<rect x="0.5" y="0" width="566.929" height="384.469" fill="white"/>
<rect x="57.1929" y="38.4469" width="453.543" height="307.575" fill="white"/>
<rect x="57.1929" y="38.4469" width="453.543" height="307.575" fill="none" stroke="black"/>
<rect x="57.1929" y="38.4469" width="453.543" height="307.575" fill="white"/>
<rect x="57.1929" y="38.4469" width="453.543" height="307.575" fill="none" stroke="black"/>
<path d="M57.1929,345.428h 18.8976v -1.90317h 18.8976v -9.12865h 18.8976v -13.0007h 18.8976v -30.4543h 18.8976v -32.0808h 18.8976v -13.7143h 18.8976v -11.7893h 18.8976v -89.8127h 18.8976v 45.6431h 18.8976v -136.094h 18.8976v 177.562h 18.8976v
 67.2044h 18.8976v 48.1627h 207.874" fill="none" stroke="#000033" stroke-width="2"/>
<path d="M57.1929,346.022h 453.543" fill="none" stroke="black"/>
<text x="424.068" y="385.284" fill="black" font-size="19.1824" font-family="Helvetica">
Hit Radius
</text>
<path d="M57.1929,336.795v 9.22726" fill="none" stroke="black"/>
<path d="M66.6417,341.409v 4.61363" fill="none" stroke="black"/>
<path d="M76.0906,341.409v 4.61363" fill="none" stroke="black"/>
<path d="M85.5394,341.409v 4.61363" fill="none" stroke="black"/>
<path d="M94.9882,336.795v 9.22726" fill="none" stroke="black"/>
<path d="M104.437,341.409v 4.61363" fill="none" stroke="black"/>
<path d="M113.886,341.409v 4.61363" fill="none" stroke="black"/>
<path d="M123.335,341.409v 4.61363" fill="none" stroke="black"/>
<path d="M132.783,336.795v 9.22726" fill="none" stroke="black"/>
<path d="M142.232,341.409v 4.61363" fill="none" stroke="black"/>
<path d="M151.681,341.409v 4.61363" fill="none" stroke="black"/>
<path d="M161.13,341.409v 4.61363" fill="none" stroke="black"/>
<path d="M170.579,336.795v 9.22726" fill="none" stroke="black"/>
<path d="M180.028,341.409v 4.61363" fill="none" stroke="black"/>
<path d="M189.476,341.409v 4.61363" fill="none" stroke="black"/>
<path d="M198.925,341.409v 4.61363" fill="none" stroke="black"/>
<path d="M208.374,336.795v 9.22726" fill="none" stroke="black"/>
<path d="M217.823,341.409v 4.61363" fill="none" stroke="black"/>
<path d="M227.272,341.409v 4.61363" fill="none" stroke="black"/>
<path d="M236.72,341.409v 4.61363" fill="none" stroke="black"/>
<path d="M246.169,336.795v 9.22726" fill="none" stroke="black"/>
<path d="M255.618,341.409v 4.61363" fill="none" stroke="black"/>
<path d="M265.067,341.409v 4.61363" fill="none" stroke="black"/>
<path d="M274.516,341.409v 4.61363" fill="none" stroke="black"/>
<path d="M283.965,336.795v 9.22726" fill="none" stroke="black"/>
<path d="M293.413,341.409v 4.61363" fill="none" stroke="black"/>
<path d="M302.862,341.409v 4.61363" fill="none" stroke="black"/>
<path d="M312.311,341.409v 4.61363" fill="none" stroke="black"/>
<path d="M321.76,336.795v 9.22726" fill="none" stroke="black"/>
<path d="M331.209,341.409v 4.61363" fill="none" stroke="black"/>
<path d="M340.657,341.409v 4.61363" fill="none" stroke="black"/>
<path d="M350.106,341.409v 4.61363" fill="none" stroke="black"/>
<path d="M359.555,336.795v 9.22726" fill="none" stroke="black"/>
<path d="M369.004,341.409v 4.61363" fill="none" stroke="black"/>
<path d="M378.453,341.409v 4.61363" fill="none" stroke="black"/>
<path d="M387.902,341.409v 4.61363" fill="none" stroke="black"/>
<path d="M397.35,336.795v 9.22726" fill="none" stroke="black"/>
<path d="M406.799,341.409v 4.61363" fill="none" stroke="black"/>
<path d="M416.248,341.409v 4.61363" fill="none" stroke="black"/>
<path d="M425.697,341.409v 4.61363" fill="none" stroke="black"/>
<path d="M435.146,336.795v 9.22726" fill="none" stroke="black"/>
<path d="M444.594,341.409v 4.61363" fill="none" stroke="black"/>
<path d="M454.043,341.409v 4.61363" fill="none" stroke="black"/>
<path d="M463.492,341.409v 4.61363" fill="none" stroke="black"/>
<path d="M472.941,336.795v 9.22726" fill="none" stroke="black"/>
<path d="M482.39,341.409v 4.61363" fill="none" stroke="black"/>
<path d="M491.839,341.409v 4.61363" fill="none" stroke="black"/>
<path d="M501.287,341.409v 4.61363" fill="none" stroke="black"/>
<path d="M510.736,336.795v 9.22726" fill="none" stroke="black"/>
<text x="51.8169" y="364.105" fill="black" font-size="19.1824" font-family="Helvetica">
0
</text>
<text x="90.1009" y="364.105" fill="black" font-size="19.1824" font-family="Helvetica">
2
</text>
<text x="127.57" y="364.105" fill="black" font-size="19.1824" font-family="Helvetica">
4
</text>
<text x="165.04" y="364.105" fill="black" font-size="19.1824" font-family="Helvetica">
6
</text>
<text x="203.324" y="364.105" fill="black" font-size="19.1824" font-family="Helvetica">
8
</text>
<text x="235.091" y="364.105" fill="black" font-size="19.1824" font-family="Helvetica">
10
</text>
<text x="273.375" y="364.105" fill="black" font-size="19.1824" font-family="Helvetica">
12
</text>
<text x="310.845" y="364.105" fill="black" font-size="19.1824" font-family="Helvetica">
14
</text>
<text x="348.314" y="364.105" fill="black" font-size="19.1824" font-family="Helvetica">
16
</text>
<text x="386.598" y="364.105" fill="black" font-size="19.1824" font-family="Helvetica">
18
</text>
<text x="424.068" y="364.105" fill="black" font-size="19.1824" font-family="Helvetica">
20
</text>
<text x="462.352" y="364.105" fill="black" font-size="19.1824" font-family="Helvetica">
22
</text>
<text x="499.821" y="364.105" fill="black" font-size="19.1824" font-family="Helvetica">
24
</text>
<path d="M57.1929,346.022v -307.575" fill="none" stroke="black"/>
<g transform="rotate(-90,15.162,261.472)">
<text x="15.162" y="261.472" fill="black" font-size="19.1824" font-family="Helvetica">
Fraction of late Hits &gt; 50ns
</text>
</g>
<path d="M70.7992,346.022h -13.6063" fill="none" stroke="black"/>
<path d="M63.9961,335.748h -6.80315" fill="none" stroke="black"/>
<path d="M63.9961,325.473h -6.80315" fill="none" stroke="black"/>
<path d="M63.9961,315.198h -6.80315" fill="none" stroke="black"/>
<path d="M63.9961,304.923h -6.80315" fill="none" stroke="black"/>
<path d="M70.7992,294.649h -13.6063" fill="none" stroke="black"/>
<path d="M63.9961,284.374h -6.80315" fill="none" stroke="black"/>
<path d="M63.9961,274.099h -6.80315" fill="none" stroke="black"/>
<path d="M63.9961,263.825h -6.80315" fill="none" stroke="black"/>
<path d="M63.9961,253.55h -6.80315" fill="none" stroke="black"/>
<path d="M70.7992,243.275h -13.6063" fill="none" stroke="black"/>
<path d="M63.9961,233h -6.80315" fill="none" stroke="black"/>
<path d="M63.9961,222.726h -6.80315" fill="none" stroke="black"/>
<path d="M63.9961,212.451h -6.80315" fill="none" stroke="black"/>
<path d="M63.9961,202.176h -6.80315" fill="none" stroke="black"/>
<path d="M70.7992,191.902h -13.6063" fill="none" stroke="black"/>
<path d="M63.9961,181.627h -6.80315" fill="none" stroke="black"/>
<path d="M63.9961,171.352h -6.80315" fill="none" stroke="black"/>
<path d="M63.9961,161.078h -6.80315" fill="none" stroke="black"/>
<path d="M63.9961,150.803h -6.80315" fill="none" stroke="black"/>
<path d="M70.7992,140.528h -13.6063" fill="none" stroke="black"/>
<path d="M63.9961,130.253h -6.80315" fill="none" stroke="black"/>
<path d="M63.9961,119.979h -6.80315" fill="none" stroke="black"/>
<path d="M63.9961,109.704h -6.80315" fill="none" stroke="black"/>
<path d="M63.9961,99.4293h -6.80315" fill="none" stroke="black"/>
<path d="M70.7992,89.1546h -13.6063" fill="none" stroke="black"/>
<path d="M70.7992,89.1546h -13.6063" fill="none" stroke="black"/>
<path d="M63.9961,78.8799h -6.80315" fill="none" stroke="black"/>
<path d="M63.9961,68.6052h -6.80315" fill="none" stroke="black"/>
<path d="M63.9961,58.3305h -6.80315" fill="none" stroke="black"/>
<path d="M63.9961,48.0557h -6.80315" fill="none" stroke="black"/>
<text x="44.4859" y="352.702" fill="black" font-size="19.1824" font-family="Helvetica">
0
</text>
<text x="46.9295" y="301.385" fill="black" font-size="19.1824" font-family="Helvetica">
1
</text>
<text x="44.4859" y="250.068" fill="black" font-size="19.1824" font-family="Helvetica">
2
</text>
<text x="44.4859" y="198.751" fill="black" font-size="19.1824" font-family="Helvetica">
3
</text>
<text x="44.4859" y="147.434" fill="black" font-size="19.1824" font-family="Helvetica">
4
</text>
<text x="44.4859" y="96.1173" fill="black" font-size="19.1824" font-family="Helvetica">
5
</text>
<path d="M57.1929,345.872h 18.8976v -0.647628h 18.8976v -3.67855h 18.8976v -5.9176h 18.8976v -14.5865h 18.8976v -16.822h 18.8976v -8.8931h 18.8976v -12.6806h 18.8976v -51.5854h 18.8976v 29.0787h 18.8976v -82.5667h 18.8976v 93.1795h 18.8976v 41.0213h
 18.8976v 34.249h 207.874" fill="none" stroke="#3366ff" stroke-width="2"/>
<rect x="340.657" y="38.4469" width="170.079" height="76.8938" fill="white"/>
<path d="M340.657,115.341h 170.079" fill="none" stroke="black"/>
<path d="M510.736,115.341v -76.8938" fill="none" stroke="black"/>
<path d="M510.736,38.4469h -170.079" fill="none" stroke="black"/>
<path d="M340.657,38.4469v 76.8938" fill="none" stroke="black"/>
<text x="382.526" y="61.0915" fill="black" font-size="9.92983" font-family="Helvetica">
Data simulation
</text>
<path d="M347.035,71.1268h 29.7638v -26.9128h -29.7638z" fill="white"/>
<path d="M347.035,57.6704h 29.7638" fill="none" stroke="#000033" stroke-width="2"/>
<g stroke="black" stroke-width="2" fill="none">
<line x1="360.917" y1="57.6704" x2="361.917" y2="57.6704"/>
</g>
<text x="382.526" y="99.3755" fill="black" font-size="9.92983" font-family="Helvetica">
Data reject double particles
</text>
<path d="M347.035,109.574h 29.7638v -26.9128h -29.7638z" fill="white"/>
<path d="M347.035,96.1173h 29.7638" fill="none" stroke="#3366ff" stroke-width="2"/>
<g stroke="black" stroke-width="2" fill="none">
<line x1="360.917" y1="96.1173" x2="361.917" y2="96.1173"/>
</g>
<text x="166.669" y="18.7347" fill="black" font-size="16.9898" font-family="Helvetica">
Fraction of late hits over radius
</text></svg>
