<?xml version="1.0" standalone="no"?>
<svg width="567.429" height="384.969" viewBox="0 0 567.429 384.969" xmlns="http://www.w3.org/2000/svg">
<title>
../plots/17_07_05_double_particle_rejection/compare_pion_data_mc_fLateHits_event.svg
</title>
<desc>
Creator: ROOT Version 5.34/30
CreationDate: Wed Jul  5 10:43:50 2017</desc>
<defs>
</defs>
<rect x="0.5" y="0" width="566.929" height="384.469" fill="white"/>
<rect x="57.1929" y="38.4469" width="453.543" height="307.575" fill="white"/>
<rect x="57.1929" y="38.4469" width="453.543" height="307.575" fill="none" stroke="black"/>
<rect x="57.1929" y="38.4469" width="453.543" height="307.575" fill="white"/>
<rect x="57.1929" y="38.4469" width="453.543" height="307.575" fill="none" stroke="black"/>
<path d="M57.1929,155.593h 4.53543v 55.7395h 4.53543v -90.132h 4.53543v -38.035h 4.53543v -30.0722h 4.53543v 13.1301h 4.53543v 31.8511h 4.53543v 53.7912h 4.53543v 22.1094h 4.53543v 55.5701h 4.53543v 6.77684h 4.53543v 34.0536h 4.53543v 16.5185h
 4.53543v 18.2128h 4.53543v 8.0475h 4.53543v 6.26858h 4.53543v 8.13221h 4.53543v 4.74379h 4.53543v 4.91321h 4.53543v 3.98139h 4.53543v -1.52479h 4.53543v 2.20247h 4.53543v 1.27066h 4.53543v 1.35537h 4.53543v 0.762394h 4.53543v -0.592973h 4.53543v
 0.508263h 4.53543v 0.338842h 4.53543v -0.0847105h 4.53543v 0.169421h 4.53543v -0.0847105h 4.53543v 0.169421h 4.53543v 0.169421h 4.53543v 0.169421h 4.53543v -0.0847105h 4.53543v -0.169421h 4.53543v 0.0847105h 4.53543v 0.0847105h 13.6063v -0.0847105h
 4.53543v 0.0847105h 9.07087v 0.0847105h 9.07087v -0.0847105h 4.53543v 0.0847105h 13.6063v -0.0847105h 4.53543v 0.0847105h 13.6063v -0.0847105h 4.53543v 0.0847105h 9.07087v -0.0847105h 4.53543v 0.0847105h 9.07087v -0.0847105h 4.53543v 0.0847105h
 13.6063v -0.0847105h 4.53543v 0.0847105h 163.276" fill="none" stroke="#3366ff" stroke-width="2"/>
<path d="M57.1929,346.022h 453.543" fill="none" stroke="black"/>
<text x="352.387" y="372.251" fill="black" font-size="12.8453" font-family="Helvetica">
# Fraction of Late hits &gt; 50ns
</text>
<path d="M57.1929,336.795v 9.22726" fill="none" stroke="black"/>
<path d="M66.2638,341.409v 4.61363" fill="none" stroke="black"/>
<path d="M75.3346,341.409v 4.61363" fill="none" stroke="black"/>
<path d="M84.4055,341.409v 4.61363" fill="none" stroke="black"/>
<path d="M93.4764,341.409v 4.61363" fill="none" stroke="black"/>
<path d="M102.547,336.795v 9.22726" fill="none" stroke="black"/>
<path d="M111.618,341.409v 4.61363" fill="none" stroke="black"/>
<path d="M120.689,341.409v 4.61363" fill="none" stroke="black"/>
<path d="M129.76,341.409v 4.61363" fill="none" stroke="black"/>
<path d="M138.831,341.409v 4.61363" fill="none" stroke="black"/>
<path d="M147.902,336.795v 9.22726" fill="none" stroke="black"/>
<path d="M156.972,341.409v 4.61363" fill="none" stroke="black"/>
<path d="M166.043,341.409v 4.61363" fill="none" stroke="black"/>
<path d="M175.114,341.409v 4.61363" fill="none" stroke="black"/>
<path d="M184.185,341.409v 4.61363" fill="none" stroke="black"/>
<path d="M193.256,336.795v 9.22726" fill="none" stroke="black"/>
<path d="M202.327,341.409v 4.61363" fill="none" stroke="black"/>
<path d="M211.398,341.409v 4.61363" fill="none" stroke="black"/>
<path d="M220.469,341.409v 4.61363" fill="none" stroke="black"/>
<path d="M229.539,341.409v 4.61363" fill="none" stroke="black"/>
<path d="M238.61,336.795v 9.22726" fill="none" stroke="black"/>
<path d="M247.681,341.409v 4.61363" fill="none" stroke="black"/>
<path d="M256.752,341.409v 4.61363" fill="none" stroke="black"/>
<path d="M265.823,341.409v 4.61363" fill="none" stroke="black"/>
<path d="M274.894,341.409v 4.61363" fill="none" stroke="black"/>
<path d="M283.965,336.795v 9.22726" fill="none" stroke="black"/>
<path d="M293.035,341.409v 4.61363" fill="none" stroke="black"/>
<path d="M302.106,341.409v 4.61363" fill="none" stroke="black"/>
<path d="M311.177,341.409v 4.61363" fill="none" stroke="black"/>
<path d="M320.248,341.409v 4.61363" fill="none" stroke="black"/>
<path d="M329.319,336.795v 9.22726" fill="none" stroke="black"/>
<path d="M338.39,341.409v 4.61363" fill="none" stroke="black"/>
<path d="M347.461,341.409v 4.61363" fill="none" stroke="black"/>
<path d="M356.531,341.409v 4.61363" fill="none" stroke="black"/>
<path d="M365.602,341.409v 4.61363" fill="none" stroke="black"/>
<path d="M374.673,336.795v 9.22726" fill="none" stroke="black"/>
<path d="M383.744,341.409v 4.61363" fill="none" stroke="black"/>
<path d="M392.815,341.409v 4.61363" fill="none" stroke="black"/>
<path d="M401.886,341.409v 4.61363" fill="none" stroke="black"/>
<path d="M410.957,341.409v 4.61363" fill="none" stroke="black"/>
<path d="M420.028,336.795v 9.22726" fill="none" stroke="black"/>
<path d="M429.098,341.409v 4.61363" fill="none" stroke="black"/>
<path d="M438.169,341.409v 4.61363" fill="none" stroke="black"/>
<path d="M447.24,341.409v 4.61363" fill="none" stroke="black"/>
<path d="M456.311,341.409v 4.61363" fill="none" stroke="black"/>
<path d="M465.382,336.795v 9.22726" fill="none" stroke="black"/>
<path d="M474.453,341.409v 4.61363" fill="none" stroke="black"/>
<path d="M483.524,341.409v 4.61363" fill="none" stroke="black"/>
<path d="M492.594,341.409v 4.61363" fill="none" stroke="black"/>
<path d="M501.665,341.409v 4.61363" fill="none" stroke="black"/>
<path d="M510.736,336.795v 9.22726" fill="none" stroke="black"/>
<text x="53.446" y="358.403" fill="black" font-size="12.8453" font-family="Helvetica">
0
</text>
<text x="94.9882" y="358.403" fill="black" font-size="12.8453" font-family="Helvetica">
0.1
</text>
<text x="138.16" y="358.403" fill="black" font-size="12.8453" font-family="Helvetica">
0.2
</text>
<text x="183.775" y="358.403" fill="black" font-size="12.8453" font-family="Helvetica">
0.3
</text>
<text x="229.389" y="358.403" fill="black" font-size="12.8453" font-family="Helvetica">
0.4
</text>
<text x="275.004" y="358.403" fill="black" font-size="12.8453" font-family="Helvetica">
0.5
</text>
<text x="319.805" y="358.403" fill="black" font-size="12.8453" font-family="Helvetica">
0.6
</text>
<text x="365.42" y="358.403" fill="black" font-size="12.8453" font-family="Helvetica">
0.7
</text>
<text x="411.035" y="358.403" fill="black" font-size="12.8453" font-family="Helvetica">
0.8
</text>
<text x="455.835" y="358.403" fill="black" font-size="12.8453" font-family="Helvetica">
0.9
</text>
<text x="507.967" y="358.403" fill="black" font-size="12.8453" font-family="Helvetica">
1
</text>
<path d="M57.1929,346.022v -307.575" fill="none" stroke="black"/>
<g transform="rotate(-90,29.8239,86.3427)">
<text x="29.8239" y="86.3427" fill="black" font-size="12.8453" font-family="Helvetica">
# Entries
</text>
</g>
<path d="M70.7992,346.022h -13.6063" fill="none" stroke="black"/>
<path d="M63.9961,333.378h -6.80315" fill="none" stroke="black"/>
<path d="M63.9961,320.734h -6.80315" fill="none" stroke="black"/>
<path d="M63.9961,308.089h -6.80315" fill="none" stroke="black"/>
<path d="M70.7992,295.445h -13.6063" fill="none" stroke="black"/>
<path d="M63.9961,282.801h -6.80315" fill="none" stroke="black"/>
<path d="M63.9961,270.156h -6.80315" fill="none" stroke="black"/>
<path d="M63.9961,257.512h -6.80315" fill="none" stroke="black"/>
<path d="M70.7992,244.868h -13.6063" fill="none" stroke="black"/>
<path d="M63.9961,232.223h -6.80315" fill="none" stroke="black"/>
<path d="M63.9961,219.579h -6.80315" fill="none" stroke="black"/>
<path d="M63.9961,206.935h -6.80315" fill="none" stroke="black"/>
<path d="M70.7992,194.291h -13.6063" fill="none" stroke="black"/>
<path d="M63.9961,181.646h -6.80315" fill="none" stroke="black"/>
<path d="M63.9961,169.002h -6.80315" fill="none" stroke="black"/>
<path d="M63.9961,156.358h -6.80315" fill="none" stroke="black"/>
<path d="M70.7992,143.713h -13.6063" fill="none" stroke="black"/>
<path d="M63.9961,131.069h -6.80315" fill="none" stroke="black"/>
<path d="M63.9961,118.425h -6.80315" fill="none" stroke="black"/>
<path d="M63.9961,105.78h -6.80315" fill="none" stroke="black"/>
<path d="M70.7992,93.136h -13.6063" fill="none" stroke="black"/>
<path d="M63.9961,80.4917h -6.80315" fill="none" stroke="black"/>
<path d="M63.9961,67.8474h -6.80315" fill="none" stroke="black"/>
<path d="M63.9961,55.2031h -6.80315" fill="none" stroke="black"/>
<path d="M70.7992,42.5588h -13.6063" fill="none" stroke="black"/>
<path d="M70.7992,42.5588h -13.6063" fill="none" stroke="black"/>
<text x="47.7441" y="350.258" fill="black" font-size="12.8453" font-family="Helvetica">
0
</text>
<text x="30.6385" y="299.756" fill="black" font-size="12.8453" font-family="Helvetica">
0.02
</text>
<text x="30.6385" y="249.253" fill="black" font-size="12.8453" font-family="Helvetica">
0.04
</text>
<text x="30.6385" y="198.751" fill="black" font-size="12.8453" font-family="Helvetica">
0.06
</text>
<text x="30.6385" y="148.249" fill="black" font-size="12.8453" font-family="Helvetica">
0.08
</text>
<text x="39.5986" y="97.7464" fill="black" font-size="12.8453" font-family="Helvetica">
0.1
</text>
<text x="30.6385" y="47.2441" fill="black" font-size="12.8453" font-family="Helvetica">
0.12
</text>
<path d="M57.1929,252.692h 4.53543v 78.5457h 4.53543v -7.08451h 4.53543v -36.0386h 4.53543v -15.0931h 4.53543v -13.861h 4.53543v -3.38824h 4.53543v -16.9412h 4.53543v -24.9498h 4.53543v -6.16044h 4.53543v -32.6504h 4.53543v 19.4054h 4.53543v
 -31.1102h 4.53543v 0.924067h 4.53543v 15.0931h 4.53543v 15.7091h 4.53543v 13.245h 4.53543v 18.4813h 4.53543v 20.3295h 4.53543v 30.1862h 4.53543v -7.39253h 4.53543v 25.2578h 4.53543v 11.3968h 4.53543v 7.39253h 4.53543v 9.54869h 4.53543v 5.5444h
 4.53543v 1.84813h 4.53543v 7.08451h 4.53543v 1.23209h 4.53543v 2.15616h 4.53543v 1.84813h 4.53543v 0.308022h 4.53543v 0.616044h 9.07087v 1.54011h 9.07087v -0.308022h 4.53543v 0.308022h 4.53543v -0.616044h 4.53543v 0.616044h 4.53543v 0.308022h
 13.6063v -0.308022h 4.53543v 0.308022h 253.984" fill="none" stroke="#000033" stroke-width="2"/>
<rect x="340.657" y="38.4469" width="170.079" height="76.8938" fill="white"/>
<path d="M340.657,115.341h 170.079" fill="none" stroke="black"/>
<path d="M510.736,115.341v -76.8938" fill="none" stroke="black"/>
<path d="M510.736,38.4469h -170.079" fill="none" stroke="black"/>
<path d="M340.657,38.4469v 76.8938" fill="none" stroke="black"/>
<text x="382.526" y="61.0915" fill="black" font-size="9.92983" font-family="Helvetica">
Data simulation
</text>
<path d="M347.035,71.1268h 29.7638v -26.9128h -29.7638z" fill="white"/>
<path d="M347.035,57.6704h 29.7638" fill="none" stroke="#000033" stroke-width="2"/>
<g stroke="black" stroke-width="2" fill="none">
<line x1="360.917" y1="57.6704" x2="361.917" y2="57.6704"/>
</g>
<text x="382.526" y="99.3755" fill="black" font-size="9.92983" font-family="Helvetica">
Data reject double particles
</text>
<path d="M347.035,109.574h 29.7638v -26.9128h -29.7638z" fill="white"/>
<path d="M347.035,96.1173h 29.7638" fill="none" stroke="#3366ff" stroke-width="2"/>
<g stroke="black" stroke-width="2" fill="none">
<line x1="360.917" y1="96.1173" x2="361.917" y2="96.1173"/>
</g>
<text x="161.782" y="17.9202" fill="black" font-size="18.7938" font-family="Helvetica">
Fraction of late hits per Event
</text></svg>
