<?xml version="1.0" standalone="no"?>
<svg width="567.429" height="384.969" viewBox="0 0 567.429 384.969" xmlns="http://www.w3.org/2000/svg">
<title>
../plots/17_06_21_pions_sim/pions_compare_simenergySum.svg
</title>
<desc>
Creator: ROOT Version 5.34/30
CreationDate: Wed Jul  5 10:15:58 2017</desc>
<defs>
</defs>
<rect x="0.5" y="0" width="566.929" height="384.469" fill="white"/>
<rect x="57.1929" y="38.4469" width="453.543" height="307.575" fill="white"/>
<rect x="57.1929" y="38.4469" width="453.543" height="307.575" fill="none" stroke="black"/>
<rect x="57.1929" y="38.4469" width="453.543" height="307.575" fill="white"/>
<rect x="57.1929" y="38.4469" width="453.543" height="307.575" fill="none" stroke="black"/>
<path d="M57.1929,346.022h 12.2457v -7.70865h 0.453543v 7.70865h 0.453543v -11.563h 0.453543v 7.70865h 0.907087v -11.563h 0.453543v -19.2716h 0.453543v 11.563h 0.453543v 7.70865h 0.453543v -15.4173h 0.453543v 7.70865h 0.453543v -34.6889h 0.453543v
 50.1063h 0.453543v -50.1063h 0.453543v 3.85433h 0.453543v -7.70865h 0.907087v -19.2716h 0.453543v 7.70865h 0.453543v 26.9803h 0.453543v -19.2716h 0.453543v -3.85433h 0.453543v 7.70865h 0.453543v -11.563h 0.453543v -3.85433h 0.453543v 11.563h
 0.453543v -30.8346h 0.453543v 3.85433h 0.453543v -11.563h 0.453543v 15.4173h 0.453543v -42.3976h 0.453543v 38.5433h 0.453543v -7.70865h 0.453543v -7.70865h 0.453543v 11.563h 0.453543v -7.70865h 0.453543v -34.6889h 0.453543v 26.9803h 0.453543v
 -19.2716h 0.453543v 26.9803h 0.453543v -11.563h 0.907087v 11.563h 0.453543v -7.70865h 0.453543v -26.9803h 0.453543v -19.2716h 0.453543v 7.70865h 0.453543v 46.2519h 0.453543v -15.4173h 0.453543v -38.5433h 0.453543v -7.70865h 0.907087v 23.126h
 0.453543v -19.2716h 0.453543v -26.9803h 0.453543v 80.9409h 0.453543v -65.5236h 0.907087v -19.2716h 0.453543v 57.8149h 0.453543v -15.4173h 0.453543v -50.1063h 0.453543v 69.3779h 0.453543v -26.9803h 0.907087v -7.70865h 0.453543v -7.70865h 0.453543v
 -61.6692h 0.453543v 38.5433h 0.453543v 3.85433h 0.453543v -15.4173h 0.453543v -3.85433h 0.453543v -3.85433h 0.453543v 34.6889h 0.453543v 23.126h 0.453543v -7.70865h 0.453543v -15.4173h 0.453543v -23.126h 0.453543v 42.3976h 0.453543v -42.3976h
 0.453543v 23.126h 0.453543v -19.2716h 0.453543v 3.85433h 0.453543v 30.8346h 0.453543v -11.563h 0.453543v -53.9606h 0.453543v 61.6692h 0.907087v -46.2519h 0.453543v 11.563h 0.453543v -23.126h 0.453543v 19.2716h 0.453543v -30.8346h 0.453543v -50.1063h
 0.453543v 123.338h 0.453543v -69.3779h 0.453543v 77.0865h 0.453543v -30.8346h 0.453543v -26.9803h 0.907087v 3.85433h 0.453543v 11.563h 0.453543v 15.4173h 0.453543v -30.8346h 0.453543v 15.4173h 0.453543v 30.8346h 0.453543v 7.70865h 0.453543v
 -30.8346h 0.453543v -34.6889h 0.453543v 53.9606h 0.453543v -38.5433h 0.453543v 23.126h 0.453543v 3.85433h 0.453543v 26.9803h 0.453543v -42.3976h 0.453543v -23.126h 0.453543v 30.8346h 0.453543v -3.85433h 0.453543v -15.4173h 0.453543v -61.6692h
 0.453543v 30.8346h 0.453543v 61.6692h 0.453543v -19.2716h 0.453543v -30.8346h 0.453543v 38.5433h 0.453543v 11.563h 0.453543v -15.4173h 0.453543v 65.5236h 0.453543v -84.7952h 0.453543v 23.126h 0.453543v 15.4173h 0.453543v -3.85433h 0.453543v 11.563h
 0.453543v -50.1063h 0.453543v -15.4173h 0.453543v 46.2519h 0.453543v -11.563h 0.453543v -15.4173h 0.453543v 7.70865h 0.453543v 57.8149h 0.453543v -65.5236h 0.453543v 50.1063h 0.453543v -11.563h 0.453543v 7.70865h 0.453543v -42.3976h 0.453543v
 38.5433h 0.453543v -3.85433h 0.453543v 57.8149h 0.453543v -19.2716h 0.453543v 7.70865h 0.453543v -77.0865h 0.453543v 7.70865h 0.453543v 26.9803h 0.453543v 23.126h 0.453543v -53.9606h 0.453543v 57.8149h 0.453543v -57.8149h 0.453543v 42.3976h
 0.453543v -7.70865h 0.453543v -42.3976h 0.453543v 3.85433h 0.453543v 73.2322h 0.453543v -50.1063h 0.453543v -15.4173h 0.453543v 26.9803h 0.453543v 11.563h 0.453543v -19.2716h 0.453543v -23.126h 0.453543v 65.5236h 0.453543v -57.8149h 0.453543v
 50.1063h 0.453543v -53.9606h 0.453543v 65.5236h 0.453543v -26.9803h 0.453543v -15.4173h 0.453543v -7.70865h 0.453543v 7.70865h 0.453543v 50.1063h 0.453543v -19.2716h 0.453543v 15.4173h 0.453543v -30.8346h 0.453543v -30.8346h 0.453543v 3.85433h
 0.453543v 50.1063h 0.453543v -26.9803h 0.907087v -26.9803h 0.453543v 50.1063h 0.907087v -3.85433h 0.453543v 26.9803h 0.453543v -42.3976h 0.453543v 7.70865h 0.453543v -50.1063h 0.453543v 50.1063h 0.453543v -11.563h 0.907087v -11.563h 0.453543v
 53.9606h 0.453543v -19.2716h 0.453543v -26.9803h 0.453543v 15.4173h 0.453543v 15.4173h 0.453543v -30.8346h 0.453543v 11.563h 0.453543v -30.8346h 0.453543v 61.6692h 0.453543v -80.9409h 0.453543v 61.6692h 0.453543v 7.70865h 0.453543v 3.85433h
 0.453543v -15.4173h 0.453543v 30.8346h 0.453543v -23.126h 0.453543v 38.5433h 0.453543v -19.2716h 0.453543v 11.563h 0.453543v -3.85433h 0.453543v 7.70865h 0.453543v -7.70865h 0.453543v -30.8346h 0.453543v -7.70865h 0.453543v 26.9803h 0.453543v
 -46.2519h 0.907087v 61.6692h 0.453543v 3.85433h 0.453543v -11.563h 0.453543v -3.85433h 0.453543v -34.6889h 0.453543v 46.2519h 0.453543v -34.6889h 0.453543v 3.85433h 0.453543v 30.8346h 0.453543v -23.126h 0.453543v -7.70865h 0.453543v 7.70865h
 0.453543v 11.563h 0.907087v -7.70865h 0.453543v 46.2519h 0.453543v -30.8346h 0.453543v 34.6889h 0.453543v -88.6495h 0.453543v 53.9606h 0.453543v -34.6889h 0.453543v 46.2519h 0.453543v -77.0865h 0.453543v 61.6692h 0.453543v -7.70865h 0.453543v
 34.6889h 0.453543v -38.5433h 0.453543v -19.2716h 0.453543v -7.70865h 0.453543v 30.8346h 0.453543v -15.4173h 0.453543v -7.70865h 0.453543v 3.85433h 0.453543v -7.70865h 0.453543v 34.6889h 0.453543v -15.4173h 0.453543v 15.4173h 0.453543v -23.126h
 0.453543v -3.85433h 0.453543v 42.3976h 0.453543v -50.1063h 0.453543v -15.4173h 0.453543v 38.5433h 0.453543v -23.126h 0.453543v 23.126h 0.453543v -19.2716h 0.453543v 26.9803h 0.453543v -34.6889h 0.453543v 38.5433h 0.453543v -19.2716h 0.453543v
 15.4173h 0.453543v -26.9803h 0.453543v -30.8346h 0.453543v -3.85433h 0.453543v 53.9606h 0.453543v -53.9606h 0.453543v 42.3976h 0.453543v -42.3976h 0.453543v 57.8149h 0.453543v -30.8346h 0.453543v 15.4173h 0.453543v 15.4173h 0.453543v -69.3779h
 0.453543v 34.6889h 0.453543v 11.563h 0.453543v -26.9803h 0.453543v -11.563h 0.453543v 30.8346h 0.453543v -50.1063h 0.453543v 65.5236h 0.453543v -46.2519h 0.453543v -15.4173h 0.453543v 26.9803h 0.453543v 38.5433h 0.453543v -34.6889h 0.453543v
 -15.4173h 0.453543v 53.9606h 0.453543v -15.4173h 0.453543v -42.3976h 0.453543v 38.5433h 0.453543v -11.563h 0.453543v -26.9803h 0.453543v 23.126h 0.453543v 7.70865h 0.453543v -23.126h 0.453543v 30.8346h 0.453543v -3.85433h 0.453543v -26.9803h
 0.453543v 46.2519h 0.453543v -61.6692h 0.453543v 30.8346h 0.453543v 30.8346h 0.453543v -50.1063h 0.453543v 53.9606h 0.453543v -57.8149h 0.453543v 26.9803h 0.453543v -50.1063h 0.453543v 69.3779h 0.453543v -84.7952h 0.453543v 69.3779h 0.453543v
 -57.8149h 0.453543v 84.7952h 0.453543v -15.4173h 0.453543v -30.8346h 0.453543v -15.4173h 0.453543v -3.85433h 0.453543v 15.4173h 0.453543v -26.9803h 0.453543v 34.6889h 0.453543v -7.70865h 0.453543v 3.85433h 0.453543v -19.2716h 0.453543v -26.9803h
 0.907087v 69.3779h 0.453543v -69.3779h 0.453543v 53.9606h 0.907087v -26.9803h 0.453543v -50.1063h 0.453543v 26.9803h 0.453543v 3.85433h 0.453543v 15.4173h 0.907087v 3.85433h 0.453543v -42.3976h 0.453543v -23.126h 0.453543v 15.4173h 0.453543v
 65.5236h 0.453543v 3.85433h 0.453543v -57.8149h 0.453543v 30.8346h 0.453543v 53.9606h 0.453543v -92.5039h 0.453543v 30.8346h 0.453543v -3.85433h 0.453543v 30.8346h 0.453543v -80.9409h 0.453543v -3.85433h 0.453543v 34.6889h 0.453543v 19.2716h
 0.453543v -19.2716h 0.453543v 11.563h 0.453543v 26.9803h 0.453543v -46.2519h 0.453543v 65.5236h 0.453543v 7.70865h 0.453543v -65.5236h 0.453543v 65.5236h 0.453543v -46.2519h 0.453543v -38.5433h 0.453543v -3.85433h 0.453543v 53.9606h 0.453543v
 15.4173h 0.453543v -46.2519h 0.453543v -26.9803h 0.453543v 19.2716h 0.453543v 15.4173h 0.907087v -34.6889h 0.453543v 7.70865h 0.453543v 30.8346h 0.453543v -7.70865h 0.453543v -34.6889h 0.453543v 53.9606h 0.453543v -11.563h 0.453543v -11.563h
 0.907087v 30.8346h 0.453543v -50.1063h 0.453543v 53.9606h 0.453543v 50.1063h 0.453543v -104.067h 0.453543v 19.2716h 0.453543v 46.2519h 0.453543v -15.4173h 0.453543v -34.6889h 0.453543v 26.9803h 0.453543v -34.6889h 0.453543v 50.1063h 0.453543v
 -50.1063h 0.453543v -42.3976h 0.453543v 23.126h 0.453543v 23.126h 0.453543v 7.70865h 0.453543v -15.4173h 0.453543v -23.126h 0.453543v 11.563h 0.453543v 34.6889h 0.453543v -30.8346h 0.453543v 46.2519h 0.453543v -42.3976h 0.453543v 34.6889h 0.453543v
 7.70865h 0.453543v 3.85433h 0.453543v -3.85433h 0.453543v -3.85433h 0.453543v 3.85433h 0.453543v -42.3976h 0.453543v 73.2322h 0.453543v -46.2519h 0.453543v -42.3976h 0.453543v 38.5433h 0.453543v -3.85433h 0.453543v 42.3976h 0.453543v -38.5433h
 0.453543v 38.5433h 0.453543v -53.9606h 0.453543v 19.2716h 0.453543v 3.85433h 0.453543v -11.563h 0.453543v 30.8346h 0.453543v -50.1063h 0.453543v 34.6889h 0.453543v 23.126h 0.453543v -53.9606h 0.453543v -34.6889h 0.453543v 46.2519h 0.453543v
 -3.85433h 0.453543v 26.9803h 0.453543v -26.9803h 0.453543v 7.70865h 0.453543v 11.563h 0.453543v 42.3976h 0.453543v -42.3976h 0.453543v -46.2519h 0.453543v 19.2716h 0.453543v -11.563h 0.453543v 34.6889h 0.453543v -50.1063h 0.453543v 3.85433h
 0.453543v 61.6692h 0.453543v -69.3779h 0.453543v 57.8149h 0.453543v -38.5433h 0.453543v 34.6889h 0.907087v -15.4173h 1.81417v -7.70865h 0.453543v 53.9606h 0.453543v -73.2322h 0.453543v 57.8149h 0.453543v 34.6889h 0.453543v -53.9606h 0.453543v
 57.8149h 0.453543v -23.126h 0.453543v 7.70865h 0.453543v -50.1063h 0.453543v 3.85433h 0.453543v 34.6889h 0.453543v -30.8346h 0.453543v 15.4173h 0.453543v -34.6889h 0.453543v 26.9803h 0.453543v 3.85433h 0.453543v -15.4173h 0.453543v -11.563h
 0.453543v 50.1063h 0.453543v 3.85433h 0.453543v 38.5433h 0.453543v -80.9409h 0.453543v 38.5433h 0.453543v -34.6889h 0.453543v 61.6692h 0.453543v -15.4173h 0.453543v -19.2716h 0.453543v -3.85433h 0.453543v -19.2716h 0.453543v -34.6889h 0.453543v
 96.3582h 0.453543v -23.126h 0.453543v -30.8346h 0.453543v 30.8346h 0.453543v -34.6889h 0.453543v 34.6889h 0.453543v -34.6889h 0.453543v -26.9803h 0.453543v 53.9606h 0.453543v 38.5433h 0.453543v -73.2322h 0.453543v 57.8149h 0.453543v -38.5433h
 0.453543v 7.70865h 0.453543v 34.6889h 0.453543v 15.4173h 0.453543v -65.5236h 0.453543v -34.6889h 0.453543v 73.2322h 0.907087v -34.6889h 0.453543v 84.7952h 0.453543v -84.7952h 0.453543v 53.9606h 0.453543v -19.2716h 0.453543v 11.563h 0.453543v 11.563h
 0.453543v -46.2519h 0.453543v -15.4173h 0.453543v -11.563h 0.453543v 84.7952h 0.453543v -127.193h 0.453543v 84.7952h 0.453543v -15.4173h 0.907087v 38.5433h 0.453543v 19.2716h 0.453543v -3.85433h 0.453543v -7.70865h 0.453543v -30.8346h 0.453543v
 23.126h 0.453543v 15.4173h 0.453543v 15.4173h 0.453543v -57.8149h 0.907087v 19.2716h 0.453543v 42.3976h 0.453543v -53.9606h 0.453543v 15.4173h 0.453543v 38.5433h 0.453543v -57.8149h 0.453543v -30.8346h 0.453543v 11.563h 0.453543v 11.563h 0.453543v
 34.6889h 0.453543v 15.4173h 0.453543v -3.85433h 0.453543v -38.5433h 0.453543v -3.85433h 0.453543v -11.563h 0.453543v 34.6889h 0.453543v 19.2716h 0.453543v -42.3976h 0.453543v 38.5433h 0.907087v 11.563h 0.453543v -46.2519h 0.453543v 73.2322h
 0.453543v -3.85433h 0.453543v -38.5433h 0.453543v 38.5433h 0.453543v -34.6889h 0.453543v 7.70865h 0.453543v 15.4173h 0.453543v -7.70865h 0.907087v 15.4173h 0.453543v -34.6889h 0.453543v 19.2716h 0.907087v -7.70865h 0.453543v 3.85433h 0.453543v
 3.85433h 0.453543v -30.8346h 0.453543v 42.3976h 0.907087v 11.563h 0.453543v 19.2716h 0.453543v -23.126h 0.453543v 23.126h 0.453543v -7.70865h 0.453543v -23.126h 0.453543v 3.85433h 0.453543v 7.70865h 0.453543v 11.563h 0.907087v 15.4173h 0.453543v
 -7.70865h 0.453543v -15.4173h 0.453543v -11.563h 0.453543v 30.8346h 0.453543v -30.8346h 0.453543v 7.70865h 0.907087v -26.9803h 0.453543v 65.5236h 0.453543v -61.6692h 0.453543v 26.9803h 0.453543v -30.8346h 0.453543v 3.85433h 0.453543v 19.2716h
 0.453543v 26.9803h 0.453543v -3.85433h 0.453543v -34.6889h 0.453543v 19.2716h 0.453543v -38.5433h 0.453543v 65.5236h 0.453543v -23.126h 0.453543v -7.70865h 0.453543v 26.9803h 0.453543v -30.8346h 0.453543v 19.2716h 0.453543v 30.8346h 0.453543v
 7.70865h 0.453543v -23.126h 0.453543v -34.6889h 0.453543v 3.85433h 0.453543v -3.85433h 0.453543v 50.1063h 0.453543v -34.6889h 1.36063v 11.563h 0.453543v 11.563h 0.453543v 11.563h 0.453543v -15.4173h 0.453543v 30.8346h 0.453543v -46.2519h 0.453543v
 26.9803h 0.453543v -7.70865h 0.453543v -19.2716h 0.453543v 38.5433h 0.453543v -3.85433h 0.453543v -57.8149h 0.453543v -3.85433h 0.453543v 30.8346h 0.453543v 42.3976h 0.453543v -38.5433h 0.453543v 7.70865h 0.453543v -15.4173h 0.453543v 46.2519h
 0.453543v -23.126h 0.453543v 19.2716h 0.453543v -3.85433h 0.453543v -23.126h 0.453543v 19.2716h 0.453543v -11.563h 0.453543v -3.85433h 0.453543v 23.126h 0.453543v -7.70865h 0.453543v 23.126h 0.453543v -38.5433h 0.453543v 23.126h 0.907087v -15.4173h
 0.453543v 3.85433h 0.453543v 3.85433h 0.453543v -3.85433h 0.453543v 3.85433h 0.453543v -34.6889h 0.453543v 53.9606h 0.453543v -34.6889h 0.453543v 23.126h 0.453543v 3.85433h 0.907087v -7.70865h 0.453543v 34.6889h 0.453543v -30.8346h 0.453543v
 3.85433h 0.453543v 7.70865h 0.453543v -46.2519h 0.453543v 50.1063h 0.453543v -15.4173h 0.453543v 15.4173h 0.453543v -38.5433h 0.453543v 50.1063h 0.453543v -26.9803h 0.453543v -7.70865h 0.907087v 11.563h 0.453543v -15.4173h 0.453543v 26.9803h
 0.453543v -23.126h 0.453543v 19.2716h 0.453543v 7.70865h 0.453543v -26.9803h 0.453543v 30.8346h 0.453543v -7.70865h 0.453543v 3.85433h 0.453543v -3.85433h 0.453543v -26.9803h 0.453543v 26.9803h 0.453543v -11.563h 0.453543v 11.563h 0.453543v -23.126h
 0.453543v 26.9803h 0.453543v -30.8346h 0.453543v 38.5433h 0.453543v -11.563h 0.453543v 19.2716h 0.453543v 3.85433h 0.453543v -15.4173h 0.453543v 15.4173h 0.453543v -15.4173h 0.453543v -15.4173h 0.453543v 15.4173h 0.453543v -7.70865h 1.36063v
 -38.5433h 0.453543v 26.9803h 0.453543v 11.563h 0.453543v 3.85433h 0.907087v 15.4173h 0.453543v -11.563h 0.453543v 3.85433h 0.453543v 11.563h 0.453543v -3.85433h 0.453543v -3.85433h 0.453543v -7.70865h 0.453543v -7.70865h 0.453543v 11.563h 0.453543v
 3.85433h 0.453543v -19.2716h 0.453543v 34.6889h 0.453543v -19.2716h 0.453543v 19.2716h 0.453543v -11.563h 0.453543v -11.563h 0.453543v 7.70865h 0.453543v -3.85433h 0.453543v -3.85433h 0.907087v -3.85433h 0.453543v 26.9803h 0.453543v -23.126h
 0.453543v 3.85433h 0.453543v 3.85433h 0.453543v -3.85433h 0.453543v 11.563h 0.453543v 7.70865h 0.453543v -11.563h 0.907087v 3.85433h 0.907087v -26.9803h 0.453543v 38.5433h 0.453543v -11.563h 0.453543v -23.126h 0.453543v 30.8346h 0.453543v -3.85433h
 0.453543v -15.4173h 0.453543v 11.563h 0.453543v -26.9803h 0.453543v 30.8346h 0.453543v -15.4173h 0.453543v 15.4173h 0.907087v -23.126h 0.453543v 23.126h 0.453543v -7.70865h 0.453543v 15.4173h 0.453543v -15.4173h 0.453543v 3.85433h 0.453543v
 -15.4173h 0.453543v 19.2716h 0.453543v 7.70865h 0.453543v 3.85433h 0.453543v -11.563h 0.453543v 19.2716h 0.453543v -19.2716h 0.453543v -11.563h 0.453543v 15.4173h 1.36063v 3.85433h 0.453543v -3.85433h 0.453543v 7.70865h 0.453543v -19.2716h 0.453543v
 15.4173h 0.907087v -7.70865h 0.907087v 11.563h 0.453543v 3.85433h 0.453543v -3.85433h 0.453543v -11.563h 0.453543v 7.70865h 0.907087v 3.85433h 0.453543v -3.85433h 0.453543v -7.70865h 0.453543v -3.85433h 0.453543v 7.70865h 0.907087v -11.563h
 0.453543v 19.2716h 0.453543v -3.85433h 0.907087v 11.563h 0.453543v -7.70865h 0.453543v -15.4173h 0.453543v 15.4173h 0.907087v 3.85433h 0.453543v -7.70865h 0.453543v -7.70865h 0.453543v 7.70865h 1.36063v 3.85433h 0.453543v 3.85433h 0.453543v 3.85433h
 0.453543v -15.4173h 0.453543v 3.85433h 0.907087v -11.563h 0.453543v 3.85433h 0.453543v 11.563h 0.453543v 3.85433h 0.453543v -3.85433h 0.453543v 3.85433h 0.453543v -3.85433h 0.453543v -15.4173h 0.453543v 7.70865h 0.453543v 3.85433h 0.453543v -11.563h
 0.453543v 19.2716h 0.453543v -7.70865h 0.453543v 3.85433h 0.453543v -3.85433h 0.453543v 3.85433h 0.453543v 3.85433h 0.453543v -11.563h 0.453543v 11.563h 0.453543v 3.85433h 0.453543v -3.85433h 0.453543v -11.563h 0.453543v 3.85433h 0.907087v 7.70865h
 0.453543v 3.85433h 0.907087v -3.85433h 0.453543v 3.85433h 0.453543v -7.70865h 0.453543v -7.70865h 0.453543v 7.70865h 0.453543v -11.563h 0.453543v 7.70865h 0.453543v 3.85433h 1.36063v 3.85433h 0.453543v -3.85433h 0.453543v -3.85433h 0.453543v
 7.70865h 0.907087v 3.85433h 0.907087v -3.85433h 0.453543v -11.563h 0.453543v 11.563h 0.453543v -3.85433h 0.453543v 7.70865h 1.36063v -3.85433h 0.453543v -3.85433h 0.907087v 7.70865h 0.453543v -11.563h 0.907087v 11.563h 0.453543v -7.70865h 0.907087v
 -7.70865h 0.453543v 15.4173h 0.453543v -3.85433h 1.81417v -3.85433h 1.36063v 3.85433h 0.453543v -7.70865h 0.453543v 7.70865h 0.453543v -3.85433h 0.453543v 3.85433h 1.81417v 3.85433h 0.453543v -3.85433h 0.453543v 3.85433h 0.907087v -11.563h 0.907087v
 7.70865h 0.453543v 3.85433h 0.907087v -3.85433h 0.453543v 3.85433h 0.453543v -3.85433h 0.453543v 3.85433h 2.72126v -3.85433h 1.81417v 3.85433h 1.36063v -7.70865h 0.453543v 3.85433h 0.453543v 3.85433h 0.453543v -7.70865h 0.453543v 7.70865h 0.453543v
 -3.85433h 0.453543v 3.85433h 0.907087v -3.85433h 1.36063v 3.85433h 0.907087v -3.85433h 0.453543v 3.85433h 0.453543v -7.70865h 0.453543v 7.70865h 0.453543v -3.85433h 0.453543v 3.85433h 0.453543v -3.85433h 0.453543v 3.85433h 0.453543v -3.85433h
 1.36063v 3.85433h 0.453543v -3.85433h 1.36063v 3.85433h 0.907087v -3.85433h 0.453543v 3.85433h 0.907087v -7.70865h 0.453543v 7.70865h 0.907087v -3.85433h 0.907087v 3.85433h 3.1748v -7.70865h 0.453543v 7.70865h 0.453543" fill="none" stroke="#990000"
 stroke-width="2"/>
<path d="M57.1929,346.022h 453.543" fill="none" stroke="black"/>
<text x="-143890" y="30764.1" fill="black" font-size="17636.7" font-family="Helvetica">
Energy Sum [MIP]
</text>
<path d="M57.1929,336.795v 9.22726" fill="none" stroke="black"/>
<path d="M66.2638,341.409v 4.61363" fill="none" stroke="black"/>
<path d="M75.3346,341.409v 4.61363" fill="none" stroke="black"/>
<path d="M84.4055,341.409v 4.61363" fill="none" stroke="black"/>
<path d="M93.4764,341.409v 4.61363" fill="none" stroke="black"/>
<path d="M102.547,336.795v 9.22726" fill="none" stroke="black"/>
<path d="M111.618,341.409v 4.61363" fill="none" stroke="black"/>
<path d="M120.689,341.409v 4.61363" fill="none" stroke="black"/>
<path d="M129.76,341.409v 4.61363" fill="none" stroke="black"/>
<path d="M138.831,341.409v 4.61363" fill="none" stroke="black"/>
<path d="M147.902,336.795v 9.22726" fill="none" stroke="black"/>
<path d="M156.972,341.409v 4.61363" fill="none" stroke="black"/>
<path d="M166.043,341.409v 4.61363" fill="none" stroke="black"/>
<path d="M175.114,341.409v 4.61363" fill="none" stroke="black"/>
<path d="M184.185,341.409v 4.61363" fill="none" stroke="black"/>
<path d="M193.256,336.795v 9.22726" fill="none" stroke="black"/>
<path d="M202.327,341.409v 4.61363" fill="none" stroke="black"/>
<path d="M211.398,341.409v 4.61363" fill="none" stroke="black"/>
<path d="M220.469,341.409v 4.61363" fill="none" stroke="black"/>
<path d="M229.539,341.409v 4.61363" fill="none" stroke="black"/>
<path d="M238.61,336.795v 9.22726" fill="none" stroke="black"/>
<path d="M247.681,341.409v 4.61363" fill="none" stroke="black"/>
<path d="M256.752,341.409v 4.61363" fill="none" stroke="black"/>
<path d="M265.823,341.409v 4.61363" fill="none" stroke="black"/>
<path d="M274.894,341.409v 4.61363" fill="none" stroke="black"/>
<path d="M283.965,336.795v 9.22726" fill="none" stroke="black"/>
<path d="M293.035,341.409v 4.61363" fill="none" stroke="black"/>
<path d="M302.106,341.409v 4.61363" fill="none" stroke="black"/>
<path d="M311.177,341.409v 4.61363" fill="none" stroke="black"/>
<path d="M320.248,341.409v 4.61363" fill="none" stroke="black"/>
<path d="M329.319,336.795v 9.22726" fill="none" stroke="black"/>
<path d="M338.39,341.409v 4.61363" fill="none" stroke="black"/>
<path d="M347.461,341.409v 4.61363" fill="none" stroke="black"/>
<path d="M356.531,341.409v 4.61363" fill="none" stroke="black"/>
<path d="M365.602,341.409v 4.61363" fill="none" stroke="black"/>
<path d="M374.673,336.795v 9.22726" fill="none" stroke="black"/>
<path d="M383.744,341.409v 4.61363" fill="none" stroke="black"/>
<path d="M392.815,341.409v 4.61363" fill="none" stroke="black"/>
<path d="M401.886,341.409v 4.61363" fill="none" stroke="black"/>
<path d="M410.957,341.409v 4.61363" fill="none" stroke="black"/>
<path d="M420.028,336.795v 9.22726" fill="none" stroke="black"/>
<path d="M429.098,341.409v 4.61363" fill="none" stroke="black"/>
<path d="M438.169,341.409v 4.61363" fill="none" stroke="black"/>
<path d="M447.24,341.409v 4.61363" fill="none" stroke="black"/>
<path d="M456.311,341.409v 4.61363" fill="none" stroke="black"/>
<path d="M465.382,336.795v 9.22726" fill="none" stroke="black"/>
<path d="M474.453,341.409v 4.61363" fill="none" stroke="black"/>
<path d="M483.524,341.409v 4.61363" fill="none" stroke="black"/>
<path d="M492.594,341.409v 4.61363" fill="none" stroke="black"/>
<path d="M501.665,341.409v 4.61363" fill="none" stroke="black"/>
<path d="M510.736,336.795v 9.22726" fill="none" stroke="black"/>
<text x="53.446" y="358.403" fill="black" font-size="12.8453" font-family="Helvetica">
0
</text>
<text x="91.73" y="358.403" fill="black" font-size="12.8453" font-family="Helvetica">
100
</text>
<text x="136.53" y="358.403" fill="black" font-size="12.8453" font-family="Helvetica">
200
</text>
<text x="182.145" y="358.403" fill="black" font-size="12.8453" font-family="Helvetica">
300
</text>
<text x="227.76" y="358.403" fill="black" font-size="12.8453" font-family="Helvetica">
400
</text>
<text x="273.375" y="358.403" fill="black" font-size="12.8453" font-family="Helvetica">
500
</text>
<text x="318.176" y="358.403" fill="black" font-size="12.8453" font-family="Helvetica">
600
</text>
<text x="363.791" y="358.403" fill="black" font-size="12.8453" font-family="Helvetica">
700
</text>
<text x="409.406" y="358.403" fill="black" font-size="12.8453" font-family="Helvetica">
800
</text>
<text x="454.206" y="358.403" fill="black" font-size="12.8453" font-family="Helvetica">
900
</text>
<text x="496.563" y="358.403" fill="black" font-size="12.8453" font-family="Helvetica">
1000
</text>
<path d="M57.1929,346.022v -307.575" fill="none" stroke="black"/>
<g transform="rotate(-90,-11.7183,111.594)">
<text x="-11.7183" y="111.594" fill="black" font-size="19.1824" font-family="Helvetica">
# Entries
</text>
</g>
<path d="M70.7992,346.022h -13.6063" fill="none" stroke="black"/>
<path d="M63.9961,334.219h -6.80315" fill="none" stroke="black"/>
<path d="M63.9961,322.416h -6.80315" fill="none" stroke="black"/>
<path d="M63.9961,310.613h -6.80315" fill="none" stroke="black"/>
<path d="M63.9961,298.81h -6.80315" fill="none" stroke="black"/>
<path d="M70.7992,287.007h -13.6063" fill="none" stroke="black"/>
<path d="M63.9961,275.204h -6.80315" fill="none" stroke="black"/>
<path d="M63.9961,263.401h -6.80315" fill="none" stroke="black"/>
<path d="M63.9961,251.597h -6.80315" fill="none" stroke="black"/>
<path d="M63.9961,239.794h -6.80315" fill="none" stroke="black"/>
<path d="M70.7992,227.991h -13.6063" fill="none" stroke="black"/>
<path d="M63.9961,216.188h -6.80315" fill="none" stroke="black"/>
<path d="M63.9961,204.385h -6.80315" fill="none" stroke="black"/>
<path d="M63.9961,192.582h -6.80315" fill="none" stroke="black"/>
<path d="M63.9961,180.779h -6.80315" fill="none" stroke="black"/>
<path d="M70.7992,168.976h -13.6063" fill="none" stroke="black"/>
<path d="M63.9961,157.173h -6.80315" fill="none" stroke="black"/>
<path d="M63.9961,145.369h -6.80315" fill="none" stroke="black"/>
<path d="M63.9961,133.566h -6.80315" fill="none" stroke="black"/>
<path d="M63.9961,121.763h -6.80315" fill="none" stroke="black"/>
<path d="M70.7992,109.96h -13.6063" fill="none" stroke="black"/>
<path d="M63.9961,98.157h -6.80315" fill="none" stroke="black"/>
<path d="M63.9961,86.3539h -6.80315" fill="none" stroke="black"/>
<path d="M63.9961,74.5508h -6.80315" fill="none" stroke="black"/>
<path d="M63.9961,62.7477h -6.80315" fill="none" stroke="black"/>
<path d="M70.7992,50.9446h -13.6063" fill="none" stroke="black"/>
<path d="M70.7992,50.9446h -13.6063" fill="none" stroke="black"/>
<path d="M63.9961,39.1415h -6.80315" fill="none" stroke="black"/>
<text x="44.4859" y="352.702" fill="black" font-size="19.1824" font-family="Helvetica">
0
</text>
<text x="-2.75821" y="294.054" fill="black" font-size="19.1824" font-family="Helvetica">
0.0005
</text>
<text x="11.0892" y="234.591" fill="black" font-size="19.1824" font-family="Helvetica">
0.001
</text>
<text x="-2.75821" y="175.944" fill="black" font-size="19.1824" font-family="Helvetica">
0.0015
</text>
<text x="7.83098" y="116.481" fill="black" font-size="19.1824" font-family="Helvetica">
0.002
</text>
<text x="-2.75821" y="57.8333" fill="black" font-size="19.1824" font-family="Helvetica">
0.0025
</text>
<path d="M57.1929,346.022h 12.2457v -7.70865h 0.453543v 7.70865h 0.453543v -11.563h 0.453543v 7.70865h 0.907087v -11.563h 0.453543v -19.2716h 0.453543v 11.563h 0.453543v 7.70865h 0.453543v -15.4173h 0.453543v 7.70865h 0.453543v -34.6889h 0.453543v
 50.1063h 0.453543v -50.1063h 0.453543v 3.85433h 0.453543v -7.70865h 0.907087v -19.2716h 0.453543v 7.70865h 0.453543v 26.9803h 0.453543v -19.2716h 0.453543v -3.85433h 0.453543v 7.70865h 0.453543v -11.563h 0.453543v -3.85433h 0.453543v 11.563h
 0.453543v -30.8346h 0.453543v 3.85433h 0.453543v -11.563h 0.453543v 15.4173h 0.453543v -42.3976h 0.453543v 38.5433h 0.453543v -7.70865h 0.453543v -7.70865h 0.453543v 11.563h 0.453543v -7.70865h 0.453543v -34.6889h 0.453543v 26.9803h 0.453543v
 -19.2716h 0.453543v 26.9803h 0.453543v -11.563h 0.907087v 11.563h 0.453543v -7.70865h 0.453543v -26.9803h 0.453543v -19.2716h 0.453543v 7.70865h 0.453543v 46.2519h 0.453543v -15.4173h 0.453543v -38.5433h 0.453543v -7.70865h 0.907087v 23.126h
 0.453543v -19.2716h 0.453543v -26.9803h 0.453543v 80.9409h 0.453543v -65.5236h 0.907087v -19.2716h 0.453543v 57.8149h 0.453543v -15.4173h 0.453543v -50.1063h 0.453543v 69.3779h 0.453543v -26.9803h 0.907087v -7.70865h 0.453543v -7.70865h 0.453543v
 -61.6692h 0.453543v 38.5433h 0.453543v 3.85433h 0.453543v -15.4173h 0.453543v -3.85433h 0.453543v -3.85433h 0.453543v 34.6889h 0.453543v 23.126h 0.453543v -7.70865h 0.453543v -15.4173h 0.453543v -23.126h 0.453543v 42.3976h 0.453543v -42.3976h
 0.453543v 23.126h 0.453543v -19.2716h 0.453543v 3.85433h 0.453543v 30.8346h 0.453543v -11.563h 0.453543v -53.9606h 0.453543v 61.6692h 0.907087v -46.2519h 0.453543v 11.563h 0.453543v -23.126h 0.453543v 19.2716h 0.453543v -30.8346h 0.453543v -50.1063h
 0.453543v 123.338h 0.453543v -69.3779h 0.453543v 77.0865h 0.453543v -30.8346h 0.453543v -26.9803h 0.907087v 3.85433h 0.453543v 11.563h 0.453543v 15.4173h 0.453543v -30.8346h 0.453543v 15.4173h 0.453543v 30.8346h 0.453543v 7.70865h 0.453543v
 -30.8346h 0.453543v -34.6889h 0.453543v 53.9606h 0.453543v -38.5433h 0.453543v 23.126h 0.453543v 3.85433h 0.453543v 26.9803h 0.453543v -42.3976h 0.453543v -23.126h 0.453543v 30.8346h 0.453543v -3.85433h 0.453543v -15.4173h 0.453543v -61.6692h
 0.453543v 30.8346h 0.453543v 61.6692h 0.453543v -19.2716h 0.453543v -30.8346h 0.453543v 38.5433h 0.453543v 11.563h 0.453543v -15.4173h 0.453543v 65.5236h 0.453543v -84.7952h 0.453543v 23.126h 0.453543v 15.4173h 0.453543v -3.85433h 0.453543v 11.563h
 0.453543v -50.1063h 0.453543v -15.4173h 0.453543v 46.2519h 0.453543v -11.563h 0.453543v -15.4173h 0.453543v 7.70865h 0.453543v 57.8149h 0.453543v -65.5236h 0.453543v 50.1063h 0.453543v -11.563h 0.453543v 7.70865h 0.453543v -42.3976h 0.453543v
 38.5433h 0.453543v -3.85433h 0.453543v 57.8149h 0.453543v -19.2716h 0.453543v 7.70865h 0.453543v -77.0865h 0.453543v 7.70865h 0.453543v 26.9803h 0.453543v 23.126h 0.453543v -53.9606h 0.453543v 57.8149h 0.453543v -57.8149h 0.453543v 42.3976h
 0.453543v -7.70865h 0.453543v -42.3976h 0.453543v 3.85433h 0.453543v 73.2322h 0.453543v -50.1063h 0.453543v -15.4173h 0.453543v 26.9803h 0.453543v 11.563h 0.453543v -19.2716h 0.453543v -23.126h 0.453543v 65.5236h 0.453543v -57.8149h 0.453543v
 50.1063h 0.453543v -53.9606h 0.453543v 65.5236h 0.453543v -26.9803h 0.453543v -15.4173h 0.453543v -7.70865h 0.453543v 7.70865h 0.453543v 50.1063h 0.453543v -19.2716h 0.453543v 15.4173h 0.453543v -30.8346h 0.453543v -30.8346h 0.453543v 3.85433h
 0.453543v 50.1063h 0.453543v -26.9803h 0.907087v -26.9803h 0.453543v 50.1063h 0.907087v -3.85433h 0.453543v 26.9803h 0.453543v -42.3976h 0.453543v 7.70865h 0.453543v -50.1063h 0.453543v 50.1063h 0.453543v -11.563h 0.907087v -11.563h 0.453543v
 53.9606h 0.453543v -19.2716h 0.453543v -26.9803h 0.453543v 15.4173h 0.453543v 15.4173h 0.453543v -30.8346h 0.453543v 11.563h 0.453543v -30.8346h 0.453543v 61.6692h 0.453543v -80.9409h 0.453543v 61.6692h 0.453543v 7.70865h 0.453543v 3.85433h
 0.453543v -15.4173h 0.453543v 30.8346h 0.453543v -23.126h 0.453543v 38.5433h 0.453543v -19.2716h 0.453543v 11.563h 0.453543v -3.85433h 0.453543v 7.70865h 0.453543v -7.70865h 0.453543v -30.8346h 0.453543v -7.70865h 0.453543v 26.9803h 0.453543v
 -46.2519h 0.907087v 61.6692h 0.453543v 3.85433h 0.453543v -11.563h 0.453543v -3.85433h 0.453543v -34.6889h 0.453543v 46.2519h 0.453543v -34.6889h 0.453543v 3.85433h 0.453543v 30.8346h 0.453543v -23.126h 0.453543v -7.70865h 0.453543v 7.70865h
 0.453543v 11.563h 0.907087v -7.70865h 0.453543v 46.2519h 0.453543v -30.8346h 0.453543v 34.6889h 0.453543v -88.6495h 0.453543v 53.9606h 0.453543v -34.6889h 0.453543v 46.2519h 0.453543v -77.0865h 0.453543v 61.6692h 0.453543v -7.70865h 0.453543v
 34.6889h 0.453543v -38.5433h 0.453543v -19.2716h 0.453543v -7.70865h 0.453543v 30.8346h 0.453543v -15.4173h 0.453543v -7.70865h 0.453543v 3.85433h 0.453543v -7.70865h 0.453543v 34.6889h 0.453543v -15.4173h 0.453543v 15.4173h 0.453543v -23.126h
 0.453543v -3.85433h 0.453543v 42.3976h 0.453543v -50.1063h 0.453543v -15.4173h 0.453543v 38.5433h 0.453543v -23.126h 0.453543v 23.126h 0.453543v -19.2716h 0.453543v 26.9803h 0.453543v -34.6889h 0.453543v 38.5433h 0.453543v -19.2716h 0.453543v
 15.4173h 0.453543v -26.9803h 0.453543v -30.8346h 0.453543v -3.85433h 0.453543v 53.9606h 0.453543v -53.9606h 0.453543v 42.3976h 0.453543v -42.3976h 0.453543v 57.8149h 0.453543v -30.8346h 0.453543v 15.4173h 0.453543v 15.4173h 0.453543v -69.3779h
 0.453543v 34.6889h 0.453543v 11.563h 0.453543v -26.9803h 0.453543v -11.563h 0.453543v 30.8346h 0.453543v -50.1063h 0.453543v 65.5236h 0.453543v -46.2519h 0.453543v -15.4173h 0.453543v 26.9803h 0.453543v 38.5433h 0.453543v -34.6889h 0.453543v
 -15.4173h 0.453543v 53.9606h 0.453543v -15.4173h 0.453543v -42.3976h 0.453543v 38.5433h 0.453543v -11.563h 0.453543v -26.9803h 0.453543v 23.126h 0.453543v 7.70865h 0.453543v -23.126h 0.453543v 30.8346h 0.453543v -3.85433h 0.453543v -26.9803h
 0.453543v 46.2519h 0.453543v -61.6692h 0.453543v 30.8346h 0.453543v 30.8346h 0.453543v -50.1063h 0.453543v 53.9606h 0.453543v -57.8149h 0.453543v 26.9803h 0.453543v -50.1063h 0.453543v 69.3779h 0.453543v -84.7952h 0.453543v 69.3779h 0.453543v
 -57.8149h 0.453543v 84.7952h 0.453543v -15.4173h 0.453543v -30.8346h 0.453543v -15.4173h 0.453543v -3.85433h 0.453543v 15.4173h 0.453543v -26.9803h 0.453543v 34.6889h 0.453543v -7.70865h 0.453543v 3.85433h 0.453543v -19.2716h 0.453543v -26.9803h
 0.907087v 69.3779h 0.453543v -69.3779h 0.453543v 53.9606h 0.907087v -26.9803h 0.453543v -50.1063h 0.453543v 26.9803h 0.453543v 3.85433h 0.453543v 15.4173h 0.907087v 3.85433h 0.453543v -42.3976h 0.453543v -23.126h 0.453543v 15.4173h 0.453543v
 65.5236h 0.453543v 3.85433h 0.453543v -57.8149h 0.453543v 30.8346h 0.453543v 53.9606h 0.453543v -92.5039h 0.453543v 30.8346h 0.453543v -3.85433h 0.453543v 30.8346h 0.453543v -80.9409h 0.453543v -3.85433h 0.453543v 34.6889h 0.453543v 19.2716h
 0.453543v -19.2716h 0.453543v 11.563h 0.453543v 26.9803h 0.453543v -46.2519h 0.453543v 65.5236h 0.453543v 7.70865h 0.453543v -65.5236h 0.453543v 65.5236h 0.453543v -46.2519h 0.453543v -38.5433h 0.453543v -3.85433h 0.453543v 53.9606h 0.453543v
 15.4173h 0.453543v -46.2519h 0.453543v -26.9803h 0.453543v 19.2716h 0.453543v 15.4173h 0.907087v -34.6889h 0.453543v 7.70865h 0.453543v 30.8346h 0.453543v -7.70865h 0.453543v -34.6889h 0.453543v 53.9606h 0.453543v -11.563h 0.453543v -11.563h
 0.907087v 30.8346h 0.453543v -50.1063h 0.453543v 53.9606h 0.453543v 50.1063h 0.453543v -104.067h 0.453543v 19.2716h 0.453543v 46.2519h 0.453543v -15.4173h 0.453543v -34.6889h 0.453543v 26.9803h 0.453543v -34.6889h 0.453543v 50.1063h 0.453543v
 -50.1063h 0.453543v -42.3976h 0.453543v 23.126h 0.453543v 23.126h 0.453543v 7.70865h 0.453543v -15.4173h 0.453543v -23.126h 0.453543v 11.563h 0.453543v 34.6889h 0.453543v -30.8346h 0.453543v 46.2519h 0.453543v -42.3976h 0.453543v 34.6889h 0.453543v
 7.70865h 0.453543v 3.85433h 0.453543v -3.85433h 0.453543v -3.85433h 0.453543v 3.85433h 0.453543v -42.3976h 0.453543v 73.2322h 0.453543v -46.2519h 0.453543v -42.3976h 0.453543v 38.5433h 0.453543v -3.85433h 0.453543v 42.3976h 0.453543v -38.5433h
 0.453543v 38.5433h 0.453543v -53.9606h 0.453543v 19.2716h 0.453543v 3.85433h 0.453543v -11.563h 0.453543v 30.8346h 0.453543v -50.1063h 0.453543v 34.6889h 0.453543v 23.126h 0.453543v -53.9606h 0.453543v -34.6889h 0.453543v 46.2519h 0.453543v
 -3.85433h 0.453543v 26.9803h 0.453543v -26.9803h 0.453543v 7.70865h 0.453543v 11.563h 0.453543v 42.3976h 0.453543v -42.3976h 0.453543v -46.2519h 0.453543v 19.2716h 0.453543v -11.563h 0.453543v 34.6889h 0.453543v -50.1063h 0.453543v 3.85433h
 0.453543v 61.6692h 0.453543v -69.3779h 0.453543v 57.8149h 0.453543v -38.5433h 0.453543v 34.6889h 0.907087v -15.4173h 1.81417v -7.70865h 0.453543v 53.9606h 0.453543v -73.2322h 0.453543v 57.8149h 0.453543v 34.6889h 0.453543v -53.9606h 0.453543v
 57.8149h 0.453543v -23.126h 0.453543v 7.70865h 0.453543v -50.1063h 0.453543v 3.85433h 0.453543v 34.6889h 0.453543v -30.8346h 0.453543v 15.4173h 0.453543v -34.6889h 0.453543v 26.9803h 0.453543v 3.85433h 0.453543v -15.4173h 0.453543v -11.563h
 0.453543v 50.1063h 0.453543v 3.85433h 0.453543v 38.5433h 0.453543v -80.9409h 0.453543v 38.5433h 0.453543v -34.6889h 0.453543v 61.6692h 0.453543v -15.4173h 0.453543v -19.2716h 0.453543v -3.85433h 0.453543v -19.2716h 0.453543v -34.6889h 0.453543v
 96.3582h 0.453543v -23.126h 0.453543v -30.8346h 0.453543v 30.8346h 0.453543v -34.6889h 0.453543v 34.6889h 0.453543v -34.6889h 0.453543v -26.9803h 0.453543v 53.9606h 0.453543v 38.5433h 0.453543v -73.2322h 0.453543v 57.8149h 0.453543v -38.5433h
 0.453543v 7.70865h 0.453543v 34.6889h 0.453543v 15.4173h 0.453543v -65.5236h 0.453543v -34.6889h 0.453543v 73.2322h 0.907087v -34.6889h 0.453543v 84.7952h 0.453543v -84.7952h 0.453543v 53.9606h 0.453543v -19.2716h 0.453543v 11.563h 0.453543v 11.563h
 0.453543v -46.2519h 0.453543v -15.4173h 0.453543v -11.563h 0.453543v 84.7952h 0.453543v -127.193h 0.453543v 84.7952h 0.453543v -15.4173h 0.907087v 38.5433h 0.453543v 19.2716h 0.453543v -3.85433h 0.453543v -7.70865h 0.453543v -30.8346h 0.453543v
 23.126h 0.453543v 15.4173h 0.453543v 15.4173h 0.453543v -57.8149h 0.907087v 19.2716h 0.453543v 42.3976h 0.453543v -53.9606h 0.453543v 15.4173h 0.453543v 38.5433h 0.453543v -57.8149h 0.453543v -30.8346h 0.453543v 11.563h 0.453543v 11.563h 0.453543v
 34.6889h 0.453543v 15.4173h 0.453543v -3.85433h 0.453543v -38.5433h 0.453543v -3.85433h 0.453543v -11.563h 0.453543v 34.6889h 0.453543v 19.2716h 0.453543v -42.3976h 0.453543v 38.5433h 0.907087v 11.563h 0.453543v -46.2519h 0.453543v 73.2322h
 0.453543v -3.85433h 0.453543v -38.5433h 0.453543v 38.5433h 0.453543v -34.6889h 0.453543v 7.70865h 0.453543v 15.4173h 0.453543v -7.70865h 0.907087v 15.4173h 0.453543v -34.6889h 0.453543v 19.2716h 0.907087v -7.70865h 0.453543v 3.85433h 0.453543v
 3.85433h 0.453543v -30.8346h 0.453543v 42.3976h 0.907087v 11.563h 0.453543v 19.2716h 0.453543v -23.126h 0.453543v 23.126h 0.453543v -7.70865h 0.453543v -23.126h 0.453543v 3.85433h 0.453543v 7.70865h 0.453543v 11.563h 0.907087v 15.4173h 0.453543v
 -7.70865h 0.453543v -15.4173h 0.453543v -11.563h 0.453543v 30.8346h 0.453543v -30.8346h 0.453543v 7.70865h 0.907087v -26.9803h 0.453543v 65.5236h 0.453543v -61.6692h 0.453543v 26.9803h 0.453543v -30.8346h 0.453543v 3.85433h 0.453543v 19.2716h
 0.453543v 26.9803h 0.453543v -3.85433h 0.453543v -34.6889h 0.453543v 19.2716h 0.453543v -38.5433h 0.453543v 65.5236h 0.453543v -23.126h 0.453543v -7.70865h 0.453543v 26.9803h 0.453543v -30.8346h 0.453543v 19.2716h 0.453543v 30.8346h 0.453543v
 7.70865h 0.453543v -23.126h 0.453543v -34.6889h 0.453543v 3.85433h 0.453543v -3.85433h 0.453543v 50.1063h 0.453543v -34.6889h 1.36063v 11.563h 0.453543v 11.563h 0.453543v 11.563h 0.453543v -15.4173h 0.453543v 30.8346h 0.453543v -46.2519h 0.453543v
 26.9803h 0.453543v -7.70865h 0.453543v -19.2716h 0.453543v 38.5433h 0.453543v -3.85433h 0.453543v -57.8149h 0.453543v -3.85433h 0.453543v 30.8346h 0.453543v 42.3976h 0.453543v -38.5433h 0.453543v 7.70865h 0.453543v -15.4173h 0.453543v 46.2519h
 0.453543v -23.126h 0.453543v 19.2716h 0.453543v -3.85433h 0.453543v -23.126h 0.453543v 19.2716h 0.453543v -11.563h 0.453543v -3.85433h 0.453543v 23.126h 0.453543v -7.70865h 0.453543v 23.126h 0.453543v -38.5433h 0.453543v 23.126h 0.907087v -15.4173h
 0.453543v 3.85433h 0.453543v 3.85433h 0.453543v -3.85433h 0.453543v 3.85433h 0.453543v -34.6889h 0.453543v 53.9606h 0.453543v -34.6889h 0.453543v 23.126h 0.453543v 3.85433h 0.907087v -7.70865h 0.453543v 34.6889h 0.453543v -30.8346h 0.453543v
 3.85433h 0.453543v 7.70865h 0.453543v -46.2519h 0.453543v 50.1063h 0.453543v -15.4173h 0.453543v 15.4173h 0.453543v -38.5433h 0.453543v 50.1063h 0.453543v -26.9803h 0.453543v -7.70865h 0.907087v 11.563h 0.453543v -15.4173h 0.453543v 26.9803h
 0.453543v -23.126h 0.453543v 19.2716h 0.453543v 7.70865h 0.453543v -26.9803h 0.453543v 30.8346h 0.453543v -7.70865h 0.453543v 3.85433h 0.453543v -3.85433h 0.453543v -26.9803h 0.453543v 26.9803h 0.453543v -11.563h 0.453543v 11.563h 0.453543v -23.126h
 0.453543v 26.9803h 0.453543v -30.8346h 0.453543v 38.5433h 0.453543v -11.563h 0.453543v 19.2716h 0.453543v 3.85433h 0.453543v -15.4173h 0.453543v 15.4173h 0.453543v -15.4173h 0.453543v -15.4173h 0.453543v 15.4173h 0.453543v -7.70865h 1.36063v
 -38.5433h 0.453543v 26.9803h 0.453543v 11.563h 0.453543v 3.85433h 0.907087v 15.4173h 0.453543v -11.563h 0.453543v 3.85433h 0.453543v 11.563h 0.453543v -3.85433h 0.453543v -3.85433h 0.453543v -7.70865h 0.453543v -7.70865h 0.453543v 11.563h 0.453543v
 3.85433h 0.453543v -19.2716h 0.453543v 34.6889h 0.453543v -19.2716h 0.453543v 19.2716h 0.453543v -11.563h 0.453543v -11.563h 0.453543v 7.70865h 0.453543v -3.85433h 0.453543v -3.85433h 0.907087v -3.85433h 0.453543v 26.9803h 0.453543v -23.126h
 0.453543v 3.85433h 0.453543v 3.85433h 0.453543v -3.85433h 0.453543v 11.563h 0.453543v 7.70865h 0.453543v -11.563h 0.907087v 3.85433h 0.907087v -26.9803h 0.453543v 38.5433h 0.453543v -11.563h 0.453543v -23.126h 0.453543v 30.8346h 0.453543v -3.85433h
 0.453543v -15.4173h 0.453543v 11.563h 0.453543v -26.9803h 0.453543v 30.8346h 0.453543v -15.4173h 0.453543v 15.4173h 0.907087v -23.126h 0.453543v 23.126h 0.453543v -7.70865h 0.453543v 15.4173h 0.453543v -15.4173h 0.453543v 3.85433h 0.453543v
 -15.4173h 0.453543v 19.2716h 0.453543v 7.70865h 0.453543v 3.85433h 0.453543v -11.563h 0.453543v 19.2716h 0.453543v -19.2716h 0.453543v -11.563h 0.453543v 15.4173h 1.36063v 3.85433h 0.453543v -3.85433h 0.453543v 7.70865h 0.453543v -19.2716h 0.453543v
 15.4173h 0.907087v -7.70865h 0.907087v 11.563h 0.453543v 3.85433h 0.453543v -3.85433h 0.453543v -11.563h 0.453543v 7.70865h 0.907087v 3.85433h 0.453543v -3.85433h 0.453543v -7.70865h 0.453543v -3.85433h 0.453543v 7.70865h 0.907087v -11.563h
 0.453543v 19.2716h 0.453543v -3.85433h 0.907087v 11.563h 0.453543v -7.70865h 0.453543v -15.4173h 0.453543v 15.4173h 0.907087v 3.85433h 0.453543v -7.70865h 0.453543v -7.70865h 0.453543v 7.70865h 1.36063v 3.85433h 0.453543v 3.85433h 0.453543v 3.85433h
 0.453543v -15.4173h 0.453543v 3.85433h 0.907087v -11.563h 0.453543v 3.85433h 0.453543v 11.563h 0.453543v 3.85433h 0.453543v -3.85433h 0.453543v 3.85433h 0.453543v -3.85433h 0.453543v -15.4173h 0.453543v 7.70865h 0.453543v 3.85433h 0.453543v -11.563h
 0.453543v 19.2716h 0.453543v -7.70865h 0.453543v 3.85433h 0.453543v -3.85433h 0.453543v 3.85433h 0.453543v 3.85433h 0.453543v -11.563h 0.453543v 11.563h 0.453543v 3.85433h 0.453543v -3.85433h 0.453543v -11.563h 0.453543v 3.85433h 0.907087v 7.70865h
 0.453543v 3.85433h 0.907087v -3.85433h 0.453543v 3.85433h 0.453543v -7.70865h 0.453543v -7.70865h 0.453543v 7.70865h 0.453543v -11.563h 0.453543v 7.70865h 0.453543v 3.85433h 1.36063v 3.85433h 0.453543v -3.85433h 0.453543v -3.85433h 0.453543v
 7.70865h 0.907087v 3.85433h 0.907087v -3.85433h 0.453543v -11.563h 0.453543v 11.563h 0.453543v -3.85433h 0.453543v 7.70865h 1.36063v -3.85433h 0.453543v -3.85433h 0.907087v 7.70865h 0.453543v -11.563h 0.907087v 11.563h 0.453543v -7.70865h 0.907087v
 -7.70865h 0.453543v 15.4173h 0.453543v -3.85433h 1.81417v -3.85433h 1.36063v 3.85433h 0.453543v -7.70865h 0.453543v 7.70865h 0.453543v -3.85433h 0.453543v 3.85433h 1.81417v 3.85433h 0.453543v -3.85433h 0.453543v 3.85433h 0.907087v -11.563h 0.907087v
 7.70865h 0.453543v 3.85433h 0.907087v -3.85433h 0.453543v 3.85433h 0.453543v -3.85433h 0.453543v 3.85433h 2.72126v -3.85433h 1.81417v 3.85433h 1.36063v -7.70865h 0.453543v 3.85433h 0.453543v 3.85433h 0.453543v -7.70865h 0.453543v 7.70865h 0.453543v
 -3.85433h 0.453543v 3.85433h 0.907087v -3.85433h 1.36063v 3.85433h 0.907087v -3.85433h 0.453543v 3.85433h 0.453543v -7.70865h 0.453543v 7.70865h 0.453543v -3.85433h 0.453543v 3.85433h 0.453543v -3.85433h 0.453543v 3.85433h 0.453543v -3.85433h
 1.36063v 3.85433h 0.453543v -3.85433h 1.36063v 3.85433h 0.907087v -3.85433h 0.453543v 3.85433h 0.907087v -7.70865h 0.453543v 7.70865h 0.907087v -3.85433h 0.907087v 3.85433h 3.1748v -7.70865h 0.453543v 7.70865h 0.453543" fill="none" stroke="#3366ff"
 stroke-width="2"/>
<rect x="340.657" y="38.4469" width="170.079" height="76.8938" fill="white"/>
<path d="M340.657,115.341h 170.079" fill="none" stroke="black"/>
<path d="M510.736,115.341v -76.8938" fill="none" stroke="black"/>
<path d="M510.736,38.4469h -170.079" fill="none" stroke="black"/>
<path d="M340.657,38.4469v 76.8938" fill="none" stroke="black"/>
<text x="382.526" y="60.2769" fill="black" font-size="9.92983" font-family="Helvetica">
Data no rejection
</text>
<path d="M347.035,71.1268h 29.7638v -26.9128h -29.7638z" fill="white"/>
<path d="M347.035,57.6704h 29.7638" fill="none" stroke="#990000" stroke-width="2"/>
<g stroke="black" stroke-width="2" fill="none">
<line x1="360.917" y1="57.6704" x2="361.917" y2="57.6704"/>
</g>
<text x="382.526" y="99.3755" fill="black" font-size="9.92983" font-family="Helvetica">
Data reject double particles
</text>
<path d="M347.035,109.574h 29.7638v -26.9128h -29.7638z" fill="white"/>
<path d="M347.035,96.1173h 29.7638" fill="none" stroke="#3366ff" stroke-width="2"/>
<g stroke="black" stroke-width="2" fill="none">
<line x1="360.917" y1="96.1173" x2="361.917" y2="96.1173"/>
</g>
<text x="109.65" y="18.7347" fill="black" font-size="18.7938" font-family="Helvetica">
Energy Sum of Event After Data Selection
</text></svg>
