<?xml version="1.0" standalone="no"?>
<svg width="567" height="384" viewBox="0 0 567 384" xmlns="http://www.w3.org/2000/svg">
<title>
/home/iwsatlas1/cgraf/Analysis/2015_August_Testbeam_tdc/fit_calibration/plots/17_02_20_compare_simulation/tungsten_pions_vs_data.svg
</title>
<desc>
Creator: ROOT Version 5.34/21
CreationDate: Wed Feb 22 10:44:22 2017</desc>
<defs>
</defs>
<rect x="0" y="0" width="567" height="384" fill="white"/>
<rect x="57" y="38" width="453" height="308" fill="white"/>
<rect x="57" y="38" width="453" height="308" fill="none" stroke="black"/>
<rect x="57" y="38" width="453" height="308" fill="white"/>
<rect x="57" y="38" width="453" height="308" fill="none" stroke="black"/>
<path d="M57,346h 42v -18v 18h 5v -18h 1v 18h 1v -18h 1v 18h 1v -35v 35h 1v -53h 1v 35h 1v -45h 2v 28h 1v -23h 1v 12h 1v -17h 1v -19h 2v -10v 12h 2v -12h 1v 3v -15h 1v 5h 1v -14h 1v 8v -9h 1v -6h 1v -4h 1v -3h 2v -8v 6h 1v -9h 1v -3h 1v -7h 1v -3h 1v
 -3h 1v -2h 1v -4h 1v -3h 1v -9h 1v -6h 1v -2h 1v -13h 1v -8h 1v -16h 1v -8h 1v -7h 1v -14h 1v -6h 1v -6h 1v -11h 1v -5h 1v -5h 1v -8h 1v -3h 1v -1h 1v -1v 1h 1v 2h 1v 7h 1v 5h 1v 5h 1v 11h 1v 7h 1v 4h 1v 11h 1v 4h 1v 3h 1v 9h 1v 2h 1v 4h 1v 4h 1v 3h
 1v 4h 1v 1h 1v 3h 1v 3h 1v 2h 1v 1h 1v 2h 1v 2h 1v 1h 1v 4h 2v 2h 1v 2h 1v 1h 1v 6h 1v -2h 1v 2h 1v 2h 2v 4h 1v 1h 1v 2h 1v 1h 1v 1v -3h 1v 4h 1v 1h 2v 1h 1v 3v -1h 1v 2h 2v -2v 1h 3v -2v 5h 1v -3h 1v 2h 1v 1v -1h 1v 4h 1v -7h 1v 6h 1v -3h 2v 3h 1v
 -1h 1v -2v 2h 1v -1h 1v 1h 1v 1h 1v 1h 1v -1h 1v -1h 1v 2h 1v -3h 1v -3h 1v 6h 1v -2h 1v 2h 1v 1h 1v -5v 4h 1v -1h 1v -3h 1v 5h 1v -3h 1v 3h 1v 1v -2h 1v -1h 1v 3h 1v -3h 1v 1h 1v 2h 1v -3h 1v 4h 1v -3h 1v 2h 1v -1h 1v -3v 5h 1v -4h 1v 1h 1v 2h 2v
 1h 1v 1v -1h 2v -1h 1v 1v -4h 1v 4h 1v 1v -4h 1v 3h 2v -1h 1v 1h 1v -1h 1v 2v -1h 1v 1h 2v -3v 1h 1v 2h 1v -3h 1v 2h 2v -1h 1v -3v 4h 1v -2h 1v 5v -4h 2v 5h 1v -3h 1v 1h 1v -4h 1v 6v -3h 1v 1h 1v -1h 1v -2v 1h 2v 3h 1v -3v 1h 1v -2h 1v 5v -6h 1v 3h
 1v 1h 1v -5v 4h 1v -2h 1v 5h 1v -4v 4h 1v -3h 1v 3h 1v -3h 1v 1h 1v -1h 1v 2h 1v 1h 2v -2h 1v 2h 1v -5v 8h 1v -7h 1v 5h 1v -6v 4h 1v 1h 1v 1h 1v 1h 1v -2h 2v 3h 1v -2h 1v -1v 1h 1v -2h 1v 2h 1v -1v 1h 1v -1h 1v 2h 1v -4h 1v 3h 1v 1h 1v -2v 1h 3v 2v
 -1h 1v 1h 1v 3h 1v -6h 1v 3h 1v 2v -2h 2v -4h 1v 3v -4h 1v 5h 2v 2v -4h 1v 2h 1v 6h 1v -7v 3h 1v -5h 1v 3h 1v -3v 3h 1v 4h 1v -5h 3v 2h 2v -1h 1v -1v 3h 1v -2h 1v 4h 1v -3h 1v -1h 1v 1h 1v 3h 1v -1h 1v -4h 1v -2h 1v 1h 1v 5h 1v -2h 1v 1h 2v -1h 1v
 3h 1v -3v 1h 1v 8h 1v -7h 1v 1h 1v 3h 1v -5h 1v 3h 2v -4h 1v 6h 2v -4v 3h 1v -4h 1v 4h 1v 2h 1v -6h 1v 4h 1v -5v 2h 1v 1h 2v 3v -6h 1v 1h 1v -1v 3h 1v 2h 1v -2h 1v 1h 1v -1h 1v 5h 1v 4v -11h 1v 2h 1v 1h 1v -1v 2h 1v 3h 1v -5h 1v 6h 1v -4h 1v -4h 1v
 1h 1v 6h 1v -3v 1h 1v 3h 1v -3h 1v 7v -11h 1v 2h 1v 4h 1v -3h 1v 6h 1v -4h 1v -3v 1h 2v 4v -3h 1v 1h 2v 1h 1v -4h 1v 4h 1v -2v 1h 1v -1h 1v 4h 1v 1v -3h 1v 3h 2v -6v 5h 1v -3h 1v 2v -1h 1v -1h 1v -1h 1v 4v -1h 2v -3h 1v 3v -2h 1v 1h 1v 2h 1v -3v 1h
 1v -1h 1v 4h 1v -4h 1v -1h 1v 2h 1v 1v -1h 1v 1h 1v 2v -5h 1v 3h 1v 5h 1v 1v -5h 1v -4h 1v 3h 1v 4v -1h 1v -6h 1v 5h 1v -3v 3h 2v 3h 1v -5v 2h 1v -1h 1v -2v 2h 1v -1h 1v 2h 2v -2h 1v 6h 1v -7v 6h 1v -3h 1v -1h 1v -2v 8h 1v -7h 2v 5v -3h 1v -1h 1v 6v
 -8h 1v 9h 1v -6h 1v -1v 1h 1v 4h 1v -3h 1v 1h 1v -3h 1v 5h 1v -4h 1v 4h 2v -6h 1v 3h 1v 2v -6h 1v 1h 1v -1h 1v 3h 1v 6h 1v -7h 1v 4v -2h 2v 4h 1v -2v 3h 1v -7h 1v 1h 1v 8h 1v -4h 1v 4v -11h 1" fill="none" stroke="#000033" stroke-width="2"/>
<path d="M57,346h 453" fill="none" stroke="black"/>
<text x="441" y="371" fill="black" font-size="12" font-family="Helvetica">
Hit Time [ns]
</text>
<path d="M78,336v 10" fill="none" stroke="black"/>
<path d="M93,341v 5" fill="none" stroke="black"/>
<path d="M108,341v 5" fill="none" stroke="black"/>
<path d="M122,341v 5" fill="none" stroke="black"/>
<path d="M137,341v 5" fill="none" stroke="black"/>
<path d="M152,336v 10" fill="none" stroke="black"/>
<path d="M167,341v 5" fill="none" stroke="black"/>
<path d="M181,341v 5" fill="none" stroke="black"/>
<path d="M196,341v 5" fill="none" stroke="black"/>
<path d="M211,341v 5" fill="none" stroke="black"/>
<path d="M226,336v 10" fill="none" stroke="black"/>
<path d="M240,341v 5" fill="none" stroke="black"/>
<path d="M255,341v 5" fill="none" stroke="black"/>
<path d="M270,341v 5" fill="none" stroke="black"/>
<path d="M285,341v 5" fill="none" stroke="black"/>
<path d="M299,336v 10" fill="none" stroke="black"/>
<path d="M314,341v 5" fill="none" stroke="black"/>
<path d="M329,341v 5" fill="none" stroke="black"/>
<path d="M344,341v 5" fill="none" stroke="black"/>
<path d="M358,341v 5" fill="none" stroke="black"/>
<path d="M373,336v 10" fill="none" stroke="black"/>
<path d="M388,341v 5" fill="none" stroke="black"/>
<path d="M403,341v 5" fill="none" stroke="black"/>
<path d="M417,341v 5" fill="none" stroke="black"/>
<path d="M432,341v 5" fill="none" stroke="black"/>
<path d="M447,336v 10" fill="none" stroke="black"/>
<path d="M78,336v 10" fill="none" stroke="black"/>
<path d="M63,341v 5" fill="none" stroke="black"/>
<path d="M447,336v 10" fill="none" stroke="black"/>
<path d="M462,341v 5" fill="none" stroke="black"/>
<path d="M476,341v 5" fill="none" stroke="black"/>
<path d="M491,341v 5" fill="none" stroke="black"/>
<path d="M506,341v 5" fill="none" stroke="black"/>
<text x="65" y="358" fill="black" font-size="12" font-family="Helvetica">
-100
</text>
<text x="148" y="358" fill="black" font-size="12" font-family="Helvetica">
0
</text>
<text x="214" y="358" fill="black" font-size="12" font-family="Helvetica">
100
</text>
<text x="288" y="358" fill="black" font-size="12" font-family="Helvetica">
200
</text>
<text x="362" y="358" fill="black" font-size="12" font-family="Helvetica">
300
</text>
<text x="436" y="358" fill="black" font-size="12" font-family="Helvetica">
400
</text>
<path d="M57,346v -308" fill="none" stroke="black"/>
<g transform="rotate(-90,29,86)">
<text x="29" y="86" fill="black" font-size="12" font-family="Helvetica">
# Entries
</text>
</g>
<path d="M63,344h -6" fill="none" stroke="black"/>
<path d="M63,340h -6" fill="none" stroke="black"/>
<path d="M63,337h -6" fill="none" stroke="black"/>
<path d="M63,334h -6" fill="none" stroke="black"/>
<path d="M70,331h -13" fill="none" stroke="black"/>
<text x="45" y="330" fill="black" font-size="8" font-family="Helvetica">
-6
</text>
<text x="31" y="336" fill="black" font-size="12" font-family="Helvetica">
10
</text>
<path d="M63,314h -6" fill="none" stroke="black"/>
<path d="M63,303h -6" fill="none" stroke="black"/>
<path d="M63,296h -6" fill="none" stroke="black"/>
<path d="M63,291h -6" fill="none" stroke="black"/>
<path d="M63,286h -6" fill="none" stroke="black"/>
<path d="M63,282h -6" fill="none" stroke="black"/>
<path d="M63,279h -6" fill="none" stroke="black"/>
<path d="M63,276h -6" fill="none" stroke="black"/>
<path d="M70,273h -13" fill="none" stroke="black"/>
<text x="45" y="272" fill="black" font-size="8" font-family="Helvetica">
-5
</text>
<text x="31" y="278" fill="black" font-size="12" font-family="Helvetica">
10
</text>
<path d="M63,256h -6" fill="none" stroke="black"/>
<path d="M63,245h -6" fill="none" stroke="black"/>
<path d="M63,238h -6" fill="none" stroke="black"/>
<path d="M63,233h -6" fill="none" stroke="black"/>
<path d="M63,228h -6" fill="none" stroke="black"/>
<path d="M63,224h -6" fill="none" stroke="black"/>
<path d="M63,221h -6" fill="none" stroke="black"/>
<path d="M63,218h -6" fill="none" stroke="black"/>
<path d="M70,215h -13" fill="none" stroke="black"/>
<text x="45" y="215" fill="black" font-size="8" font-family="Helvetica">
-4
</text>
<text x="31" y="220" fill="black" font-size="12" font-family="Helvetica">
10
</text>
<path d="M63,198h -6" fill="none" stroke="black"/>
<path d="M63,188h -6" fill="none" stroke="black"/>
<path d="M63,180h -6" fill="none" stroke="black"/>
<path d="M63,175h -6" fill="none" stroke="black"/>
<path d="M63,170h -6" fill="none" stroke="black"/>
<path d="M63,166h -6" fill="none" stroke="black"/>
<path d="M63,163h -6" fill="none" stroke="black"/>
<path d="M63,160h -6" fill="none" stroke="black"/>
<path d="M70,157h -13" fill="none" stroke="black"/>
<text x="45" y="157" fill="black" font-size="8" font-family="Helvetica">
-3
</text>
<text x="31" y="162" fill="black" font-size="12" font-family="Helvetica">
10
</text>
<path d="M63,140h -6" fill="none" stroke="black"/>
<path d="M63,130h -6" fill="none" stroke="black"/>
<path d="M63,122h -6" fill="none" stroke="black"/>
<path d="M63,117h -6" fill="none" stroke="black"/>
<path d="M63,112h -6" fill="none" stroke="black"/>
<path d="M63,108h -6" fill="none" stroke="black"/>
<path d="M63,105h -6" fill="none" stroke="black"/>
<path d="M63,102h -6" fill="none" stroke="black"/>
<path d="M70,99h -13" fill="none" stroke="black"/>
<text x="45" y="100" fill="black" font-size="8" font-family="Helvetica">
-2
</text>
<text x="31" y="105" fill="black" font-size="12" font-family="Helvetica">
10
</text>
<path d="M63,82h -6" fill="none" stroke="black"/>
<path d="M63,72h -6" fill="none" stroke="black"/>
<path d="M63,64h -6" fill="none" stroke="black"/>
<path d="M63,59h -6" fill="none" stroke="black"/>
<path d="M63,54h -6" fill="none" stroke="black"/>
<path d="M63,50h -6" fill="none" stroke="black"/>
<path d="M63,47h -6" fill="none" stroke="black"/>
<path d="M63,44h -6" fill="none" stroke="black"/>
<path d="M70,41h -13" fill="none" stroke="black"/>
<text x="46" y="42" fill="black" font-size="8" font-family="Helvetica">
-1
</text>
<text x="33" y="47" fill="black" font-size="12" font-family="Helvetica">
10
</text>
<path d="M57,269v -5h 1v -1h 1v -1h 1v -3h 1v 2h 1v -3h 1v 4h 2v 4h 1v -2v 4h 1v 2h 1v 1h 1v 3h 1v 3h 1v -6h 1v 6h 1v 4h 1v -4v 1h 1v -4h 1v 5h 1v -6v 4h 1v -1h 2v -4v 1h 1v -1h 1v -2h 1v -4h 1v -3h 1v -1v 2h 1v -3h 1v -1h 1v 3v -1h 1v -4h 1v -1h 1v
 1v -1h 2v -3h 1v 3h 1v -5h 1v 3h 1v -6h 1v -1h 1v -3h 1v 1h 1v -3h 1v -5h 1v -3h 1v -3h 1v -4h 1v -2h 2v -4h 2v -1h 1v -3h 1v 1h 1v -3h 1v -2h 1v -1h 1v -3h 2v -2h 1v -1h 1v -2h 1v -1h 1v -3h 1v -1h 1v -4h 1v -6h 1v -5h 1v -8h 1v -5h 1v -5h 1v -10h
 1v -6h 1v -6h 1v -12h 1v -6h 1v -5h 1v -12h 1v -5h 1v -6h 1v -9h 1v -5h 1v -4h 1v -7h 1v -2h 1v -4h 1v -1h 1v -1h 2v 1h 2v 2h 1v 1h 1v 1h 1v 4h 1v 1h 1v 2h 1v 5h 1v 2h 1v 5h 1v 2h 1v 3h 1v 5h 1v 3h 1v 2h 1v 6h 1v 2h 1v 3h 1v 5h 1v 2h 1v 3h 1v 5h 1v
 2h 1v 5h 1v 2h 1v 2h 1v 5h 1v 3h 1v 2h 1v 4h 1v 3h 1v 2h 1v 4h 1v 2h 1v 2h 1v 4h 1v 2h 1v 4h 1v 1h 1v 2h 1v 3h 1v 1h 1v 2h 1v 2h 1v 1h 1v 1h 1v 3h 2v 1h 1v 2h 1v 1h 1v 2h 1v 1h 1v -1h 1v 3h 2v 1h 1v -1v 1h 1v 1h 2v 1h 1v -1h 1v 1h 1v 1h 2v 2h 1v -1h
 1v 1h 1v -1h 1v 1h 1v 1h 4v 1v -1h 2v 1h 1v 1h 2v -1h 1v 3v -1h 1v -1h 1v 2h 1v -1h 1v 2h 1v 1h 1v -1h 1v 1h 1v -1h 1v 2h 1v 1h 3v 1h 1v -1h 1v 2h 1v -1v 3h 1v -3h 1v 2h 1v 2h 1v -1h 2v 2h 1v -1h 1v 1h 1v 1v -1h 1v 2h 2v -2v 4h 1v -2h 1v 1h 2v 1h 1v
 2h 1v -1h 3v 3h 1v -2h 2v 1h 1v -1h 1v -2h 1v 4h 1v -3h 1v 3h 1v -2h 1v 1h 5v 1h 2v -1h 1v -1h 1v 2h 3v -1v 1h 2v 2v -2h 1v 2h 1v -2h 1v -1h 1v 2h 2v -1v 1h 1v -1h 2v 2h 1v -2h 1v 1h 1v -1h 1v 1h 1v -1h 1v 2h 1v -1h 1v -1v 1h 2v 2h 1v -1v 1h 2v -1h
 1v -1v 2h 1v -2h 2v 1h 1v -1h 1v 1h 1v -1h 1v -1h 1v 1h 1v -1h 2v 3h 1v -2h 1v 1h 1v -2h 1v 2h 1v 1h 1v 1h 1v -1h 2v -1h 1v 1h 1v 2h 3v -1h 2v 1h 1v 1h 1v -2h 1v -1h 1v 2h 1v -2h 1v 1h 1v 2h 4v -1h 2v 1h 2v -1h 3v 1h 1v -1h 1v -1h 1v -2v 4h 2v 1v
 -2h 1v 2h 1v 1h 1v -3v 3h 1v -1h 1v -1h 1v -1v 4h 1v -3h 1v 2h 1v -1v 2h 1v -2h 1v 1h 2v -2h 1v 2h 2v -2h 1v 1h 2v 1h 1v -2v 1h 2v 1h 1v -2v 2h 1v 3h 1v -4h 1v 2h 1v -1h 1v 1h 1v -1v 1h 4v -2h 1v 3h 1v -2h 1v 2h 1v -3h 1v 1h 1v 1h 1v 1v -1h 1v -2h
 1v 1h 1v 2v -2h 1v 2h 1v -1v 3h 1v -4h 2v 3v -2h 1v -1h 1v 2h 1v -2h 1v -1h 1v 1h 1v 2h 1v 1h 1v -2h 1v -1h 1v 2h 1v -3h 2v 1h 1v 3h 1v -3h 1v -1h 1v 3v -1h 2v 2h 1v -1v 1h 1v -2h 1v 1h 2v 1h 2v -2h 1v 3h 1v -1v 1h 1v -2h 1v 5h 1v -4h 3v 1v -2h 1v
 1h 1v -2h 1v 3h 1v -2h 1v 2h 1v -1h 1v -1h 1v 1h 1v 1h 1v -2h 1v 3h 1v -2h 1v 2h 1v -3v 2h 1v 1h 1v 1h 1v -2h 1v 3h 1v -3h 1v 1v -1h 1v 1h 1v -2v 2h 1v 1h 2v 3v -3h 1v 2h 1v -1h 1v 1h 1v -2h 1v -2h 2v 1h 1v 1h 1v 2v -3h 2v 3h 2v -2h 1v -2h 1v 3h 2v
 1v -2h 1v 1h 1v -1h 1v -1h 1v 1h 1v -1h 1v 2v -1h 1v 3h 1v -5v 3h 1v -1h 1v 1h 1v 2v -3h 1v 1h 1v 1h 1v -2h 1v 2h 2v 2v -4h 1v 1h 1v -2h 1v 2v -1h 1v 1h 1v 1v -3h 1" fill="none" stroke="#009900" stroke-width="2"/>
<text x="105" y="17" fill="black" font-size="13" font-family="Helvetica">
Tungsten 70GeV Pions QGSP_BERT_HD Simulation vs Data
</text>
<rect x="340" y="38" width="170" height="77" fill="white"/>
<path d="M340,115h 170" fill="none" stroke="black"/>
<path d="M510,115v -77" fill="none" stroke="black"/>
<path d="M510,38h -170" fill="none" stroke="black"/>
<path d="M340,38v 77" fill="none" stroke="black"/>
<text x="382" y="66" fill="black" font-size="20" font-family="Helvetica">
Simulation
</text>
<path d="M347,71h 29v -27h -29z" fill="white"/>
<path d="M347,57h 29" fill="none" stroke="#000033" stroke-width="2"/>
<g stroke="black" stroke-width="2" fill="none">
<line x1="360" y1="57" x2="361" y2="57"/>
</g>
<text x="382" y="104" fill="black" font-size="20" font-family="Helvetica">
Data
</text>
<path d="M347,109h 29v -27h -29z" fill="white"/>
<path d="M347,96h 29" fill="none" stroke="#009900" stroke-width="2"/>
<g stroke="black" stroke-width="2" fill="none">
<line x1="360" y1="96" x2="361" y2="96"/>
</g></svg>
