<?xml version="1.0" standalone="no"?>
<svg width="567.429" height="384.969" viewBox="0 0 567.429 384.969" xmlns="http://www.w3.org/2000/svg">
<title>
../plots/17_06_01/pions_compare_mc_HP_noHPmean_nHitsPerLayer.svg
</title>
<desc>
Creator: ROOT Version 5.34/30
CreationDate: Mon Jun  5 16:49:45 2017</desc>
<defs>
</defs>
<rect x="0.5" y="0" width="566.929" height="384.469" fill="white"/>
<rect x="57.1929" y="38.4469" width="453.543" height="307.575" fill="white"/>
<rect x="57.1929" y="38.4469" width="453.543" height="307.575" fill="none" stroke="black"/>
<rect x="57.1929" y="38.4469" width="453.543" height="307.575" fill="white"/>
<rect x="57.1929" y="38.4469" width="453.543" height="307.575" fill="none" stroke="black"/>
<path d="M57.1929,346.022h 68.0315v -112.073h 22.6772v 112.073h 45.3543v -69.8878h 22.6772v -113.954h 22.6772v 38.2208h 22.6772v -25.7303h 22.6772v 68.9539h 22.6772v -164.616h 22.6772v -25.9149h 22.6772v 7.95326h 22.6772v 107.784h 22.6772v 177.192h
 113.386" fill="none" stroke="#000033" stroke-width="2"/>
<path d="M57.1929,346.022h 453.543" fill="none" stroke="black"/>
<text x="471.312" y="375.509" fill="black" font-size="15.4459" font-family="Helvetica">
Layer
</text>
<path d="M57.1929,336.795v 9.22726" fill="none" stroke="black"/>
<path d="M68.5315,341.409v 4.61363" fill="none" stroke="black"/>
<path d="M79.8701,341.409v 4.61363" fill="none" stroke="black"/>
<path d="M91.2087,341.409v 4.61363" fill="none" stroke="black"/>
<path d="M102.547,336.795v 9.22726" fill="none" stroke="black"/>
<path d="M113.886,341.409v 4.61363" fill="none" stroke="black"/>
<path d="M125.224,341.409v 4.61363" fill="none" stroke="black"/>
<path d="M136.563,341.409v 4.61363" fill="none" stroke="black"/>
<path d="M147.902,336.795v 9.22726" fill="none" stroke="black"/>
<path d="M159.24,341.409v 4.61363" fill="none" stroke="black"/>
<path d="M170.579,341.409v 4.61363" fill="none" stroke="black"/>
<path d="M181.917,341.409v 4.61363" fill="none" stroke="black"/>
<path d="M193.256,336.795v 9.22726" fill="none" stroke="black"/>
<path d="M204.594,341.409v 4.61363" fill="none" stroke="black"/>
<path d="M215.933,341.409v 4.61363" fill="none" stroke="black"/>
<path d="M227.272,341.409v 4.61363" fill="none" stroke="black"/>
<path d="M238.61,336.795v 9.22726" fill="none" stroke="black"/>
<path d="M249.949,341.409v 4.61363" fill="none" stroke="black"/>
<path d="M261.287,341.409v 4.61363" fill="none" stroke="black"/>
<path d="M272.626,341.409v 4.61363" fill="none" stroke="black"/>
<path d="M283.965,336.795v 9.22726" fill="none" stroke="black"/>
<path d="M295.303,341.409v 4.61363" fill="none" stroke="black"/>
<path d="M306.642,341.409v 4.61363" fill="none" stroke="black"/>
<path d="M317.98,341.409v 4.61363" fill="none" stroke="black"/>
<path d="M329.319,336.795v 9.22726" fill="none" stroke="black"/>
<path d="M340.657,341.409v 4.61363" fill="none" stroke="black"/>
<path d="M351.996,341.409v 4.61363" fill="none" stroke="black"/>
<path d="M363.335,341.409v 4.61363" fill="none" stroke="black"/>
<path d="M374.673,336.795v 9.22726" fill="none" stroke="black"/>
<path d="M386.012,341.409v 4.61363" fill="none" stroke="black"/>
<path d="M397.35,341.409v 4.61363" fill="none" stroke="black"/>
<path d="M408.689,341.409v 4.61363" fill="none" stroke="black"/>
<path d="M420.028,336.795v 9.22726" fill="none" stroke="black"/>
<path d="M431.366,341.409v 4.61363" fill="none" stroke="black"/>
<path d="M442.705,341.409v 4.61363" fill="none" stroke="black"/>
<path d="M454.043,341.409v 4.61363" fill="none" stroke="black"/>
<path d="M465.382,336.795v 9.22726" fill="none" stroke="black"/>
<path d="M476.72,341.409v 4.61363" fill="none" stroke="black"/>
<path d="M488.059,341.409v 4.61363" fill="none" stroke="black"/>
<path d="M499.398,341.409v 4.61363" fill="none" stroke="black"/>
<path d="M510.736,336.795v 9.22726" fill="none" stroke="black"/>
<text x="52.6314" y="360.847" fill="black" font-size="15.4459" font-family="Helvetica">
0
</text>
<text x="98.2464" y="360.847" fill="black" font-size="15.4459" font-family="Helvetica">
2
</text>
<text x="143.047" y="360.847" fill="black" font-size="15.4459" font-family="Helvetica">
4
</text>
<text x="188.662" y="360.847" fill="black" font-size="15.4459" font-family="Helvetica">
6
</text>
<text x="234.277" y="360.847" fill="black" font-size="15.4459" font-family="Helvetica">
8
</text>
<text x="275.004" y="360.847" fill="black" font-size="15.4459" font-family="Helvetica">
10
</text>
<text x="319.805" y="360.847" fill="black" font-size="15.4459" font-family="Helvetica">
12
</text>
<text x="365.42" y="360.847" fill="black" font-size="15.4459" font-family="Helvetica">
14
</text>
<text x="411.035" y="360.847" fill="black" font-size="15.4459" font-family="Helvetica">
16
</text>
<text x="455.835" y="360.847" fill="black" font-size="15.4459" font-family="Helvetica">
18
</text>
<text x="501.45" y="360.847" fill="black" font-size="15.4459" font-family="Helvetica">
20
</text>
<path d="M57.1929,346.022v -307.575" fill="none" stroke="black"/>
<g transform="rotate(-90,11.0892,165.354)">
<text x="11.0892" y="165.354" fill="black" font-size="15.4459" font-family="Helvetica">
&lt;# Hits per Layer&gt;
</text>
</g>
<path d="M70.7992,346.022h -13.6063" fill="none" stroke="black"/>
<path d="M63.9961,334.652h -6.80315" fill="none" stroke="black"/>
<path d="M63.9961,323.281h -6.80315" fill="none" stroke="black"/>
<path d="M63.9961,311.91h -6.80315" fill="none" stroke="black"/>
<path d="M70.7992,300.54h -13.6063" fill="none" stroke="black"/>
<path d="M63.9961,289.169h -6.80315" fill="none" stroke="black"/>
<path d="M63.9961,277.798h -6.80315" fill="none" stroke="black"/>
<path d="M63.9961,266.428h -6.80315" fill="none" stroke="black"/>
<path d="M70.7992,255.057h -13.6063" fill="none" stroke="black"/>
<path d="M63.9961,243.686h -6.80315" fill="none" stroke="black"/>
<path d="M63.9961,232.316h -6.80315" fill="none" stroke="black"/>
<path d="M63.9961,220.945h -6.80315" fill="none" stroke="black"/>
<path d="M70.7992,209.574h -13.6063" fill="none" stroke="black"/>
<path d="M63.9961,198.204h -6.80315" fill="none" stroke="black"/>
<path d="M63.9961,186.833h -6.80315" fill="none" stroke="black"/>
<path d="M63.9961,175.462h -6.80315" fill="none" stroke="black"/>
<path d="M70.7992,164.092h -13.6063" fill="none" stroke="black"/>
<path d="M63.9961,152.721h -6.80315" fill="none" stroke="black"/>
<path d="M63.9961,141.351h -6.80315" fill="none" stroke="black"/>
<path d="M63.9961,129.98h -6.80315" fill="none" stroke="black"/>
<path d="M70.7992,118.609h -13.6063" fill="none" stroke="black"/>
<path d="M63.9961,107.239h -6.80315" fill="none" stroke="black"/>
<path d="M63.9961,95.868h -6.80315" fill="none" stroke="black"/>
<path d="M63.9961,84.4973h -6.80315" fill="none" stroke="black"/>
<path d="M70.7992,73.1266h -13.6063" fill="none" stroke="black"/>
<path d="M70.7992,73.1266h -13.6063" fill="none" stroke="black"/>
<path d="M63.9961,61.756h -6.80315" fill="none" stroke="black"/>
<path d="M63.9961,50.3853h -6.80315" fill="none" stroke="black"/>
<path d="M63.9961,39.0147h -6.80315" fill="none" stroke="black"/>
<text x="46.115" y="351.072" fill="black" font-size="15.4459" font-family="Helvetica">
0
</text>
<text x="46.115" y="306.272" fill="black" font-size="15.4459" font-family="Helvetica">
2
</text>
<text x="46.115" y="261.472" fill="black" font-size="15.4459" font-family="Helvetica">
4
</text>
<text x="46.115" y="215.042" fill="black" font-size="15.4459" font-family="Helvetica">
6
</text>
<text x="46.115" y="169.427" fill="black" font-size="15.4459" font-family="Helvetica">
8
</text>
<text x="37.1549" y="123.812" fill="black" font-size="15.4459" font-family="Helvetica">
10
</text>
<text x="37.1549" y="79.0117" fill="black" font-size="15.4459" font-family="Helvetica">
12
</text>
<path d="M57.1929,346.022h 68.0315v -107.404h 22.6772v 107.404h 45.3543v -67.407h 22.6772v -108.594h 22.6772v 36.9062h 22.6772v -23.8739h 22.6772v 64.4383h 22.6772v -153.664h 22.6772v -29.2934h 22.6772v 8.81184h 22.6772v 97.8579h 22.6772v 174.819h
 113.386" fill="none" stroke="#3366ff" stroke-width="2"/>
<rect x="340.657" y="38.4469" width="170.079" height="76.8938" fill="white"/>
<path d="M340.657,115.341h 170.079" fill="none" stroke="black"/>
<path d="M510.736,115.341v -76.8938" fill="none" stroke="black"/>
<path d="M510.736,38.4469h -170.079" fill="none" stroke="black"/>
<path d="M340.657,38.4469v 76.8938" fill="none" stroke="black"/>
<text x="382.526" y="61.0915" fill="black" font-size="11.7868" font-family="Helvetica">
MC QGSP_BERT_HP
</text>
<path d="M347.035,71.1268h 29.7638v -26.9128h -29.7638z" fill="white"/>
<path d="M347.035,57.6704h 29.7638" fill="none" stroke="#000033" stroke-width="2"/>
<g stroke="black" stroke-width="2" fill="none">
<line x1="360.917" y1="57.6704" x2="361.917" y2="57.6704"/>
</g>
<text x="382.526" y="100.19" fill="black" font-size="11.7868" font-family="Helvetica">
MC QGSP_BERT
</text>
<path d="M347.035,109.574h 29.7638v -26.9128h -29.7638z" fill="white"/>
<path d="M347.035,96.1173h 29.7638" fill="none" stroke="#3366ff" stroke-width="2"/>
<g stroke="black" stroke-width="2" fill="none">
<line x1="360.917" y1="96.1173" x2="361.917" y2="96.1173"/>
</g>
<text x="104.763" y="17.9202" fill="black" font-size="15.9421" font-family="Helvetica">
Mean Number of Hits per Layer After Data Selection
</text></svg>
