<?xml version="1.0" standalone="no"?>
<svg width="567.429" height="384.969" viewBox="0 0 567.429 384.969" xmlns="http://www.w3.org/2000/svg">
<title>
../plots/17_06_01/pions_compare_data_mc_anti_protons_noCherenkovcogZ.svg
</title>
<desc>
Creator: ROOT Version 5.34/30
CreationDate: Thu Jun  1 14:52:19 2017</desc>
<defs>
</defs>
<rect x="0.5" y="0" width="566.929" height="384.469" fill="white"/>
<rect x="57.1929" y="38.4469" width="453.543" height="307.575" fill="white"/>
<rect x="57.1929" y="38.4469" width="453.543" height="307.575" fill="none" stroke="black"/>
<rect x="57.1929" y="38.4469" width="453.543" height="307.575" fill="white"/>
<rect x="57.1929" y="38.4469" width="453.543" height="307.575" fill="none" stroke="black"/>
<path d="M57.1929,346.022h 48.9827v -7.70865h 0.453543v 7.70865h 0.907087v -7.70865h 0.907087v 7.70865h 0.907087v -7.70865h 0.453543v 7.70865h 1.36063v -7.70865h 0.907087v -7.70865h 0.453543v -7.70865h 0.453543v 7.70865h 0.907087v -15.4173h 0.453543v
 7.70865h 0.907087v -23.126h 0.453543v -7.70865h 0.907087v 30.8346h 0.453543v -53.9606h 0.453543v -38.5433h 0.453543v 30.8346h 0.453543v 15.4173h 0.453543v -7.70865h 0.453543v -23.126h 0.453543v -23.126h 0.453543v 23.126h 0.907087v -61.6692h
 0.453543v 53.9606h 0.907087v -123.338h 0.453543v 30.8346h 0.453543v 77.0865h 0.453543v -69.3779h 0.453543v 15.4173h 0.907087v 30.8346h 0.453543v -15.4173h 0.453543v -15.4173h 0.453543v -53.9606h 0.453543v 38.5433h 0.453543v -100.213h 0.453543v
 92.5039h 0.453543v -92.5039h 0.453543v 61.6692h 0.453543v 23.126h 0.453543v 15.4173h 0.453543v 7.70865h 0.453543v 7.70865h 0.453543v 15.4173h 0.453543v -69.3779h 0.453543v 61.6692h 0.453543v -61.6692h 0.453543v 15.4173h 0.453543v -15.4173h 0.453543v
 -38.5433h 0.453543v 46.2519h 0.453543v 46.2519h 0.453543v 46.2519h 0.453543v -84.7952h 0.453543v 69.3779h 0.453543v -84.7952h 0.453543v 30.8346h 0.453543v -7.70865h 0.453543v 61.6692h 0.453543v -15.4173h 0.453543v -77.0865h 0.453543v 53.9606h
 0.453543v 38.5433h 0.453543v -23.126h 0.453543v 23.126h 0.453543v -69.3779h 0.453543v 46.2519h 0.453543v -23.126h 0.453543v 69.3779h 0.453543v -92.5039h 0.453543v 46.2519h 0.453543v -15.4173h 0.453543v 53.9606h 0.453543v -53.9606h 0.453543v
 -46.2519h 0.453543v 123.338h 0.453543v -61.6692h 0.907087v 15.4173h 0.453543v -7.70865h 0.453543v 23.126h 0.453543v 38.5433h 0.453543v -30.8346h 0.453543v -61.6692h 0.907087v 53.9606h 0.453543v -61.6692h 0.453543v 23.126h 0.907087v 46.2519h
 0.453543v 38.5433h 0.453543v -77.0865h 0.453543v 15.4173h 0.453543v 30.8346h 0.453543v -15.4173h 0.453543v 30.8346h 0.453543v -69.3779h 0.453543v 100.213h 0.453543v -53.9606h 0.453543v -15.4173h 0.453543v -15.4173h 0.453543v 30.8346h 0.453543v
 7.70865h 0.453543v 23.126h 0.453543v -30.8346h 0.453543v -15.4173h 0.453543v 15.4173h 0.453543v 7.70865h 0.453543v -46.2519h 0.453543v 23.126h 0.453543v 107.921h 0.453543v -131.047h 0.453543v 23.126h 0.453543v 61.6692h 0.453543v -53.9606h 0.453543v
 38.5433h 0.453543v -38.5433h 0.907087v 46.2519h 0.453543v -30.8346h 0.907087v -7.70865h 0.453543v 15.4173h 0.453543v 7.70865h 0.453543v -38.5433h 0.907087v 69.3779h 0.453543v -53.9606h 0.453543v -30.8346h 0.453543v 30.8346h 0.453543v 23.126h
 0.453543v 53.9606h 0.453543v -38.5433h 0.453543v -15.4173h 0.453543v 53.9606h 0.453543v -69.3779h 0.453543v 61.6692h 0.453543v -61.6692h 0.907087v 46.2519h 0.453543v 7.70865h 0.453543v -30.8346h 0.453543v -84.7952h 0.453543v 84.7952h 0.453543v
 38.5433h 0.453543v -53.9606h 0.453543v 30.8346h 0.453543v -46.2519h 0.453543v 53.9606h 0.453543v 23.126h 0.453543v -46.2519h 0.907087v -53.9606h 0.453543v 38.5433h 0.453543v 23.126h 0.453543v -23.126h 0.453543v 15.4173h 0.453543v 7.70865h 0.453543v
 -7.70865h 0.453543v 15.4173h 0.453543v -7.70865h 0.453543v 7.70865h 0.453543v -23.126h 0.453543v 7.70865h 0.453543v 7.70865h 0.453543v -23.126h 0.453543v -38.5433h 0.453543v 69.3779h 0.453543v 30.8346h 0.453543v -38.5433h 0.453543v 30.8346h
 0.453543v -53.9606h 0.453543v 23.126h 0.453543v 7.70865h 0.453543v -53.9606h 0.453543v 69.3779h 0.453543v -38.5433h 0.453543v 69.3779h 0.453543v -53.9606h 0.453543v 30.8346h 0.453543v 15.4173h 0.907087v -7.70865h 0.453543v -15.4173h 0.453543v
 23.126h 0.453543v -23.126h 0.453543v 46.2519h 0.453543v -7.70865h 1.36063v -7.70865h 1.36063v -15.4173h 0.453543v -7.70865h 0.453543v 7.70865h 0.453543v 7.70865h 0.907087v 7.70865h 0.453543v -30.8346h 0.453543v 38.5433h 0.453543v -38.5433h 0.453543v
 23.126h 0.453543v 15.4173h 0.453543v 15.4173h 0.453543v -23.126h 0.453543v 7.70865h 0.453543v -15.4173h 0.453543v 7.70865h 0.907087v -38.5433h 0.453543v 30.8346h 0.907087v 7.70865h 0.453543v 38.5433h 0.453543v -84.7952h 0.453543v 46.2519h 0.453543v
 7.70865h 0.453543v -69.3779h 0.453543v 84.7952h 0.453543v -46.2519h 0.453543v 23.126h 0.907087v 7.70865h 0.453543v -30.8346h 0.453543v -7.70865h 0.453543v 23.126h 0.453543v 30.8346h 0.453543v -15.4173h 0.453543v -38.5433h 0.453543v 53.9606h
 0.453543v -30.8346h 0.453543v 23.126h 0.453543v -15.4173h 0.453543v 7.70865h 0.453543v 7.70865h 0.453543v -53.9606h 0.453543v 30.8346h 0.453543v -15.4173h 0.453543v 30.8346h 0.453543v -7.70865h 0.453543v 30.8346h 0.453543v -23.126h 0.453543v
 -7.70865h 0.453543v 38.5433h 0.453543v -46.2519h 0.453543v 46.2519h 0.453543v -38.5433h 1.36063v 7.70865h 0.453543v 7.70865h 1.36063v 7.70865h 0.453543v -15.4173h 0.907087v 15.4173h 0.453543v -23.126h 1.36063v 7.70865h 0.453543v -15.4173h 0.453543v
 15.4173h 0.907087v 15.4173h 0.453543v -30.8346h 0.453543v 15.4173h 0.453543v 7.70865h 0.453543v -46.2519h 0.453543v 15.4173h 0.453543v 15.4173h 0.453543v 7.70865h 0.453543v -15.4173h 0.453543v 15.4173h 0.453543v 23.126h 0.453543v -15.4173h 0.453543v
 -46.2519h 0.453543v 15.4173h 0.453543v 38.5433h 0.453543v -15.4173h 0.453543v -30.8346h 0.453543v 15.4173h 0.453543v -7.70865h 0.453543v 30.8346h 0.453543v -38.5433h 0.453543v -23.126h 0.453543v 30.8346h 0.453543v -15.4173h 0.453543v 30.8346h
 0.453543v -7.70865h 0.453543v 23.126h 0.453543v -7.70865h 0.453543v -7.70865h 0.453543v -7.70865h 0.453543v 7.70865h 0.453543v -53.9606h 0.453543v 30.8346h 0.453543v 7.70865h 0.453543v -15.4173h 0.907087v 38.5433h 0.453543v -15.4173h 0.453543v
 -15.4173h 0.453543v -53.9606h 0.453543v 77.0865h 0.453543v -7.70865h 0.453543v -7.70865h 0.453543v 15.4173h 0.453543v -30.8346h 0.453543v 38.5433h 0.453543v -23.126h 0.453543v 23.126h 0.453543v -23.126h 0.453543v -46.2519h 0.453543v 61.6692h
 0.453543v -15.4173h 0.453543v 7.70865h 0.453543v 15.4173h 0.453543v -46.2519h 0.453543v 46.2519h 0.907087v -53.9606h 0.453543v 46.2519h 0.453543v -23.126h 0.453543v 15.4173h 0.453543v -15.4173h 0.453543v 46.2519h 0.453543v -23.126h 0.907087v
 7.70865h 0.453543v -15.4173h 0.453543v 15.4173h 0.907087v -7.70865h 0.453543v -23.126h 0.453543v 7.70865h 0.453543v 30.8346h 0.453543v -7.70865h 0.453543v 7.70865h 0.453543v -15.4173h 0.453543v 30.8346h 0.453543v -15.4173h 0.453543v -7.70865h
 0.453543v -30.8346h 0.453543v 38.5433h 0.453543v -7.70865h 0.453543v -7.70865h 0.453543v 38.5433h 0.453543v -30.8346h 0.907087v -7.70865h 0.453543v -15.4173h 0.453543v 15.4173h 0.453543v 15.4173h 0.453543v 7.70865h 0.453543v 7.70865h 0.453543v
 -15.4173h 0.907087v 15.4173h 0.453543v -23.126h 0.453543v 7.70865h 0.453543v -7.70865h 0.453543v 15.4173h 0.453543v 15.4173h 0.453543v -38.5433h 0.453543v 23.126h 0.453543v -7.70865h 0.453543v 7.70865h 0.453543v 7.70865h 0.453543v -15.4173h
 0.453543v 23.126h 0.453543v -38.5433h 0.453543v 38.5433h 0.453543v -30.8346h 0.453543v -23.126h 0.453543v 23.126h 0.453543v 7.70865h 0.453543v -23.126h 0.453543v 23.126h 0.907087v 15.4173h 0.453543v -7.70865h 0.907087v -15.4173h 0.453543v 30.8346h
 0.453543v -15.4173h 0.453543v -7.70865h 0.453543v 15.4173h 0.453543v 7.70865h 0.453543v -23.126h 0.453543v 7.70865h 0.453543v 15.4173h 0.453543v -15.4173h 0.453543v 7.70865h 0.907087v -7.70865h 0.907087v 7.70865h 0.453543v -7.70865h 0.907087v
 7.70865h 0.907087v -15.4173h 0.453543v 15.4173h 0.453543v 7.70865h 0.907087v -30.8346h 0.453543v 23.126h 0.453543v -7.70865h 0.453543v -7.70865h 0.453543v -7.70865h 0.453543v 15.4173h 0.453543v 15.4173h 0.453543v -23.126h 0.453543v 15.4173h
 0.907087v -7.70865h 0.453543v -7.70865h 0.453543v 23.126h 0.453543v -15.4173h 0.453543v 7.70865h 0.453543v -7.70865h 0.453543v -7.70865h 0.453543v -15.4173h 0.453543v 30.8346h 0.453543v -7.70865h 0.453543v -7.70865h 0.453543v 23.126h 0.907087v
 -15.4173h 0.453543v 7.70865h 0.453543v 7.70865h 0.453543v -7.70865h 0.453543v 7.70865h 0.453543v -23.126h 1.36063v 7.70865h 0.453543v 7.70865h 0.907087v 7.70865h 0.453543v -15.4173h 0.453543v -7.70865h 0.453543v 15.4173h 0.907087v 7.70865h 0.907087v
 -23.126h 0.453543v 15.4173h 0.453543v -15.4173h 0.453543v 7.70865h 0.453543v -7.70865h 0.453543v 7.70865h 0.453543v 7.70865h 1.36063v -7.70865h 0.907087v 7.70865h 0.453543v -7.70865h 0.453543v 7.70865h 0.453543v 7.70865h 0.453543v -15.4173h
 0.453543v 7.70865h 0.453543v -7.70865h 0.453543v 7.70865h 0.907087v -7.70865h 0.453543v 7.70865h 0.453543v 7.70865h 1.36063v -7.70865h 1.36063v 7.70865h 0.453543v -15.4173h 0.453543v 15.4173h 0.453543v -7.70865h 0.907087v 7.70865h 1.36063v -7.70865h
 0.453543v 7.70865h 179.15" fill="none" stroke="#339999" stroke-width="2"/>
<path d="M57.1929,346.022h 453.543" fill="none" stroke="black"/>
<text x="426.511" y="376.324" fill="black" font-size="15.4459" font-family="Helvetica">
CoG Z [mm]
</text>
<path d="M57.1929,336.795v 9.22726" fill="none" stroke="black"/>
<path d="M66.2638,341.409v 4.61363" fill="none" stroke="black"/>
<path d="M75.3346,341.409v 4.61363" fill="none" stroke="black"/>
<path d="M84.4055,341.409v 4.61363" fill="none" stroke="black"/>
<path d="M93.4764,341.409v 4.61363" fill="none" stroke="black"/>
<path d="M102.547,336.795v 9.22726" fill="none" stroke="black"/>
<path d="M111.618,341.409v 4.61363" fill="none" stroke="black"/>
<path d="M120.689,341.409v 4.61363" fill="none" stroke="black"/>
<path d="M129.76,341.409v 4.61363" fill="none" stroke="black"/>
<path d="M138.831,341.409v 4.61363" fill="none" stroke="black"/>
<path d="M147.902,336.795v 9.22726" fill="none" stroke="black"/>
<path d="M156.972,341.409v 4.61363" fill="none" stroke="black"/>
<path d="M166.043,341.409v 4.61363" fill="none" stroke="black"/>
<path d="M175.114,341.409v 4.61363" fill="none" stroke="black"/>
<path d="M184.185,341.409v 4.61363" fill="none" stroke="black"/>
<path d="M193.256,336.795v 9.22726" fill="none" stroke="black"/>
<path d="M202.327,341.409v 4.61363" fill="none" stroke="black"/>
<path d="M211.398,341.409v 4.61363" fill="none" stroke="black"/>
<path d="M220.469,341.409v 4.61363" fill="none" stroke="black"/>
<path d="M229.539,341.409v 4.61363" fill="none" stroke="black"/>
<path d="M238.61,336.795v 9.22726" fill="none" stroke="black"/>
<path d="M247.681,341.409v 4.61363" fill="none" stroke="black"/>
<path d="M256.752,341.409v 4.61363" fill="none" stroke="black"/>
<path d="M265.823,341.409v 4.61363" fill="none" stroke="black"/>
<path d="M274.894,341.409v 4.61363" fill="none" stroke="black"/>
<path d="M283.965,336.795v 9.22726" fill="none" stroke="black"/>
<path d="M293.035,341.409v 4.61363" fill="none" stroke="black"/>
<path d="M302.106,341.409v 4.61363" fill="none" stroke="black"/>
<path d="M311.177,341.409v 4.61363" fill="none" stroke="black"/>
<path d="M320.248,341.409v 4.61363" fill="none" stroke="black"/>
<path d="M329.319,336.795v 9.22726" fill="none" stroke="black"/>
<path d="M338.39,341.409v 4.61363" fill="none" stroke="black"/>
<path d="M347.461,341.409v 4.61363" fill="none" stroke="black"/>
<path d="M356.531,341.409v 4.61363" fill="none" stroke="black"/>
<path d="M365.602,341.409v 4.61363" fill="none" stroke="black"/>
<path d="M374.673,336.795v 9.22726" fill="none" stroke="black"/>
<path d="M383.744,341.409v 4.61363" fill="none" stroke="black"/>
<path d="M392.815,341.409v 4.61363" fill="none" stroke="black"/>
<path d="M401.886,341.409v 4.61363" fill="none" stroke="black"/>
<path d="M410.957,341.409v 4.61363" fill="none" stroke="black"/>
<path d="M420.028,336.795v 9.22726" fill="none" stroke="black"/>
<path d="M429.098,341.409v 4.61363" fill="none" stroke="black"/>
<path d="M438.169,341.409v 4.61363" fill="none" stroke="black"/>
<path d="M447.24,341.409v 4.61363" fill="none" stroke="black"/>
<path d="M456.311,341.409v 4.61363" fill="none" stroke="black"/>
<path d="M465.382,336.795v 9.22726" fill="none" stroke="black"/>
<path d="M474.453,341.409v 4.61363" fill="none" stroke="black"/>
<path d="M483.524,341.409v 4.61363" fill="none" stroke="black"/>
<path d="M492.594,341.409v 4.61363" fill="none" stroke="black"/>
<path d="M501.665,341.409v 4.61363" fill="none" stroke="black"/>
<path d="M510.736,336.795v 9.22726" fill="none" stroke="black"/>
<text x="52.6314" y="360.847" fill="black" font-size="15.4459" font-family="Helvetica">
0
</text>
<text x="89.2863" y="360.847" fill="black" font-size="15.4459" font-family="Helvetica">
100
</text>
<text x="134.087" y="360.847" fill="black" font-size="15.4459" font-family="Helvetica">
200
</text>
<text x="179.702" y="360.847" fill="black" font-size="15.4459" font-family="Helvetica">
300
</text>
<text x="225.317" y="360.847" fill="black" font-size="15.4459" font-family="Helvetica">
400
</text>
<text x="270.932" y="360.847" fill="black" font-size="15.4459" font-family="Helvetica">
500
</text>
<text x="315.732" y="360.847" fill="black" font-size="15.4459" font-family="Helvetica">
600
</text>
<text x="361.347" y="360.847" fill="black" font-size="15.4459" font-family="Helvetica">
700
</text>
<text x="406.962" y="360.847" fill="black" font-size="15.4459" font-family="Helvetica">
800
</text>
<text x="451.763" y="360.847" fill="black" font-size="15.4459" font-family="Helvetica">
900
</text>
<text x="493.305" y="360.847" fill="black" font-size="15.4459" font-family="Helvetica">
1000
</text>
<path d="M57.1929,346.022v -307.575" fill="none" stroke="black"/>
<g transform="rotate(-90,12.7183,168.613)">
<text x="12.7183" y="168.613" fill="black" font-size="15.4459" font-family="Helvetica">
Normalized Entries
</text>
</g>
<path d="M70.7992,346.022h -13.6063" fill="none" stroke="black"/>
<path d="M63.9961,339.465h -6.80315" fill="none" stroke="black"/>
<path d="M63.9961,332.908h -6.80315" fill="none" stroke="black"/>
<path d="M63.9961,326.351h -6.80315" fill="none" stroke="black"/>
<path d="M63.9961,319.794h -6.80315" fill="none" stroke="black"/>
<path d="M70.7992,313.237h -13.6063" fill="none" stroke="black"/>
<path d="M63.9961,306.68h -6.80315" fill="none" stroke="black"/>
<path d="M63.9961,300.123h -6.80315" fill="none" stroke="black"/>
<path d="M63.9961,293.566h -6.80315" fill="none" stroke="black"/>
<path d="M63.9961,287.009h -6.80315" fill="none" stroke="black"/>
<path d="M70.7992,280.452h -13.6063" fill="none" stroke="black"/>
<path d="M63.9961,273.895h -6.80315" fill="none" stroke="black"/>
<path d="M63.9961,267.338h -6.80315" fill="none" stroke="black"/>
<path d="M63.9961,260.781h -6.80315" fill="none" stroke="black"/>
<path d="M63.9961,254.225h -6.80315" fill="none" stroke="black"/>
<path d="M70.7992,247.668h -13.6063" fill="none" stroke="black"/>
<path d="M63.9961,241.111h -6.80315" fill="none" stroke="black"/>
<path d="M63.9961,234.554h -6.80315" fill="none" stroke="black"/>
<path d="M63.9961,227.997h -6.80315" fill="none" stroke="black"/>
<path d="M63.9961,221.44h -6.80315" fill="none" stroke="black"/>
<path d="M70.7992,214.883h -13.6063" fill="none" stroke="black"/>
<path d="M63.9961,208.326h -6.80315" fill="none" stroke="black"/>
<path d="M63.9961,201.769h -6.80315" fill="none" stroke="black"/>
<path d="M63.9961,195.212h -6.80315" fill="none" stroke="black"/>
<path d="M63.9961,188.655h -6.80315" fill="none" stroke="black"/>
<path d="M70.7992,182.098h -13.6063" fill="none" stroke="black"/>
<path d="M63.9961,175.541h -6.80315" fill="none" stroke="black"/>
<path d="M63.9961,168.984h -6.80315" fill="none" stroke="black"/>
<path d="M63.9961,162.427h -6.80315" fill="none" stroke="black"/>
<path d="M63.9961,155.87h -6.80315" fill="none" stroke="black"/>
<path d="M70.7992,149.313h -13.6063" fill="none" stroke="black"/>
<path d="M63.9961,142.756h -6.80315" fill="none" stroke="black"/>
<path d="M63.9961,136.199h -6.80315" fill="none" stroke="black"/>
<path d="M63.9961,129.642h -6.80315" fill="none" stroke="black"/>
<path d="M63.9961,123.085h -6.80315" fill="none" stroke="black"/>
<path d="M70.7992,116.528h -13.6063" fill="none" stroke="black"/>
<path d="M63.9961,109.971h -6.80315" fill="none" stroke="black"/>
<path d="M63.9961,103.414h -6.80315" fill="none" stroke="black"/>
<path d="M63.9961,96.8569h -6.80315" fill="none" stroke="black"/>
<path d="M63.9961,90.3h -6.80315" fill="none" stroke="black"/>
<path d="M70.7992,83.743h -13.6063" fill="none" stroke="black"/>
<path d="M63.9961,77.186h -6.80315" fill="none" stroke="black"/>
<path d="M63.9961,70.629h -6.80315" fill="none" stroke="black"/>
<path d="M63.9961,64.072h -6.80315" fill="none" stroke="black"/>
<path d="M63.9961,57.515h -6.80315" fill="none" stroke="black"/>
<path d="M70.7992,50.9581h -13.6063" fill="none" stroke="black"/>
<path d="M70.7992,50.9581h -13.6063" fill="none" stroke="black"/>
<path d="M63.9961,44.4011h -6.80315" fill="none" stroke="black"/>
<text x="46.115" y="351.072" fill="black" font-size="15.4459" font-family="Helvetica">
0
</text>
<text x="18.4202" y="318.49" fill="black" font-size="15.4459" font-family="Helvetica">
0.001
</text>
<text x="15.9765" y="285.908" fill="black" font-size="15.4459" font-family="Helvetica">
0.002
</text>
<text x="15.9765" y="253.326" fill="black" font-size="15.4459" font-family="Helvetica">
0.003
</text>
<text x="15.9765" y="219.929" fill="black" font-size="15.4459" font-family="Helvetica">
0.004
</text>
<text x="15.9765" y="187.347" fill="black" font-size="15.4459" font-family="Helvetica">
0.005
</text>
<text x="15.9765" y="154.765" fill="black" font-size="15.4459" font-family="Helvetica">
0.006
</text>
<text x="15.9765" y="122.183" fill="black" font-size="15.4459" font-family="Helvetica">
0.007
</text>
<text x="15.9765" y="88.7863" fill="black" font-size="15.4459" font-family="Helvetica">
0.008
</text>
<text x="15.9765" y="56.2042" fill="black" font-size="15.4459" font-family="Helvetica">
0.009
</text>
<path d="M57.1929,346.022h 48.0756v -0.605782h 0.453543v 0.605782h 0.907087v -0.605782h 0.453543v 0.605782h 0.453543v -0.605782h 0.907087v 0.605782h 0.453543v -0.605782h 0.453543v -0.605782h 0.453543v 0.605782h 0.453543v -0.605782h 0.907087v 1.21156h
 0.453543v -3.02891h 0.453543v -1.21156h 0.453543v 1.81735h 0.453543v -3.02891h 0.453543v 1.21156h 0.453543v -4.24047h 0.453543v 1.81735h 0.453543v -0.605782h 0.453543v 1.81735h 0.453543v 1.21156h 0.453543v -4.24047h 0.453543v 0.605782h 0.453543v
 -5.45204h 0.453543v 0.605782h 0.453543v 1.81735h 0.453543v 1.21156h 0.453543v -6.6636h 0.453543v -6.6636h 0.453543v 6.6636h 0.453543v -6.6636h 0.453543v 1.81735h 0.453543v -4.84625h 0.453543v -4.24047h 0.453543v 6.6636h 0.453543v -7.26938h 0.453543v
 -2.42313h 0.453543v -10.9041h 0.453543v 7.26938h 0.453543v -3.02891h 0.453543v -9.08673h 0.453543v 3.02891h 0.453543v -8.48094h 0.453543v -6.6636h 0.453543v 4.84625h 0.453543v -7.87516h 0.453543v -8.48094h 0.453543v -9.69251h 0.453543v 3.02891h
 0.453543v -2.42313h 0.453543v -8.48094h 0.453543v -11.5099h 0.453543v 9.69251h 0.453543v 2.42313h 0.453543v -10.9041h 0.453543v -10.2983h 0.453543v -6.6636h 0.453543v 3.63469h 0.453543v -7.26938h 0.453543v -18.1735h 0.453543v 7.26938h 0.453543v
 -13.3272h 0.453543v 7.87516h 0.453543v -9.69251h 0.453543v 6.05782h 0.453543v -15.1445h 0.453543v 4.84625h 0.453543v -16.3561h 0.453543v -24.2313h 0.453543v 21.2024h 0.453543v -10.2983h 0.453543v 6.05782h 0.453543v -10.2983h 0.453543v -27.866h
 0.453543v 26.0486h 0.453543v 2.42313h 0.453543v -26.6544h 0.453543v 21.8081h 0.453543v -16.9619h 0.453543v 2.42313h 0.453543v -10.2983h 0.453543v 1.21156h 0.453543v 3.02891h 0.453543v -4.24047h 0.453543v 14.5388h 0.453543v -36.3469h 0.453543v
 7.26938h 0.453543v 22.4139h 0.453543v -10.9041h 0.453543v -23.0197h 0.453543v 8.48094h 0.453543v -3.02891h 0.453543v -8.48094h 0.453543v 15.7503h 0.453543v -12.1156h 0.453543v 9.69251h 0.453543v -9.69251h 0.453543v 14.5388h 0.453543v -7.26938h
 0.453543v -3.63469h 0.453543v 22.4139h 0.453543v -14.5388h 0.907087v 18.1735h 0.453543v 3.02891h 0.453543v -7.87516h 0.453543v 7.26938h 0.453543v -19.385h 0.453543v 16.9619h 0.453543v 1.21156h 0.453543v 21.8081h 0.907087v -10.2983h 0.453543v
 -9.69251h 0.453543v 19.385h 0.453543v -5.45204h 0.907087v 12.1156h 0.453543v -15.7503h 0.453543v 6.6636h 0.453543v 9.08673h 0.453543v 12.1156h 0.907087v -7.26938h 0.453543v 21.2024h 0.453543v 2.42313h 0.453543v -12.7214h 0.453543v 3.63469h 0.453543v
 -2.42313h 0.453543v -4.84625h 0.453543v 19.9908h 0.453543v 15.7503h 0.453543v -10.2983h 0.453543v 6.6636h 0.453543v -14.5388h 0.453543v 6.6636h 0.453543v -9.08673h 0.453543v 16.9619h 0.453543v -6.6636h 0.453543v -2.42313h 0.453543v 7.26938h
 0.453543v 5.45204h 0.453543v 1.81735h 0.453543v 5.45204h 0.453543v 2.42313h 0.453543v -9.69251h 0.453543v 19.9908h 0.453543v -19.9908h 0.453543v 0.605782h 0.453543v 9.69251h 0.453543v -6.6636h 0.453543v -1.21156h 0.453543v 14.5388h 0.453543v
 11.5099h 0.453543v -20.5966h 0.453543v 9.08673h 0.453543v 3.63469h 0.453543v 15.7503h 0.453543v -30.2891h 0.453543v 9.08673h 0.453543v 9.08673h 0.453543v 10.2983h 0.453543v -6.05782h 0.453543v -3.02891h 0.453543v 17.5677h 0.453543v -23.0197h
 0.453543v 9.08673h 0.453543v 20.5966h 0.453543v -28.4717h 0.453543v 18.1735h 0.453543v -0.605782h 0.453543v 5.45204h 0.453543v -4.84625h 0.453543v 14.5388h 0.453543v -21.2024h 0.453543v 12.1156h 0.453543v 6.05782h 0.453543v -12.1156h 0.453543v
 13.933h 0.453543v -10.9041h 0.453543v -11.5099h 0.453543v 25.4428h 0.453543v 7.87516h 0.453543v -1.21156h 0.453543v -7.26938h 0.453543v 3.63469h 0.453543v 10.2983h 0.453543v -21.8081h 0.453543v 14.5388h 0.453543v -1.81735h 0.453543v 1.21156h
 0.907087v -1.21156h 0.453543v 10.2983h 0.907087v 3.63469h 0.453543v -4.24047h 0.453543v -4.84625h 0.453543v -3.02891h 0.453543v 21.8081h 0.453543v -23.0197h 0.453543v 4.84625h 0.453543v 4.24047h 0.453543v 4.84625h 0.453543v 1.81735h 0.453543v
 -4.84625h 0.453543v 7.26938h 0.453543v -3.63469h 0.453543v 1.21156h 0.453543v -2.42313h 0.453543v 3.02891h 0.453543v 1.81735h 0.453543v 6.05782h 0.453543v -9.69251h 0.453543v 10.2983h 0.453543v -3.02891h 0.453543v -1.81735h 0.453543v 6.05782h
 0.453543v -1.81735h 0.453543v -0.605782h 0.453543v -1.21156h 0.453543v -2.42313h 0.453543v -3.02891h 0.453543v 15.1445h 0.453543v -6.05782h 0.453543v 7.87516h 0.453543v -6.05782h 0.453543v 7.26938h 0.453543v -20.5966h 0.453543v 16.9619h 0.453543v
 -2.42313h 0.453543v 0.605782h 0.453543v 3.02891h 0.453543v -6.05782h 0.453543v 4.24047h 0.453543v -1.81735h 0.453543v 7.26938h 0.907087v -1.81735h 0.453543v 0.605782h 0.453543v -3.02891h 0.453543v 2.42313h 0.453543v 1.81735h 0.453543v -0.605782h
 0.453543v 3.63469h 0.453543v -1.21156h 0.453543v -1.81735h 0.453543v -4.24047h 0.453543v 7.87516h 0.453543v 0.605782h 0.453543v -0.605782h 0.453543v 7.26938h 0.453543v -3.02891h 0.453543v -0.605782h 0.453543v -10.9041h 0.453543v 7.26938h 0.453543v
 -1.81735h 0.453543v 5.45204h 0.453543v -10.9041h 0.453543v 4.84625h 0.453543v 5.45204h 0.453543v 2.42313h 0.453543v -2.42313h 0.453543v -1.81735h 0.453543v -2.42313h 0.453543v 10.9041h 0.453543v -10.9041h 0.453543v -1.81735h 0.453543v 6.05782h
 0.453543v 4.84625h 0.453543v -0.605782h 0.453543v -5.45204h 0.453543v 3.63469h 0.453543v -2.42313h 0.453543v -2.42313h 0.453543v 3.63469h 0.907087v -3.02891h 0.453543v 1.21156h 0.453543v -0.605782h 0.907087v 1.21156h 0.453543v 9.08673h 0.453543v
 -13.3272h 0.453543v 6.6636h 0.453543v -6.05782h 0.453543v -1.81735h 0.453543v 9.69251h 0.453543v -2.42313h 0.453543v -3.63469h 0.453543v 8.48094h 0.453543v -10.2983h 0.453543v -0.605782h 0.453543v 4.84625h 0.453543v -2.42313h 0.453543v -3.02891h
 0.453543v -3.63469h 0.453543v 8.48094h 0.453543v -4.24047h 0.453543v 0.605782h 0.453543v 0.605782h 0.453543v -1.21156h 0.453543v -3.63469h 0.453543v -1.21156h 0.453543v 1.21156h 0.453543v 9.69251h 0.453543v -6.05782h 0.453543v -10.9041h 0.453543v
 7.26938h 0.453543v -4.24047h 0.907087v -15.1445h 0.453543v 9.69251h 0.453543v -0.605782h 0.453543v 10.9041h 0.453543v -9.08673h 0.453543v -6.6636h 0.453543v 4.84625h 0.453543v 0.605782h 0.453543v -13.933h 0.453543v 6.6636h 0.453543v -9.69251h
 0.453543v 27.866h 0.453543v -19.385h 0.453543v 10.2983h 0.453543v -4.24047h 0.453543v -12.7214h 0.453543v 18.7792h 0.453543v -6.05782h 0.453543v -4.24047h 0.453543v -1.81735h 0.453543v 7.87516h 0.453543v -10.2983h 0.453543v 5.45204h 0.453543v
 4.24047h 0.453543v -9.69251h 0.453543v 4.84625h 0.453543v 9.08673h 0.453543v -1.81735h 0.453543v -9.08673h 0.453543v 10.2983h 0.453543v 2.42313h 0.453543v -6.05782h 0.453543v 4.24047h 0.453543v 4.24047h 0.453543v -8.48094h 0.453543v 3.02891h
 0.453543v 9.69251h 0.453543v -17.5677h 0.453543v 12.7214h 0.453543v -2.42313h 0.453543v -4.84625h 0.453543v 7.26938h 0.453543v -10.2983h 0.453543v 7.26938h 0.453543v 3.02891h 0.453543v -6.05782h 0.453543v 4.84625h 0.453543v 17.5677h 0.453543v
 -26.6544h 0.453543v 17.5677h 0.453543v 4.24047h 0.453543v -4.24047h 0.453543v -6.05782h 0.453543v 10.9041h 0.453543v -9.08673h 0.453543v 7.26938h 0.453543v -15.1445h 0.453543v 18.1735h 0.453543v -3.02891h 0.453543v 0.605782h 0.453543v 6.6636h
 0.453543v -15.1445h 0.453543v 12.1156h 0.453543v -2.42313h 0.453543v -1.81735h 0.453543v 4.24047h 0.453543v 3.63469h 0.453543v -8.48094h 0.453543v 4.84625h 0.907087v -0.605782h 0.453543v 3.63469h 0.453543v -6.6636h 0.453543v 6.05782h 0.453543v
 0.605782h 0.453543v 7.26938h 0.453543v -6.6636h 0.453543v -2.42313h 0.453543v 1.21156h 0.453543v 2.42313h 0.453543v -4.24047h 0.453543v 7.87516h 0.453543v 0.605782h 0.453543v -7.26938h 0.453543v 4.24047h 0.453543v -4.84625h 0.453543v 6.6636h
 0.453543v -6.05782h 0.453543v 6.05782h 0.453543v 4.24047h 0.453543v -10.9041h 0.453543v 2.42313h 0.453543v 7.26938h 0.453543v -5.45204h 0.453543v 0.605782h 0.907087v 3.02891h 0.453543v 1.81735h 0.453543v -7.26938h 0.453543v 3.02891h 0.453543v
 3.02891h 0.453543v 1.21156h 0.453543v -3.02891h 0.453543v 1.21156h 0.453543v -3.63469h 0.453543v 2.42313h 0.453543v 1.81735h 0.453543v -1.21156h 0.453543v -3.63469h 0.453543v -1.21156h 0.907087v 0.605782h 0.907087v 2.42313h 0.907087v 6.6636h
 0.453543v -9.69251h 0.453543v 6.05782h 0.453543v 0.605782h 0.453543v 0.605782h 0.453543v 3.63469h 0.453543v -0.605782h 0.453543v -4.84625h 0.453543v -1.21156h 0.453543v 1.21156h 0.907087v 3.63469h 0.453543v -4.84625h 0.453543v -3.63469h 0.453543v
 7.87516h 0.453543v -6.6636h 0.453543v 9.69251h 0.453543v -4.24047h 0.453543v 4.24047h 0.453543v -12.1156h 0.907087v 6.05782h 0.907087v 2.42313h 0.453543v -7.87516h 0.907087v 4.84625h 0.453543v -2.42313h 0.453543v 5.45204h 0.453543v -4.84625h
 0.453543v -0.605782h 0.453543v 3.63469h 0.453543v 2.42313h 0.453543v -4.84625h 0.907087v -5.45204h 0.453543v 9.08673h 0.453543v 0.605782h 0.453543v -4.84625h 0.453543v -0.605782h 0.453543v 4.24047h 0.453543v -9.08673h 0.453543v -2.42313h 0.453543v
 9.08673h 0.453543v -6.05782h 0.453543v 2.42313h 0.453543v -4.24047h 0.453543v 4.24047h 0.453543v -6.05782h 0.453543v 7.87516h 0.453543v -3.02891h 0.453543v 4.24047h 0.453543v -6.05782h 0.453543v 3.63469h 0.453543v -0.605782h 0.453543v -1.81735h
 0.453543v 7.26938h 0.453543v -10.2983h 0.453543v 6.05782h 0.453543v -4.24047h 0.453543v 4.84625h 0.453543v 1.81735h 0.453543v -1.21156h 0.453543v -6.6636h 0.453543v 10.2983h 0.453543v -7.26938h 0.453543v 9.69251h 0.453543v -3.63469h 0.453543v
 -2.42313h 0.453543v 12.1156h 0.453543v -0.605782h 0.453543v -3.63469h 0.453543v 4.24047h 0.453543v 3.02891h 0.453543v 0.605782h 0.453543v 1.81735h 0.453543v -0.605782h 0.453543v 1.81735h 0.907087v -0.605782h 0.453543v 0.605782h 0.453543v 0.605782h
 174.161" fill="none" stroke="#3366ff" stroke-width="2"/>
<rect x="340.657" y="38.4469" width="170.079" height="76.8938" fill="white"/>
<path d="M340.657,115.341h 170.079" fill="none" stroke="black"/>
<path d="M510.736,115.341v -76.8938" fill="none" stroke="black"/>
<path d="M510.736,38.4469h -170.079" fill="none" stroke="black"/>
<path d="M340.657,38.4469v 76.8938" fill="none" stroke="black"/>
<text x="382.526" y="60.2769" fill="black" font-size="6.75487" font-family="Helvetica">
70GeV Anti Protons
</text>
<path d="M347.035,71.1268h 29.7638v -26.9128h -29.7638z" fill="white"/>
<path d="M347.035,57.6704h 29.7638" fill="none" stroke="#339999" stroke-width="2"/>
<g stroke="black" stroke-width="2" fill="none">
<line x1="360.917" y1="57.6704" x2="361.917" y2="57.6704"/>
</g>
<text x="382.526" y="99.3755" fill="black" font-size="6.75487" font-family="Helvetica">
70GeV Pions Data noCherenkov
</text>
<path d="M347.035,109.574h 29.7638v -26.9128h -29.7638z" fill="white"/>
<path d="M347.035,96.1173h 29.7638" fill="none" stroke="#3366ff" stroke-width="2"/>
<g stroke="black" stroke-width="2" fill="none">
<line x1="360.917" y1="96.1173" x2="361.917" y2="96.1173"/>
</g>
<text x="101.505" y="17.9202" fill="black" font-size="16.4218" font-family="Helvetica">
Center of Gravity in Z Direction after data selection
</text></svg>
