<?xml version="1.0" standalone="no"?>
<svg width="567.429" height="384.969" viewBox="0 0 567.429 384.969" xmlns="http://www.w3.org/2000/svg">
<title>
../plots/17_06_01/pions_compare_data_mc_anti_protonsmean_nHitsPerLayer.svg
</title>
<desc>
Creator: ROOT Version 5.34/30
CreationDate: Thu Jun  1 14:42:24 2017</desc>
<defs>
</defs>
<rect x="0.5" y="0" width="566.929" height="384.469" fill="white"/>
<rect x="57.1929" y="38.4469" width="453.543" height="307.575" fill="white"/>
<rect x="57.1929" y="38.4469" width="453.543" height="307.575" fill="none" stroke="black"/>
<rect x="57.1929" y="38.4469" width="453.543" height="307.575" fill="white"/>
<rect x="57.1929" y="38.4469" width="453.543" height="307.575" fill="none" stroke="black"/>
<path d="M57.1929,346.022h 68.0315v -123.863h 22.6772v 123.863h 45.3543v -71.5203h 22.6772v -115.331h 22.6772v 40.4748h 22.6772v -28.4083h 22.6772v 73.3988h 22.6772v -169.334h 22.6772v -22.2084h 22.6772v 21.3525h 22.6772v 114.961h 22.6772v 156.616h
 113.386" fill="none" stroke="#339999" stroke-width="2"/>
<path d="M57.1929,346.022h 453.543" fill="none" stroke="black"/>
<text x="471.312" y="375.509" fill="black" font-size="15.4459" font-family="Helvetica">
Layer
</text>
<path d="M57.1929,336.795v 9.22726" fill="none" stroke="black"/>
<path d="M68.5315,341.409v 4.61363" fill="none" stroke="black"/>
<path d="M79.8701,341.409v 4.61363" fill="none" stroke="black"/>
<path d="M91.2087,341.409v 4.61363" fill="none" stroke="black"/>
<path d="M102.547,336.795v 9.22726" fill="none" stroke="black"/>
<path d="M113.886,341.409v 4.61363" fill="none" stroke="black"/>
<path d="M125.224,341.409v 4.61363" fill="none" stroke="black"/>
<path d="M136.563,341.409v 4.61363" fill="none" stroke="black"/>
<path d="M147.902,336.795v 9.22726" fill="none" stroke="black"/>
<path d="M159.24,341.409v 4.61363" fill="none" stroke="black"/>
<path d="M170.579,341.409v 4.61363" fill="none" stroke="black"/>
<path d="M181.917,341.409v 4.61363" fill="none" stroke="black"/>
<path d="M193.256,336.795v 9.22726" fill="none" stroke="black"/>
<path d="M204.594,341.409v 4.61363" fill="none" stroke="black"/>
<path d="M215.933,341.409v 4.61363" fill="none" stroke="black"/>
<path d="M227.272,341.409v 4.61363" fill="none" stroke="black"/>
<path d="M238.61,336.795v 9.22726" fill="none" stroke="black"/>
<path d="M249.949,341.409v 4.61363" fill="none" stroke="black"/>
<path d="M261.287,341.409v 4.61363" fill="none" stroke="black"/>
<path d="M272.626,341.409v 4.61363" fill="none" stroke="black"/>
<path d="M283.965,336.795v 9.22726" fill="none" stroke="black"/>
<path d="M295.303,341.409v 4.61363" fill="none" stroke="black"/>
<path d="M306.642,341.409v 4.61363" fill="none" stroke="black"/>
<path d="M317.98,341.409v 4.61363" fill="none" stroke="black"/>
<path d="M329.319,336.795v 9.22726" fill="none" stroke="black"/>
<path d="M340.657,341.409v 4.61363" fill="none" stroke="black"/>
<path d="M351.996,341.409v 4.61363" fill="none" stroke="black"/>
<path d="M363.335,341.409v 4.61363" fill="none" stroke="black"/>
<path d="M374.673,336.795v 9.22726" fill="none" stroke="black"/>
<path d="M386.012,341.409v 4.61363" fill="none" stroke="black"/>
<path d="M397.35,341.409v 4.61363" fill="none" stroke="black"/>
<path d="M408.689,341.409v 4.61363" fill="none" stroke="black"/>
<path d="M420.028,336.795v 9.22726" fill="none" stroke="black"/>
<path d="M431.366,341.409v 4.61363" fill="none" stroke="black"/>
<path d="M442.705,341.409v 4.61363" fill="none" stroke="black"/>
<path d="M454.043,341.409v 4.61363" fill="none" stroke="black"/>
<path d="M465.382,336.795v 9.22726" fill="none" stroke="black"/>
<path d="M476.72,341.409v 4.61363" fill="none" stroke="black"/>
<path d="M488.059,341.409v 4.61363" fill="none" stroke="black"/>
<path d="M499.398,341.409v 4.61363" fill="none" stroke="black"/>
<path d="M510.736,336.795v 9.22726" fill="none" stroke="black"/>
<text x="52.6314" y="360.847" fill="black" font-size="15.4459" font-family="Helvetica">
0
</text>
<text x="98.2464" y="360.847" fill="black" font-size="15.4459" font-family="Helvetica">
2
</text>
<text x="143.047" y="360.847" fill="black" font-size="15.4459" font-family="Helvetica">
4
</text>
<text x="188.662" y="360.847" fill="black" font-size="15.4459" font-family="Helvetica">
6
</text>
<text x="234.277" y="360.847" fill="black" font-size="15.4459" font-family="Helvetica">
8
</text>
<text x="275.004" y="360.847" fill="black" font-size="15.4459" font-family="Helvetica">
10
</text>
<text x="319.805" y="360.847" fill="black" font-size="15.4459" font-family="Helvetica">
12
</text>
<text x="365.42" y="360.847" fill="black" font-size="15.4459" font-family="Helvetica">
14
</text>
<text x="411.035" y="360.847" fill="black" font-size="15.4459" font-family="Helvetica">
16
</text>
<text x="455.835" y="360.847" fill="black" font-size="15.4459" font-family="Helvetica">
18
</text>
<text x="501.45" y="360.847" fill="black" font-size="15.4459" font-family="Helvetica">
20
</text>
<path d="M57.1929,346.022v -307.575" fill="none" stroke="black"/>
<g transform="rotate(-90,11.0892,165.354)">
<text x="11.0892" y="165.354" fill="black" font-size="15.4459" font-family="Helvetica">
&lt;# Hits per Layer&gt;
</text>
</g>
<path d="M70.7992,346.022h -13.6063" fill="none" stroke="black"/>
<path d="M63.9961,336.183h -6.80315" fill="none" stroke="black"/>
<path d="M63.9961,326.345h -6.80315" fill="none" stroke="black"/>
<path d="M63.9961,316.506h -6.80315" fill="none" stroke="black"/>
<path d="M70.7992,306.667h -13.6063" fill="none" stroke="black"/>
<path d="M63.9961,296.828h -6.80315" fill="none" stroke="black"/>
<path d="M63.9961,286.99h -6.80315" fill="none" stroke="black"/>
<path d="M63.9961,277.151h -6.80315" fill="none" stroke="black"/>
<path d="M70.7992,267.312h -13.6063" fill="none" stroke="black"/>
<path d="M63.9961,257.473h -6.80315" fill="none" stroke="black"/>
<path d="M63.9961,247.634h -6.80315" fill="none" stroke="black"/>
<path d="M63.9961,237.796h -6.80315" fill="none" stroke="black"/>
<path d="M70.7992,227.957h -13.6063" fill="none" stroke="black"/>
<path d="M63.9961,218.118h -6.80315" fill="none" stroke="black"/>
<path d="M63.9961,208.279h -6.80315" fill="none" stroke="black"/>
<path d="M63.9961,198.44h -6.80315" fill="none" stroke="black"/>
<path d="M70.7992,188.602h -13.6063" fill="none" stroke="black"/>
<path d="M63.9961,178.763h -6.80315" fill="none" stroke="black"/>
<path d="M63.9961,168.924h -6.80315" fill="none" stroke="black"/>
<path d="M63.9961,159.085h -6.80315" fill="none" stroke="black"/>
<path d="M70.7992,149.247h -13.6063" fill="none" stroke="black"/>
<path d="M63.9961,139.408h -6.80315" fill="none" stroke="black"/>
<path d="M63.9961,129.569h -6.80315" fill="none" stroke="black"/>
<path d="M63.9961,119.73h -6.80315" fill="none" stroke="black"/>
<path d="M70.7992,109.891h -13.6063" fill="none" stroke="black"/>
<path d="M63.9961,100.053h -6.80315" fill="none" stroke="black"/>
<path d="M63.9961,90.2138h -6.80315" fill="none" stroke="black"/>
<path d="M63.9961,80.375h -6.80315" fill="none" stroke="black"/>
<path d="M70.7992,70.5362h -13.6063" fill="none" stroke="black"/>
<path d="M70.7992,70.5362h -13.6063" fill="none" stroke="black"/>
<path d="M63.9961,60.6974h -6.80315" fill="none" stroke="black"/>
<path d="M63.9961,50.8586h -6.80315" fill="none" stroke="black"/>
<path d="M63.9961,41.0199h -6.80315" fill="none" stroke="black"/>
<text x="46.115" y="351.072" fill="black" font-size="15.4459" font-family="Helvetica">
0
</text>
<text x="46.115" y="312.788" fill="black" font-size="15.4459" font-family="Helvetica">
2
</text>
<text x="46.115" y="273.69" fill="black" font-size="15.4459" font-family="Helvetica">
4
</text>
<text x="46.115" y="232.962" fill="black" font-size="15.4459" font-family="Helvetica">
6
</text>
<text x="46.115" y="193.864" fill="black" font-size="15.4459" font-family="Helvetica">
8
</text>
<text x="37.1549" y="154.765" fill="black" font-size="15.4459" font-family="Helvetica">
10
</text>
<text x="37.1549" y="115.667" fill="black" font-size="15.4459" font-family="Helvetica">
12
</text>
<text x="37.1549" y="76.568" fill="black" font-size="15.4459" font-family="Helvetica">
14
</text>
<path d="M57.1929,346.022h 68.0315v -117.085h 22.6772v 117.085h 45.3543v -67.8588h 22.6772v -135.653h 22.6772v 34.3483h 22.6772v -22.6686h 22.6772v 139.091h 22.6772v -197.227h 22.6772v -7.79978h 22.6772v 15.1333h 22.6772v 57.2405h 22.6772v 185.394h
 113.386" fill="none" stroke="#3366ff" stroke-width="2"/>
<rect x="340.657" y="38.4469" width="170.079" height="76.8938" fill="white"/>
<path d="M340.657,115.341h 170.079" fill="none" stroke="black"/>
<path d="M510.736,115.341v -76.8938" fill="none" stroke="black"/>
<path d="M510.736,38.4469h -170.079" fill="none" stroke="black"/>
<path d="M340.657,38.4469v 76.8938" fill="none" stroke="black"/>
<text x="382.526" y="61.0915" fill="black" font-size="10.7771" font-family="Helvetica">
70GeV Anti Protons
</text>
<path d="M347.035,71.1268h 29.7638v -26.9128h -29.7638z" fill="white"/>
<path d="M347.035,57.6704h 29.7638" fill="none" stroke="#339999" stroke-width="2"/>
<g stroke="black" stroke-width="2" fill="none">
<line x1="360.917" y1="57.6704" x2="361.917" y2="57.6704"/>
</g>
<text x="382.526" y="100.19" fill="black" font-size="10.7771" font-family="Helvetica">
70GeV Pions Data
</text>
<path d="M347.035,109.574h 29.7638v -26.9128h -29.7638z" fill="white"/>
<path d="M347.035,96.1173h 29.7638" fill="none" stroke="#3366ff" stroke-width="2"/>
<g stroke="black" stroke-width="2" fill="none">
<line x1="360.917" y1="96.1173" x2="361.917" y2="96.1173"/>
</g>
<text x="104.763" y="17.9202" fill="black" font-size="15.9421" font-family="Helvetica">
Mean Number of Hits per Layer After Data Selection
</text></svg>
