<?xml version="1.0" standalone="no"?>
<svg width="567.429" height="384.969" viewBox="0 0 567.429 384.969" xmlns="http://www.w3.org/2000/svg">
<title>
../plots/17_06_01/pions_compare_kaons_70GeV_fLateHits_mip.svg
</title>
<desc>
Creator: ROOT Version 5.34/30
CreationDate: Thu Jun  1 11:23:07 2017</desc>
<defs>
</defs>
<rect x="0.5" y="0" width="566.929" height="384.469" fill="white"/>
<rect x="57.1929" y="38.4469" width="453.543" height="307.575" fill="white"/>
<rect x="57.1929" y="38.4469" width="453.543" height="307.575" fill="none" stroke="black"/>
<rect x="57.1929" y="38.4469" width="453.543" height="307.575" fill="white"/>
<rect x="57.1929" y="38.4469" width="453.543" height="307.575" fill="none" stroke="black"/>
<path d="M57.1929,53.0934h 22.6772v 30.8584h 22.6772v 45.5794h 22.6772v 75.0845h 22.6772v 60.8844h 22.6772v 35.0478h 22.6772v 19.3256h 22.6772v 10.3486h 22.6772v 6.74536h 22.6772v 3.87166h 22.6772v 2.20132h 22.6772v 0.350851h 22.6772v 1.21628h
 22.6772v 0.369245h 22.6772v 0.438631h 22.6772v 0.267674h 22.6772v -0.034724h 22.6772v 0.373997h 68.0315" fill="none" stroke="#000033" stroke-width="2"/>
<path d="M57.1929,346.022h 453.543" fill="none" stroke="black"/>
<text x="477.828" y="385.284" fill="black" font-size="19.1824" font-family="Helvetica">
MIP
</text>
<path d="M57.1929,336.795v 9.22726" fill="none" stroke="black"/>
<path d="M68.5315,341.409v 4.61363" fill="none" stroke="black"/>
<path d="M79.8701,341.409v 4.61363" fill="none" stroke="black"/>
<path d="M91.2087,341.409v 4.61363" fill="none" stroke="black"/>
<path d="M102.547,336.795v 9.22726" fill="none" stroke="black"/>
<path d="M113.886,341.409v 4.61363" fill="none" stroke="black"/>
<path d="M125.224,341.409v 4.61363" fill="none" stroke="black"/>
<path d="M136.563,341.409v 4.61363" fill="none" stroke="black"/>
<path d="M147.902,336.795v 9.22726" fill="none" stroke="black"/>
<path d="M159.24,341.409v 4.61363" fill="none" stroke="black"/>
<path d="M170.579,341.409v 4.61363" fill="none" stroke="black"/>
<path d="M181.917,341.409v 4.61363" fill="none" stroke="black"/>
<path d="M193.256,336.795v 9.22726" fill="none" stroke="black"/>
<path d="M204.594,341.409v 4.61363" fill="none" stroke="black"/>
<path d="M215.933,341.409v 4.61363" fill="none" stroke="black"/>
<path d="M227.272,341.409v 4.61363" fill="none" stroke="black"/>
<path d="M238.61,336.795v 9.22726" fill="none" stroke="black"/>
<path d="M249.949,341.409v 4.61363" fill="none" stroke="black"/>
<path d="M261.287,341.409v 4.61363" fill="none" stroke="black"/>
<path d="M272.626,341.409v 4.61363" fill="none" stroke="black"/>
<path d="M283.965,336.795v 9.22726" fill="none" stroke="black"/>
<path d="M295.303,341.409v 4.61363" fill="none" stroke="black"/>
<path d="M306.642,341.409v 4.61363" fill="none" stroke="black"/>
<path d="M317.98,341.409v 4.61363" fill="none" stroke="black"/>
<path d="M329.319,336.795v 9.22726" fill="none" stroke="black"/>
<path d="M340.657,341.409v 4.61363" fill="none" stroke="black"/>
<path d="M351.996,341.409v 4.61363" fill="none" stroke="black"/>
<path d="M363.335,341.409v 4.61363" fill="none" stroke="black"/>
<path d="M374.673,336.795v 9.22726" fill="none" stroke="black"/>
<path d="M386.012,341.409v 4.61363" fill="none" stroke="black"/>
<path d="M397.35,341.409v 4.61363" fill="none" stroke="black"/>
<path d="M408.689,341.409v 4.61363" fill="none" stroke="black"/>
<path d="M420.028,336.795v 9.22726" fill="none" stroke="black"/>
<path d="M431.366,341.409v 4.61363" fill="none" stroke="black"/>
<path d="M442.705,341.409v 4.61363" fill="none" stroke="black"/>
<path d="M454.043,341.409v 4.61363" fill="none" stroke="black"/>
<path d="M465.382,336.795v 9.22726" fill="none" stroke="black"/>
<path d="M476.72,341.409v 4.61363" fill="none" stroke="black"/>
<path d="M488.059,341.409v 4.61363" fill="none" stroke="black"/>
<path d="M499.398,341.409v 4.61363" fill="none" stroke="black"/>
<path d="M510.736,336.795v 9.22726" fill="none" stroke="black"/>
<text x="51.8169" y="364.105" fill="black" font-size="19.1824" font-family="Helvetica">
0
</text>
<text x="97.4318" y="364.105" fill="black" font-size="19.1824" font-family="Helvetica">
2
</text>
<text x="142.232" y="364.105" fill="black" font-size="19.1824" font-family="Helvetica">
4
</text>
<text x="187.847" y="364.105" fill="black" font-size="19.1824" font-family="Helvetica">
6
</text>
<text x="233.462" y="364.105" fill="black" font-size="19.1824" font-family="Helvetica">
8
</text>
<text x="273.375" y="364.105" fill="black" font-size="19.1824" font-family="Helvetica">
10
</text>
<text x="318.176" y="364.105" fill="black" font-size="19.1824" font-family="Helvetica">
12
</text>
<text x="363.791" y="364.105" fill="black" font-size="19.1824" font-family="Helvetica">
14
</text>
<text x="409.406" y="364.105" fill="black" font-size="19.1824" font-family="Helvetica">
16
</text>
<text x="454.206" y="364.105" fill="black" font-size="19.1824" font-family="Helvetica">
18
</text>
<text x="499.821" y="364.105" fill="black" font-size="19.1824" font-family="Helvetica">
20
</text>
<path d="M57.1929,346.022v -307.575" fill="none" stroke="black"/>
<path d="M70.7992,346.022h -13.6063" fill="none" stroke="black"/>
<path d="M63.9961,335.352h -6.80315" fill="none" stroke="black"/>
<path d="M63.9961,324.682h -6.80315" fill="none" stroke="black"/>
<path d="M63.9961,314.012h -6.80315" fill="none" stroke="black"/>
<path d="M63.9961,303.342h -6.80315" fill="none" stroke="black"/>
<path d="M70.7992,292.672h -13.6063" fill="none" stroke="black"/>
<path d="M63.9961,282.001h -6.80315" fill="none" stroke="black"/>
<path d="M63.9961,271.331h -6.80315" fill="none" stroke="black"/>
<path d="M63.9961,260.661h -6.80315" fill="none" stroke="black"/>
<path d="M63.9961,249.991h -6.80315" fill="none" stroke="black"/>
<path d="M70.7992,239.321h -13.6063" fill="none" stroke="black"/>
<path d="M63.9961,228.651h -6.80315" fill="none" stroke="black"/>
<path d="M63.9961,217.981h -6.80315" fill="none" stroke="black"/>
<path d="M63.9961,207.311h -6.80315" fill="none" stroke="black"/>
<path d="M63.9961,196.64h -6.80315" fill="none" stroke="black"/>
<path d="M70.7992,185.97h -13.6063" fill="none" stroke="black"/>
<path d="M63.9961,175.3h -6.80315" fill="none" stroke="black"/>
<path d="M63.9961,164.63h -6.80315" fill="none" stroke="black"/>
<path d="M63.9961,153.96h -6.80315" fill="none" stroke="black"/>
<path d="M63.9961,143.29h -6.80315" fill="none" stroke="black"/>
<path d="M70.7992,132.62h -13.6063" fill="none" stroke="black"/>
<path d="M63.9961,121.95h -6.80315" fill="none" stroke="black"/>
<path d="M63.9961,111.279h -6.80315" fill="none" stroke="black"/>
<path d="M63.9961,100.609h -6.80315" fill="none" stroke="black"/>
<path d="M63.9961,89.9392h -6.80315" fill="none" stroke="black"/>
<path d="M70.7992,79.2691h -13.6063" fill="none" stroke="black"/>
<path d="M70.7992,79.2691h -13.6063" fill="none" stroke="black"/>
<path d="M63.9961,68.599h -6.80315" fill="none" stroke="black"/>
<path d="M63.9961,57.9288h -6.80315" fill="none" stroke="black"/>
<path d="M63.9961,47.2587h -6.80315" fill="none" stroke="black"/>
<text x="44.4859" y="352.702" fill="black" font-size="19.1824" font-family="Helvetica">
0
</text>
<text x="18.4202" y="299.756" fill="black" font-size="19.1824" font-family="Helvetica">
0.05
</text>
<text x="31.453" y="245.995" fill="black" font-size="19.1824" font-family="Helvetica">
0.1
</text>
<text x="18.4202" y="193.049" fill="black" font-size="19.1824" font-family="Helvetica">
0.15
</text>
<text x="29.0094" y="139.289" fill="black" font-size="19.1824" font-family="Helvetica">
0.2
</text>
<text x="18.4202" y="86.3427" fill="black" font-size="19.1824" font-family="Helvetica">
0.25
</text>
<path d="M57.1929,90.4317h 22.6772v 26.0159h 22.6772v 47.5674h 22.6772v 60.2998h 22.6772v 53.9667h 22.6772v 30.613h 22.6772v 15.8864h 22.6772v 7.30964h 22.6772v 8.3297h 22.6772v 2.01048h 22.6772v 1.15567h 22.6772v 1.34879h 22.6772v 0.67067h 22.6772v
 -0.0387654h 22.6772v -0.0543961h 22.6772v -0.0886361h 22.6772v 0.598437h 90.7087" fill="none" stroke="#cc3300" stroke-width="2"/>
<rect x="340.657" y="38.4469" width="170.079" height="76.8938" fill="white"/>
<path d="M340.657,115.341h 170.079" fill="none" stroke="black"/>
<path d="M510.736,115.341v -76.8938" fill="none" stroke="black"/>
<path d="M510.736,38.4469h -170.079" fill="none" stroke="black"/>
<path d="M340.657,38.4469v 76.8938" fill="none" stroke="black"/>
<text x="382.526" y="63.5352" fill="black" font-size="15.5532" font-family="Helvetica">
70GeV Pion
</text>
<path d="M347.035,71.1268h 29.7638v -26.9128h -29.7638z" fill="white"/>
<path d="M347.035,57.6704h 29.7638" fill="none" stroke="#000033" stroke-width="2"/>
<g stroke="black" stroke-width="2" fill="none">
<line x1="360.917" y1="57.6704" x2="361.917" y2="57.6704"/>
</g>
<text x="382.526" y="102.634" fill="black" font-size="15.5532" font-family="Helvetica">
70GeV Kaon 
</text>
<path d="M347.035,109.574h 29.7638v -26.9128h -29.7638z" fill="white"/>
<path d="M347.035,96.1173h 29.7638" fill="none" stroke="#cc3300" stroke-width="2"/>
<g stroke="black" stroke-width="2" fill="none">
<line x1="360.917" y1="96.1173" x2="361.917" y2="96.1173"/>
</g>
<text x="165.854" y="17.9202" fill="black" font-size="18.7938" font-family="Helvetica">
Fraction of late hits over mip
</text></svg>
