<?xml version="1.0" standalone="no"?>
<svg width="567.429" height="384.969" viewBox="0 0 567.429 384.969" xmlns="http://www.w3.org/2000/svg">
<title>
../plots/17_06_01/pions_compare_data_mc_noSteel_fLateHits_radius.svg
</title>
<desc>
Creator: ROOT Version 5.34/30
CreationDate: Thu Jun  1 14:24:44 2017</desc>
<defs>
</defs>
<rect x="0.5" y="0" width="566.929" height="384.469" fill="white"/>
<rect x="57.1929" y="38.4469" width="453.543" height="307.575" fill="white"/>
<rect x="57.1929" y="38.4469" width="453.543" height="307.575" fill="none" stroke="black"/>
<rect x="57.1929" y="38.4469" width="453.543" height="307.575" fill="white"/>
<rect x="57.1929" y="38.4469" width="453.543" height="307.575" fill="none" stroke="black"/>
<path d="M57.1929,345.48h 18.8976v -1.77584h 18.8976v -8.53071h 18.8976v -11.573h 18.8976v -29.2449h 18.8976v -28.8288h 18.8976v -13.9241h 18.8976v -13.9732h 18.8976v -73.0363h 18.8976v 42.9939h 18.8976v -131.215h 18.8976v 45.0915h 18.8976v -68.3696h
 18.8976v 178.472h 18.8976v 53.0679h 18.8976v 39.2112h 18.8976v 13.5284h 18.8976v 8.64916h 132.283" fill="none" stroke="#000033" stroke-width="2"/>
<path d="M57.1929,346.022h 453.543" fill="none" stroke="black"/>
<text x="424.068" y="385.284" fill="black" font-size="19.1824" font-family="Helvetica">
Hit Radius
</text>
<path d="M57.1929,336.795v 9.22726" fill="none" stroke="black"/>
<path d="M66.6417,341.409v 4.61363" fill="none" stroke="black"/>
<path d="M76.0906,341.409v 4.61363" fill="none" stroke="black"/>
<path d="M85.5394,341.409v 4.61363" fill="none" stroke="black"/>
<path d="M94.9882,336.795v 9.22726" fill="none" stroke="black"/>
<path d="M104.437,341.409v 4.61363" fill="none" stroke="black"/>
<path d="M113.886,341.409v 4.61363" fill="none" stroke="black"/>
<path d="M123.335,341.409v 4.61363" fill="none" stroke="black"/>
<path d="M132.783,336.795v 9.22726" fill="none" stroke="black"/>
<path d="M142.232,341.409v 4.61363" fill="none" stroke="black"/>
<path d="M151.681,341.409v 4.61363" fill="none" stroke="black"/>
<path d="M161.13,341.409v 4.61363" fill="none" stroke="black"/>
<path d="M170.579,336.795v 9.22726" fill="none" stroke="black"/>
<path d="M180.028,341.409v 4.61363" fill="none" stroke="black"/>
<path d="M189.476,341.409v 4.61363" fill="none" stroke="black"/>
<path d="M198.925,341.409v 4.61363" fill="none" stroke="black"/>
<path d="M208.374,336.795v 9.22726" fill="none" stroke="black"/>
<path d="M217.823,341.409v 4.61363" fill="none" stroke="black"/>
<path d="M227.272,341.409v 4.61363" fill="none" stroke="black"/>
<path d="M236.72,341.409v 4.61363" fill="none" stroke="black"/>
<path d="M246.169,336.795v 9.22726" fill="none" stroke="black"/>
<path d="M255.618,341.409v 4.61363" fill="none" stroke="black"/>
<path d="M265.067,341.409v 4.61363" fill="none" stroke="black"/>
<path d="M274.516,341.409v 4.61363" fill="none" stroke="black"/>
<path d="M283.965,336.795v 9.22726" fill="none" stroke="black"/>
<path d="M293.413,341.409v 4.61363" fill="none" stroke="black"/>
<path d="M302.862,341.409v 4.61363" fill="none" stroke="black"/>
<path d="M312.311,341.409v 4.61363" fill="none" stroke="black"/>
<path d="M321.76,336.795v 9.22726" fill="none" stroke="black"/>
<path d="M331.209,341.409v 4.61363" fill="none" stroke="black"/>
<path d="M340.657,341.409v 4.61363" fill="none" stroke="black"/>
<path d="M350.106,341.409v 4.61363" fill="none" stroke="black"/>
<path d="M359.555,336.795v 9.22726" fill="none" stroke="black"/>
<path d="M369.004,341.409v 4.61363" fill="none" stroke="black"/>
<path d="M378.453,341.409v 4.61363" fill="none" stroke="black"/>
<path d="M387.902,341.409v 4.61363" fill="none" stroke="black"/>
<path d="M397.35,336.795v 9.22726" fill="none" stroke="black"/>
<path d="M406.799,341.409v 4.61363" fill="none" stroke="black"/>
<path d="M416.248,341.409v 4.61363" fill="none" stroke="black"/>
<path d="M425.697,341.409v 4.61363" fill="none" stroke="black"/>
<path d="M435.146,336.795v 9.22726" fill="none" stroke="black"/>
<path d="M444.594,341.409v 4.61363" fill="none" stroke="black"/>
<path d="M454.043,341.409v 4.61363" fill="none" stroke="black"/>
<path d="M463.492,341.409v 4.61363" fill="none" stroke="black"/>
<path d="M472.941,336.795v 9.22726" fill="none" stroke="black"/>
<path d="M482.39,341.409v 4.61363" fill="none" stroke="black"/>
<path d="M491.839,341.409v 4.61363" fill="none" stroke="black"/>
<path d="M501.287,341.409v 4.61363" fill="none" stroke="black"/>
<path d="M510.736,336.795v 9.22726" fill="none" stroke="black"/>
<text x="51.8169" y="364.105" fill="black" font-size="19.1824" font-family="Helvetica">
0
</text>
<text x="90.1009" y="364.105" fill="black" font-size="19.1824" font-family="Helvetica">
2
</text>
<text x="127.57" y="364.105" fill="black" font-size="19.1824" font-family="Helvetica">
4
</text>
<text x="165.04" y="364.105" fill="black" font-size="19.1824" font-family="Helvetica">
6
</text>
<text x="203.324" y="364.105" fill="black" font-size="19.1824" font-family="Helvetica">
8
</text>
<text x="235.091" y="364.105" fill="black" font-size="19.1824" font-family="Helvetica">
10
</text>
<text x="273.375" y="364.105" fill="black" font-size="19.1824" font-family="Helvetica">
12
</text>
<text x="310.845" y="364.105" fill="black" font-size="19.1824" font-family="Helvetica">
14
</text>
<text x="348.314" y="364.105" fill="black" font-size="19.1824" font-family="Helvetica">
16
</text>
<text x="386.598" y="364.105" fill="black" font-size="19.1824" font-family="Helvetica">
18
</text>
<text x="424.068" y="364.105" fill="black" font-size="19.1824" font-family="Helvetica">
20
</text>
<text x="462.352" y="364.105" fill="black" font-size="19.1824" font-family="Helvetica">
22
</text>
<text x="499.821" y="364.105" fill="black" font-size="19.1824" font-family="Helvetica">
24
</text>
<path d="M57.1929,346.022v -307.575" fill="none" stroke="black"/>
<path d="M70.7992,346.022h -13.6063" fill="none" stroke="black"/>
<path d="M63.9961,336.22h -6.80315" fill="none" stroke="black"/>
<path d="M63.9961,326.417h -6.80315" fill="none" stroke="black"/>
<path d="M63.9961,316.615h -6.80315" fill="none" stroke="black"/>
<path d="M63.9961,306.813h -6.80315" fill="none" stroke="black"/>
<path d="M70.7992,297.01h -13.6063" fill="none" stroke="black"/>
<path d="M63.9961,287.208h -6.80315" fill="none" stroke="black"/>
<path d="M63.9961,277.406h -6.80315" fill="none" stroke="black"/>
<path d="M63.9961,267.603h -6.80315" fill="none" stroke="black"/>
<path d="M63.9961,257.801h -6.80315" fill="none" stroke="black"/>
<path d="M70.7992,247.998h -13.6063" fill="none" stroke="black"/>
<path d="M63.9961,238.196h -6.80315" fill="none" stroke="black"/>
<path d="M63.9961,228.394h -6.80315" fill="none" stroke="black"/>
<path d="M63.9961,218.591h -6.80315" fill="none" stroke="black"/>
<path d="M63.9961,208.789h -6.80315" fill="none" stroke="black"/>
<path d="M70.7992,198.987h -13.6063" fill="none" stroke="black"/>
<path d="M63.9961,189.184h -6.80315" fill="none" stroke="black"/>
<path d="M63.9961,179.382h -6.80315" fill="none" stroke="black"/>
<path d="M63.9961,169.579h -6.80315" fill="none" stroke="black"/>
<path d="M63.9961,159.777h -6.80315" fill="none" stroke="black"/>
<path d="M70.7992,149.975h -13.6063" fill="none" stroke="black"/>
<path d="M63.9961,140.172h -6.80315" fill="none" stroke="black"/>
<path d="M63.9961,130.37h -6.80315" fill="none" stroke="black"/>
<path d="M63.9961,120.567h -6.80315" fill="none" stroke="black"/>
<path d="M63.9961,110.765h -6.80315" fill="none" stroke="black"/>
<path d="M70.7992,100.963h -13.6063" fill="none" stroke="black"/>
<path d="M63.9961,91.1603h -6.80315" fill="none" stroke="black"/>
<path d="M63.9961,81.3579h -6.80315" fill="none" stroke="black"/>
<path d="M63.9961,71.5556h -6.80315" fill="none" stroke="black"/>
<path d="M63.9961,61.7532h -6.80315" fill="none" stroke="black"/>
<path d="M70.7992,51.9508h -13.6063" fill="none" stroke="black"/>
<path d="M70.7992,51.9508h -13.6063" fill="none" stroke="black"/>
<path d="M63.9961,42.1484h -6.80315" fill="none" stroke="black"/>
<text x="44.4859" y="352.702" fill="black" font-size="19.1824" font-family="Helvetica">
0
</text>
<text x="46.9295" y="303.828" fill="black" font-size="19.1824" font-family="Helvetica">
1
</text>
<text x="44.4859" y="254.955" fill="black" font-size="19.1824" font-family="Helvetica">
2
</text>
<text x="44.4859" y="206.082" fill="black" font-size="19.1824" font-family="Helvetica">
3
</text>
<text x="44.4859" y="157.209" fill="black" font-size="19.1824" font-family="Helvetica">
4
</text>
<text x="44.4859" y="107.521" fill="black" font-size="19.1824" font-family="Helvetica">
5
</text>
<text x="44.4859" y="58.6478" fill="black" font-size="19.1824" font-family="Helvetica">
6
</text>
<path d="M57.1929,345.498h 18.8976v -1.28989h 18.8976v -4.57178h 18.8976v -6.02835h 18.8976v -15.119h 18.8976v -16.0001h 18.8976v -9.66926h 18.8976v -11.6654h 18.8976v -49.9842h 18.8976v 28.5737h 18.8976v -91.0616h 18.8976v 13.9894h 18.8976v
 -27.0952h 18.8976v 111.567h 18.8976v 18.7987h 18.8976v 19.5517h 18.8976v 27.255h 18.8976v 13.2741h 132.283" fill="none" stroke="#3366ff" stroke-width="2"/>
<rect x="340.657" y="38.4469" width="170.079" height="76.8938" fill="white"/>
<path d="M340.657,115.341h 170.079" fill="none" stroke="black"/>
<path d="M510.736,115.341v -76.8938" fill="none" stroke="black"/>
<path d="M510.736,38.4469h -170.079" fill="none" stroke="black"/>
<path d="M340.657,38.4469v 76.8938" fill="none" stroke="black"/>
<text x="382.526" y="61.0915" fill="black" font-size="10.0469" font-family="Helvetica">
70GeV Pions noSteel
</text>
<path d="M347.035,71.1268h 29.7638v -26.9128h -29.7638z" fill="white"/>
<path d="M347.035,57.6704h 29.7638" fill="none" stroke="#000033" stroke-width="2"/>
<g stroke="black" stroke-width="2" fill="none">
<line x1="360.917" y1="57.6704" x2="361.917" y2="57.6704"/>
</g>
<text x="382.526" y="100.19" fill="black" font-size="10.0469" font-family="Helvetica">
70GeV Pions Data
</text>
<path d="M347.035,109.574h 29.7638v -26.9128h -29.7638z" fill="white"/>
<path d="M347.035,96.1173h 29.7638" fill="none" stroke="#3366ff" stroke-width="2"/>
<g stroke="black" stroke-width="2" fill="none">
<line x1="360.917" y1="96.1173" x2="361.917" y2="96.1173"/>
</g>
<text x="166.669" y="18.7347" fill="black" font-size="16.9898" font-family="Helvetica">
Fraction of late hits over radius
</text></svg>
