<?xml version="1.0" standalone="no"?>
<svg width="567.429" height="384.969" viewBox="0 0 567.429 384.969" xmlns="http://www.w3.org/2000/svg">
<title>
/home/iwsatlas1/cgraf/Analysis/2015_August_Testbeam_tdc/fit_calibration/plots/17_03_14/pions_nHits.svg
</title>
<desc>
Creator: ROOT Version 5.34/30
CreationDate: Tue Mar 14 19:56:12 2017</desc>
<defs>
</defs>
<rect x="0.5" y="0" width="566.929" height="384.469" fill="white"/>
<rect x="57.1929" y="38.4469" width="453.543" height="307.575" fill="white"/>
<rect x="57.1929" y="38.4469" width="453.543" height="307.575" fill="none" stroke="black"/>
<rect x="57.1929" y="38.4469" width="453.543" height="307.575" fill="white"/>
<rect x="57.1929" y="38.4469" width="453.543" height="307.575" fill="none" stroke="black"/>
<path d="M57.1929,343.15h 1.79978v -31.5904h 1.79978v -51.6933h 1.79978v -34.4622h 1.79978v -51.6933h 1.79978v -34.4622h 1.79978v -86.1556h 1.79978v 83.2837h 1.79978v -54.5652h 1.79978v 71.7963h 1.79978v 22.9748h 1.79978v -17.2311h 1.79978v 34.4622h
 1.79978v 5.7437h 1.79978v 22.9748h 1.79978v -22.9748h 1.79978v 5.7437h 1.79978v -5.7437h 1.79978v -8.61556h 1.79978v 17.2311h 1.79978v -31.5904h 3.59955v -48.8215h 1.79978v -17.2311h 1.79978v 66.0526h 1.79978v 5.7437h 1.79978v -74.6682h 1.79978v
 45.9496h 1.79978v 31.5904h 1.79978v -40.2059h 1.79978v 14.3593h 1.79978v -5.7437h 1.79978v 11.4874h 1.79978v -11.4874h 1.79978v -8.61556h 1.79978v 8.61556h 1.79978v 25.8467h 1.79978v -28.7185h 1.79978v -2.87185h 1.79978v -34.4622h 1.79978v 45.9496h
 1.79978v 28.7185h 1.79978v -40.2059h 1.79978v -14.3593h 1.79978v 14.3593h 1.79978v 68.9244h 1.79978v -25.8467h 1.79978v -57.437h 1.79978v 11.4874h 1.79978v 57.437h 1.79978v -8.61556h 1.79978v -14.3593h 1.79978v 11.4874h 1.79978v -2.87185h 1.79978v
 20.103h 1.79978v -43.0778h 1.79978v 17.2311h 1.79978v 14.3593h 1.79978v -45.9496h 1.79978v 57.437h 1.79978v -11.4874h 1.79978v 2.87185h 1.79978v -5.7437h 1.79978v -43.0778h 1.79978v 54.5652h 1.79978v -17.2311h 1.79978v 54.5652h 1.79978v -66.0526h
 1.79978v 34.4622h 1.79978v -31.5904h 1.79978v 17.2311h 1.79978v 31.5904h 1.79978v -20.103h 1.79978v 17.2311h 1.79978v -40.2059h 1.79978v 17.2311h 1.79978v 11.4874h 1.79978v -11.4874h 1.79978v -37.3341h 1.79978v 43.0778h 1.79978v -20.103h 1.79978v
 25.8467h 1.79978v -2.87185h 1.79978v -45.9496h 1.79978v -22.9748h 1.79978v 45.9496h 1.79978v -28.7185h 1.79978v 37.3341h 1.79978v -37.3341h 1.79978v 20.103h 1.79978v -25.8467h 1.79978v 37.3341h 1.79978v -20.103h 1.79978v 28.7185h 1.79978v -25.8467h
 1.79978v 14.3593h 1.79978v 14.3593h 1.79978v -45.9496h 1.79978v 17.2311h 1.79978v -14.3593h 1.79978v 11.4874h 3.59955v -25.8467h 1.79978v 34.4622h 1.79978v 5.7437h 1.79978v -25.8467h 1.79978v 34.4622h 1.79978v -57.437h 1.79978v 57.437h 1.79978v
 -34.4622h 1.79978v 5.7437h 1.79978v 25.8467h 1.79978v -14.3593h 1.79978v -34.4622h 1.79978v 28.7185h 1.79978v -14.3593h 1.79978v -37.3341h 1.79978v 60.3089h 1.79978v -77.54h 1.79978v 66.0526h 1.79978v -40.2059h 1.79978v 17.2311h 1.79978v -22.9748h
 1.79978v 74.6682h 1.79978v -37.3341h 1.79978v 11.4874h 1.79978v 14.3593h 1.79978v -17.2311h 1.79978v -43.0778h 1.79978v -2.87185h 1.79978v 43.0778h 1.79978v 28.7185h 1.79978v -17.2311h 1.79978v -17.2311h 1.79978v 37.3341h 1.79978v -22.9748h 1.79978v
 -14.3593h 1.79978v 14.3593h 1.79978v -2.87185h 1.79978v 51.6933h 1.79978v -8.61556h 1.79978v -8.61556h 1.79978v -5.7437h 1.79978v 2.87185h 1.79978v -28.7185h 3.59955v 51.6933h 5.39932v -25.8467h 1.79978v 2.87185h 1.79978v 2.87185h 1.79978v 11.4874h
 1.79978v -8.61556h 3.59955v 34.4622h 1.79978v -11.4874h 1.79978v -11.4874h 1.79978v 17.2311h 1.79978v 2.87185h 1.79978v -37.3341h 1.79978v 17.2311h 1.79978v 37.3341h 1.79978v -14.3593h 1.79978v 25.8467h 1.79978v 8.61556h 1.79978v -5.7437h 3.59955v
 -8.61556h 1.79978v 17.2311h 3.59955v -14.3593h 3.59955v 22.9748h 1.79978v -5.7437h 1.79978v 17.2311h 1.79978v -22.9748h 1.79978v 20.103h 3.59955v -25.8467h 1.79978v 14.3593h 1.79978v 40.2059h 1.79978v -11.4874h 1.79978v -8.61556h 1.79978v 17.2311h
 1.79978v -20.103h 1.79978v 14.3593h 1.79978v 2.87185h 3.59955v 11.4874h 1.79978v -2.87185h 1.79978v -5.7437h 1.79978v -8.61556h 1.79978v 5.7437h 1.79978v 11.4874h 1.79978v -8.61556h 1.79978v -2.87185h 3.59955v 14.3593h 3.59955v 2.87185h 1.79978v
 -11.4874h 1.79978v 14.3593h 5.39932v 2.87185h 1.79978v -5.7437h 1.79978v 8.61556h 1.79978v -17.2311h 1.79978v 17.2311h 3.59955v -2.87185h 1.79978v -5.7437h 1.79978v 8.61556h 1.79978v -2.87185h 1.79978v 2.87185h 3.59955v -2.87185h 1.79978v 2.87185h
 12.5984v -2.87185h 3.59955v 2.87185h 1.79978v -2.87185h 1.79978v 2.87185h 41.3948" fill="none" stroke="#000033" stroke-width="2"/>
<path d="M57.1929,346.022h 453.543" fill="none" stroke="black"/>
<text x="406.962" y="377.138" fill="black" font-size="15.4459" font-family="Helvetica">
Number of Hits
</text>
<path d="M57.1929,336.795v 9.22726" fill="none" stroke="black"/>
<path d="M75.1907,341.409v 4.61363" fill="none" stroke="black"/>
<path d="M93.1884,341.409v 4.61363" fill="none" stroke="black"/>
<path d="M111.186,341.409v 4.61363" fill="none" stroke="black"/>
<path d="M129.184,341.409v 4.61363" fill="none" stroke="black"/>
<path d="M147.182,336.795v 9.22726" fill="none" stroke="black"/>
<path d="M165.179,341.409v 4.61363" fill="none" stroke="black"/>
<path d="M183.177,341.409v 4.61363" fill="none" stroke="black"/>
<path d="M201.175,341.409v 4.61363" fill="none" stroke="black"/>
<path d="M219.173,341.409v 4.61363" fill="none" stroke="black"/>
<path d="M237.17,336.795v 9.22726" fill="none" stroke="black"/>
<path d="M255.168,341.409v 4.61363" fill="none" stroke="black"/>
<path d="M273.166,341.409v 4.61363" fill="none" stroke="black"/>
<path d="M291.164,341.409v 4.61363" fill="none" stroke="black"/>
<path d="M309.161,341.409v 4.61363" fill="none" stroke="black"/>
<path d="M327.159,336.795v 9.22726" fill="none" stroke="black"/>
<path d="M345.157,341.409v 4.61363" fill="none" stroke="black"/>
<path d="M363.155,341.409v 4.61363" fill="none" stroke="black"/>
<path d="M381.152,341.409v 4.61363" fill="none" stroke="black"/>
<path d="M399.15,341.409v 4.61363" fill="none" stroke="black"/>
<path d="M417.148,336.795v 9.22726" fill="none" stroke="black"/>
<path d="M435.146,341.409v 4.61363" fill="none" stroke="black"/>
<path d="M453.143,341.409v 4.61363" fill="none" stroke="black"/>
<path d="M471.141,341.409v 4.61363" fill="none" stroke="black"/>
<path d="M489.139,341.409v 4.61363" fill="none" stroke="black"/>
<path d="M507.137,336.795v 9.22726" fill="none" stroke="black"/>
<path d="M507.137,336.795v 9.22726" fill="none" stroke="black"/>
<text x="52.6314" y="360.847" fill="black" font-size="15.4459" font-family="Helvetica">
0
</text>
<text x="138.16" y="360.847" fill="black" font-size="15.4459" font-family="Helvetica">
50
</text>
<text x="223.688" y="360.847" fill="black" font-size="15.4459" font-family="Helvetica">
100
</text>
<text x="314.103" y="360.847" fill="black" font-size="15.4459" font-family="Helvetica">
150
</text>
<text x="403.704" y="360.847" fill="black" font-size="15.4459" font-family="Helvetica">
200
</text>
<text x="493.305" y="360.847" fill="black" font-size="15.4459" font-family="Helvetica">
250
</text>
<path d="M57.1929,346.022v -307.575" fill="none" stroke="black"/>
<g transform="rotate(-90,12.7183,168.613)">
<text x="12.7183" y="168.613" fill="black" font-size="15.4459" font-family="Helvetica">
Normalized Entries
</text>
</g>
<path d="M70.7992,346.022h -13.6063" fill="none" stroke="black"/>
<path d="M63.9961,331.663h -6.80315" fill="none" stroke="black"/>
<path d="M63.9961,317.304h -6.80315" fill="none" stroke="black"/>
<path d="M63.9961,302.944h -6.80315" fill="none" stroke="black"/>
<path d="M70.7992,288.585h -13.6063" fill="none" stroke="black"/>
<path d="M63.9961,274.226h -6.80315" fill="none" stroke="black"/>
<path d="M63.9961,259.867h -6.80315" fill="none" stroke="black"/>
<path d="M63.9961,245.507h -6.80315" fill="none" stroke="black"/>
<path d="M70.7992,231.148h -13.6063" fill="none" stroke="black"/>
<path d="M63.9961,216.789h -6.80315" fill="none" stroke="black"/>
<path d="M63.9961,202.43h -6.80315" fill="none" stroke="black"/>
<path d="M63.9961,188.07h -6.80315" fill="none" stroke="black"/>
<path d="M70.7992,173.711h -13.6063" fill="none" stroke="black"/>
<path d="M63.9961,159.352h -6.80315" fill="none" stroke="black"/>
<path d="M63.9961,144.993h -6.80315" fill="none" stroke="black"/>
<path d="M63.9961,130.633h -6.80315" fill="none" stroke="black"/>
<path d="M70.7992,116.274h -13.6063" fill="none" stroke="black"/>
<path d="M63.9961,101.915h -6.80315" fill="none" stroke="black"/>
<path d="M63.9961,87.5556h -6.80315" fill="none" stroke="black"/>
<path d="M63.9961,73.1963h -6.80315" fill="none" stroke="black"/>
<path d="M70.7992,58.8371h -13.6063" fill="none" stroke="black"/>
<path d="M70.7992,58.8371h -13.6063" fill="none" stroke="black"/>
<path d="M63.9961,44.4778h -6.80315" fill="none" stroke="black"/>
<text x="46.115" y="351.072" fill="black" font-size="15.4459" font-family="Helvetica">
0
</text>
<text x="15.9765" y="294.054" fill="black" font-size="15.4459" font-family="Helvetica">
0.002
</text>
<text x="15.9765" y="236.22" fill="black" font-size="15.4459" font-family="Helvetica">
0.004
</text>
<text x="15.9765" y="179.202" fill="black" font-size="15.4459" font-family="Helvetica">
0.006
</text>
<text x="15.9765" y="121.368" fill="black" font-size="15.4459" font-family="Helvetica">
0.008
</text>
<text x="26.5657" y="64.3497" fill="black" font-size="15.4459" font-family="Helvetica">
0.01
</text>
<path d="M58.9927,38.4469v 97.9095" fill="none" stroke="#333399" stroke-width="2"/>
<path d="M58.9927,136.356h 1.79978v 129.521h 1.79978v 21.9591h 1.79978v -25.681h 1.79978v -62.7757h 1.79978v -160.933" fill="none" stroke="#333399" stroke-width="2"/>
<path d="M73.3909,38.4469v 1.7609" fill="none" stroke="#333399" stroke-width="2"/>
<path d="M73.3909,40.2078h 1.79978v 77.7873h 1.79978v 63.272h 1.79978v 23.1997h 1.79978v 20.4703h 1.79978v 3.22563h 1.79978v 8.68439h 1.79978v -4.09407h 1.79978v -2.35719h 1.79978v -1.73688h 1.79978v -5.08657h 1.79978v -5.95501h 1.79978v -5.33469h
 1.79978v -14.3913h 1.79978v -0.496251h 1.79978v -4.46626h 1.79978v -22.5794h 1.79978v 1.36469h 1.79978v 15.1356h 1.79978v -22.5794h 1.79978v 0.868439h 1.79978v -1.73688h 1.79978v -0.124063h 1.79978v -6.57532h 1.79978v 0.496251h 1.79978v -5.95501h
 1.79978v 6.07907h 1.79978v -3.34969h 1.79978v 6.3272h 1.79978v -6.07907h 1.79978v -0.372188h 1.79978v -1.24063h 1.79978v 2.10907h 1.79978v 1.86094h 1.79978v 13.1506h 1.79978v -5.21063h 1.79978v 0.868439h 1.79978v -5.45876h 1.79978v 3.72188h 1.79978v
 -0.868439h 1.79978v 9.05657h 1.79978v 4.83844h 1.79978v -5.33469h 1.79978v 1.11656h 1.79978v 10.9175h 1.79978v 1.86094h 1.79978v 8.93251h 1.79978v -3.97h 1.79978v 2.72938h 1.79978v 1.48875h 1.79978v 7.56782h 1.79978v 0.620313h 1.79978v 1.11656h
 1.79978v 11.91h 1.79978v -14.0191h 1.79978v 15.6319h 1.79978v 7.81595h 1.79978v -15.5078h 1.79978v 5.83094h 1.79978v 3.84594h 1.79978v -4.09407h 1.79978v 11.2897h 1.79978v -11.1656h 1.79978v 5.21063h 1.79978v 3.59782h 1.79978v -5.21063h 1.79978v
 -1.48875h 1.79978v 2.85344h 1.79978v 0.620313h 1.79978v -4.83844h 1.79978v 5.08657h 1.79978v -3.22563h 1.79978v -8.93251h 1.79978v 4.34219h 1.79978v 0.744376h 1.79978v -4.46626h 1.79978v 4.96251h 1.79978v -8.18814h 1.79978v -9.67689h 1.79978v
 0.124063h 1.79978v -3.47375h 1.79978v 4.96251h 1.79978v -5.45876h 1.79978v -4.96251h 1.79978v 8.43626h 1.79978v -11.2897h 1.79978v 2.60532h 1.79978v 0.744376h 1.79978v -3.97h 3.59955v -11.786h 1.79978v 3.22563h 1.79978v -3.72188h 1.79978v -8.80845h
 1.79978v 5.21063h 1.79978v 11.786h 1.79978v -13.0266h 1.79978v -3.72188h 1.79978v -5.33469h 1.79978v -6.94751h 1.79978v 4.34219h 1.79978v -7.81595h 1.79978v 4.46626h 1.79978v -2.60532h 1.79978v 0.868439h 1.79978v -7.69188h 1.79978v 2.23313h 1.79978v
 -4.59032h 1.79978v -1.36469h 1.79978v 0.868439h 1.79978v -4.71438h 1.79978v -7.44376h 1.79978v 11.2897h 1.79978v -6.3272h 1.79978v 5.83094h 1.79978v 2.35719h 1.79978v -20.0982h 1.79978v 17.6169h 1.79978v 1.11656h 1.79978v 2.10907h 1.79978v -10.2972h
 1.79978v 15.5078h 1.79978v -0.620313h 1.79978v 1.36469h 1.79978v -12.1581h 1.79978v 7.07157h 1.79978v 6.45126h 1.79978v 0.620313h 1.79978v 10.5453h 1.79978v -0.868439h 1.79978v 5.95501h 1.79978v -5.58282h 1.79978v 12.1581h 1.79978v -3.22563h
 1.79978v 6.20313h 1.79978v -3.22563h 1.79978v 4.96251h 1.79978v 4.46626h 1.79978v 10.4213h 1.79978v 5.33469h 1.79978v 4.21813h 1.79978v 6.3272h 1.79978v 0.372188h 1.79978v 8.3122h 1.79978v -3.47375h 1.79978v 7.19563h 1.79978v 1.36469h 1.79978v
 12.9025h 1.79978v 0.372188h 1.79978v 6.82345h 1.79978v 6.45126h 1.79978v 7.69188h 1.79978v 4.46626h 1.79978v -0.124063h 1.79978v 1.48875h 1.79978v 0.248125h 1.79978v 11.4138h 1.79978v 5.58282h 1.79978v 7.81595h 1.79978v 1.11656h 1.79978v 1.48875h
 1.79978v 4.83844h 1.79978v 0.868439h 1.79978v 5.83094h 1.79978v -3.72188h 1.79978v 6.69938h 1.79978v 9.05657h 1.79978v -1.48875h 1.79978v 4.34219h 1.79978v 0.868439h 1.79978v 1.11656h 1.79978v 3.84594h 1.79978v 0.992501h 1.79978v 2.10907h 1.79978v
 -0.496251h 1.79978v 2.10907h 1.79978v 0.868439h 1.79978v 2.23313h 1.79978v 1.61281h 1.79978v -0.248125h 1.79978v 2.85344h 1.79978v 1.61281h 1.79978v 0.868439h 1.79978v 0.248125h 1.79978v 1.73688h 1.79978v -2.48125h 1.79978v 0.620313h 1.79978v
 3.10157h 1.79978v -0.868439h 1.79978v -0.744376h 1.79978v 1.24063h 1.79978v 1.985h 1.79978v -1.24063h 1.79978v 1.985h 1.79978v -0.744376h 1.79978v 0.248125h 1.79978v -0.620313h 1.79978v 1.48875h 1.79978v 0.496251h 1.79978v -0.744376h 1.79978v
 0.744376h 1.79978v 0.124063h 1.79978v -0.496251h 1.79978v 0.868439h 1.79978v 0.868439h 1.79978v -1.73688h 1.79978v 1.11656h 1.79978v -0.124063h 1.79978v 0.248125h 3.59955v 0.620313h 1.79978v -0.124063h 1.79978v 0.744376h 1.79978v -1.11656h 1.79978v
 -0.372188h 1.79978v 1.24063h 1.79978v -0.496251h 1.79978v 1.73688h 1.79978v -1.36469h 1.79978v -0.868439h 1.79978v 1.24063h 1.79978v 0.620313h 1.79978v 0.248125h 1.79978v -0.868439h 1.79978v -0.620313h 3.59955v 1.11656h 1.79978v -0.372188h 1.79978v
 0.124063h 1.79978v -0.744376h 1.79978v 1.36469h 1.79978v 0.124063h 1.79978v -0.124063h 1.79978v -0.744376h 1.79978v 0.992501h 1.79978v -0.124063h 3.59955v -0.248125h 3.59955v -0.124063h 1.79978v 0.372188h 1.79978v 0.372188h 1.79978v -0.620313h
 1.79978" fill="none" stroke="#333399" stroke-width="2"/>
<rect x="340.657" y="38.4469" width="170.079" height="76.8938" fill="white"/>
<path d="M340.657,115.341h 170.079" fill="none" stroke="black"/>
<path d="M510.736,115.341v -76.8938" fill="none" stroke="black"/>
<path d="M510.736,38.4469h -170.079" fill="none" stroke="black"/>
<path d="M340.657,38.4469v 76.8938" fill="none" stroke="black"/>
<text x="382.526" y="65.9788" fill="black" font-size="20.1099" font-family="Helvetica">
Simulation
</text>
<path d="M347.035,71.1268h 29.7638v -26.9128h -29.7638z" fill="white"/>
<path d="M347.035,57.6704h 29.7638" fill="none" stroke="#000033" stroke-width="2"/>
<g stroke="black" stroke-width="2" fill="none">
<line x1="360.917" y1="57.6704" x2="361.917" y2="57.6704"/>
</g>
<text x="382.526" y="104.263" fill="black" font-size="20.1099" font-family="Helvetica">
Data
</text>
<path d="M347.035,109.574h 29.7638v -26.9128h -29.7638z" fill="white"/>
<path d="M347.035,96.1173h 29.7638" fill="none" stroke="#333399" stroke-width="2"/>
<g stroke="black" stroke-width="2" fill="none">
<line x1="360.917" y1="96.1173" x2="361.917" y2="96.1173"/>
</g>
<text x="178.887" y="17.9202" fill="black" font-size="18.7938" font-family="Helvetica">
Number of Hits per Event
</text></svg>
