<?xml version="1.0" standalone="no"?>
<svg width="567.429" height="384.969" viewBox="0 0 567.429 384.969" xmlns="http://www.w3.org/2000/svg">
<title>
../plots/17_06_12/pions_compare_data_doubleParticlesnHits.svg
</title>
<desc>
Creator: ROOT Version 5.34/30
CreationDate: Thu Jun 15 17:52:35 2017</desc>
<defs>
</defs>
<rect x="0.5" y="0" width="566.929" height="384.469" fill="white"/>
<rect x="57.1929" y="38.4469" width="453.543" height="307.575" fill="white"/>
<rect x="57.1929" y="38.4469" width="453.543" height="307.575" fill="none" stroke="black"/>
<rect x="57.1929" y="38.4469" width="453.543" height="307.575" fill="white"/>
<rect x="57.1929" y="38.4469" width="453.543" height="307.575" fill="none" stroke="black"/>
<path d="M57.1929,346.022h 38.5512v -1.35825h 4.53543v -4.07475h 2.26772v -6.79124h 2.26772v -139.9h 2.26772v -15.8462h 2.26772v -12.2242h 2.26772v -3.16925h 2.26772v -28.0705h 2.26772v -21.2792h 2.26772v 43.0112h 2.26772v -43.9167h 2.26772v 1.35825h
 2.26772v -1.811h 2.26772v 6.79124h 2.26772v -15.8462h 2.26772v -1.35825h 2.26772v 23.0902h 2.26772v -7.69674h 2.26772v -3.16925h 2.26772v 15.8462h 2.26772v -14.488h 2.26772v -16.299h 2.26772v 12.677h 2.26772v -10.866h 2.26772v 10.866h 2.26772v
 10.4132h 2.26772v 0.452749h 2.26772v 14.488h 2.26772v -10.4132h 2.26772v -5.88574h 2.26772v 9.05499h 4.53543v 7.24399h 2.26772v 5.88574h 2.26772v -0.452749h 2.26772v 6.79124h 2.26772v 5.43299h 2.26772v 19.0155h 2.26772v -31.2397h 2.26772v 38.031h
 2.26772v -22.6375h 2.26772v 21.2792h 2.26772v -15.8462h 2.26772v 10.866h 2.26772v 4.07475h 2.26772v -9.50774h 2.26772v 10.4132h 2.26772v 6.79124h 2.26772v -8.60224h 2.26772v -4.07475h 2.26772v 0.905499h 2.26772v -4.52749h 2.26772v 15.3935h 2.26772v
 -21.2792h 2.26772v 13.5825h 2.26772v 9.50774h 2.26772v -13.5825h 2.26772v -9.05499h 2.26772v 8.14949h 2.26772v -8.14949h 2.26772v -20.8265h 2.26772v 13.5825h 2.26772v 1.811h 2.26772v -30.787h 2.26772v 10.4132h 2.26772v 15.8462h 2.26772v -15.8462h
 2.26772v 1.811h 2.26772v -8.14949h 2.26772v -4.07475h 2.26772v 8.14949h 2.26772v -25.354h 2.26772v 20.8265h 2.26772v -6.79124h 2.26772v -0.905499h 2.26772v -15.8462h 2.26772v -5.43299h 2.26772v 7.69674h 2.26772v -4.52749h 2.26772v 3.16925h 2.26772v
 -5.88574h 2.26772v -11.7715h 2.26772v 14.488h 2.26772v -9.50774h 2.26772v -17.6572h 2.26772v 28.976h 2.26772v -47.5387h 2.26772v 33.5035h 2.26772v -19.921h 2.26772v -4.52749h 2.26772v -15.8462h 2.26772v 22.6375h 2.26772v 8.14949h 2.26772v -3.622h
 2.26772v -7.69674h 2.26772v -14.0352h 2.26772v 24.4485h 2.26772v -4.52749h 2.26772v 5.88574h 2.26772v 5.88574h 2.26772v -9.96049h 2.26772v 9.50774h 2.26772v 3.16925h 2.26772v 2.26375h 4.53543v 3.622h 2.26772v 9.96049h 2.26772v 0.452749h 2.26772v
 17.2045h 2.26772v -26.2595h 2.26772v 28.5232h 2.26772v 19.0155h 2.26772v -5.88574h 2.26772v 5.88574h 2.26772v 19.4682h 2.26772v -9.05499h 2.26772v -5.88574h 2.26772v 10.4132h 2.26772v 1.35825h 2.26772v -3.16925h 2.26772v 23.543h 2.26772v 5.88574h
 2.26772v -7.69674h 2.26772v 24.9012h 2.26772v -12.2242h 2.26772v 27.165h 2.26772v -4.07475h 2.26772v 11.3187h 2.26772v -3.16925h 2.26772v 24.4485h 2.26772v 1.811h 2.26772v -10.866h 2.26772v 23.543h 2.26772v -9.05499h 2.26772v 13.1297h 2.26772v
 4.52749h 2.26772v 9.96049h 2.26772v 4.07475h 2.26772v 7.69674h 2.26772v -2.7165h 2.26772v 1.35825h 2.26772v 12.677h 2.26772v -5.43299h 2.26772v 10.866h 2.26772v -3.622h 2.26772v -3.16925h 2.26772v 4.52749h 2.26772v 6.33849h 2.26772v 5.88574h
 2.26772v -4.52749h 2.26772v -0.452749h 2.26772v 4.98024h 2.26772v 6.79124h 2.26772v -3.622h 2.26772v 5.88574h 2.26772v -0.452749h 2.26772v 3.622h 2.26772v -4.07475h 2.26772v 4.98024h 2.26772v -0.905499h 2.26772v 0.452749h 2.26772v -3.16925h 2.26772v
 1.811h 2.26772v 0.452749h 2.26772v 0.452749h 2.26772v 0.905499h 2.26772v -1.35825h 2.26772v 3.622h 2.26772v -4.07475h 2.26772v 0.905499h 2.26772v 3.16925h 4.53543v -0.905499h 2.26772v 0.905499h 2.26772v 1.35825h 4.53543v 1.35825h 2.26772v -1.811h
 2.26772v -0.452749h 2.26772v 2.7165h 2.26772v 1.35825h 2.26772v -4.07475h 2.26772" fill="none" stroke="#000033" stroke-width="2"/>
<path d="M57.1929,346.022h 453.543" fill="none" stroke="black"/>
<text x="406.962" y="377.138" fill="black" font-size="15.4459" font-family="Helvetica">
Number of Hits
</text>
<path d="M57.1929,336.795v 9.22726" fill="none" stroke="black"/>
<path d="M68.5315,341.409v 4.61363" fill="none" stroke="black"/>
<path d="M79.8701,341.409v 4.61363" fill="none" stroke="black"/>
<path d="M91.2087,341.409v 4.61363" fill="none" stroke="black"/>
<path d="M102.547,336.795v 9.22726" fill="none" stroke="black"/>
<path d="M113.886,341.409v 4.61363" fill="none" stroke="black"/>
<path d="M125.224,341.409v 4.61363" fill="none" stroke="black"/>
<path d="M136.563,341.409v 4.61363" fill="none" stroke="black"/>
<path d="M147.902,336.795v 9.22726" fill="none" stroke="black"/>
<path d="M159.24,341.409v 4.61363" fill="none" stroke="black"/>
<path d="M170.579,341.409v 4.61363" fill="none" stroke="black"/>
<path d="M181.917,341.409v 4.61363" fill="none" stroke="black"/>
<path d="M193.256,336.795v 9.22726" fill="none" stroke="black"/>
<path d="M204.594,341.409v 4.61363" fill="none" stroke="black"/>
<path d="M215.933,341.409v 4.61363" fill="none" stroke="black"/>
<path d="M227.272,341.409v 4.61363" fill="none" stroke="black"/>
<path d="M238.61,336.795v 9.22726" fill="none" stroke="black"/>
<path d="M249.949,341.409v 4.61363" fill="none" stroke="black"/>
<path d="M261.287,341.409v 4.61363" fill="none" stroke="black"/>
<path d="M272.626,341.409v 4.61363" fill="none" stroke="black"/>
<path d="M283.965,336.795v 9.22726" fill="none" stroke="black"/>
<path d="M295.303,341.409v 4.61363" fill="none" stroke="black"/>
<path d="M306.642,341.409v 4.61363" fill="none" stroke="black"/>
<path d="M317.98,341.409v 4.61363" fill="none" stroke="black"/>
<path d="M329.319,336.795v 9.22726" fill="none" stroke="black"/>
<path d="M340.657,341.409v 4.61363" fill="none" stroke="black"/>
<path d="M351.996,341.409v 4.61363" fill="none" stroke="black"/>
<path d="M363.335,341.409v 4.61363" fill="none" stroke="black"/>
<path d="M374.673,336.795v 9.22726" fill="none" stroke="black"/>
<path d="M386.012,341.409v 4.61363" fill="none" stroke="black"/>
<path d="M397.35,341.409v 4.61363" fill="none" stroke="black"/>
<path d="M408.689,341.409v 4.61363" fill="none" stroke="black"/>
<path d="M420.028,336.795v 9.22726" fill="none" stroke="black"/>
<path d="M431.366,341.409v 4.61363" fill="none" stroke="black"/>
<path d="M442.705,341.409v 4.61363" fill="none" stroke="black"/>
<path d="M454.043,341.409v 4.61363" fill="none" stroke="black"/>
<path d="M465.382,336.795v 9.22726" fill="none" stroke="black"/>
<path d="M476.72,341.409v 4.61363" fill="none" stroke="black"/>
<path d="M488.059,341.409v 4.61363" fill="none" stroke="black"/>
<path d="M499.398,341.409v 4.61363" fill="none" stroke="black"/>
<path d="M510.736,336.795v 9.22726" fill="none" stroke="black"/>
<text x="52.6314" y="360.847" fill="black" font-size="15.4459" font-family="Helvetica">
0
</text>
<text x="93.3591" y="360.847" fill="black" font-size="15.4459" font-family="Helvetica">
20
</text>
<text x="138.16" y="360.847" fill="black" font-size="15.4459" font-family="Helvetica">
40
</text>
<text x="183.775" y="360.847" fill="black" font-size="15.4459" font-family="Helvetica">
60
</text>
<text x="229.389" y="360.847" fill="black" font-size="15.4459" font-family="Helvetica">
80
</text>
<text x="270.932" y="360.847" fill="black" font-size="15.4459" font-family="Helvetica">
100
</text>
<text x="315.732" y="360.847" fill="black" font-size="15.4459" font-family="Helvetica">
120
</text>
<text x="361.347" y="360.847" fill="black" font-size="15.4459" font-family="Helvetica">
140
</text>
<text x="406.962" y="360.847" fill="black" font-size="15.4459" font-family="Helvetica">
160
</text>
<text x="451.763" y="360.847" fill="black" font-size="15.4459" font-family="Helvetica">
180
</text>
<text x="497.378" y="360.847" fill="black" font-size="15.4459" font-family="Helvetica">
200
</text>
<path d="M57.1929,346.022v -307.575" fill="none" stroke="black"/>
<g transform="rotate(-90,12.7183,168.613)">
<text x="12.7183" y="168.613" fill="black" font-size="15.4459" font-family="Helvetica">
Normalized Entries
</text>
</g>
<path d="M70.7992,346.022h -13.6063" fill="none" stroke="black"/>
<path d="M63.9961,331.855h -6.80315" fill="none" stroke="black"/>
<path d="M63.9961,317.687h -6.80315" fill="none" stroke="black"/>
<path d="M63.9961,303.52h -6.80315" fill="none" stroke="black"/>
<path d="M70.7992,289.353h -13.6063" fill="none" stroke="black"/>
<path d="M63.9961,275.185h -6.80315" fill="none" stroke="black"/>
<path d="M63.9961,261.018h -6.80315" fill="none" stroke="black"/>
<path d="M63.9961,246.85h -6.80315" fill="none" stroke="black"/>
<path d="M70.7992,232.683h -13.6063" fill="none" stroke="black"/>
<path d="M63.9961,218.515h -6.80315" fill="none" stroke="black"/>
<path d="M63.9961,204.348h -6.80315" fill="none" stroke="black"/>
<path d="M63.9961,190.18h -6.80315" fill="none" stroke="black"/>
<path d="M70.7992,176.013h -13.6063" fill="none" stroke="black"/>
<path d="M63.9961,161.846h -6.80315" fill="none" stroke="black"/>
<path d="M63.9961,147.678h -6.80315" fill="none" stroke="black"/>
<path d="M63.9961,133.511h -6.80315" fill="none" stroke="black"/>
<path d="M70.7992,119.343h -13.6063" fill="none" stroke="black"/>
<path d="M63.9961,105.176h -6.80315" fill="none" stroke="black"/>
<path d="M63.9961,91.0084h -6.80315" fill="none" stroke="black"/>
<path d="M63.9961,76.841h -6.80315" fill="none" stroke="black"/>
<path d="M70.7992,62.6735h -13.6063" fill="none" stroke="black"/>
<path d="M70.7992,62.6735h -13.6063" fill="none" stroke="black"/>
<path d="M63.9961,48.5061h -6.80315" fill="none" stroke="black"/>
<text x="46.115" y="351.072" fill="black" font-size="15.4459" font-family="Helvetica">
0
</text>
<text x="15.9765" y="294.868" fill="black" font-size="15.4459" font-family="Helvetica">
0.002
</text>
<text x="15.9765" y="237.85" fill="black" font-size="15.4459" font-family="Helvetica">
0.004
</text>
<text x="15.9765" y="181.645" fill="black" font-size="15.4459" font-family="Helvetica">
0.006
</text>
<text x="15.9765" y="124.627" fill="black" font-size="15.4459" font-family="Helvetica">
0.008
</text>
<text x="26.5657" y="67.6079" fill="black" font-size="15.4459" font-family="Helvetica">
0.01
</text>
<path d="M57.1929,346.022h 31.748v -6.08698h 2.26772v 6.08698h 4.53543v -9.13046h 4.53543v -21.3044h 2.26772v -146.087h 2.26772v -9.13046h 2.26772v -54.7828h 2.26772v 6.08698h 2.26772v 18.2609h 2.26772v -57.8263h 2.26772v 45.6523h 2.26772v -27.3914h
 2.26772v -15.2174h 2.26772v 39.5653h 2.26772v 3.04349h 2.26772v -39.5653h 2.26772v -24.3479h 2.26772v 15.2174h 2.26772v 76.0872h 2.26772v -73.0437h 2.26772v 6.08698h 2.26772v 6.08698h 2.26772v -45.8354" fill="none" stroke="#3366ff"
 stroke-width="2"/>
<path d="M147.902,38.4469v 58.0093" fill="none" stroke="#3366ff" stroke-width="2"/>
<path d="M147.902,96.4563h 2.26772v 6.08698h 2.26772v -64.0963" fill="none" stroke="#3366ff" stroke-width="2"/>
<path d="M154.705,38.4469v 27.5745" fill="none" stroke="#3366ff" stroke-width="2"/>
<path d="M154.705,66.0214h 2.26772v 39.5653h 2.26772v -67.1398" fill="none" stroke="#3366ff" stroke-width="2"/>
<path d="M161.508,38.4469v 39.7484" fill="none" stroke="#3366ff" stroke-width="2"/>
<path d="M161.508,78.1953h 2.26772v -24.3479h 2.26772v 18.2609h 2.26772v 21.3044h 4.53543v -6.08698h 2.26772v 33.4784h 2.26772v -39.5653h 2.26772v 27.3914h 2.26772v -42.6088h 2.26772v 39.5653h 2.26772v 9.13046h 2.26772v -18.2609h 2.26772v 30.4349h
 2.26772v -21.3044h 2.26772v 33.4784h 2.26772v -30.4349h 2.26772v 33.4784h 2.26772v -3.04349h 4.53543v -27.3914h 2.26772v -66.9567h 2.26772v 100.435h 2.26772v 9.13046h 4.53543v -85.2177h 2.26772v 45.6523h 2.26772v -15.2174h 2.26772v -12.174h 2.26772v
 12.174h 2.26772v -51.7393h 2.26772v 54.7828h 2.26772v 6.08698h 2.26772v -12.174h 2.26772v -6.08698h 2.26772v -33.4784h 2.26772v 76.0872h 2.26772v -45.6523h 2.26772v -48.8789" fill="none" stroke="#3366ff" stroke-width="2"/>
<path d="M249.949,38.4469v 24.531" fill="none" stroke="#3366ff" stroke-width="2"/>
<path d="M249.949,62.9779h 2.26772v -24.531" fill="none" stroke="#3366ff" stroke-width="2"/>
<path d="M259.02,38.4469v 42.7919" fill="none" stroke="#3366ff" stroke-width="2"/>
<path d="M259.02,81.2388h 2.26772v -42.7919" fill="none" stroke="#3366ff" stroke-width="2"/>
<path d="M265.823,38.4469v 21.4875" fill="none" stroke="#3366ff" stroke-width="2"/>
<path d="M265.823,59.9344h 2.26772v -21.4875" fill="none" stroke="#3366ff" stroke-width="2"/>
<path d="M270.358,38.4469v 30.6179" fill="none" stroke="#3366ff" stroke-width="2"/>
<path d="M270.358,69.0649h 2.26772v -30.6179" fill="none" stroke="#3366ff" stroke-width="2"/>
<path d="M277.161,38.4469v 6.27004" fill="none" stroke="#3366ff" stroke-width="2"/>
<path d="M277.161,44.717h 2.26772v 6.08698h 2.26772v -12.357" fill="none" stroke="#3366ff" stroke-width="2"/>
<path d="M283.965,38.4469v 15.4005" fill="none" stroke="#3366ff" stroke-width="2"/>
<path d="M283.965,53.8474h 2.26772v 30.4349h 2.26772v -21.3044h 2.26772v -24.531" fill="none" stroke="#3366ff" stroke-width="2"/>
<path d="M293.035,38.4469v 42.7919" fill="none" stroke="#3366ff" stroke-width="2"/>
<path d="M293.035,81.2388h 2.26772v -36.5219h 2.26772v 51.7393h 2.26772v -12.174h 2.26772v 24.3479h 2.26772v -15.2174h 2.26772v -3.04349h 2.26772v 3.04349h 2.26772v 36.5219h 2.26772v -24.3479h 2.26772v 15.2174h 2.26772v 18.2609h 2.26772v 24.3479h
 2.26772v -15.2174h 2.26772v 3.04349h 2.26772v 6.08698h 2.26772v 21.3044h 2.26772v 3.04349h 2.26772v 12.174h 2.26772v 6.08698h 2.26772v 54.7828h 2.26772v -21.3044h 2.26772v 15.2174h 2.26772v -21.3044h 2.26772v 54.7828h 2.26772v -3.04349h 2.26772v
 -6.08698h 2.26772v -3.04349h 2.26772v 33.4784h 2.26772v -9.13046h 2.26772v -18.2609h 2.26772v 18.2609h 2.26772v 21.3044h 2.26772v -3.04349h 2.26772v 3.04349h 4.53543v 6.08698h 2.26772v -6.08698h 2.26772v 3.04349h 2.26772v 12.174h 2.26772v -9.13046h
 2.26772v 15.2174h 2.26772v -12.174h 2.26772v 15.2174h 2.26772v -12.174h 2.26772v 9.13046h 4.53543v -3.04349h 2.26772v 3.04349h 2.26772v -3.04349h 4.53543v 6.08698h 2.26772v -6.08698h 2.26772v 3.04349h 2.26772v -6.08698h 4.53543v 3.04349h 2.26772v
 3.04349h 2.26772v -6.08698h 4.53543v 6.08698h 2.26772v 3.04349h 2.26772v -3.04349h 2.26772v -6.08698h 2.26772v 12.174h 2.26772v -12.174h 2.26772v 9.13046h 2.26772v 3.04349h 4.53543v -3.04349h 2.26772v 3.04349h 6.80315v 3.04349h 4.53543v -9.13046h
 2.26772v 3.04349h 2.26772v 6.08698h 2.26772v -3.04349h 2.26772v -6.08698h 2.26772v 6.08698h 4.53543v 3.04349h 9.07087v -3.04349h 2.26772v -3.04349h 2.26772v 3.04349h 4.53543v 3.04349h 4.53543v -3.04349h 2.26772v 3.04349h 6.80315" fill="none"
 stroke="#3366ff" stroke-width="2"/>
<rect x="340.657" y="38.4469" width="170.079" height="76.8938" fill="white"/>
<path d="M340.657,115.341h 170.079" fill="none" stroke="black"/>
<path d="M510.736,115.341v -76.8938" fill="none" stroke="black"/>
<path d="M510.736,38.4469h -170.079" fill="none" stroke="black"/>
<path d="M340.657,38.4469v 76.8938" fill="none" stroke="black"/>
<text x="382.526" y="61.0915" fill="black" font-size="9.4491" font-family="Helvetica">
Data
</text>
<path d="M347.035,71.1268h 29.7638v -26.9128h -29.7638z" fill="white"/>
<path d="M347.035,57.6704h 29.7638" fill="none" stroke="#000033" stroke-width="2"/>
<g stroke="black" stroke-width="2" fill="none">
<line x1="360.917" y1="57.6704" x2="361.917" y2="57.6704"/>
</g>
<text x="382.526" y="99.3755" fill="black" font-size="9.4491" font-family="Helvetica">
Data Reject Double Particles
</text>
<path d="M347.035,109.574h 29.7638v -26.9128h -29.7638z" fill="white"/>
<path d="M347.035,96.1173h 29.7638" fill="none" stroke="#3366ff" stroke-width="2"/>
<g stroke="black" stroke-width="2" fill="none">
<line x1="360.917" y1="96.1173" x2="361.917" y2="96.1173"/>
</g>
<text x="148.749" y="18.7347" fill="black" font-size="16.9898" font-family="Helvetica">
Number of Hits After Data Selection
</text></svg>
