<?xml version="1.0" standalone="no"?>
<svg width="567.429" height="384.969" viewBox="0 0 567.429 384.969" xmlns="http://www.w3.org/2000/svg">
<title>
../plots/17_06_12/pions_compare_mc_doppler_nHits.svg
</title>
<desc>
Creator: ROOT Version 5.34/30
CreationDate: Mon Jun 12 11:03:51 2017</desc>
<defs>
</defs>
<rect x="0.5" y="0" width="566.929" height="384.469" fill="white"/>
<rect x="57.1929" y="38.4469" width="453.543" height="307.575" fill="white"/>
<rect x="57.1929" y="38.4469" width="453.543" height="307.575" fill="none" stroke="black"/>
<rect x="57.1929" y="38.4469" width="453.543" height="307.575" fill="white"/>
<rect x="57.1929" y="38.4469" width="453.543" height="307.575" fill="none" stroke="black"/>
<path d="M57.1929,346.022h 31.748v -3.219h 2.26772v 3.219h 2.26772v -9.657h 2.26772v 3.219h 2.26772v -6.438h 2.26772v -160.95h 2.26772v -48.285h 2.26772v 19.314h 2.26772v -22.533h 2.26772v -41.847h 2.26772v 61.161h 2.26772v -35.409h 2.26772v 35.409h
 2.26772v -9.657h 2.26772v -32.19h 2.26772v 93.351h 2.26772v -28.971h 2.26772v -22.533h 2.26772v 16.095h 2.26772v 16.095h 2.26772v -57.942h 2.26772v 32.19h 2.26772v -32.19h 2.26772v 9.657h 2.26772v -61.161h 2.26772v 90.132h 2.26772v -32.19h 2.26772v
 -22.533h 2.26772v -9.657h 2.26772v 3.219h 2.26772v 12.876h 2.26772v 6.438h 2.26772v 28.971h 2.26772v -25.752h 2.26772v -16.095h 2.26772v 35.409h 2.26772v 45.066h 2.26772v -45.066h 2.26772v 9.657h 2.26772v 12.876h 2.26772v -22.533h 2.26772v 32.19h
 2.26772v -16.095h 2.26772v -3.219h 2.26772v 6.438h 2.26772v -41.847h 2.26772v 67.599h 2.26772v 19.314h 2.26772v -48.285h 2.26772v 3.219h 2.26772v 38.628h 2.26772v -103.008h 2.26772v 32.19h 2.26772v 6.438h 2.26772v -38.628h 2.26772v 57.942h 2.26772v
 -25.752h 2.26772v 16.095h 2.26772v 16.095h 2.26772v -16.095h 2.26772v -19.314h 2.26772v 6.438h 2.26772v -9.657h 2.26772v -3.219h 4.53543v 12.876h 2.26772v -41.847h 2.26772v 16.095h 2.26772v 54.723h 2.26772v -19.314h 2.26772v -41.847h 2.26772v
 22.533h 2.26772v 16.095h 2.26772v -48.285h 2.26772v 35.409h 2.26772v -12.876h 2.26772v -9.657h 2.26772v 12.876h 2.26772v -6.438h 2.26772v -28.971h 2.26772v 48.285h 2.26772v 6.438h 2.26772v -54.723h 2.26772v 41.847h 2.26772v -35.409h 2.26772v 3.219h
 2.26772v -6.438h 2.26772v 28.971h 2.26772v 38.628h 2.26772v -38.628h 2.26772v 12.876h 2.26772v -22.533h 2.26772v 3.219h 2.26772v 6.438h 2.26772v 35.409h 2.26772v -35.409h 2.26772v -51.504h 2.26772v 6.438h 2.26772v 93.351h 2.26772v -9.657h 2.26772v
 -22.533h 2.26772v -28.971h 2.26772v 25.752h 2.26772v 74.037h 2.26772v -74.037h 4.53543v 51.504h 2.26772v -28.971h 2.26772v 19.314h 4.53543v 35.409h 2.26772v -41.847h 2.26772v 70.818h 2.26772v -38.628h 2.26772v 12.876h 2.26772v -3.219h 2.26772v
 38.628h 2.26772v -19.314h 2.26772v -9.657h 2.26772v 22.533h 2.26772v 35.409h 2.26772v -16.095h 2.26772v -16.095h 2.26772v 12.876h 2.26772v 38.628h 2.26772v -25.752h 2.26772v -16.095h 2.26772v 6.438h 2.26772v 48.285h 4.53543v -16.095h 2.26772v
 25.752h 2.26772v -3.219h 2.26772v -19.314h 2.26772v 32.19h 2.26772v -9.657h 2.26772v -6.438h 2.26772v 28.971h 4.53543v -9.657h 2.26772v 12.876h 2.26772v 3.219h 2.26772v -3.219h 2.26772v 3.219h 2.26772v -3.219h 2.26772v 3.219h 2.26772v 3.219h
 2.26772v 3.219h 2.26772v -3.219h 2.26772v 6.438h 2.26772v -6.438h 2.26772v 9.657h 2.26772v -3.219h 2.26772v -9.657h 2.26772v 9.657h 2.26772v -3.219h 2.26772v 6.438h 2.26772v -3.219h 2.26772v 3.219h 2.26772v -3.219h 4.53543v 3.219h 9.07087v -3.219h
 2.26772v 3.219h 2.26772v -3.219h 2.26772v 3.219h 40.8189" fill="none" stroke="#000033" stroke-width="2"/>
<path d="M57.1929,346.022h 453.543" fill="none" stroke="black"/>
<text x="406.962" y="377.138" fill="black" font-size="15.4459" font-family="Helvetica">
Number of Hits
</text>
<path d="M57.1929,336.795v 9.22726" fill="none" stroke="black"/>
<path d="M68.5315,341.409v 4.61363" fill="none" stroke="black"/>
<path d="M79.8701,341.409v 4.61363" fill="none" stroke="black"/>
<path d="M91.2087,341.409v 4.61363" fill="none" stroke="black"/>
<path d="M102.547,336.795v 9.22726" fill="none" stroke="black"/>
<path d="M113.886,341.409v 4.61363" fill="none" stroke="black"/>
<path d="M125.224,341.409v 4.61363" fill="none" stroke="black"/>
<path d="M136.563,341.409v 4.61363" fill="none" stroke="black"/>
<path d="M147.902,336.795v 9.22726" fill="none" stroke="black"/>
<path d="M159.24,341.409v 4.61363" fill="none" stroke="black"/>
<path d="M170.579,341.409v 4.61363" fill="none" stroke="black"/>
<path d="M181.917,341.409v 4.61363" fill="none" stroke="black"/>
<path d="M193.256,336.795v 9.22726" fill="none" stroke="black"/>
<path d="M204.594,341.409v 4.61363" fill="none" stroke="black"/>
<path d="M215.933,341.409v 4.61363" fill="none" stroke="black"/>
<path d="M227.272,341.409v 4.61363" fill="none" stroke="black"/>
<path d="M238.61,336.795v 9.22726" fill="none" stroke="black"/>
<path d="M249.949,341.409v 4.61363" fill="none" stroke="black"/>
<path d="M261.287,341.409v 4.61363" fill="none" stroke="black"/>
<path d="M272.626,341.409v 4.61363" fill="none" stroke="black"/>
<path d="M283.965,336.795v 9.22726" fill="none" stroke="black"/>
<path d="M295.303,341.409v 4.61363" fill="none" stroke="black"/>
<path d="M306.642,341.409v 4.61363" fill="none" stroke="black"/>
<path d="M317.98,341.409v 4.61363" fill="none" stroke="black"/>
<path d="M329.319,336.795v 9.22726" fill="none" stroke="black"/>
<path d="M340.657,341.409v 4.61363" fill="none" stroke="black"/>
<path d="M351.996,341.409v 4.61363" fill="none" stroke="black"/>
<path d="M363.335,341.409v 4.61363" fill="none" stroke="black"/>
<path d="M374.673,336.795v 9.22726" fill="none" stroke="black"/>
<path d="M386.012,341.409v 4.61363" fill="none" stroke="black"/>
<path d="M397.35,341.409v 4.61363" fill="none" stroke="black"/>
<path d="M408.689,341.409v 4.61363" fill="none" stroke="black"/>
<path d="M420.028,336.795v 9.22726" fill="none" stroke="black"/>
<path d="M431.366,341.409v 4.61363" fill="none" stroke="black"/>
<path d="M442.705,341.409v 4.61363" fill="none" stroke="black"/>
<path d="M454.043,341.409v 4.61363" fill="none" stroke="black"/>
<path d="M465.382,336.795v 9.22726" fill="none" stroke="black"/>
<path d="M476.72,341.409v 4.61363" fill="none" stroke="black"/>
<path d="M488.059,341.409v 4.61363" fill="none" stroke="black"/>
<path d="M499.398,341.409v 4.61363" fill="none" stroke="black"/>
<path d="M510.736,336.795v 9.22726" fill="none" stroke="black"/>
<text x="52.6314" y="360.847" fill="black" font-size="15.4459" font-family="Helvetica">
0
</text>
<text x="93.3591" y="360.847" fill="black" font-size="15.4459" font-family="Helvetica">
20
</text>
<text x="138.16" y="360.847" fill="black" font-size="15.4459" font-family="Helvetica">
40
</text>
<text x="183.775" y="360.847" fill="black" font-size="15.4459" font-family="Helvetica">
60
</text>
<text x="229.389" y="360.847" fill="black" font-size="15.4459" font-family="Helvetica">
80
</text>
<text x="270.932" y="360.847" fill="black" font-size="15.4459" font-family="Helvetica">
100
</text>
<text x="315.732" y="360.847" fill="black" font-size="15.4459" font-family="Helvetica">
120
</text>
<text x="361.347" y="360.847" fill="black" font-size="15.4459" font-family="Helvetica">
140
</text>
<text x="406.962" y="360.847" fill="black" font-size="15.4459" font-family="Helvetica">
160
</text>
<text x="451.763" y="360.847" fill="black" font-size="15.4459" font-family="Helvetica">
180
</text>
<text x="497.378" y="360.847" fill="black" font-size="15.4459" font-family="Helvetica">
200
</text>
<path d="M57.1929,346.022v -307.575" fill="none" stroke="black"/>
<g transform="rotate(-90,12.7183,168.613)">
<text x="12.7183" y="168.613" fill="black" font-size="15.4459" font-family="Helvetica">
Normalized Entries
</text>
</g>
<path d="M70.7992,346.022h -13.6063" fill="none" stroke="black"/>
<path d="M63.9961,332.908h -6.80315" fill="none" stroke="black"/>
<path d="M63.9961,319.794h -6.80315" fill="none" stroke="black"/>
<path d="M63.9961,306.68h -6.80315" fill="none" stroke="black"/>
<path d="M70.7992,293.565h -13.6063" fill="none" stroke="black"/>
<path d="M63.9961,280.451h -6.80315" fill="none" stroke="black"/>
<path d="M63.9961,267.337h -6.80315" fill="none" stroke="black"/>
<path d="M63.9961,254.223h -6.80315" fill="none" stroke="black"/>
<path d="M70.7992,241.109h -13.6063" fill="none" stroke="black"/>
<path d="M63.9961,227.994h -6.80315" fill="none" stroke="black"/>
<path d="M63.9961,214.88h -6.80315" fill="none" stroke="black"/>
<path d="M63.9961,201.766h -6.80315" fill="none" stroke="black"/>
<path d="M70.7992,188.652h -13.6063" fill="none" stroke="black"/>
<path d="M63.9961,175.538h -6.80315" fill="none" stroke="black"/>
<path d="M63.9961,162.423h -6.80315" fill="none" stroke="black"/>
<path d="M63.9961,149.309h -6.80315" fill="none" stroke="black"/>
<path d="M70.7992,136.195h -13.6063" fill="none" stroke="black"/>
<path d="M63.9961,123.081h -6.80315" fill="none" stroke="black"/>
<path d="M63.9961,109.967h -6.80315" fill="none" stroke="black"/>
<path d="M63.9961,96.8524h -6.80315" fill="none" stroke="black"/>
<path d="M70.7992,83.7382h -13.6063" fill="none" stroke="black"/>
<path d="M70.7992,83.7382h -13.6063" fill="none" stroke="black"/>
<path d="M63.9961,70.624h -6.80315" fill="none" stroke="black"/>
<path d="M63.9961,57.5098h -6.80315" fill="none" stroke="black"/>
<path d="M63.9961,44.3956h -6.80315" fill="none" stroke="black"/>
<text x="46.115" y="351.072" fill="black" font-size="15.4459" font-family="Helvetica">
0
</text>
<text x="15.9765" y="298.941" fill="black" font-size="15.4459" font-family="Helvetica">
0.002
</text>
<text x="15.9765" y="246.81" fill="black" font-size="15.4459" font-family="Helvetica">
0.004
</text>
<text x="15.9765" y="193.864" fill="black" font-size="15.4459" font-family="Helvetica">
0.006
</text>
<text x="15.9765" y="141.732" fill="black" font-size="15.4459" font-family="Helvetica">
0.008
</text>
<text x="26.5657" y="88.7863" fill="black" font-size="15.4459" font-family="Helvetica">
0.01
</text>
<path d="M57.1929,346.022h 31.748v -3.18074h 6.80315v -6.36149h 2.26772v -12.723h 2.26772v -136.772h 2.26772v -19.0845h 2.26772v 19.0845h 2.26772v -19.0845h 2.26772v -31.8074h 2.26772v -9.54223h 2.26772v 15.9037h 4.53543v -6.36149h 2.26772v 12.723h
 2.26772v -104.965h 2.26772v 98.603h 2.26772v -9.54223h 4.53543v -54.0726h 2.26772v 104.965h 2.26772v -34.9882h 2.26772v 3.18074h 2.26772v -22.2652h 2.26772v -19.0845h 2.26772v -9.54223h 2.26772v -3.18074h 2.26772v 44.5304h 2.26772v -12.723h 2.26772v
 44.5304h 2.26772v -63.6148h 2.26772v 38.1689h 2.26772v -28.6267h 2.26772v 28.6267h 2.26772v -50.8919h 2.26772v 38.1689h 2.26772v -6.36149h 2.26772v -3.18074h 2.26772v -22.2652h 2.26772v 82.6993h 2.26772v -6.36149h 2.26772v -34.9882h 2.26772v
 28.6267h 2.26772v -44.5304h 2.26772v -3.18074h 4.53543v 12.723h 2.26772v -54.0726h 2.26772v 34.9882h 2.26772v 3.18074h 2.26772v 28.6267h 2.26772v 31.8074h 2.26772v 34.9882h 2.26772v -60.4341h 2.26772v 19.0845h 2.26772v -44.5304h 2.26772v -12.723h
 4.53543v -25.4459h 2.26772v 50.8919h 2.26772v -38.1689h 2.26772v 54.0726h 2.26772v -69.9763h 2.26772v 41.3497h 2.26772v -54.0726h 2.26772v 89.0608h 2.26772v 9.54223h 2.26772v -12.723h 2.26772v -15.9037h 2.26772v 9.54223h 2.26772v -50.8919h 2.26772v
 -12.723h 2.26772v 25.4459h 2.26772v -3.18074h 2.26772v 9.54223h 2.26772v -28.6267h 2.26772v -19.0845h 2.26772v -22.2652h 2.26772v 50.8919h 2.26772v -57.2534h 2.26772v 6.36149h 2.26772v 6.36149h 2.26772v 3.18074h 2.26772v 15.9037h 2.26772v 12.723h
 2.26772v -15.9037h 2.26772v 50.8919h 2.26772v -66.7956h 2.26772v 3.18074h 2.26772v -15.9037h 2.26772v 25.4459h 2.26772v 12.723h 2.26772v -31.8074h 2.26772v 41.3497h 2.26772v -3.18074h 2.26772v -9.54223h 4.53543v 34.9882h 2.26772v 25.4459h 2.26772v
 -69.9763h 2.26772v 47.7111h 2.26772v -31.8074h 2.26772v 9.54223h 2.26772v 38.1689h 2.26772v -38.1689h 2.26772v 79.5186h 2.26772v -31.8074h 2.26772v 22.2652h 2.26772v -28.6267h 2.26772v 31.8074h 2.26772v -19.0845h 2.26772v 3.18074h 2.26772v 28.6267h
 2.26772v -15.9037h 2.26772v 15.9037h 2.26772v -25.4459h 2.26772v 108.145h 2.26772v -34.9882h 2.26772v -25.4459h 2.26772v 44.5304h 4.53543v -6.36149h 2.26772v 9.54223h 2.26772v 3.18074h 4.53543v 3.18074h 2.26772v 19.0845h 2.26772v -9.54223h 2.26772v
 12.723h 2.26772v 9.54223h 2.26772v -6.36149h 2.26772v 12.723h 2.26772v -12.723h 2.26772v 19.0845h 4.53543v -3.18074h 2.26772v -6.36149h 2.26772v 28.6267h 2.26772v -6.36149h 2.26772v 3.18074h 2.26772v -6.36149h 2.26772v 9.54223h 2.26772v -15.9037h
 2.26772v 19.0845h 2.26772v 6.36149h 2.26772v -15.9037h 2.26772v 9.54223h 4.53543v 12.723h 2.26772v -3.18074h 2.26772v 3.18074h 2.26772v -3.18074h 4.53543v 6.36149h 6.80315v -9.54223h 2.26772v 6.36149h 2.26772v 3.18074h 4.53543v -3.18074h 6.80315v
 3.18074h 52.1575" fill="none" stroke="#3366ff" stroke-width="2"/>
<rect x="340.657" y="38.4469" width="170.079" height="76.8938" fill="white"/>
<path d="M340.657,115.341h 170.079" fill="none" stroke="black"/>
<path d="M510.736,115.341v -76.8938" fill="none" stroke="black"/>
<path d="M510.736,38.4469h -170.079" fill="none" stroke="black"/>
<path d="M340.657,38.4469v 76.8938" fill="none" stroke="black"/>
<text x="382.526" y="59.4624" fill="black" font-size="8.01901" font-family="Helvetica">
QGSP_BERT_HP neglect doppler
</text>
<path d="M347.035,71.1268h 29.7638v -26.9128h -29.7638z" fill="white"/>
<path d="M347.035,57.6704h 29.7638" fill="none" stroke="#000033" stroke-width="2"/>
<g stroke="black" stroke-width="2" fill="none">
<line x1="360.917" y1="57.6704" x2="361.917" y2="57.6704"/>
</g>
<text x="382.526" y="98.561" fill="black" font-size="8.01901" font-family="Helvetica">
QGSP_BERT_HP with doppler
</text>
<path d="M347.035,109.574h 29.7638v -26.9128h -29.7638z" fill="white"/>
<path d="M347.035,96.1173h 29.7638" fill="none" stroke="#3366ff" stroke-width="2"/>
<g stroke="black" stroke-width="2" fill="none">
<line x1="360.917" y1="96.1173" x2="361.917" y2="96.1173"/>
</g>
<text x="148.749" y="18.7347" fill="black" font-size="16.9898" font-family="Helvetica">
Number of Hits After Data Selection
</text></svg>
