<?xml version="1.0" standalone="no"?>
<svg width="567.429" height="384.969" viewBox="0 0 567.429 384.969" xmlns="http://www.w3.org/2000/svg">
<title>
../plots/17_06_12/pions_compare_mc_plus_minus_cogZ.svg
</title>
<desc>
Creator: ROOT Version 5.34/30
CreationDate: Mon Jun 12 11:02:54 2017</desc>
<defs>
</defs>
<rect x="0.5" y="0" width="566.929" height="384.469" fill="white"/>
<rect x="57.1929" y="38.4469" width="453.543" height="307.575" fill="white"/>
<rect x="57.1929" y="38.4469" width="453.543" height="307.575" fill="none" stroke="black"/>
<rect x="57.1929" y="38.4469" width="453.543" height="307.575" fill="white"/>
<rect x="57.1929" y="38.4469" width="453.543" height="307.575" fill="none" stroke="black"/>
<path d="M57.1929,346.022h 49.4362v -17.5757h 0.907087v 11.7172h 0.453543v -5.85858h 0.907087v -29.2929h 0.453543v 35.1515h 0.453543v -35.1515h 0.453543v 35.1515h 0.453543v -5.85858h 0.453543v -11.7172h 0.453543v -5.85858h 0.453543v -17.5757h
 0.453543v 11.7172h 0.453543v -5.85858h 0.453543v -17.5757h 0.453543v -35.1515h 0.453543v -17.5757h 0.453543v 23.4343h 0.453543v -29.2929h 0.453543v 41.01h 0.453543v -58.5858h 0.453543v 11.7172h 0.453543v 5.85858h 0.453543v -11.7172h 0.453543v
 5.85858h 0.453543v -23.4343h 0.907087v 46.8686h 0.453543v -11.7172h 0.453543v -52.7272h 0.453543v 5.85858h 0.453543v -23.4343h 0.453543v -17.5757h 0.453543v 11.7172h 0.453543v -52.7272h 0.453543v 17.5757h 0.453543v 5.85858h 0.453543v 52.7272h
 0.453543v -52.7272h 0.453543v 52.7272h 0.453543v -76.1615h 0.453543v -52.7272h 0.453543v 140.606h 0.453543v -58.5858h 0.453543v 23.4343h 0.453543v -58.5858h 0.453543v -5.85858h 0.453543v 58.5858h 0.453543v -29.2929h 0.453543v -11.7172h 0.453543v
 5.85858h 0.453543v -11.7172h 0.453543v -17.5757h 0.453543v -11.7172h 0.453543v -11.7172h 0.453543v 23.4343h 0.907087v 76.1615h 0.453543v -46.8686h 0.907087v 52.7272h 0.453543v -52.7272h 0.907087v 52.7272h 0.453543v -46.8686h 0.453543v 52.7272h
 0.453543v -111.313h 0.453543v 46.8686h 0.453543v 23.4343h 0.453543v -17.5757h 0.453543v 46.8686h 0.453543v -46.8686h 0.453543v 64.4444h 0.453543v -105.454h 0.453543v 52.7272h 0.453543v -5.85858h 0.453543v 23.4343h 0.453543v -17.5757h 0.907087v
 -41.01h 0.453543v 82.0201h 0.453543v -11.7172h 0.453543v -17.5757h 0.453543v 11.7172h 0.453543v -76.1615h 0.453543v 70.3029h 0.453543v 5.85858h 0.453543v 29.2929h 0.453543v -64.4444h 0.453543v -11.7172h 0.453543v 58.5858h 0.453543v -29.2929h
 0.453543v 41.01h 0.453543v 5.85858h 0.453543v -52.7272h 0.453543v -17.5757h 0.453543v 52.7272h 0.453543v -46.8686h 0.453543v 99.5958h 0.453543v -52.7272h 0.453543v -46.8686h 0.453543v 23.4343h 0.453543v -23.4343h 0.453543v 58.5858h 0.453543v
 -46.8686h 0.453543v 17.5757h 0.453543v 11.7172h 0.453543v -29.2929h 0.453543v 99.5958h 0.453543v -64.4444h 0.453543v 41.01h 0.453543v -64.4444h 0.453543v 87.8787h 0.453543v -35.1515h 0.453543v -35.1515h 0.907087v 17.5757h 0.453543v -11.7172h
 0.453543v -46.8686h 0.453543v 70.3029h 0.453543v -11.7172h 0.453543v -41.01h 0.453543v 29.2929h 0.453543v -11.7172h 0.453543v -23.4343h 0.453543v 82.0201h 0.453543v -23.4343h 0.453543v -41.01h 0.453543v -46.8686h 0.453543v 82.0201h 0.453543v
 -29.2929h 0.453543v 46.8686h 0.453543v -46.8686h 0.453543v 52.7272h 0.453543v -70.3029h 0.453543v 82.0201h 0.453543v -64.4444h 0.453543v 17.5757h 0.453543v 23.4343h 0.453543v -23.4343h 0.453543v -5.85858h 0.453543v 52.7272h 0.453543v -35.1515h
 0.453543v -23.4343h 0.453543v 46.8686h 0.453543v -5.85858h 0.453543v 35.1515h 0.453543v -82.0201h 0.453543v 35.1515h 0.453543v 11.7172h 0.453543v 17.5757h 0.453543v -23.4343h 0.453543v -35.1515h 0.453543v 41.01h 0.453543v 46.8686h 0.453543v
 -46.8686h 0.907087v 5.85858h 0.453543v -64.4444h 0.453543v 11.7172h 0.453543v 70.3029h 0.453543v -76.1615h 0.453543v 46.8686h 0.907087v -23.4343h 0.453543v 93.7372h 0.453543v -93.7372h 0.453543v 58.5858h 0.453543v -41.01h 0.453543v 17.5757h
 0.453543v 17.5757h 0.453543v -41.01h 0.453543v 58.5858h 0.453543v -11.7172h 0.453543v -17.5757h 0.453543v 41.01h 0.453543v -5.85858h 0.453543v -58.5858h 0.453543v 52.7272h 0.453543v -5.85858h 0.453543v 17.5757h 0.453543v -5.85858h 0.453543v 5.85858h
 0.453543v -11.7172h 0.453543v -17.5757h 0.907087v 46.8686h 0.453543v -41.01h 0.453543v 17.5757h 0.453543v 5.85858h 0.453543v 5.85858h 0.453543v 29.2929h 0.453543v -35.1515h 0.453543v 17.5757h 0.453543v -35.1515h 0.453543v 23.4343h 0.453543v
 -23.4343h 0.453543v 5.85858h 0.453543v -17.5757h 0.453543v 29.2929h 0.453543v -29.2929h 0.453543v 5.85858h 0.453543v 52.7272h 0.453543v -52.7272h 0.453543v 29.2929h 0.453543v 23.4343h 0.453543v -5.85858h 0.453543v -29.2929h 0.453543v 41.01h
 0.453543v -46.8686h 0.453543v 41.01h 0.453543v -17.5757h 0.453543v 5.85858h 0.907087v 23.4343h 0.453543v -35.1515h 0.453543v 35.1515h 0.453543v 5.85858h 0.453543v -5.85858h 0.453543v -46.8686h 0.453543v 41.01h 0.453543v 5.85858h 0.453543v -23.4343h
 0.453543v 23.4343h 0.453543v -29.2929h 0.453543v 11.7172h 0.453543v 17.5757h 0.453543v 17.5757h 0.453543v 23.4343h 0.453543v -11.7172h 0.453543v -35.1515h 0.453543v 17.5757h 0.453543v -29.2929h 0.453543v 11.7172h 0.453543v 5.85858h 0.453543v
 11.7172h 0.453543v -11.7172h 0.453543v 17.5757h 0.453543v -35.1515h 0.907087v 17.5757h 1.81417v -17.5757h 0.453543v 17.5757h 0.453543v -5.85858h 0.453543v -46.8686h 0.453543v 58.5858h 0.907087v -23.4343h 0.453543v 52.7272h 0.453543v -52.7272h
 0.453543v 35.1515h 0.453543v -17.5757h 0.453543v -35.1515h 0.453543v 29.2929h 0.453543v 29.2929h 0.453543v -29.2929h 0.453543v -29.2929h 0.453543v 29.2929h 0.453543v -58.5858h 0.453543v 52.7272h 0.453543v 5.85858h 0.907087v -5.85858h 0.453543v
 5.85858h 0.453543v 17.5757h 0.453543v -17.5757h 0.453543v -17.5757h 0.453543v 17.5757h 0.453543v -23.4343h 0.453543v -11.7172h 0.453543v 17.5757h 0.453543v 23.4343h 0.453543v -29.2929h 0.453543v 29.2929h 0.453543v 11.7172h 0.453543v -5.85858h
 0.453543v -23.4343h 0.453543v 17.5757h 0.453543v -35.1515h 0.453543v 17.5757h 0.453543v 35.1515h 0.453543v -58.5858h 0.453543v 35.1515h 0.453543v -41.01h 0.453543v 23.4343h 0.907087v 35.1515h 0.453543v -23.4343h 0.453543v -35.1515h 0.453543v
 29.2929h 0.453543v -46.8686h 0.453543v 35.1515h 0.453543v -35.1515h 0.453543v -5.85858h 0.453543v 23.4343h 0.453543v 29.2929h 0.453543v -17.5757h 0.453543v 11.7172h 0.453543v -5.85858h 0.453543v -64.4444h 0.453543v 70.3029h 0.453543v -5.85858h
 0.453543v 11.7172h 0.453543v -17.5757h 0.453543v -17.5757h 0.453543v 35.1515h 0.453543v -58.5858h 0.453543v 17.5757h 0.453543v 17.5757h 0.907087v -23.4343h 0.453543v -29.2929h 0.453543v 52.7272h 0.453543v -5.85858h 0.453543v -11.7172h 0.453543v
 17.5757h 0.453543v -17.5757h 0.453543v -29.2929h 0.453543v 11.7172h 0.453543v 46.8686h 0.453543v -11.7172h 0.453543v 11.7172h 0.453543v -17.5757h 0.453543v 23.4343h 0.907087v 5.85858h 0.907087v 29.2929h 0.453543v -5.85858h 0.453543v -58.5858h
 0.453543v 23.4343h 0.453543v 35.1515h 0.453543v -17.5757h 0.453543v -11.7172h 0.453543v 17.5757h 0.453543v -17.5757h 0.453543v -17.5757h 0.453543v 29.2929h 0.453543v -17.5757h 0.453543v 23.4343h 0.453543v -5.85858h 0.453543v 5.85858h 0.453543v
 17.5757h 0.453543v -17.5757h 0.453543v -11.7172h 0.453543v 23.4343h 1.36063v -17.5757h 0.453543v 17.5757h 0.453543v 11.7172h 0.453543v -11.7172h 0.453543v -17.5757h 0.453543v 23.4343h 0.907087v 11.7172h 0.453543v -46.8686h 0.453543v 46.8686h
 0.453543v -46.8686h 0.453543v 29.2929h 0.453543v 5.85858h 0.453543v -17.5757h 0.453543v 41.01h 0.453543v -23.4343h 0.907087v 11.7172h 0.907087v -41.01h 0.453543v 58.5858h 0.453543v -11.7172h 0.453543v -5.85858h 0.453543v -23.4343h 0.453543v
 -11.7172h 0.453543v 46.8686h 0.453543v -29.2929h 0.453543v 17.5757h 0.453543v -41.01h 0.453543v 46.8686h 0.453543v -5.85858h 0.907087v -11.7172h 0.453543v 17.5757h 0.907087v -11.7172h 0.453543v 23.4343h 0.453543v -23.4343h 0.453543v -5.85858h
 0.453543v -11.7172h 0.453543v 23.4343h 0.907087v -17.5757h 0.453543v 35.1515h 0.453543v -17.5757h 0.453543v 5.85858h 0.453543v 11.7172h 0.453543v -58.5858h 0.453543v 46.8686h 0.453543v -11.7172h 0.453543v 5.85858h 0.453543v -5.85858h 0.453543v
 -5.85858h 0.907087v 5.85858h 0.453543v 5.85858h 0.453543v -11.7172h 0.453543v 17.5757h 0.907087v -17.5757h 0.453543v -5.85858h 0.453543v 17.5757h 0.453543v -5.85858h 0.453543v 35.1515h 0.453543v -29.2929h 0.453543v 11.7172h 0.453543v -11.7172h
 0.453543v 11.7172h 0.453543v -17.5757h 0.453543v 5.85858h 0.453543v 5.85858h 0.453543v -17.5757h 0.907087v 11.7172h 0.453543v -5.85858h 0.453543v -5.85858h 0.453543v 17.5757h 0.453543v -23.4343h 0.453543v 5.85858h 0.453543v 17.5757h 0.453543v
 5.85858h 0.907087v -17.5757h 0.453543v 17.5757h 0.453543v -11.7172h 0.453543v -11.7172h 0.907087v -17.5757h 0.453543v 46.8686h 0.453543v -35.1515h 0.453543v 11.7172h 0.453543v 17.5757h 0.907087v -17.5757h 0.453543v 35.1515h 0.453543v -58.5858h
 0.453543v 52.7272h 0.453543v -11.7172h 0.453543v -17.5757h 0.453543v -17.5757h 0.453543v 35.1515h 0.453543v -29.2929h 0.453543v 5.85858h 0.907087v -5.85858h 0.453543v 29.2929h 0.907087v -23.4343h 0.453543v 11.7172h 0.453543v -11.7172h 0.453543v
 29.2929h 1.36063v -17.5757h 0.907087v -17.5757h 0.453543v 17.5757h 0.453543v 11.7172h 0.453543v -35.1515h 0.453543v -29.2929h 0.453543v 52.7272h 0.453543v 11.7172h 0.907087v -17.5757h 0.453543v -11.7172h 0.453543v 41.01h 0.453543v -23.4343h
 0.453543v 5.85858h 1.36063v 5.85858h 0.453543v -5.85858h 0.453543v -5.85858h 0.907087v 11.7172h 0.453543v 5.85858h 0.453543v -11.7172h 0.907087v 11.7172h 0.907087v 5.85858h 0.453543v 5.85858h 0.907087v -5.85858h 0.453543v 5.85858h 1.81417v -5.85858h
 0.453543v 5.85858h 1.36063v -5.85858h 0.453543v 5.85858h 175.068" fill="none" stroke="#000033" stroke-width="2"/>
<path d="M57.1929,346.022h 453.543" fill="none" stroke="black"/>
<text x="426.511" y="376.324" fill="black" font-size="15.4459" font-family="Helvetica">
CoG Z [mm]
</text>
<path d="M57.1929,336.795v 9.22726" fill="none" stroke="black"/>
<path d="M66.2638,341.409v 4.61363" fill="none" stroke="black"/>
<path d="M75.3346,341.409v 4.61363" fill="none" stroke="black"/>
<path d="M84.4055,341.409v 4.61363" fill="none" stroke="black"/>
<path d="M93.4764,341.409v 4.61363" fill="none" stroke="black"/>
<path d="M102.547,336.795v 9.22726" fill="none" stroke="black"/>
<path d="M111.618,341.409v 4.61363" fill="none" stroke="black"/>
<path d="M120.689,341.409v 4.61363" fill="none" stroke="black"/>
<path d="M129.76,341.409v 4.61363" fill="none" stroke="black"/>
<path d="M138.831,341.409v 4.61363" fill="none" stroke="black"/>
<path d="M147.902,336.795v 9.22726" fill="none" stroke="black"/>
<path d="M156.972,341.409v 4.61363" fill="none" stroke="black"/>
<path d="M166.043,341.409v 4.61363" fill="none" stroke="black"/>
<path d="M175.114,341.409v 4.61363" fill="none" stroke="black"/>
<path d="M184.185,341.409v 4.61363" fill="none" stroke="black"/>
<path d="M193.256,336.795v 9.22726" fill="none" stroke="black"/>
<path d="M202.327,341.409v 4.61363" fill="none" stroke="black"/>
<path d="M211.398,341.409v 4.61363" fill="none" stroke="black"/>
<path d="M220.469,341.409v 4.61363" fill="none" stroke="black"/>
<path d="M229.539,341.409v 4.61363" fill="none" stroke="black"/>
<path d="M238.61,336.795v 9.22726" fill="none" stroke="black"/>
<path d="M247.681,341.409v 4.61363" fill="none" stroke="black"/>
<path d="M256.752,341.409v 4.61363" fill="none" stroke="black"/>
<path d="M265.823,341.409v 4.61363" fill="none" stroke="black"/>
<path d="M274.894,341.409v 4.61363" fill="none" stroke="black"/>
<path d="M283.965,336.795v 9.22726" fill="none" stroke="black"/>
<path d="M293.035,341.409v 4.61363" fill="none" stroke="black"/>
<path d="M302.106,341.409v 4.61363" fill="none" stroke="black"/>
<path d="M311.177,341.409v 4.61363" fill="none" stroke="black"/>
<path d="M320.248,341.409v 4.61363" fill="none" stroke="black"/>
<path d="M329.319,336.795v 9.22726" fill="none" stroke="black"/>
<path d="M338.39,341.409v 4.61363" fill="none" stroke="black"/>
<path d="M347.461,341.409v 4.61363" fill="none" stroke="black"/>
<path d="M356.531,341.409v 4.61363" fill="none" stroke="black"/>
<path d="M365.602,341.409v 4.61363" fill="none" stroke="black"/>
<path d="M374.673,336.795v 9.22726" fill="none" stroke="black"/>
<path d="M383.744,341.409v 4.61363" fill="none" stroke="black"/>
<path d="M392.815,341.409v 4.61363" fill="none" stroke="black"/>
<path d="M401.886,341.409v 4.61363" fill="none" stroke="black"/>
<path d="M410.957,341.409v 4.61363" fill="none" stroke="black"/>
<path d="M420.028,336.795v 9.22726" fill="none" stroke="black"/>
<path d="M429.098,341.409v 4.61363" fill="none" stroke="black"/>
<path d="M438.169,341.409v 4.61363" fill="none" stroke="black"/>
<path d="M447.24,341.409v 4.61363" fill="none" stroke="black"/>
<path d="M456.311,341.409v 4.61363" fill="none" stroke="black"/>
<path d="M465.382,336.795v 9.22726" fill="none" stroke="black"/>
<path d="M474.453,341.409v 4.61363" fill="none" stroke="black"/>
<path d="M483.524,341.409v 4.61363" fill="none" stroke="black"/>
<path d="M492.594,341.409v 4.61363" fill="none" stroke="black"/>
<path d="M501.665,341.409v 4.61363" fill="none" stroke="black"/>
<path d="M510.736,336.795v 9.22726" fill="none" stroke="black"/>
<text x="52.6314" y="360.847" fill="black" font-size="15.4459" font-family="Helvetica">
0
</text>
<text x="89.2863" y="360.847" fill="black" font-size="15.4459" font-family="Helvetica">
100
</text>
<text x="134.087" y="360.847" fill="black" font-size="15.4459" font-family="Helvetica">
200
</text>
<text x="179.702" y="360.847" fill="black" font-size="15.4459" font-family="Helvetica">
300
</text>
<text x="225.317" y="360.847" fill="black" font-size="15.4459" font-family="Helvetica">
400
</text>
<text x="270.932" y="360.847" fill="black" font-size="15.4459" font-family="Helvetica">
500
</text>
<text x="315.732" y="360.847" fill="black" font-size="15.4459" font-family="Helvetica">
600
</text>
<text x="361.347" y="360.847" fill="black" font-size="15.4459" font-family="Helvetica">
700
</text>
<text x="406.962" y="360.847" fill="black" font-size="15.4459" font-family="Helvetica">
800
</text>
<text x="451.763" y="360.847" fill="black" font-size="15.4459" font-family="Helvetica">
900
</text>
<text x="493.305" y="360.847" fill="black" font-size="15.4459" font-family="Helvetica">
1000
</text>
<path d="M57.1929,346.022v -307.575" fill="none" stroke="black"/>
<g transform="rotate(-90,12.7183,168.613)">
<text x="12.7183" y="168.613" fill="black" font-size="15.4459" font-family="Helvetica">
Normalized Entries
</text>
</g>
<path d="M70.7992,346.022h -13.6063" fill="none" stroke="black"/>
<path d="M63.9961,336.475h -6.80315" fill="none" stroke="black"/>
<path d="M63.9961,326.928h -6.80315" fill="none" stroke="black"/>
<path d="M63.9961,317.381h -6.80315" fill="none" stroke="black"/>
<path d="M63.9961,307.834h -6.80315" fill="none" stroke="black"/>
<path d="M70.7992,298.287h -13.6063" fill="none" stroke="black"/>
<path d="M63.9961,288.739h -6.80315" fill="none" stroke="black"/>
<path d="M63.9961,279.192h -6.80315" fill="none" stroke="black"/>
<path d="M63.9961,269.645h -6.80315" fill="none" stroke="black"/>
<path d="M63.9961,260.098h -6.80315" fill="none" stroke="black"/>
<path d="M70.7992,250.551h -13.6063" fill="none" stroke="black"/>
<path d="M63.9961,241.004h -6.80315" fill="none" stroke="black"/>
<path d="M63.9961,231.457h -6.80315" fill="none" stroke="black"/>
<path d="M63.9961,221.909h -6.80315" fill="none" stroke="black"/>
<path d="M63.9961,212.362h -6.80315" fill="none" stroke="black"/>
<path d="M70.7992,202.815h -13.6063" fill="none" stroke="black"/>
<path d="M63.9961,193.268h -6.80315" fill="none" stroke="black"/>
<path d="M63.9961,183.721h -6.80315" fill="none" stroke="black"/>
<path d="M63.9961,174.174h -6.80315" fill="none" stroke="black"/>
<path d="M63.9961,164.627h -6.80315" fill="none" stroke="black"/>
<path d="M70.7992,155.079h -13.6063" fill="none" stroke="black"/>
<path d="M63.9961,145.532h -6.80315" fill="none" stroke="black"/>
<path d="M63.9961,135.985h -6.80315" fill="none" stroke="black"/>
<path d="M63.9961,126.438h -6.80315" fill="none" stroke="black"/>
<path d="M63.9961,116.891h -6.80315" fill="none" stroke="black"/>
<path d="M70.7992,107.344h -13.6063" fill="none" stroke="black"/>
<path d="M63.9961,97.7967h -6.80315" fill="none" stroke="black"/>
<path d="M63.9961,88.2495h -6.80315" fill="none" stroke="black"/>
<path d="M63.9961,78.7024h -6.80315" fill="none" stroke="black"/>
<path d="M63.9961,69.1552h -6.80315" fill="none" stroke="black"/>
<path d="M70.7992,59.6081h -13.6063" fill="none" stroke="black"/>
<path d="M70.7992,59.6081h -13.6063" fill="none" stroke="black"/>
<path d="M63.9961,50.061h -6.80315" fill="none" stroke="black"/>
<path d="M63.9961,40.5138h -6.80315" fill="none" stroke="black"/>
<text x="46.115" y="351.072" fill="black" font-size="15.4459" font-family="Helvetica">
0
</text>
<text x="18.4202" y="303.828" fill="black" font-size="15.4459" font-family="Helvetica">
0.001
</text>
<text x="15.9765" y="255.77" fill="black" font-size="15.4459" font-family="Helvetica">
0.002
</text>
<text x="15.9765" y="207.711" fill="black" font-size="15.4459" font-family="Helvetica">
0.003
</text>
<text x="15.9765" y="160.467" fill="black" font-size="15.4459" font-family="Helvetica">
0.004
</text>
<text x="15.9765" y="112.408" fill="black" font-size="15.4459" font-family="Helvetica">
0.005
</text>
<text x="15.9765" y="65.1643" fill="black" font-size="15.4459" font-family="Helvetica">
0.006
</text>
<path d="M57.1929,346.022h 46.2614v -11.6188h 0.453543v 11.6188h 2.72126v -11.6188h 0.453543v 11.6188h 0.907087v -17.4281h 0.453543v 5.80938h 0.453543v -5.80938h 0.453543v 11.6188h 0.453543v -17.4281h 0.453543v 17.4281h 0.453543v -5.80938h 0.453543v
 -40.6657h 0.453543v 17.4281h 0.453543v -46.4751h 0.453543v 40.6657h 0.453543v -29.0469h 0.453543v -11.6188h 0.453543v 34.8563h 0.453543v -63.9032h 0.453543v 52.2844h 0.453543v -17.4281h 0.907087v -40.6657h 0.453543v 23.2375h 0.453543v 11.6188h
 0.453543v -46.4751h 0.453543v -5.80938h 0.453543v 23.2375h 0.453543v -40.6657h 0.453543v -11.6188h 0.453543v -11.6188h 0.453543v 29.0469h 0.453543v -46.4751h 0.453543v 11.6188h 0.453543v 17.4281h 0.907087v -34.8563h 0.453543v 11.6188h 0.453543v
 -34.8563h 0.453543v 29.0469h 0.453543v 11.6188h 0.453543v -5.80938h 0.453543v -29.0469h 0.453543v -11.6188h 0.907087v 29.0469h 0.453543v -5.80938h 0.453543v -5.80938h 0.453543v -5.80938h 0.453543v -40.6657h 0.453543v 75.522h 0.453543v -58.0938h
 0.453543v 23.2375h 0.453543v -23.2375h 0.453543v 34.8563h 0.453543v -17.4281h 0.453543v -75.522h 0.453543v 63.9032h 0.453543v 23.2375h 0.453543v 17.4281h 0.453543v -58.0938h 0.453543v 5.80938h 0.453543v 87.1407h 0.453543v -69.7126h 0.453543v
 23.2375h 0.453543v -29.0469h 0.453543v -17.4281h 0.453543v 69.7126h 0.453543v -34.8563h 0.453543v -92.6282" fill="none" stroke="#3366ff" stroke-width="2"/>
<path d="M137.924,38.4469v 81.0094" fill="none" stroke="#3366ff" stroke-width="2"/>
<path d="M137.924,119.456h 0.453543v 23.2375h 0.453543v -98.7595h 0.453543v 34.8563h 0.453543v 58.0938h 0.453543v 40.6657h 0.453543v -69.7126h 0.453543v 17.4281h 0.453543v 17.4281h 0.453543v 40.6657h 0.453543v 11.6188h 0.453543v -52.2844h 0.453543v
 -29.0469h 0.453543v 46.4751h 0.453543v -40.6657h 0.453543v -46.4751h 0.453543v 46.4751h 0.453543v 11.6188h 0.453543v -34.8563h 0.453543v 81.3313h 0.453543v -87.1407h 0.453543v 52.2844h 0.453543v -81.3313h 0.453543v 116.188h 0.453543v -63.9032h
 0.453543v 46.4751h 0.453543v -58.0938h 0.453543v -5.80938h 0.453543v 87.1407h 0.453543v -11.6188h 0.453543v -58.0938h 0.453543v -23.2375h 0.453543v -29.0469h 0.453543v 121.997h 0.453543v -98.7595h 0.453543v 29.0469h 0.453543v 98.7595h 0.453543v
 -63.9032h 0.453543v 29.0469h 0.453543v -46.4751h 0.453543v 63.9032h 0.453543v -29.0469h 0.453543v 11.6188h 0.907087v -29.0469h 0.453543v 29.0469h 0.453543v -40.6657h 0.453543v -23.2375h 0.453543v 40.6657h 0.453543v 11.6188h 0.453543v 34.8563h
 0.453543v 17.4281h 0.453543v -29.0469h 0.453543v -29.0469h 0.453543v -69.7126h 0.453543v 121.997h 0.453543v -17.4281h 0.453543v -23.2375h 0.453543v 52.2844h 0.453543v -92.9501h 0.453543v 11.6188h 0.453543v 63.9032h 0.453543v -5.80938h 0.453543v
 -17.4281h 0.453543v 11.6188h 0.453543v -40.6657h 0.453543v -11.6188h 0.453543v 17.4281h 0.453543v -5.80938h 0.453543v 40.6657h 0.907087v 11.6188h 0.907087v -11.6188h 0.907087v 17.4281h 0.453543v -63.9032h 0.453543v 11.6188h 0.453543v 17.4281h
 0.453543v 34.8563h 0.453543v -52.2844h 0.453543v 63.9032h 0.453543v 5.80938h 0.453543v -40.6657h 0.453543v -5.80938h 0.453543v -5.80938h 0.453543v 29.0469h 0.453543v -17.4281h 0.453543v -5.80938h 0.453543v 40.6657h 0.453543v 11.6188h 0.453543v
 -63.9032h 0.907087v 17.4281h 0.907087v -11.6188h 0.453543v 75.522h 0.453543v -40.6657h 0.453543v -17.4281h 0.453543v 34.8563h 0.453543v -40.6657h 0.453543v 29.0469h 0.453543v -40.6657h 0.453543v 87.1407h 0.453543v -23.2375h 0.453543v -11.6188h
 0.453543v -29.0469h 0.453543v 46.4751h 0.453543v -29.0469h 0.907087v 17.4281h 0.453543v 5.80938h 0.453543v 23.2375h 0.453543v -29.0469h 0.453543v 34.8563h 0.453543v -29.0469h 0.453543v -11.6188h 0.453543v 11.6188h 0.453543v 34.8563h 0.453543v
 -29.0469h 0.453543v 5.80938h 0.453543v 34.8563h 0.453543v -17.4281h 0.453543v -11.6188h 0.453543v 23.2375h 0.453543v -81.3313h 0.453543v 98.7595h 0.453543v -46.4751h 0.453543v 11.6188h 0.453543v -40.6657h 0.453543v 23.2375h 0.453543v 5.80938h
 0.453543v -17.4281h 0.453543v 23.2375h 0.453543v 23.2375h 0.453543v -29.0469h 0.907087v -5.80938h 0.453543v 11.6188h 0.453543v -17.4281h 0.453543v 40.6657h 0.453543v -11.6188h 0.453543v -5.80938h 0.453543v 11.6188h 0.453543v -11.6188h 0.453543v
 23.2375h 0.453543v -34.8563h 0.453543v 34.8563h 0.453543v -29.0469h 0.453543v 58.0938h 0.453543v -29.0469h 0.453543v -23.2375h 0.453543v 11.6188h 0.453543v 11.6188h 0.453543v 40.6657h 0.453543v -46.4751h 0.453543v -23.2375h 0.453543v 11.6188h
 0.453543v 17.4281h 0.453543v -17.4281h 0.907087v 23.2375h 0.453543v -34.8563h 0.453543v 40.6657h 0.453543v -11.6188h 0.453543v -17.4281h 0.453543v -5.80938h 0.453543v 23.2375h 0.453543v -34.8563h 0.453543v 69.7126h 0.453543v -46.4751h 0.453543v
 52.2844h 0.453543v -29.0469h 0.453543v 5.80938h 0.453543v -46.4751h 0.453543v 58.0938h 0.907087v -23.2375h 0.453543v 23.2375h 0.453543v -23.2375h 0.453543v 11.6188h 0.453543v -5.80938h 0.453543v -5.80938h 0.453543v -34.8563h 0.907087v 46.4751h
 0.453543v -40.6657h 0.453543v 46.4751h 0.453543v -34.8563h 0.453543v 17.4281h 0.907087v 11.6188h 0.453543v -11.6188h 0.907087v 23.2375h 0.453543v -46.4751h 0.453543v 40.6657h 0.453543v -17.4281h 0.453543v 11.6188h 0.453543v 5.80938h 0.453543v
 -23.2375h 0.453543v -17.4281h 0.453543v 40.6657h 0.453543v -11.6188h 0.453543v -46.4751h 0.453543v 29.0469h 0.453543v 11.6188h 0.453543v -17.4281h 0.453543v 11.6188h 0.453543v -5.80938h 0.907087v -5.80938h 0.453543v 29.0469h 0.453543v -46.4751h
 0.453543v 29.0469h 0.907087v -23.2375h 0.453543v 11.6188h 0.453543v 11.6188h 0.453543v -23.2375h 0.453543v 11.6188h 0.453543v 11.6188h 0.453543v -5.80938h 0.453543v 11.6188h 0.453543v -40.6657h 0.453543v 17.4281h 0.453543v 11.6188h 0.453543v
 -23.2375h 0.453543v -34.8563h 0.453543v 40.6657h 0.907087v -34.8563h 0.453543v 58.0938h 0.453543v -11.6188h 0.453543v -17.4281h 0.453543v 23.2375h 0.453543v -29.0469h 0.453543v -34.8563h 0.453543v 29.0469h 0.453543v 11.6188h 0.453543v 11.6188h
 0.907087v -69.7126h 0.453543v 29.0469h 0.453543v -5.80938h 0.453543v -40.6657h 0.453543v 40.6657h 0.453543v 23.2375h 0.907087v -11.6188h 0.453543v 29.0469h 0.453543v -5.80938h 0.453543v -23.2375h 0.907087v 34.8563h 0.453543v -17.4281h 0.453543v
 -29.0469h 0.453543v 29.0469h 0.453543v 11.6188h 0.453543v -11.6188h 0.907087v -17.4281h 0.453543v 23.2375h 0.453543v 17.4281h 0.453543v -5.80938h 0.453543v 11.6188h 0.907087v -52.2844h 0.453543v 58.0938h 0.453543v -5.80938h 0.907087v -46.4751h
 0.453543v 58.0938h 0.453543v 17.4281h 0.453543v -46.4751h 0.453543v 17.4281h 0.453543v 11.6188h 0.453543v -5.80938h 0.453543v 23.2375h 0.453543v -34.8563h 0.453543v 17.4281h 0.453543v -17.4281h 0.907087v 23.2375h 0.453543v -5.80938h 0.453543v
 -34.8563h 0.453543v 17.4281h 0.453543v 34.8563h 0.453543v -17.4281h 0.453543v -17.4281h 0.453543v 17.4281h 0.453543v -46.4751h 0.453543v 29.0469h 0.453543v 11.6188h 0.453543v 5.80938h 0.453543v 5.80938h 0.453543v -5.80938h 0.453543v -11.6188h
 0.453543v 23.2375h 0.453543v -17.4281h 0.453543v 17.4281h 0.453543v 5.80938h 0.453543v -5.80938h 0.453543v -29.0469h 0.453543v 34.8563h 0.453543v -17.4281h 0.453543v 17.4281h 0.453543v -11.6188h 0.907087v -11.6188h 0.453543v 40.6657h 0.453543v
 -11.6188h 0.453543v -17.4281h 0.907087v 40.6657h 0.453543v -23.2375h 0.453543v -29.0469h 0.453543v 11.6188h 0.453543v 23.2375h 0.453543v -17.4281h 0.453543v 23.2375h 0.907087v -11.6188h 0.453543v -23.2375h 0.453543v 23.2375h 0.453543v -5.80938h
 0.453543v 17.4281h 0.453543v -40.6657h 0.453543v 29.0469h 0.907087v 5.80938h 0.907087v 5.80938h 0.453543v -5.80938h 0.453543v -17.4281h 0.453543v 11.6188h 0.453543v 5.80938h 0.453543v -40.6657h 0.453543v 5.80938h 0.453543v 29.0469h 0.453543v
 -17.4281h 0.453543v -5.80938h 0.453543v 11.6188h 0.453543v 17.4281h 0.453543v -5.80938h 0.453543v 17.4281h 0.453543v -5.80938h 0.907087v -34.8563h 0.453543v 11.6188h 0.907087v 17.4281h 0.453543v 11.6188h 0.453543v -29.0469h 0.453543v 5.80938h
 0.453543v 17.4281h 0.453543v -11.6188h 0.453543v 5.80938h 0.453543v 5.80938h 0.453543v -11.6188h 0.453543v -11.6188h 0.907087v 5.80938h 0.453543v 23.2375h 0.453543v -5.80938h 0.453543v -46.4751h 0.453543v 29.0469h 0.453543v -11.6188h 0.453543v
 17.4281h 0.453543v -5.80938h 0.453543v -11.6188h 0.453543v 5.80938h 0.453543v -5.80938h 0.453543v 11.6188h 0.453543v 11.6188h 0.907087v -17.4281h 0.453543v -23.2375h 0.453543v 29.0469h 0.453543v 11.6188h 0.453543v -5.80938h 0.453543v -23.2375h
 0.453543v 17.4281h 0.453543v 17.4281h 0.907087v 5.80938h 0.453543v -11.6188h 0.453543v -5.80938h 0.453543v 17.4281h 0.453543v -23.2375h 0.453543v 23.2375h 0.453543v -11.6188h 0.453543v -29.0469h 0.907087v 34.8563h 0.453543v -23.2375h 0.453543v
 -5.80938h 0.453543v 17.4281h 0.453543v -5.80938h 0.453543v 11.6188h 0.453543v -5.80938h 0.907087v -23.2375h 0.453543v 23.2375h 0.453543v -34.8563h 0.453543v 40.6657h 0.453543v -5.80938h 0.453543v -5.80938h 0.453543v -17.4281h 0.453543v 40.6657h
 0.453543v -29.0469h 0.453543v 29.0469h 0.453543v -23.2375h 0.453543v 29.0469h 0.907087v -34.8563h 0.453543v 17.4281h 0.453543v 11.6188h 0.453543v -5.80938h 0.453543v 17.4281h 0.453543v -5.80938h 0.907087v 5.80938h 1.81417v -17.4281h 0.453543v
 17.4281h 1.81417v -11.6188h 0.453543v 11.6188h 176.882" fill="none" stroke="#3366ff" stroke-width="2"/>
<rect x="340.657" y="38.4469" width="170.079" height="76.8938" fill="white"/>
<path d="M340.657,115.341h 170.079" fill="none" stroke="black"/>
<path d="M510.736,115.341v -76.8938" fill="none" stroke="black"/>
<path d="M510.736,38.4469h -170.079" fill="none" stroke="black"/>
<path d="M340.657,38.4469v 76.8938" fill="none" stroke="black"/>
<text x="382.526" y="65.9788" fill="black" font-size="23.6662" font-family="Helvetica">
Pi-
</text>
<path d="M347.035,71.1268h 29.7638v -26.9128h -29.7638z" fill="white"/>
<path d="M347.035,57.6704h 29.7638" fill="none" stroke="#000033" stroke-width="2"/>
<g stroke="black" stroke-width="2" fill="none">
<line x1="360.917" y1="57.6704" x2="361.917" y2="57.6704"/>
</g>
<text x="382.526" y="104.263" fill="black" font-size="23.6662" font-family="Helvetica">
Pi+
</text>
<path d="M347.035,109.574h 29.7638v -26.9128h -29.7638z" fill="white"/>
<path d="M347.035,96.1173h 29.7638" fill="none" stroke="#3366ff" stroke-width="2"/>
<g stroke="black" stroke-width="2" fill="none">
<line x1="360.917" y1="96.1173" x2="361.917" y2="96.1173"/>
</g>
<text x="101.505" y="17.9202" fill="black" font-size="16.4218" font-family="Helvetica">
Center of Gravity in Z Direction after data selection
</text></svg>
