<?xml version="1.0" encoding="utf-8" standalone="no"?>
<!DOCTYPE svg PUBLIC "-//W3C//DTD SVG 1.1//EN"
  "http://www.w3.org/Graphics/SVG/1.1/DTD/svg11.dtd">
<!-- Created with matplotlib (http://matplotlib.org/) -->
<svg height="432pt" version="1.1" viewBox="0 0 576 432" width="576pt" xmlns="http://www.w3.org/2000/svg" xmlns:xlink="http://www.w3.org/1999/xlink">
 <defs>
  <style type="text/css">
*{stroke-linecap:butt;stroke-linejoin:round;stroke-miterlimit:100000;}
  </style>
 </defs>
 <g id="figure_1">
  <g id="patch_1">
   <path d="M 0 432 
L 576 432 
L 576 0 
L 0 0 
z
" style="fill:#ffffff;"/>
  </g>
  <g id="axes_1">
   <g id="patch_2">
    <path d="M 72 388.8 
L 518.4 388.8 
L 518.4 43.2 
L 72 43.2 
z
" style="fill:#ffffff;"/>
   </g>
   <g id="patch_3">
    <path clip-path="url(#p627cfbbb59)" d="M 72 388.8 
L 72 384.768 
L 76.464 384.768 
L 76.464 385.344 
L 80.928 385.344 
L 80.928 383.04 
L 85.392 383.04 
L 85.392 381.888 
L 89.856 381.888 
L 89.856 383.616 
L 94.32 383.616 
L 94.32 384.192 
L 98.784 384.192 
L 98.784 383.616 
L 103.248 383.616 
L 103.248 387.072 
L 107.712 387.072 
L 107.712 383.04 
L 112.176 383.04 
L 112.176 385.92 
L 116.64 385.92 
L 116.64 383.04 
L 121.104 383.04 
L 121.104 378.432 
L 125.568 378.432 
L 125.568 360.576 
L 130.032 360.576 
L 130.032 354.24 
L 134.496 354.24 
L 134.496 358.848 
L 138.96 358.848 
L 138.96 349.632 
L 143.424 349.632 
L 143.424 342.72 
L 147.888 342.72 
L 147.888 350.784 
L 152.352 350.784 
L 152.352 330.624 
L 156.816 330.624 
L 156.816 298.944 
L 161.28 298.944 
L 161.28 324.288 
L 165.744 324.288 
L 165.744 289.728 
L 170.208 289.728 
L 170.208 218.304 
L 174.672 218.304 
L 174.672 149.184 
L 179.136 149.184 
L 179.136 129.6 
L 183.6 129.6 
L 183.6 78.912 
L 188.064 78.912 
L 188.064 110.592 
L 192.528 110.592 
L 192.528 165.888 
L 196.992 165.888 
L 196.992 141.12 
L 201.456 141.12 
L 201.456 129.024 
L 205.92 129.024 
L 205.92 206.784 
L 210.384 206.784 
L 210.384 261.504 
L 214.848 261.504 
L 214.848 256.896 
L 219.312 256.896 
L 219.312 308.16 
L 223.776 308.16 
L 223.776 331.2 
L 228.24 331.2 
L 228.24 349.632 
L 232.704 349.632 
L 232.704 355.392 
L 237.168 355.392 
L 237.168 371.52 
L 241.632 371.52 
L 241.632 370.368 
L 246.096 370.368 
L 246.096 380.736 
L 250.56 380.736 
L 250.56 382.464 
L 255.024 382.464 
L 255.024 385.92 
L 259.488 385.92 
L 259.488 384.192 
L 263.952 384.192 
L 263.952 384.192 
L 268.416 384.192 
L 268.416 387.072 
L 272.88 387.072 
L 272.88 388.8 
L 277.344 388.8 
L 277.344 388.224 
L 281.808 388.224 
L 281.808 388.8 
L 286.272 388.8 
L 286.272 388.224 
L 290.736 388.224 
L 290.736 388.8 
L 295.2 388.8 
L 295.2 388.8 
L 299.664 388.8 
L 299.664 388.8 
L 304.128 388.8 
L 304.128 388.8 
L 308.592 388.8 
L 308.592 388.8 
L 313.056 388.8 
L 313.056 388.8 
L 317.52 388.8 
L 317.52 388.8 
L 321.984 388.8 
L 321.984 388.8 
L 326.448 388.8 
L 326.448 388.8 
L 330.912 388.8 
L 330.912 388.224 
L 335.376 388.224 
L 335.376 388.8 
L 339.84 388.8 
L 339.84 388.8 
L 344.304 388.8 
L 344.304 388.224 
L 348.768 388.224 
L 348.768 388.8 
L 353.232 388.8 
L 353.232 388.8 
L 357.696 388.8 
L 357.696 388.8 
L 362.16 388.8 
L 362.16 388.8 
L 366.624 388.8 
L 366.624 388.8 
L 371.088 388.8 
L 371.088 388.8 
L 375.552 388.8 
L 375.552 388.8 
L 380.016 388.8 
L 380.016 388.8 
L 384.48 388.8 
L 384.48 388.8 
L 388.944 388.8 
L 388.944 388.8 
L 393.408 388.8 
L 393.408 388.224 
L 397.872 388.224 
L 397.872 388.8 
L 402.336 388.8 
L 402.336 388.8 
L 406.8 388.8 
L 406.8 388.8 
L 411.264 388.8 
L 411.264 388.8 
L 415.728 388.8 
L 415.728 388.8 
L 420.192 388.8 
L 420.192 388.8 
L 424.656 388.8 
L 424.656 388.8 
L 429.12 388.8 
L 429.12 388.8 
L 433.584 388.8 
L 433.584 388.8 
L 438.048 388.8 
L 438.048 388.8 
L 442.512 388.8 
L 442.512 388.8 
L 446.976 388.8 
L 446.976 388.8 
L 451.44 388.8 
L 451.44 388.8 
L 455.904 388.8 
L 455.904 388.8 
L 460.368 388.8 
L 460.368 388.8 
L 464.832 388.8 
L 464.832 388.8 
L 469.296 388.8 
L 469.296 388.8 
L 473.76 388.8 
L 473.76 388.8 
L 478.224 388.8 
L 478.224 388.8 
L 482.688 388.8 
L 482.688 388.8 
L 487.152 388.8 
L 487.152 388.8 
L 491.616 388.8 
L 491.616 388.8 
L 496.08 388.8 
L 496.08 388.8 
L 500.544 388.8 
L 500.544 388.8 
L 505.008 388.8 
L 505.008 388.8 
L 509.472 388.8 
L 509.472 388.8 
L 513.936 388.8 
L 513.936 388.8 
L 518.4 388.8 
L 518.4 388.8 
L 513.936 388.8 
L 513.936 388.8 
L 509.472 388.8 
L 509.472 388.8 
L 505.008 388.8 
L 505.008 388.8 
L 500.544 388.8 
L 500.544 388.8 
L 496.08 388.8 
L 496.08 388.8 
L 491.616 388.8 
L 491.616 388.8 
L 487.152 388.8 
L 487.152 388.8 
L 482.688 388.8 
L 482.688 388.8 
L 478.224 388.8 
L 478.224 388.8 
L 473.76 388.8 
L 473.76 388.8 
L 469.296 388.8 
L 469.296 388.8 
L 464.832 388.8 
L 464.832 388.8 
L 460.368 388.8 
L 460.368 388.8 
L 455.904 388.8 
L 455.904 388.8 
L 451.44 388.8 
L 451.44 388.8 
L 446.976 388.8 
L 446.976 388.8 
L 442.512 388.8 
L 442.512 388.8 
L 438.048 388.8 
L 438.048 388.8 
L 433.584 388.8 
L 433.584 388.8 
L 429.12 388.8 
L 429.12 388.8 
L 424.656 388.8 
L 424.656 388.8 
L 420.192 388.8 
L 420.192 388.8 
L 415.728 388.8 
L 415.728 388.8 
L 411.264 388.8 
L 411.264 388.8 
L 406.8 388.8 
L 406.8 388.8 
L 402.336 388.8 
L 402.336 388.8 
L 397.872 388.8 
L 397.872 388.8 
L 393.408 388.8 
L 393.408 388.8 
L 388.944 388.8 
L 388.944 388.8 
L 384.48 388.8 
L 384.48 388.8 
L 380.016 388.8 
L 380.016 388.8 
L 375.552 388.8 
L 375.552 388.8 
L 371.088 388.8 
L 371.088 388.8 
L 366.624 388.8 
L 366.624 388.8 
L 362.16 388.8 
L 362.16 388.8 
L 357.696 388.8 
L 357.696 388.8 
L 353.232 388.8 
L 353.232 388.8 
L 348.768 388.8 
L 348.768 388.8 
L 344.304 388.8 
L 344.304 388.8 
L 339.84 388.8 
L 339.84 388.8 
L 335.376 388.8 
L 335.376 388.8 
L 330.912 388.8 
L 330.912 388.8 
L 326.448 388.8 
L 326.448 388.8 
L 321.984 388.8 
L 321.984 388.8 
L 317.52 388.8 
L 317.52 388.8 
L 313.056 388.8 
L 313.056 388.8 
L 308.592 388.8 
L 308.592 388.8 
L 304.128 388.8 
L 304.128 388.8 
L 299.664 388.8 
L 299.664 388.8 
L 295.2 388.8 
L 295.2 388.8 
L 290.736 388.8 
L 290.736 388.8 
L 286.272 388.8 
L 286.272 388.8 
L 281.808 388.8 
L 281.808 388.8 
L 277.344 388.8 
L 277.344 388.8 
L 272.88 388.8 
L 272.88 388.8 
L 268.416 388.8 
L 268.416 388.8 
L 263.952 388.8 
L 263.952 388.8 
L 259.488 388.8 
L 259.488 388.8 
L 255.024 388.8 
L 255.024 388.8 
L 250.56 388.8 
L 250.56 388.8 
L 246.096 388.8 
L 246.096 388.8 
L 241.632 388.8 
L 241.632 388.8 
L 237.168 388.8 
L 237.168 388.8 
L 232.704 388.8 
L 232.704 388.8 
L 228.24 388.8 
L 228.24 388.8 
L 223.776 388.8 
L 223.776 388.8 
L 219.312 388.8 
L 219.312 388.8 
L 214.848 388.8 
L 214.848 388.8 
L 210.384 388.8 
L 210.384 388.8 
L 205.92 388.8 
L 205.92 388.8 
L 201.456 388.8 
L 201.456 388.8 
L 196.992 388.8 
L 196.992 388.8 
L 192.528 388.8 
L 192.528 388.8 
L 188.064 388.8 
L 188.064 388.8 
L 183.6 388.8 
L 183.6 388.8 
L 179.136 388.8 
L 179.136 388.8 
L 174.672 388.8 
L 174.672 388.8 
L 170.208 388.8 
L 170.208 388.8 
L 165.744 388.8 
L 165.744 388.8 
L 161.28 388.8 
L 161.28 388.8 
L 156.816 388.8 
L 156.816 388.8 
L 152.352 388.8 
L 152.352 388.8 
L 147.888 388.8 
L 147.888 388.8 
L 143.424 388.8 
L 143.424 388.8 
L 138.96 388.8 
L 138.96 388.8 
L 134.496 388.8 
L 134.496 388.8 
L 130.032 388.8 
L 130.032 388.8 
L 125.568 388.8 
L 125.568 388.8 
L 121.104 388.8 
L 121.104 388.8 
L 116.64 388.8 
L 116.64 388.8 
L 112.176 388.8 
L 112.176 388.8 
L 107.712 388.8 
L 107.712 388.8 
L 103.248 388.8 
L 103.248 388.8 
L 98.784 388.8 
L 98.784 388.8 
L 94.32 388.8 
L 94.32 388.8 
L 89.856 388.8 
L 89.856 388.8 
L 85.392 388.8 
L 85.392 388.8 
L 80.928 388.8 
L 80.928 388.8 
L 76.464 388.8 
L 76.464 388.8 
z
" style="fill:#0000ff;opacity:0.35;stroke:#000000;stroke-linejoin:miter;"/>
   </g>
   <g id="patch_4">
    <path clip-path="url(#p627cfbbb59)" d="M 72 388.8 
L 72 388.224 
L 76.464 388.224 
L 76.464 388.8 
L 80.928 388.8 
L 80.928 388.8 
L 85.392 388.8 
L 85.392 388.8 
L 89.856 388.8 
L 89.856 388.224 
L 94.32 388.224 
L 94.32 387.072 
L 98.784 387.072 
L 98.784 387.648 
L 103.248 387.648 
L 103.248 386.496 
L 107.712 386.496 
L 107.712 388.224 
L 112.176 388.224 
L 112.176 388.8 
L 116.64 388.8 
L 116.64 385.344 
L 121.104 385.344 
L 121.104 385.92 
L 125.568 385.92 
L 125.568 387.072 
L 130.032 387.072 
L 130.032 384.192 
L 134.496 384.192 
L 134.496 385.344 
L 138.96 385.344 
L 138.96 383.616 
L 143.424 383.616 
L 143.424 387.072 
L 147.888 387.072 
L 147.888 384.192 
L 152.352 384.192 
L 152.352 387.072 
L 156.816 387.072 
L 156.816 381.888 
L 161.28 381.888 
L 161.28 381.312 
L 165.744 381.312 
L 165.744 379.008 
L 170.208 379.008 
L 170.208 368.064 
L 174.672 368.064 
L 174.672 353.664 
L 179.136 353.664 
L 179.136 355.392 
L 183.6 355.392 
L 183.6 362.88 
L 188.064 362.88 
L 188.064 359.424 
L 192.528 359.424 
L 192.528 367.488 
L 196.992 367.488 
L 196.992 340.416 
L 201.456 340.416 
L 201.456 296.64 
L 205.92 296.64 
L 205.92 277.056 
L 210.384 277.056 
L 210.384 174.528 
L 214.848 174.528 
L 214.848 144 
L 219.312 144 
L 219.312 228.672 
L 223.776 228.672 
L 223.776 239.04 
L 228.24 239.04 
L 228.24 192.96 
L 232.704 192.96 
L 232.704 234.432 
L 237.168 234.432 
L 237.168 180.864 
L 241.632 180.864 
L 241.632 165.312 
L 246.096 165.312 
L 246.096 165.888 
L 250.56 165.888 
L 250.56 148.032 
L 255.024 148.032 
L 255.024 110.016 
L 259.488 110.016 
L 259.488 160.704 
L 263.952 160.704 
L 263.952 243.648 
L 268.416 243.648 
L 268.416 305.856 
L 272.88 305.856 
L 272.88 355.968 
L 277.344 355.968 
L 277.344 359.424 
L 281.808 359.424 
L 281.808 367.488 
L 286.272 367.488 
L 286.272 373.248 
L 290.736 373.248 
L 290.736 381.312 
L 295.2 381.312 
L 295.2 380.16 
L 299.664 380.16 
L 299.664 384.192 
L 304.128 384.192 
L 304.128 382.464 
L 308.592 382.464 
L 308.592 385.92 
L 313.056 385.92 
L 313.056 387.648 
L 317.52 387.648 
L 317.52 387.072 
L 321.984 387.072 
L 321.984 388.8 
L 326.448 388.8 
L 326.448 388.224 
L 330.912 388.224 
L 330.912 388.8 
L 335.376 388.8 
L 335.376 388.224 
L 339.84 388.224 
L 339.84 388.8 
L 344.304 388.8 
L 344.304 388.224 
L 348.768 388.224 
L 348.768 388.224 
L 353.232 388.224 
L 353.232 388.8 
L 357.696 388.8 
L 357.696 388.8 
L 362.16 388.8 
L 362.16 388.8 
L 366.624 388.8 
L 366.624 388.8 
L 371.088 388.8 
L 371.088 388.8 
L 375.552 388.8 
L 375.552 388.8 
L 380.016 388.8 
L 380.016 388.8 
L 384.48 388.8 
L 384.48 388.8 
L 388.944 388.8 
L 388.944 388.8 
L 393.408 388.8 
L 393.408 388.8 
L 397.872 388.8 
L 397.872 388.8 
L 402.336 388.8 
L 402.336 388.8 
L 406.8 388.8 
L 406.8 388.8 
L 411.264 388.8 
L 411.264 388.8 
L 415.728 388.8 
L 415.728 388.8 
L 420.192 388.8 
L 420.192 388.8 
L 424.656 388.8 
L 424.656 388.8 
L 429.12 388.8 
L 429.12 388.8 
L 433.584 388.8 
L 433.584 388.8 
L 438.048 388.8 
L 438.048 388.8 
L 442.512 388.8 
L 442.512 388.8 
L 446.976 388.8 
L 446.976 388.8 
L 451.44 388.8 
L 451.44 388.8 
L 455.904 388.8 
L 455.904 388.8 
L 460.368 388.8 
L 460.368 388.8 
L 464.832 388.8 
L 464.832 388.8 
L 469.296 388.8 
L 469.296 388.8 
L 473.76 388.8 
L 473.76 388.8 
L 478.224 388.8 
L 478.224 388.8 
L 482.688 388.8 
L 482.688 388.8 
L 487.152 388.8 
L 487.152 388.8 
L 491.616 388.8 
L 491.616 388.8 
L 496.08 388.8 
L 496.08 388.8 
L 500.544 388.8 
L 500.544 388.8 
L 505.008 388.8 
L 505.008 388.8 
L 509.472 388.8 
L 509.472 388.8 
L 513.936 388.8 
L 513.936 388.8 
L 518.4 388.8 
L 518.4 388.8 
L 513.936 388.8 
L 513.936 388.8 
L 509.472 388.8 
L 509.472 388.8 
L 505.008 388.8 
L 505.008 388.8 
L 500.544 388.8 
L 500.544 388.8 
L 496.08 388.8 
L 496.08 388.8 
L 491.616 388.8 
L 491.616 388.8 
L 487.152 388.8 
L 487.152 388.8 
L 482.688 388.8 
L 482.688 388.8 
L 478.224 388.8 
L 478.224 388.8 
L 473.76 388.8 
L 473.76 388.8 
L 469.296 388.8 
L 469.296 388.8 
L 464.832 388.8 
L 464.832 388.8 
L 460.368 388.8 
L 460.368 388.8 
L 455.904 388.8 
L 455.904 388.8 
L 451.44 388.8 
L 451.44 388.8 
L 446.976 388.8 
L 446.976 388.8 
L 442.512 388.8 
L 442.512 388.8 
L 438.048 388.8 
L 438.048 388.8 
L 433.584 388.8 
L 433.584 388.8 
L 429.12 388.8 
L 429.12 388.8 
L 424.656 388.8 
L 424.656 388.8 
L 420.192 388.8 
L 420.192 388.8 
L 415.728 388.8 
L 415.728 388.8 
L 411.264 388.8 
L 411.264 388.8 
L 406.8 388.8 
L 406.8 388.8 
L 402.336 388.8 
L 402.336 388.8 
L 397.872 388.8 
L 397.872 388.8 
L 393.408 388.8 
L 393.408 388.8 
L 388.944 388.8 
L 388.944 388.8 
L 384.48 388.8 
L 384.48 388.8 
L 380.016 388.8 
L 380.016 388.8 
L 375.552 388.8 
L 375.552 388.8 
L 371.088 388.8 
L 371.088 388.8 
L 366.624 388.8 
L 366.624 388.8 
L 362.16 388.8 
L 362.16 388.8 
L 357.696 388.8 
L 357.696 388.8 
L 353.232 388.8 
L 353.232 388.8 
L 348.768 388.8 
L 348.768 388.8 
L 344.304 388.8 
L 344.304 388.8 
L 339.84 388.8 
L 339.84 388.8 
L 335.376 388.8 
L 335.376 388.8 
L 330.912 388.8 
L 330.912 388.8 
L 326.448 388.8 
L 326.448 388.8 
L 321.984 388.8 
L 321.984 388.8 
L 317.52 388.8 
L 317.52 388.8 
L 313.056 388.8 
L 313.056 388.8 
L 308.592 388.8 
L 308.592 388.8 
L 304.128 388.8 
L 304.128 388.8 
L 299.664 388.8 
L 299.664 388.8 
L 295.2 388.8 
L 295.2 388.8 
L 290.736 388.8 
L 290.736 388.8 
L 286.272 388.8 
L 286.272 388.8 
L 281.808 388.8 
L 281.808 388.8 
L 277.344 388.8 
L 277.344 388.8 
L 272.88 388.8 
L 272.88 388.8 
L 268.416 388.8 
L 268.416 388.8 
L 263.952 388.8 
L 263.952 388.8 
L 259.488 388.8 
L 259.488 388.8 
L 255.024 388.8 
L 255.024 388.8 
L 250.56 388.8 
L 250.56 388.8 
L 246.096 388.8 
L 246.096 388.8 
L 241.632 388.8 
L 241.632 388.8 
L 237.168 388.8 
L 237.168 388.8 
L 232.704 388.8 
L 232.704 388.8 
L 228.24 388.8 
L 228.24 388.8 
L 223.776 388.8 
L 223.776 388.8 
L 219.312 388.8 
L 219.312 388.8 
L 214.848 388.8 
L 214.848 388.8 
L 210.384 388.8 
L 210.384 388.8 
L 205.92 388.8 
L 205.92 388.8 
L 201.456 388.8 
L 201.456 388.8 
L 196.992 388.8 
L 196.992 388.8 
L 192.528 388.8 
L 192.528 388.8 
L 188.064 388.8 
L 188.064 388.8 
L 183.6 388.8 
L 183.6 388.8 
L 179.136 388.8 
L 179.136 388.8 
L 174.672 388.8 
L 174.672 388.8 
L 170.208 388.8 
L 170.208 388.8 
L 165.744 388.8 
L 165.744 388.8 
L 161.28 388.8 
L 161.28 388.8 
L 156.816 388.8 
L 156.816 388.8 
L 152.352 388.8 
L 152.352 388.8 
L 147.888 388.8 
L 147.888 388.8 
L 143.424 388.8 
L 143.424 388.8 
L 138.96 388.8 
L 138.96 388.8 
L 134.496 388.8 
L 134.496 388.8 
L 130.032 388.8 
L 130.032 388.8 
L 125.568 388.8 
L 125.568 388.8 
L 121.104 388.8 
L 121.104 388.8 
L 116.64 388.8 
L 116.64 388.8 
L 112.176 388.8 
L 112.176 388.8 
L 107.712 388.8 
L 107.712 388.8 
L 103.248 388.8 
L 103.248 388.8 
L 98.784 388.8 
L 98.784 388.8 
L 94.32 388.8 
L 94.32 388.8 
L 89.856 388.8 
L 89.856 388.8 
L 85.392 388.8 
L 85.392 388.8 
L 80.928 388.8 
L 80.928 388.8 
L 76.464 388.8 
L 76.464 388.8 
z
" style="fill:#008000;opacity:0.35;stroke:#000000;stroke-linejoin:miter;"/>
   </g>
   <g id="patch_5">
    <path d="M 72 43.2 
L 518.4 43.2 
" style="fill:none;stroke:#000000;stroke-linecap:square;stroke-linejoin:miter;"/>
   </g>
   <g id="patch_6">
    <path d="M 518.4 388.8 
L 518.4 43.2 
" style="fill:none;stroke:#000000;stroke-linecap:square;stroke-linejoin:miter;"/>
   </g>
   <g id="patch_7">
    <path d="M 72 388.8 
L 518.4 388.8 
" style="fill:none;stroke:#000000;stroke-linecap:square;stroke-linejoin:miter;"/>
   </g>
   <g id="patch_8">
    <path d="M 72 388.8 
L 72 43.2 
" style="fill:none;stroke:#000000;stroke-linecap:square;stroke-linejoin:miter;"/>
   </g>
   <g id="matplotlib.axis_1">
    <g id="xtick_1">
     <g id="line2d_1">
      <defs>
       <path d="M 0 0 
L 0 -4 
" id="m01bf458813" style="stroke:#000000;stroke-width:0.5;"/>
      </defs>
      <g>
       <use style="stroke:#000000;stroke-width:0.5;" x="72.0" xlink:href="#m01bf458813" y="388.8"/>
      </g>
     </g>
     <g id="line2d_2">
      <defs>
       <path d="M 0 0 
L 0 4 
" id="m0ceb15cb17" style="stroke:#000000;stroke-width:0.5;"/>
      </defs>
      <g>
       <use style="stroke:#000000;stroke-width:0.5;" x="72.0" xlink:href="#m0ceb15cb17" y="43.2"/>
      </g>
     </g>
     <g id="text_1">
      <!-- −60 -->
      <defs>
       <path d="M 10.59375 35.5 
L 73.1875 35.5 
L 73.1875 27.203125 
L 10.59375 27.203125 
z
" id="BitstreamVeraSans-Roman-2212"/>
       <path d="M 31.78125 66.40625 
Q 24.171875 66.40625 20.328125 58.90625 
Q 16.5 51.421875 16.5 36.375 
Q 16.5 21.390625 20.328125 13.890625 
Q 24.171875 6.390625 31.78125 6.390625 
Q 39.453125 6.390625 43.28125 13.890625 
Q 47.125 21.390625 47.125 36.375 
Q 47.125 51.421875 43.28125 58.90625 
Q 39.453125 66.40625 31.78125 66.40625 
M 31.78125 74.21875 
Q 44.046875 74.21875 50.515625 64.515625 
Q 56.984375 54.828125 56.984375 36.375 
Q 56.984375 17.96875 50.515625 8.265625 
Q 44.046875 -1.421875 31.78125 -1.421875 
Q 19.53125 -1.421875 13.0625 8.265625 
Q 6.59375 17.96875 6.59375 36.375 
Q 6.59375 54.828125 13.0625 64.515625 
Q 19.53125 74.21875 31.78125 74.21875 
" id="BitstreamVeraSans-Roman-30"/>
       <path d="M 33.015625 40.375 
Q 26.375 40.375 22.484375 35.828125 
Q 18.609375 31.296875 18.609375 23.390625 
Q 18.609375 15.53125 22.484375 10.953125 
Q 26.375 6.390625 33.015625 6.390625 
Q 39.65625 6.390625 43.53125 10.953125 
Q 47.40625 15.53125 47.40625 23.390625 
Q 47.40625 31.296875 43.53125 35.828125 
Q 39.65625 40.375 33.015625 40.375 
M 52.59375 71.296875 
L 52.59375 62.3125 
Q 48.875 64.0625 45.09375 64.984375 
Q 41.3125 65.921875 37.59375 65.921875 
Q 27.828125 65.921875 22.671875 59.328125 
Q 17.53125 52.734375 16.796875 39.40625 
Q 19.671875 43.65625 24.015625 45.921875 
Q 28.375 48.1875 33.59375 48.1875 
Q 44.578125 48.1875 50.953125 41.515625 
Q 57.328125 34.859375 57.328125 23.390625 
Q 57.328125 12.15625 50.6875 5.359375 
Q 44.046875 -1.421875 33.015625 -1.421875 
Q 20.359375 -1.421875 13.671875 8.265625 
Q 6.984375 17.96875 6.984375 36.375 
Q 6.984375 53.65625 15.1875 63.9375 
Q 23.390625 74.21875 37.203125 74.21875 
Q 40.921875 74.21875 44.703125 73.484375 
Q 48.484375 72.75 52.59375 71.296875 
" id="BitstreamVeraSans-Roman-36"/>
      </defs>
      <g transform="translate(59.3371875 401.918125)scale(0.12 -0.12)">
       <use xlink:href="#BitstreamVeraSans-Roman-2212"/>
       <use x="83.7890625" xlink:href="#BitstreamVeraSans-Roman-36"/>
       <use x="147.412109375" xlink:href="#BitstreamVeraSans-Roman-30"/>
      </g>
     </g>
    </g>
    <g id="xtick_2">
     <g id="line2d_3">
      <g>
       <use style="stroke:#000000;stroke-width:0.5;" x="146.4" xlink:href="#m01bf458813" y="388.8"/>
      </g>
     </g>
     <g id="line2d_4">
      <g>
       <use style="stroke:#000000;stroke-width:0.5;" x="146.4" xlink:href="#m0ceb15cb17" y="43.2"/>
      </g>
     </g>
     <g id="text_2">
      <!-- −40 -->
      <defs>
       <path d="M 37.796875 64.3125 
L 12.890625 25.390625 
L 37.796875 25.390625 
z
M 35.203125 72.90625 
L 47.609375 72.90625 
L 47.609375 25.390625 
L 58.015625 25.390625 
L 58.015625 17.1875 
L 47.609375 17.1875 
L 47.609375 0 
L 37.796875 0 
L 37.796875 17.1875 
L 4.890625 17.1875 
L 4.890625 26.703125 
z
" id="BitstreamVeraSans-Roman-34"/>
      </defs>
      <g transform="translate(133.7371875 401.918125)scale(0.12 -0.12)">
       <use xlink:href="#BitstreamVeraSans-Roman-2212"/>
       <use x="83.7890625" xlink:href="#BitstreamVeraSans-Roman-34"/>
       <use x="147.412109375" xlink:href="#BitstreamVeraSans-Roman-30"/>
      </g>
     </g>
    </g>
    <g id="xtick_3">
     <g id="line2d_5">
      <g>
       <use style="stroke:#000000;stroke-width:0.5;" x="220.8" xlink:href="#m01bf458813" y="388.8"/>
      </g>
     </g>
     <g id="line2d_6">
      <g>
       <use style="stroke:#000000;stroke-width:0.5;" x="220.8" xlink:href="#m0ceb15cb17" y="43.2"/>
      </g>
     </g>
     <g id="text_3">
      <!-- −20 -->
      <defs>
       <path d="M 19.1875 8.296875 
L 53.609375 8.296875 
L 53.609375 0 
L 7.328125 0 
L 7.328125 8.296875 
Q 12.9375 14.109375 22.625 23.890625 
Q 32.328125 33.6875 34.8125 36.53125 
Q 39.546875 41.84375 41.421875 45.53125 
Q 43.3125 49.21875 43.3125 52.78125 
Q 43.3125 58.59375 39.234375 62.25 
Q 35.15625 65.921875 28.609375 65.921875 
Q 23.96875 65.921875 18.8125 64.3125 
Q 13.671875 62.703125 7.8125 59.421875 
L 7.8125 69.390625 
Q 13.765625 71.78125 18.9375 73 
Q 24.125 74.21875 28.421875 74.21875 
Q 39.75 74.21875 46.484375 68.546875 
Q 53.21875 62.890625 53.21875 53.421875 
Q 53.21875 48.921875 51.53125 44.890625 
Q 49.859375 40.875 45.40625 35.40625 
Q 44.1875 33.984375 37.640625 27.21875 
Q 31.109375 20.453125 19.1875 8.296875 
" id="BitstreamVeraSans-Roman-32"/>
      </defs>
      <g transform="translate(208.1371875 401.918125)scale(0.12 -0.12)">
       <use xlink:href="#BitstreamVeraSans-Roman-2212"/>
       <use x="83.7890625" xlink:href="#BitstreamVeraSans-Roman-32"/>
       <use x="147.412109375" xlink:href="#BitstreamVeraSans-Roman-30"/>
      </g>
     </g>
    </g>
    <g id="xtick_4">
     <g id="line2d_7">
      <g>
       <use style="stroke:#000000;stroke-width:0.5;" x="295.2" xlink:href="#m01bf458813" y="388.8"/>
      </g>
     </g>
     <g id="line2d_8">
      <g>
       <use style="stroke:#000000;stroke-width:0.5;" x="295.2" xlink:href="#m0ceb15cb17" y="43.2"/>
      </g>
     </g>
     <g id="text_4">
      <!-- 0 -->
      <g transform="translate(291.3825 401.918125)scale(0.12 -0.12)">
       <use xlink:href="#BitstreamVeraSans-Roman-30"/>
      </g>
     </g>
    </g>
    <g id="xtick_5">
     <g id="line2d_9">
      <g>
       <use style="stroke:#000000;stroke-width:0.5;" x="369.6" xlink:href="#m01bf458813" y="388.8"/>
      </g>
     </g>
     <g id="line2d_10">
      <g>
       <use style="stroke:#000000;stroke-width:0.5;" x="369.6" xlink:href="#m0ceb15cb17" y="43.2"/>
      </g>
     </g>
     <g id="text_5">
      <!-- 20 -->
      <g transform="translate(361.965 401.918125)scale(0.12 -0.12)">
       <use xlink:href="#BitstreamVeraSans-Roman-32"/>
       <use x="63.623046875" xlink:href="#BitstreamVeraSans-Roman-30"/>
      </g>
     </g>
    </g>
    <g id="xtick_6">
     <g id="line2d_11">
      <g>
       <use style="stroke:#000000;stroke-width:0.5;" x="444.0" xlink:href="#m01bf458813" y="388.8"/>
      </g>
     </g>
     <g id="line2d_12">
      <g>
       <use style="stroke:#000000;stroke-width:0.5;" x="444.0" xlink:href="#m0ceb15cb17" y="43.2"/>
      </g>
     </g>
     <g id="text_6">
      <!-- 40 -->
      <g transform="translate(436.365 401.918125)scale(0.12 -0.12)">
       <use xlink:href="#BitstreamVeraSans-Roman-34"/>
       <use x="63.623046875" xlink:href="#BitstreamVeraSans-Roman-30"/>
      </g>
     </g>
    </g>
    <g id="xtick_7">
     <g id="line2d_13">
      <g>
       <use style="stroke:#000000;stroke-width:0.5;" x="518.4" xlink:href="#m01bf458813" y="388.8"/>
      </g>
     </g>
     <g id="line2d_14">
      <g>
       <use style="stroke:#000000;stroke-width:0.5;" x="518.4" xlink:href="#m0ceb15cb17" y="43.2"/>
      </g>
     </g>
     <g id="text_7">
      <!-- 60 -->
      <g transform="translate(510.765 401.918125)scale(0.12 -0.12)">
       <use xlink:href="#BitstreamVeraSans-Roman-36"/>
       <use x="63.623046875" xlink:href="#BitstreamVeraSans-Roman-30"/>
      </g>
     </g>
    </g>
    <g id="text_8">
     <!-- Offset_July - Offset_August [tdc] -->
     <defs>
      <path d="M 39.40625 66.21875 
Q 28.65625 66.21875 22.328125 58.203125 
Q 16.015625 50.203125 16.015625 36.375 
Q 16.015625 22.609375 22.328125 14.59375 
Q 28.65625 6.59375 39.40625 6.59375 
Q 50.140625 6.59375 56.421875 14.59375 
Q 62.703125 22.609375 62.703125 36.375 
Q 62.703125 50.203125 56.421875 58.203125 
Q 50.140625 66.21875 39.40625 66.21875 
M 39.40625 74.21875 
Q 54.734375 74.21875 63.90625 63.9375 
Q 73.09375 53.65625 73.09375 36.375 
Q 73.09375 19.140625 63.90625 8.859375 
Q 54.734375 -1.421875 39.40625 -1.421875 
Q 24.03125 -1.421875 14.8125 8.828125 
Q 5.609375 19.09375 5.609375 36.375 
Q 5.609375 53.65625 14.8125 63.9375 
Q 24.03125 74.21875 39.40625 74.21875 
" id="BitstreamVeraSans-Roman-4f"/>
      <path d="M 8.59375 75.984375 
L 29.296875 75.984375 
L 29.296875 69 
L 17.578125 69 
L 17.578125 -6.203125 
L 29.296875 -6.203125 
L 29.296875 -13.1875 
L 8.59375 -13.1875 
z
" id="BitstreamVeraSans-Roman-5b"/>
      <path d="M 8.5 21.578125 
L 8.5 54.6875 
L 17.484375 54.6875 
L 17.484375 21.921875 
Q 17.484375 14.15625 20.5 10.265625 
Q 23.53125 6.390625 29.59375 6.390625 
Q 36.859375 6.390625 41.078125 11.03125 
Q 45.3125 15.671875 45.3125 23.6875 
L 45.3125 54.6875 
L 54.296875 54.6875 
L 54.296875 0 
L 45.3125 0 
L 45.3125 8.40625 
Q 42.046875 3.421875 37.71875 1 
Q 33.40625 -1.421875 27.6875 -1.421875 
Q 18.265625 -1.421875 13.375 4.4375 
Q 8.5 10.296875 8.5 21.578125 
" id="BitstreamVeraSans-Roman-75"/>
      <path d="M 30.421875 75.984375 
L 30.421875 -13.1875 
L 9.71875 -13.1875 
L 9.71875 -6.203125 
L 21.390625 -6.203125 
L 21.390625 69 
L 9.71875 69 
L 9.71875 75.984375 
z
" id="BitstreamVeraSans-Roman-5d"/>
      <path d="M 9.8125 72.90625 
L 19.671875 72.90625 
L 19.671875 5.078125 
Q 19.671875 -8.109375 14.671875 -14.0625 
Q 9.671875 -20.015625 -1.421875 -20.015625 
L -5.171875 -20.015625 
L -5.171875 -11.71875 
L -2.09375 -11.71875 
Q 4.4375 -11.71875 7.125 -8.046875 
Q 9.8125 -4.390625 9.8125 5.078125 
z
" id="BitstreamVeraSans-Roman-4a"/>
      <path d="M 50.984375 -16.609375 
L 50.984375 -23.578125 
L -0.984375 -23.578125 
L -0.984375 -16.609375 
z
" id="BitstreamVeraSans-Roman-5f"/>
      <path id="BitstreamVeraSans-Roman-20"/>
      <path d="M 48.78125 52.59375 
L 48.78125 44.1875 
Q 44.96875 46.296875 41.140625 47.34375 
Q 37.3125 48.390625 33.40625 48.390625 
Q 24.65625 48.390625 19.8125 42.84375 
Q 14.984375 37.3125 14.984375 27.296875 
Q 14.984375 17.28125 19.8125 11.734375 
Q 24.65625 6.203125 33.40625 6.203125 
Q 37.3125 6.203125 41.140625 7.25 
Q 44.96875 8.296875 48.78125 10.40625 
L 48.78125 2.09375 
Q 45.015625 0.34375 40.984375 -0.53125 
Q 36.96875 -1.421875 32.421875 -1.421875 
Q 20.0625 -1.421875 12.78125 6.34375 
Q 5.515625 14.109375 5.515625 27.296875 
Q 5.515625 40.671875 12.859375 48.328125 
Q 20.21875 56 33.015625 56 
Q 37.15625 56 41.109375 55.140625 
Q 45.0625 54.296875 48.78125 52.59375 
" id="BitstreamVeraSans-Roman-63"/>
      <path d="M 9.421875 75.984375 
L 18.40625 75.984375 
L 18.40625 0 
L 9.421875 0 
z
" id="BitstreamVeraSans-Roman-6c"/>
      <path d="M 4.890625 31.390625 
L 31.203125 31.390625 
L 31.203125 23.390625 
L 4.890625 23.390625 
z
" id="BitstreamVeraSans-Roman-2d"/>
      <path d="M 34.1875 63.1875 
L 20.796875 26.90625 
L 47.609375 26.90625 
z
M 28.609375 72.90625 
L 39.796875 72.90625 
L 67.578125 0 
L 57.328125 0 
L 50.6875 18.703125 
L 17.828125 18.703125 
L 11.1875 0 
L 0.78125 0 
z
" id="BitstreamVeraSans-Roman-41"/>
      <path d="M 32.171875 -5.078125 
Q 28.375 -14.84375 24.75 -17.8125 
Q 21.140625 -20.796875 15.09375 -20.796875 
L 7.90625 -20.796875 
L 7.90625 -13.28125 
L 13.1875 -13.28125 
Q 16.890625 -13.28125 18.9375 -11.515625 
Q 21 -9.765625 23.484375 -3.21875 
L 25.09375 0.875 
L 2.984375 54.6875 
L 12.5 54.6875 
L 29.59375 11.921875 
L 46.6875 54.6875 
L 56.203125 54.6875 
z
" id="BitstreamVeraSans-Roman-79"/>
      <path d="M 56.203125 29.59375 
L 56.203125 25.203125 
L 14.890625 25.203125 
Q 15.484375 15.921875 20.484375 11.0625 
Q 25.484375 6.203125 34.421875 6.203125 
Q 39.59375 6.203125 44.453125 7.46875 
Q 49.3125 8.734375 54.109375 11.28125 
L 54.109375 2.78125 
Q 49.265625 0.734375 44.1875 -0.34375 
Q 39.109375 -1.421875 33.890625 -1.421875 
Q 20.796875 -1.421875 13.15625 6.1875 
Q 5.515625 13.8125 5.515625 26.8125 
Q 5.515625 40.234375 12.765625 48.109375 
Q 20.015625 56 32.328125 56 
Q 43.359375 56 49.78125 48.890625 
Q 56.203125 41.796875 56.203125 29.59375 
M 47.21875 32.234375 
Q 47.125 39.59375 43.09375 43.984375 
Q 39.0625 48.390625 32.421875 48.390625 
Q 24.90625 48.390625 20.390625 44.140625 
Q 15.875 39.890625 15.1875 32.171875 
z
" id="BitstreamVeraSans-Roman-65"/>
      <path d="M 45.40625 46.390625 
L 45.40625 75.984375 
L 54.390625 75.984375 
L 54.390625 0 
L 45.40625 0 
L 45.40625 8.203125 
Q 42.578125 3.328125 38.25 0.953125 
Q 33.9375 -1.421875 27.875 -1.421875 
Q 17.96875 -1.421875 11.734375 6.484375 
Q 5.515625 14.40625 5.515625 27.296875 
Q 5.515625 40.1875 11.734375 48.09375 
Q 17.96875 56 27.875 56 
Q 33.9375 56 38.25 53.625 
Q 42.578125 51.265625 45.40625 46.390625 
M 14.796875 27.296875 
Q 14.796875 17.390625 18.875 11.75 
Q 22.953125 6.109375 30.078125 6.109375 
Q 37.203125 6.109375 41.296875 11.75 
Q 45.40625 17.390625 45.40625 27.296875 
Q 45.40625 37.203125 41.296875 42.84375 
Q 37.203125 48.484375 30.078125 48.484375 
Q 22.953125 48.484375 18.875 42.84375 
Q 14.796875 37.203125 14.796875 27.296875 
" id="BitstreamVeraSans-Roman-64"/>
      <path d="M 18.3125 70.21875 
L 18.3125 54.6875 
L 36.8125 54.6875 
L 36.8125 47.703125 
L 18.3125 47.703125 
L 18.3125 18.015625 
Q 18.3125 11.328125 20.140625 9.421875 
Q 21.96875 7.515625 27.59375 7.515625 
L 36.8125 7.515625 
L 36.8125 0 
L 27.59375 0 
Q 17.1875 0 13.234375 3.875 
Q 9.28125 7.765625 9.28125 18.015625 
L 9.28125 47.703125 
L 2.6875 47.703125 
L 2.6875 54.6875 
L 9.28125 54.6875 
L 9.28125 70.21875 
z
" id="BitstreamVeraSans-Roman-74"/>
      <path d="M 37.109375 75.984375 
L 37.109375 68.5 
L 28.515625 68.5 
Q 23.6875 68.5 21.796875 66.546875 
Q 19.921875 64.59375 19.921875 59.515625 
L 19.921875 54.6875 
L 34.71875 54.6875 
L 34.71875 47.703125 
L 19.921875 47.703125 
L 19.921875 0 
L 10.890625 0 
L 10.890625 47.703125 
L 2.296875 47.703125 
L 2.296875 54.6875 
L 10.890625 54.6875 
L 10.890625 58.5 
Q 10.890625 67.625 15.140625 71.796875 
Q 19.390625 75.984375 28.609375 75.984375 
z
" id="BitstreamVeraSans-Roman-66"/>
      <path d="M 44.28125 53.078125 
L 44.28125 44.578125 
Q 40.484375 46.53125 36.375 47.5 
Q 32.28125 48.484375 27.875 48.484375 
Q 21.1875 48.484375 17.84375 46.4375 
Q 14.5 44.390625 14.5 40.28125 
Q 14.5 37.15625 16.890625 35.375 
Q 19.28125 33.59375 26.515625 31.984375 
L 29.59375 31.296875 
Q 39.15625 29.25 43.1875 25.515625 
Q 47.21875 21.78125 47.21875 15.09375 
Q 47.21875 7.46875 41.1875 3.015625 
Q 35.15625 -1.421875 24.609375 -1.421875 
Q 20.21875 -1.421875 15.453125 -0.5625 
Q 10.6875 0.296875 5.421875 2 
L 5.421875 11.28125 
Q 10.40625 8.6875 15.234375 7.390625 
Q 20.0625 6.109375 24.8125 6.109375 
Q 31.15625 6.109375 34.5625 8.28125 
Q 37.984375 10.453125 37.984375 14.40625 
Q 37.984375 18.0625 35.515625 20.015625 
Q 33.0625 21.96875 24.703125 23.78125 
L 21.578125 24.515625 
Q 13.234375 26.265625 9.515625 29.90625 
Q 5.8125 33.546875 5.8125 39.890625 
Q 5.8125 47.609375 11.28125 51.796875 
Q 16.75 56 26.8125 56 
Q 31.78125 56 36.171875 55.265625 
Q 40.578125 54.546875 44.28125 53.078125 
" id="BitstreamVeraSans-Roman-73"/>
      <path d="M 45.40625 27.984375 
Q 45.40625 37.75 41.375 43.109375 
Q 37.359375 48.484375 30.078125 48.484375 
Q 22.859375 48.484375 18.828125 43.109375 
Q 14.796875 37.75 14.796875 27.984375 
Q 14.796875 18.265625 18.828125 12.890625 
Q 22.859375 7.515625 30.078125 7.515625 
Q 37.359375 7.515625 41.375 12.890625 
Q 45.40625 18.265625 45.40625 27.984375 
M 54.390625 6.78125 
Q 54.390625 -7.171875 48.1875 -13.984375 
Q 42 -20.796875 29.203125 -20.796875 
Q 24.46875 -20.796875 20.265625 -20.09375 
Q 16.0625 -19.390625 12.109375 -17.921875 
L 12.109375 -9.1875 
Q 16.0625 -11.328125 19.921875 -12.34375 
Q 23.78125 -13.375 27.78125 -13.375 
Q 36.625 -13.375 41.015625 -8.765625 
Q 45.40625 -4.15625 45.40625 5.171875 
L 45.40625 9.625 
Q 42.625 4.78125 38.28125 2.390625 
Q 33.9375 0 27.875 0 
Q 17.828125 0 11.671875 7.65625 
Q 5.515625 15.328125 5.515625 27.984375 
Q 5.515625 40.671875 11.671875 48.328125 
Q 17.828125 56 27.875 56 
Q 33.9375 56 38.28125 53.609375 
Q 42.625 51.21875 45.40625 46.390625 
L 45.40625 54.6875 
L 54.390625 54.6875 
z
" id="BitstreamVeraSans-Roman-67"/>
     </defs>
     <g transform="translate(199.15125 418.531875)scale(0.12 -0.12)">
      <use xlink:href="#BitstreamVeraSans-Roman-4f"/>
      <use x="78.7109375" xlink:href="#BitstreamVeraSans-Roman-66"/>
      <use x="113.916015625" xlink:href="#BitstreamVeraSans-Roman-66"/>
      <use x="149.12109375" xlink:href="#BitstreamVeraSans-Roman-73"/>
      <use x="201.220703125" xlink:href="#BitstreamVeraSans-Roman-65"/>
      <use x="262.744140625" xlink:href="#BitstreamVeraSans-Roman-74"/>
      <use x="301.953125" xlink:href="#BitstreamVeraSans-Roman-5f"/>
      <use x="351.953125" xlink:href="#BitstreamVeraSans-Roman-4a"/>
      <use x="381.4453125" xlink:href="#BitstreamVeraSans-Roman-75"/>
      <use x="444.82421875" xlink:href="#BitstreamVeraSans-Roman-6c"/>
      <use x="472.607421875" xlink:href="#BitstreamVeraSans-Roman-79"/>
      <use x="531.787109375" xlink:href="#BitstreamVeraSans-Roman-20"/>
      <use x="563.57421875" xlink:href="#BitstreamVeraSans-Roman-2d"/>
      <use x="599.658203125" xlink:href="#BitstreamVeraSans-Roman-20"/>
      <use x="631.4453125" xlink:href="#BitstreamVeraSans-Roman-4f"/>
      <use x="710.15625" xlink:href="#BitstreamVeraSans-Roman-66"/>
      <use x="745.361328125" xlink:href="#BitstreamVeraSans-Roman-66"/>
      <use x="780.56640625" xlink:href="#BitstreamVeraSans-Roman-73"/>
      <use x="832.666015625" xlink:href="#BitstreamVeraSans-Roman-65"/>
      <use x="894.189453125" xlink:href="#BitstreamVeraSans-Roman-74"/>
      <use x="933.3984375" xlink:href="#BitstreamVeraSans-Roman-5f"/>
      <use x="983.3984375" xlink:href="#BitstreamVeraSans-Roman-41"/>
      <use x="1051.80664062" xlink:href="#BitstreamVeraSans-Roman-75"/>
      <use x="1115.18554688" xlink:href="#BitstreamVeraSans-Roman-67"/>
      <use x="1178.66210938" xlink:href="#BitstreamVeraSans-Roman-75"/>
      <use x="1242.04101562" xlink:href="#BitstreamVeraSans-Roman-73"/>
      <use x="1294.140625" xlink:href="#BitstreamVeraSans-Roman-74"/>
      <use x="1333.34960938" xlink:href="#BitstreamVeraSans-Roman-20"/>
      <use x="1365.13671875" xlink:href="#BitstreamVeraSans-Roman-5b"/>
      <use x="1404.15039062" xlink:href="#BitstreamVeraSans-Roman-74"/>
      <use x="1443.359375" xlink:href="#BitstreamVeraSans-Roman-64"/>
      <use x="1506.8359375" xlink:href="#BitstreamVeraSans-Roman-63"/>
      <use x="1561.81640625" xlink:href="#BitstreamVeraSans-Roman-5d"/>
     </g>
    </g>
   </g>
   <g id="matplotlib.axis_2">
    <g id="ytick_1">
     <g id="line2d_15">
      <defs>
       <path d="M 0 0 
L 4 0 
" id="maf3c188549" style="stroke:#000000;stroke-width:0.5;"/>
      </defs>
      <g>
       <use style="stroke:#000000;stroke-width:0.5;" x="72.0" xlink:href="#maf3c188549" y="388.8"/>
      </g>
     </g>
     <g id="line2d_16">
      <defs>
       <path d="M 0 0 
L -4 0 
" id="m98029a4185" style="stroke:#000000;stroke-width:0.5;"/>
      </defs>
      <g>
       <use style="stroke:#000000;stroke-width:0.5;" x="518.4" xlink:href="#m98029a4185" y="388.8"/>
      </g>
     </g>
     <g id="text_9">
      <!-- 0 -->
      <g transform="translate(60.365 392.11125)scale(0.12 -0.12)">
       <use xlink:href="#BitstreamVeraSans-Roman-30"/>
      </g>
     </g>
    </g>
    <g id="ytick_2">
     <g id="line2d_17">
      <g>
       <use style="stroke:#000000;stroke-width:0.5;" x="72.0" xlink:href="#maf3c188549" y="331.2"/>
      </g>
     </g>
     <g id="line2d_18">
      <g>
       <use style="stroke:#000000;stroke-width:0.5;" x="518.4" xlink:href="#m98029a4185" y="331.2"/>
      </g>
     </g>
     <g id="text_10">
      <!-- 100 -->
      <defs>
       <path d="M 12.40625 8.296875 
L 28.515625 8.296875 
L 28.515625 63.921875 
L 10.984375 60.40625 
L 10.984375 69.390625 
L 28.421875 72.90625 
L 38.28125 72.90625 
L 38.28125 8.296875 
L 54.390625 8.296875 
L 54.390625 0 
L 12.40625 0 
z
" id="BitstreamVeraSans-Roman-31"/>
      </defs>
      <g transform="translate(45.095 334.51125)scale(0.12 -0.12)">
       <use xlink:href="#BitstreamVeraSans-Roman-31"/>
       <use x="63.623046875" xlink:href="#BitstreamVeraSans-Roman-30"/>
       <use x="127.24609375" xlink:href="#BitstreamVeraSans-Roman-30"/>
      </g>
     </g>
    </g>
    <g id="ytick_3">
     <g id="line2d_19">
      <g>
       <use style="stroke:#000000;stroke-width:0.5;" x="72.0" xlink:href="#maf3c188549" y="273.6"/>
      </g>
     </g>
     <g id="line2d_20">
      <g>
       <use style="stroke:#000000;stroke-width:0.5;" x="518.4" xlink:href="#m98029a4185" y="273.6"/>
      </g>
     </g>
     <g id="text_11">
      <!-- 200 -->
      <g transform="translate(45.095 276.91125)scale(0.12 -0.12)">
       <use xlink:href="#BitstreamVeraSans-Roman-32"/>
       <use x="63.623046875" xlink:href="#BitstreamVeraSans-Roman-30"/>
       <use x="127.24609375" xlink:href="#BitstreamVeraSans-Roman-30"/>
      </g>
     </g>
    </g>
    <g id="ytick_4">
     <g id="line2d_21">
      <g>
       <use style="stroke:#000000;stroke-width:0.5;" x="72.0" xlink:href="#maf3c188549" y="216.0"/>
      </g>
     </g>
     <g id="line2d_22">
      <g>
       <use style="stroke:#000000;stroke-width:0.5;" x="518.4" xlink:href="#m98029a4185" y="216.0"/>
      </g>
     </g>
     <g id="text_12">
      <!-- 300 -->
      <defs>
       <path d="M 40.578125 39.3125 
Q 47.65625 37.796875 51.625 33 
Q 55.609375 28.21875 55.609375 21.1875 
Q 55.609375 10.40625 48.1875 4.484375 
Q 40.765625 -1.421875 27.09375 -1.421875 
Q 22.515625 -1.421875 17.65625 -0.515625 
Q 12.796875 0.390625 7.625 2.203125 
L 7.625 11.71875 
Q 11.71875 9.328125 16.59375 8.109375 
Q 21.484375 6.890625 26.8125 6.890625 
Q 36.078125 6.890625 40.9375 10.546875 
Q 45.796875 14.203125 45.796875 21.1875 
Q 45.796875 27.640625 41.28125 31.265625 
Q 36.765625 34.90625 28.71875 34.90625 
L 20.21875 34.90625 
L 20.21875 43.015625 
L 29.109375 43.015625 
Q 36.375 43.015625 40.234375 45.921875 
Q 44.09375 48.828125 44.09375 54.296875 
Q 44.09375 59.90625 40.109375 62.90625 
Q 36.140625 65.921875 28.71875 65.921875 
Q 24.65625 65.921875 20.015625 65.03125 
Q 15.375 64.15625 9.8125 62.3125 
L 9.8125 71.09375 
Q 15.4375 72.65625 20.34375 73.4375 
Q 25.25 74.21875 29.59375 74.21875 
Q 40.828125 74.21875 47.359375 69.109375 
Q 53.90625 64.015625 53.90625 55.328125 
Q 53.90625 49.265625 50.4375 45.09375 
Q 46.96875 40.921875 40.578125 39.3125 
" id="BitstreamVeraSans-Roman-33"/>
      </defs>
      <g transform="translate(45.095 219.31125)scale(0.12 -0.12)">
       <use xlink:href="#BitstreamVeraSans-Roman-33"/>
       <use x="63.623046875" xlink:href="#BitstreamVeraSans-Roman-30"/>
       <use x="127.24609375" xlink:href="#BitstreamVeraSans-Roman-30"/>
      </g>
     </g>
    </g>
    <g id="ytick_5">
     <g id="line2d_23">
      <g>
       <use style="stroke:#000000;stroke-width:0.5;" x="72.0" xlink:href="#maf3c188549" y="158.4"/>
      </g>
     </g>
     <g id="line2d_24">
      <g>
       <use style="stroke:#000000;stroke-width:0.5;" x="518.4" xlink:href="#m98029a4185" y="158.4"/>
      </g>
     </g>
     <g id="text_13">
      <!-- 400 -->
      <g transform="translate(45.095 161.71125)scale(0.12 -0.12)">
       <use xlink:href="#BitstreamVeraSans-Roman-34"/>
       <use x="63.623046875" xlink:href="#BitstreamVeraSans-Roman-30"/>
       <use x="127.24609375" xlink:href="#BitstreamVeraSans-Roman-30"/>
      </g>
     </g>
    </g>
    <g id="ytick_6">
     <g id="line2d_25">
      <g>
       <use style="stroke:#000000;stroke-width:0.5;" x="72.0" xlink:href="#maf3c188549" y="100.8"/>
      </g>
     </g>
     <g id="line2d_26">
      <g>
       <use style="stroke:#000000;stroke-width:0.5;" x="518.4" xlink:href="#m98029a4185" y="100.8"/>
      </g>
     </g>
     <g id="text_14">
      <!-- 500 -->
      <defs>
       <path d="M 10.796875 72.90625 
L 49.515625 72.90625 
L 49.515625 64.59375 
L 19.828125 64.59375 
L 19.828125 46.734375 
Q 21.96875 47.46875 24.109375 47.828125 
Q 26.265625 48.1875 28.421875 48.1875 
Q 40.625 48.1875 47.75 41.5 
Q 54.890625 34.8125 54.890625 23.390625 
Q 54.890625 11.625 47.5625 5.09375 
Q 40.234375 -1.421875 26.90625 -1.421875 
Q 22.3125 -1.421875 17.546875 -0.640625 
Q 12.796875 0.140625 7.71875 1.703125 
L 7.71875 11.625 
Q 12.109375 9.234375 16.796875 8.0625 
Q 21.484375 6.890625 26.703125 6.890625 
Q 35.15625 6.890625 40.078125 11.328125 
Q 45.015625 15.765625 45.015625 23.390625 
Q 45.015625 31 40.078125 35.4375 
Q 35.15625 39.890625 26.703125 39.890625 
Q 22.75 39.890625 18.8125 39.015625 
Q 14.890625 38.140625 10.796875 36.28125 
z
" id="BitstreamVeraSans-Roman-35"/>
      </defs>
      <g transform="translate(45.095 104.11125)scale(0.12 -0.12)">
       <use xlink:href="#BitstreamVeraSans-Roman-35"/>
       <use x="63.623046875" xlink:href="#BitstreamVeraSans-Roman-30"/>
       <use x="127.24609375" xlink:href="#BitstreamVeraSans-Roman-30"/>
      </g>
     </g>
    </g>
    <g id="ytick_7">
     <g id="line2d_27">
      <g>
       <use style="stroke:#000000;stroke-width:0.5;" x="72.0" xlink:href="#maf3c188549" y="43.2"/>
      </g>
     </g>
     <g id="line2d_28">
      <g>
       <use style="stroke:#000000;stroke-width:0.5;" x="518.4" xlink:href="#m98029a4185" y="43.2"/>
      </g>
     </g>
     <g id="text_15">
      <!-- 600 -->
      <g transform="translate(45.095 46.51125)scale(0.12 -0.12)">
       <use xlink:href="#BitstreamVeraSans-Roman-36"/>
       <use x="63.623046875" xlink:href="#BitstreamVeraSans-Roman-30"/>
       <use x="127.24609375" xlink:href="#BitstreamVeraSans-Roman-30"/>
      </g>
     </g>
    </g>
   </g>
   <g id="text_16">
    <!-- Comparison of Offset Values July/August -->
    <defs>
     <path d="M 54.890625 33.015625 
L 54.890625 0 
L 45.90625 0 
L 45.90625 32.71875 
Q 45.90625 40.484375 42.875 44.328125 
Q 39.84375 48.1875 33.796875 48.1875 
Q 26.515625 48.1875 22.3125 43.546875 
Q 18.109375 38.921875 18.109375 30.90625 
L 18.109375 0 
L 9.078125 0 
L 9.078125 54.6875 
L 18.109375 54.6875 
L 18.109375 46.1875 
Q 21.34375 51.125 25.703125 53.5625 
Q 30.078125 56 35.796875 56 
Q 45.21875 56 50.046875 50.171875 
Q 54.890625 44.34375 54.890625 33.015625 
" id="BitstreamVeraSans-Roman-6e"/>
     <path d="M 52 44.1875 
Q 55.375 50.25 60.0625 53.125 
Q 64.75 56 71.09375 56 
Q 79.640625 56 84.28125 50.015625 
Q 88.921875 44.046875 88.921875 33.015625 
L 88.921875 0 
L 79.890625 0 
L 79.890625 32.71875 
Q 79.890625 40.578125 77.09375 44.375 
Q 74.3125 48.1875 68.609375 48.1875 
Q 61.625 48.1875 57.5625 43.546875 
Q 53.515625 38.921875 53.515625 30.90625 
L 53.515625 0 
L 44.484375 0 
L 44.484375 32.71875 
Q 44.484375 40.625 41.703125 44.40625 
Q 38.921875 48.1875 33.109375 48.1875 
Q 26.21875 48.1875 22.15625 43.53125 
Q 18.109375 38.875 18.109375 30.90625 
L 18.109375 0 
L 9.078125 0 
L 9.078125 54.6875 
L 18.109375 54.6875 
L 18.109375 46.1875 
Q 21.1875 51.21875 25.484375 53.609375 
Q 29.78125 56 35.6875 56 
Q 41.65625 56 45.828125 52.96875 
Q 50 49.953125 52 44.1875 
" id="BitstreamVeraSans-Roman-6d"/>
     <path d="M 30.609375 48.390625 
Q 23.390625 48.390625 19.1875 42.75 
Q 14.984375 37.109375 14.984375 27.296875 
Q 14.984375 17.484375 19.15625 11.84375 
Q 23.34375 6.203125 30.609375 6.203125 
Q 37.796875 6.203125 41.984375 11.859375 
Q 46.1875 17.53125 46.1875 27.296875 
Q 46.1875 37.015625 41.984375 42.703125 
Q 37.796875 48.390625 30.609375 48.390625 
M 30.609375 56 
Q 42.328125 56 49.015625 48.375 
Q 55.71875 40.765625 55.71875 27.296875 
Q 55.71875 13.875 49.015625 6.21875 
Q 42.328125 -1.421875 30.609375 -1.421875 
Q 18.84375 -1.421875 12.171875 6.21875 
Q 5.515625 13.875 5.515625 27.296875 
Q 5.515625 40.765625 12.171875 48.375 
Q 18.84375 56 30.609375 56 
" id="BitstreamVeraSans-Roman-6f"/>
     <path d="M 64.40625 67.28125 
L 64.40625 56.890625 
Q 59.421875 61.53125 53.78125 63.8125 
Q 48.140625 66.109375 41.796875 66.109375 
Q 29.296875 66.109375 22.65625 58.46875 
Q 16.015625 50.828125 16.015625 36.375 
Q 16.015625 21.96875 22.65625 14.328125 
Q 29.296875 6.6875 41.796875 6.6875 
Q 48.140625 6.6875 53.78125 8.984375 
Q 59.421875 11.28125 64.40625 15.921875 
L 64.40625 5.609375 
Q 59.234375 2.09375 53.4375 0.328125 
Q 47.65625 -1.421875 41.21875 -1.421875 
Q 24.65625 -1.421875 15.125 8.703125 
Q 5.609375 18.84375 5.609375 36.375 
Q 5.609375 53.953125 15.125 64.078125 
Q 24.65625 74.21875 41.21875 74.21875 
Q 47.75 74.21875 53.53125 72.484375 
Q 59.328125 70.75 64.40625 67.28125 
" id="BitstreamVeraSans-Roman-43"/>
     <path d="M 28.609375 0 
L 0.78125 72.90625 
L 11.078125 72.90625 
L 34.1875 11.53125 
L 57.328125 72.90625 
L 67.578125 72.90625 
L 39.796875 0 
z
" id="BitstreamVeraSans-Roman-56"/>
     <path d="M 25.390625 72.90625 
L 33.6875 72.90625 
L 8.296875 -9.28125 
L 0 -9.28125 
z
" id="BitstreamVeraSans-Roman-2f"/>
     <path d="M 9.421875 54.6875 
L 18.40625 54.6875 
L 18.40625 0 
L 9.421875 0 
z
M 9.421875 75.984375 
L 18.40625 75.984375 
L 18.40625 64.59375 
L 9.421875 64.59375 
z
" id="BitstreamVeraSans-Roman-69"/>
     <path d="M 34.28125 27.484375 
Q 23.390625 27.484375 19.1875 25 
Q 14.984375 22.515625 14.984375 16.5 
Q 14.984375 11.71875 18.140625 8.90625 
Q 21.296875 6.109375 26.703125 6.109375 
Q 34.1875 6.109375 38.703125 11.40625 
Q 43.21875 16.703125 43.21875 25.484375 
L 43.21875 27.484375 
z
M 52.203125 31.203125 
L 52.203125 0 
L 43.21875 0 
L 43.21875 8.296875 
Q 40.140625 3.328125 35.546875 0.953125 
Q 30.953125 -1.421875 24.3125 -1.421875 
Q 15.921875 -1.421875 10.953125 3.296875 
Q 6 8.015625 6 15.921875 
Q 6 25.140625 12.171875 29.828125 
Q 18.359375 34.515625 30.609375 34.515625 
L 43.21875 34.515625 
L 43.21875 35.40625 
Q 43.21875 41.609375 39.140625 45 
Q 35.0625 48.390625 27.6875 48.390625 
Q 23 48.390625 18.546875 47.265625 
Q 14.109375 46.140625 10.015625 43.890625 
L 10.015625 52.203125 
Q 14.9375 54.109375 19.578125 55.046875 
Q 24.21875 56 28.609375 56 
Q 40.484375 56 46.34375 49.84375 
Q 52.203125 43.703125 52.203125 31.203125 
" id="BitstreamVeraSans-Roman-61"/>
     <path d="M 41.109375 46.296875 
Q 39.59375 47.171875 37.8125 47.578125 
Q 36.03125 48 33.890625 48 
Q 26.265625 48 22.1875 43.046875 
Q 18.109375 38.09375 18.109375 28.8125 
L 18.109375 0 
L 9.078125 0 
L 9.078125 54.6875 
L 18.109375 54.6875 
L 18.109375 46.1875 
Q 20.953125 51.171875 25.484375 53.578125 
Q 30.03125 56 36.53125 56 
Q 37.453125 56 38.578125 55.875 
Q 39.703125 55.765625 41.0625 55.515625 
z
" id="BitstreamVeraSans-Roman-72"/>
     <path d="M 18.109375 8.203125 
L 18.109375 -20.796875 
L 9.078125 -20.796875 
L 9.078125 54.6875 
L 18.109375 54.6875 
L 18.109375 46.390625 
Q 20.953125 51.265625 25.265625 53.625 
Q 29.59375 56 35.59375 56 
Q 45.5625 56 51.78125 48.09375 
Q 58.015625 40.1875 58.015625 27.296875 
Q 58.015625 14.40625 51.78125 6.484375 
Q 45.5625 -1.421875 35.59375 -1.421875 
Q 29.59375 -1.421875 25.265625 0.953125 
Q 20.953125 3.328125 18.109375 8.203125 
M 48.6875 27.296875 
Q 48.6875 37.203125 44.609375 42.84375 
Q 40.53125 48.484375 33.40625 48.484375 
Q 26.265625 48.484375 22.1875 42.84375 
Q 18.109375 37.203125 18.109375 27.296875 
Q 18.109375 17.390625 22.1875 11.75 
Q 26.265625 6.109375 33.40625 6.109375 
Q 40.53125 6.109375 44.609375 11.75 
Q 48.6875 17.390625 48.6875 27.296875 
" id="BitstreamVeraSans-Roman-70"/>
    </defs>
    <g transform="translate(149.61375 38.2)scale(0.144 -0.144)">
     <use xlink:href="#BitstreamVeraSans-Roman-43"/>
     <use x="69.82421875" xlink:href="#BitstreamVeraSans-Roman-6f"/>
     <use x="131.005859375" xlink:href="#BitstreamVeraSans-Roman-6d"/>
     <use x="228.41796875" xlink:href="#BitstreamVeraSans-Roman-70"/>
     <use x="291.89453125" xlink:href="#BitstreamVeraSans-Roman-61"/>
     <use x="353.173828125" xlink:href="#BitstreamVeraSans-Roman-72"/>
     <use x="394.287109375" xlink:href="#BitstreamVeraSans-Roman-69"/>
     <use x="422.0703125" xlink:href="#BitstreamVeraSans-Roman-73"/>
     <use x="474.169921875" xlink:href="#BitstreamVeraSans-Roman-6f"/>
     <use x="535.3515625" xlink:href="#BitstreamVeraSans-Roman-6e"/>
     <use x="598.73046875" xlink:href="#BitstreamVeraSans-Roman-20"/>
     <use x="630.517578125" xlink:href="#BitstreamVeraSans-Roman-6f"/>
     <use x="691.69921875" xlink:href="#BitstreamVeraSans-Roman-66"/>
     <use x="726.904296875" xlink:href="#BitstreamVeraSans-Roman-20"/>
     <use x="758.69140625" xlink:href="#BitstreamVeraSans-Roman-4f"/>
     <use x="837.40234375" xlink:href="#BitstreamVeraSans-Roman-66"/>
     <use x="872.607421875" xlink:href="#BitstreamVeraSans-Roman-66"/>
     <use x="907.8125" xlink:href="#BitstreamVeraSans-Roman-73"/>
     <use x="959.912109375" xlink:href="#BitstreamVeraSans-Roman-65"/>
     <use x="1021.43554688" xlink:href="#BitstreamVeraSans-Roman-74"/>
     <use x="1060.64453125" xlink:href="#BitstreamVeraSans-Roman-20"/>
     <use x="1092.43164062" xlink:href="#BitstreamVeraSans-Roman-56"/>
     <use x="1160.73046875" xlink:href="#BitstreamVeraSans-Roman-61"/>
     <use x="1222.00976562" xlink:href="#BitstreamVeraSans-Roman-6c"/>
     <use x="1249.79296875" xlink:href="#BitstreamVeraSans-Roman-75"/>
     <use x="1313.171875" xlink:href="#BitstreamVeraSans-Roman-65"/>
     <use x="1374.6953125" xlink:href="#BitstreamVeraSans-Roman-73"/>
     <use x="1426.79492188" xlink:href="#BitstreamVeraSans-Roman-20"/>
     <use x="1458.58203125" xlink:href="#BitstreamVeraSans-Roman-4a"/>
     <use x="1488.07421875" xlink:href="#BitstreamVeraSans-Roman-75"/>
     <use x="1551.453125" xlink:href="#BitstreamVeraSans-Roman-6c"/>
     <use x="1579.23632812" xlink:href="#BitstreamVeraSans-Roman-79"/>
     <use x="1638.41601562" xlink:href="#BitstreamVeraSans-Roman-2f"/>
     <use x="1672.10742188" xlink:href="#BitstreamVeraSans-Roman-41"/>
     <use x="1740.515625" xlink:href="#BitstreamVeraSans-Roman-75"/>
     <use x="1803.89453125" xlink:href="#BitstreamVeraSans-Roman-67"/>
     <use x="1867.37109375" xlink:href="#BitstreamVeraSans-Roman-75"/>
     <use x="1930.75" xlink:href="#BitstreamVeraSans-Roman-73"/>
     <use x="1982.84960938" xlink:href="#BitstreamVeraSans-Roman-74"/>
    </g>
   </g>
  </g>
 </g>
 <defs>
  <clipPath id="p627cfbbb59">
   <rect height="345.6" width="446.4" x="72.0" y="43.2"/>
  </clipPath>
 </defs>
</svg>
