<?xml version="1.0" standalone="no"?>
<svg width="567.429" height="384.969" viewBox="0 0 567.429 384.969" xmlns="http://www.w3.org/2000/svg">
<title>
../plots/17_06_05/pions_compare_mc_17steel_noSteel_cogZ.svg
</title>
<desc>
Creator: ROOT Version 5.34/30
CreationDate: Mon Jun  5 19:34:05 2017</desc>
<defs>
</defs>
<rect x="0.5" y="0" width="566.929" height="384.469" fill="white"/>
<rect x="57.1929" y="38.4469" width="453.543" height="307.575" fill="white"/>
<rect x="57.1929" y="38.4469" width="453.543" height="307.575" fill="none" stroke="black"/>
<rect x="57.1929" y="38.4469" width="453.543" height="307.575" fill="white"/>
<rect x="57.1929" y="38.4469" width="453.543" height="307.575" fill="none" stroke="black"/>
<path d="M57.1929,346.022h 47.622v -5.7437h 0.453543v 5.7437h 2.72126v -11.4874h 0.453543v 5.7437h 0.453543v -5.7437h 0.453543v 5.7437h 0.453543v -5.7437h 0.453543v -11.4874h 0.453543v -11.4874h 0.453543v 5.7437h 0.453543v -51.6933h 0.453543v
 34.4622h 0.453543v 22.9748h 0.453543v -34.4622h 0.453543v -22.9748h 0.453543v 5.7437h 0.453543v 22.9748h 0.453543v -11.4874h 0.453543v -22.9748h 0.453543v -5.7437h 0.453543v -17.2311h 0.453543v 17.2311h 0.453543v -11.4874h 0.453543v 28.7185h
 0.453543v -11.4874h 0.453543v -28.7185h 0.453543v -17.2311h 0.453543v 11.4874h 0.453543v -34.4622h 0.453543v -11.4874h 0.453543v -22.9748h 0.453543v 11.4874h 0.453543v 5.7437h 0.453543v -51.6933h 0.453543v 11.4874h 0.453543v 57.437h 0.453543v
 -5.7437h 0.453543v 22.9748h 0.453543v -80.4118h 0.453543v -28.7185h 0.907087v 11.4874h 0.453543v -34.4622h 0.453543v -17.2311h 0.453543v 40.2059h 0.453543v 45.9496h 0.453543v -45.9496h 0.453543v 5.7437h 0.453543v 11.4874h 0.453543v -63.1807h
 0.453543v 17.2311h 0.453543v 57.437h 0.453543v -40.2059h 0.453543v 11.4874h 0.453543v 28.7185h 0.453543v -17.2311h 0.453543v -22.9748h 0.453543v -17.2311h 0.453543v 40.2059h 0.453543v 28.7185h 0.453543v -11.4874h 0.907087v -28.7185h 0.453543v
 -45.9496h 0.453543v 51.6933h 0.453543v 40.2059h 0.453543v 22.9748h 0.453543v -63.1807h 0.453543v 80.4118h 0.453543v -86.1556h 0.453543v -5.7437h 0.453543v 45.9496h 0.453543v -22.9748h 0.907087v 17.2311h 0.453543v 11.4874h 0.453543v -5.7437h
 0.453543v -34.4622h 0.453543v 22.9748h 0.453543v 22.9748h 0.453543v -51.6933h 0.453543v -34.4622h 0.453543v 22.9748h 0.453543v 51.6933h 0.453543v -17.2311h 0.453543v -34.4622h 0.453543v 34.4622h 0.453543v 57.437h 0.453543v -74.6682h 0.453543v
 57.437h 0.453543v 11.4874h 0.453543v -86.1556h 0.453543v 97.643h 0.453543v -80.4118h 0.453543v 74.6682h 0.453543v 5.7437h 0.453543v 17.2311h 0.453543v -34.4622h 0.453543v 11.4874h 0.453543v -17.2311h 0.907087v -22.9748h 0.453543v 11.4874h 0.453543v
 5.7437h 0.453543v 17.2311h 0.453543v -80.4118h 0.453543v 80.4118h 0.453543v -22.9748h 0.453543v -63.1807h 0.453543v 22.9748h 0.453543v -17.2311h 0.453543v 28.7185h 0.453543v 11.4874h 0.453543v 45.9496h 0.453543v -51.6933h 0.453543v 5.7437h 0.453543v
 22.9748h 0.453543v 22.9748h 0.453543v -34.4622h 0.453543v 63.1807h 0.453543v -68.9244h 0.453543v 34.4622h 0.453543v 28.7185h 0.453543v -11.4874h 0.453543v -80.4118h 0.453543v 57.437h 0.453543v 68.9244h 0.453543v -74.6682h 0.453543v 51.6933h
 0.453543v -91.8993h 0.453543v 91.8993h 0.453543v -68.9244h 0.453543v 28.7185h 0.453543v -5.7437h 0.453543v -34.4622h 0.453543v 34.4622h 0.453543v 34.4622h 0.453543v -17.2311h 0.453543v 28.7185h 0.453543v -80.4118h 0.453543v -17.2311h 0.453543v
 86.1556h 0.453543v 34.4622h 0.453543v -97.643h 0.453543v 28.7185h 0.453543v 11.4874h 0.453543v 17.2311h 0.453543v -40.2059h 0.453543v -28.7185h 0.453543v 114.874h 0.453543v -28.7185h 0.453543v 17.2311h 0.453543v -22.9748h 0.453543v 28.7185h
 0.453543v -57.437h 0.453543v 22.9748h 0.453543v -45.9496h 0.453543v 74.6682h 0.453543v -68.9244h 0.453543v 40.2059h 0.453543v -22.9748h 0.453543v 57.437h 0.453543v -28.7185h 0.453543v -5.7437h 0.907087v 11.4874h 0.907087v 34.4622h 0.453543v
 -28.7185h 0.453543v 11.4874h 0.453543v -40.2059h 0.453543v 45.9496h 0.453543v -34.4622h 0.453543v 11.4874h 0.453543v 40.2059h 0.453543v -28.7185h 0.453543v 17.2311h 0.453543v -45.9496h 0.453543v 34.4622h 0.453543v 17.2311h 0.453543v -17.2311h
 0.453543v -11.4874h 0.453543v 5.7437h 0.453543v 63.1807h 0.453543v -51.6933h 0.907087v 40.2059h 0.453543v -74.6682h 0.453543v 28.7185h 0.453543v 63.1807h 0.453543v -22.9748h 0.453543v -11.4874h 0.453543v -11.4874h 0.453543v 34.4622h 0.453543v
 -40.2059h 0.453543v 34.4622h 0.453543v -5.7437h 0.907087v 17.2311h 0.453543v -34.4622h 0.453543v 5.7437h 0.453543v -11.4874h 0.453543v 11.4874h 0.453543v 11.4874h 0.453543v -22.9748h 0.453543v 57.437h 0.453543v -63.1807h 0.453543v 51.6933h 0.453543v
 -17.2311h 0.453543v -5.7437h 0.453543v -22.9748h 0.453543v 22.9748h 0.453543v 17.2311h 0.453543v -11.4874h 0.453543v -17.2311h 0.453543v 17.2311h 0.453543v 5.7437h 0.453543v 28.7185h 0.453543v -34.4622h 0.453543v -17.2311h 0.453543v 28.7185h
 0.453543v 5.7437h 0.453543v -28.7185h 0.453543v 34.4622h 0.907087v -11.4874h 0.453543v 22.9748h 0.453543v -5.7437h 0.453543v -22.9748h 0.453543v 11.4874h 0.453543v -5.7437h 0.453543v -22.9748h 0.453543v 22.9748h 0.453543v 17.2311h 0.453543v -5.7437h
 0.453543v -17.2311h 0.453543v -5.7437h 0.453543v 40.2059h 0.453543v -22.9748h 0.907087v -5.7437h 0.453543v 11.4874h 0.907087v 5.7437h 0.907087v -28.7185h 0.453543v 17.2311h 0.453543v 5.7437h 0.453543v 11.4874h 0.453543v -11.4874h 0.453543v 11.4874h
 0.453543v -17.2311h 0.453543v -11.4874h 0.453543v -11.4874h 0.453543v -11.4874h 0.453543v 40.2059h 0.453543v -17.2311h 0.453543v 5.7437h 0.453543v 17.2311h 0.453543v -5.7437h 0.453543v -22.9748h 0.453543v 22.9748h 0.453543v 17.2311h 0.453543v
 -11.4874h 0.453543v -34.4622h 0.453543v 17.2311h 0.453543v 5.7437h 0.453543v -17.2311h 0.453543v 40.2059h 0.453543v -22.9748h 0.453543v 22.9748h 0.453543v 11.4874h 0.453543v -28.7185h 0.453543v -17.2311h 0.453543v 34.4622h 0.453543v -17.2311h
 0.453543v -5.7437h 0.907087v -22.9748h 0.453543v -5.7437h 0.907087v 28.7185h 0.453543v -17.2311h 0.907087v 5.7437h 0.453543v -22.9748h 0.453543v 17.2311h 0.453543v -17.2311h 0.453543v -5.7437h 0.453543v 28.7185h 0.453543v 11.4874h 0.453543v
 -22.9748h 0.453543v 11.4874h 0.453543v -5.7437h 0.453543v -63.1807h 0.453543v 28.7185h 0.453543v 11.4874h 0.907087v -17.2311h 0.453543v 22.9748h 0.453543v -11.4874h 0.453543v -17.2311h 0.907087v -17.2311h 0.453543v 34.4622h 0.453543v -17.2311h
 0.453543v 57.437h 0.453543v -57.437h 0.453543v -28.7185h 0.453543v 22.9748h 0.453543v -22.9748h 0.453543v 11.4874h 0.453543v 34.4622h 0.907087v 5.7437h 1.36063v 17.2311h 0.453543v -28.7185h 0.453543v 28.7185h 0.453543v -28.7185h 0.453543v 11.4874h
 0.453543v 11.4874h 0.453543v -11.4874h 0.453543v -5.7437h 0.453543v 51.6933h 0.453543v -97.643h 0.453543v 17.2311h 0.453543v 51.6933h 0.907087v 5.7437h 0.453543v 45.9496h 0.453543v -51.6933h 0.453543v -28.7185h 0.453543v -11.4874h 0.453543v 28.7185h
 0.453543v 11.4874h 0.453543v 17.2311h 0.907087v -11.4874h 0.453543v -5.7437h 0.453543v -45.9496h 0.453543v 63.1807h 1.36063v 5.7437h 0.453543v -11.4874h 0.453543v 11.4874h 0.453543v 5.7437h 0.453543v -51.6933h 0.453543v 45.9496h 0.453543v -5.7437h
 0.453543v 28.7185h 0.453543v 11.4874h 0.453543v -40.2059h 0.453543v 11.4874h 0.453543v 17.2311h 0.453543v 5.7437h 0.453543v -17.2311h 0.453543v -45.9496h 0.453543v 34.4622h 0.453543v 5.7437h 0.453543v -11.4874h 1.36063v 34.4622h 0.453543v -5.7437h
 0.453543v -22.9748h 0.453543v -5.7437h 0.453543v 5.7437h 0.453543v 34.4622h 0.453543v -17.2311h 0.453543v 22.9748h 0.453543v -22.9748h 0.453543v 17.2311h 0.453543v -40.2059h 0.907087v 11.4874h 0.453543v 17.2311h 0.453543v -40.2059h 0.453543v
 40.2059h 0.453543v -5.7437h 0.453543v -17.2311h 0.907087v 11.4874h 0.453543v 22.9748h 0.453543v -11.4874h 0.453543v 11.4874h 0.453543v -11.4874h 0.907087v -5.7437h 0.453543v 17.2311h 0.453543v 5.7437h 0.453543v -28.7185h 0.907087v 11.4874h 0.453543v
 11.4874h 0.453543v -40.2059h 0.453543v -22.9748h 0.453543v 51.6933h 0.453543v 11.4874h 0.453543v -22.9748h 0.453543v 17.2311h 0.453543v -5.7437h 0.453543v 17.2311h 0.453543v -22.9748h 0.453543v 11.4874h 0.453543v -17.2311h 0.453543v 5.7437h
 0.453543v 5.7437h 0.453543v 11.4874h 0.453543v -17.2311h 0.453543v 17.2311h 0.453543v -34.4622h 0.453543v 22.9748h 0.453543v -17.2311h 0.453543v 34.4622h 0.453543v -63.1807h 0.453543v 28.7185h 0.453543v -5.7437h 0.453543v 40.2059h 0.453543v
 -34.4622h 0.453543v 5.7437h 0.453543v 11.4874h 0.453543v 11.4874h 0.453543v -11.4874h 0.453543v 5.7437h 0.453543v -5.7437h 0.907087v 28.7185h 0.453543v -28.7185h 0.453543v -5.7437h 0.907087v 17.2311h 0.453543v 5.7437h 0.453543v -34.4622h 0.453543v
 5.7437h 0.453543v 22.9748h 0.907087v -45.9496h 0.453543v 28.7185h 0.453543v 17.2311h 0.907087v -28.7185h 0.453543v 17.2311h 0.453543v 5.7437h 0.907087v 5.7437h 0.453543v -5.7437h 0.453543v -11.4874h 0.453543v -5.7437h 0.453543v 17.2311h 0.453543v
 -5.7437h 0.453543v 11.4874h 0.907087v -17.2311h 1.81417v 5.7437h 0.453543v -5.7437h 0.453543v 5.7437h 0.453543v 22.9748h 0.453543v -28.7185h 0.453543v 5.7437h 0.907087v 17.2311h 0.453543v -17.2311h 0.907087v -5.7437h 0.453543v 22.9748h 0.453543v
 -11.4874h 0.453543v -22.9748h 0.453543v 17.2311h 0.453543v -5.7437h 0.453543v 11.4874h 0.453543v 11.4874h 0.453543v -5.7437h 0.453543v 5.7437h 0.453543v -22.9748h 0.453543v 17.2311h 0.453543v 11.4874h 0.453543v -22.9748h 0.453543v -5.7437h 0.453543v
 11.4874h 0.453543v 11.4874h 0.907087v 5.7437h 0.907087v 5.7437h 0.453543v -11.4874h 0.453543v -5.7437h 0.453543v 5.7437h 0.453543v 11.4874h 1.36063v -11.4874h 0.453543v 11.4874h 178.243" fill="none" stroke="#000033" stroke-width="2"/>
<path d="M57.1929,346.022h 453.543" fill="none" stroke="black"/>
<text x="426.511" y="376.324" fill="black" font-size="15.4459" font-family="Helvetica">
CoG Z [mm]
</text>
<path d="M57.1929,336.795v 9.22726" fill="none" stroke="black"/>
<path d="M66.2638,341.409v 4.61363" fill="none" stroke="black"/>
<path d="M75.3346,341.409v 4.61363" fill="none" stroke="black"/>
<path d="M84.4055,341.409v 4.61363" fill="none" stroke="black"/>
<path d="M93.4764,341.409v 4.61363" fill="none" stroke="black"/>
<path d="M102.547,336.795v 9.22726" fill="none" stroke="black"/>
<path d="M111.618,341.409v 4.61363" fill="none" stroke="black"/>
<path d="M120.689,341.409v 4.61363" fill="none" stroke="black"/>
<path d="M129.76,341.409v 4.61363" fill="none" stroke="black"/>
<path d="M138.831,341.409v 4.61363" fill="none" stroke="black"/>
<path d="M147.902,336.795v 9.22726" fill="none" stroke="black"/>
<path d="M156.972,341.409v 4.61363" fill="none" stroke="black"/>
<path d="M166.043,341.409v 4.61363" fill="none" stroke="black"/>
<path d="M175.114,341.409v 4.61363" fill="none" stroke="black"/>
<path d="M184.185,341.409v 4.61363" fill="none" stroke="black"/>
<path d="M193.256,336.795v 9.22726" fill="none" stroke="black"/>
<path d="M202.327,341.409v 4.61363" fill="none" stroke="black"/>
<path d="M211.398,341.409v 4.61363" fill="none" stroke="black"/>
<path d="M220.469,341.409v 4.61363" fill="none" stroke="black"/>
<path d="M229.539,341.409v 4.61363" fill="none" stroke="black"/>
<path d="M238.61,336.795v 9.22726" fill="none" stroke="black"/>
<path d="M247.681,341.409v 4.61363" fill="none" stroke="black"/>
<path d="M256.752,341.409v 4.61363" fill="none" stroke="black"/>
<path d="M265.823,341.409v 4.61363" fill="none" stroke="black"/>
<path d="M274.894,341.409v 4.61363" fill="none" stroke="black"/>
<path d="M283.965,336.795v 9.22726" fill="none" stroke="black"/>
<path d="M293.035,341.409v 4.61363" fill="none" stroke="black"/>
<path d="M302.106,341.409v 4.61363" fill="none" stroke="black"/>
<path d="M311.177,341.409v 4.61363" fill="none" stroke="black"/>
<path d="M320.248,341.409v 4.61363" fill="none" stroke="black"/>
<path d="M329.319,336.795v 9.22726" fill="none" stroke="black"/>
<path d="M338.39,341.409v 4.61363" fill="none" stroke="black"/>
<path d="M347.461,341.409v 4.61363" fill="none" stroke="black"/>
<path d="M356.531,341.409v 4.61363" fill="none" stroke="black"/>
<path d="M365.602,341.409v 4.61363" fill="none" stroke="black"/>
<path d="M374.673,336.795v 9.22726" fill="none" stroke="black"/>
<path d="M383.744,341.409v 4.61363" fill="none" stroke="black"/>
<path d="M392.815,341.409v 4.61363" fill="none" stroke="black"/>
<path d="M401.886,341.409v 4.61363" fill="none" stroke="black"/>
<path d="M410.957,341.409v 4.61363" fill="none" stroke="black"/>
<path d="M420.028,336.795v 9.22726" fill="none" stroke="black"/>
<path d="M429.098,341.409v 4.61363" fill="none" stroke="black"/>
<path d="M438.169,341.409v 4.61363" fill="none" stroke="black"/>
<path d="M447.24,341.409v 4.61363" fill="none" stroke="black"/>
<path d="M456.311,341.409v 4.61363" fill="none" stroke="black"/>
<path d="M465.382,336.795v 9.22726" fill="none" stroke="black"/>
<path d="M474.453,341.409v 4.61363" fill="none" stroke="black"/>
<path d="M483.524,341.409v 4.61363" fill="none" stroke="black"/>
<path d="M492.594,341.409v 4.61363" fill="none" stroke="black"/>
<path d="M501.665,341.409v 4.61363" fill="none" stroke="black"/>
<path d="M510.736,336.795v 9.22726" fill="none" stroke="black"/>
<text x="52.6314" y="360.847" fill="black" font-size="15.4459" font-family="Helvetica">
0
</text>
<text x="89.2863" y="360.847" fill="black" font-size="15.4459" font-family="Helvetica">
100
</text>
<text x="134.087" y="360.847" fill="black" font-size="15.4459" font-family="Helvetica">
200
</text>
<text x="179.702" y="360.847" fill="black" font-size="15.4459" font-family="Helvetica">
300
</text>
<text x="225.317" y="360.847" fill="black" font-size="15.4459" font-family="Helvetica">
400
</text>
<text x="270.932" y="360.847" fill="black" font-size="15.4459" font-family="Helvetica">
500
</text>
<text x="315.732" y="360.847" fill="black" font-size="15.4459" font-family="Helvetica">
600
</text>
<text x="361.347" y="360.847" fill="black" font-size="15.4459" font-family="Helvetica">
700
</text>
<text x="406.962" y="360.847" fill="black" font-size="15.4459" font-family="Helvetica">
800
</text>
<text x="451.763" y="360.847" fill="black" font-size="15.4459" font-family="Helvetica">
900
</text>
<text x="493.305" y="360.847" fill="black" font-size="15.4459" font-family="Helvetica">
1000
</text>
<path d="M57.1929,346.022v -307.575" fill="none" stroke="black"/>
<g transform="rotate(-90,12.7183,168.613)">
<text x="12.7183" y="168.613" fill="black" font-size="15.4459" font-family="Helvetica">
Normalized Entries
</text>
</g>
<path d="M70.7992,346.022h -13.6063" fill="none" stroke="black"/>
<path d="M63.9961,336.539h -6.80315" fill="none" stroke="black"/>
<path d="M63.9961,327.057h -6.80315" fill="none" stroke="black"/>
<path d="M63.9961,317.574h -6.80315" fill="none" stroke="black"/>
<path d="M63.9961,308.091h -6.80315" fill="none" stroke="black"/>
<path d="M70.7992,298.608h -13.6063" fill="none" stroke="black"/>
<path d="M63.9961,289.125h -6.80315" fill="none" stroke="black"/>
<path d="M63.9961,279.642h -6.80315" fill="none" stroke="black"/>
<path d="M63.9961,270.159h -6.80315" fill="none" stroke="black"/>
<path d="M63.9961,260.677h -6.80315" fill="none" stroke="black"/>
<path d="M70.7992,251.194h -13.6063" fill="none" stroke="black"/>
<path d="M63.9961,241.711h -6.80315" fill="none" stroke="black"/>
<path d="M63.9961,232.228h -6.80315" fill="none" stroke="black"/>
<path d="M63.9961,222.745h -6.80315" fill="none" stroke="black"/>
<path d="M63.9961,213.262h -6.80315" fill="none" stroke="black"/>
<path d="M70.7992,203.779h -13.6063" fill="none" stroke="black"/>
<path d="M63.9961,194.297h -6.80315" fill="none" stroke="black"/>
<path d="M63.9961,184.814h -6.80315" fill="none" stroke="black"/>
<path d="M63.9961,175.331h -6.80315" fill="none" stroke="black"/>
<path d="M63.9961,165.848h -6.80315" fill="none" stroke="black"/>
<path d="M70.7992,156.365h -13.6063" fill="none" stroke="black"/>
<path d="M63.9961,146.882h -6.80315" fill="none" stroke="black"/>
<path d="M63.9961,137.399h -6.80315" fill="none" stroke="black"/>
<path d="M63.9961,127.917h -6.80315" fill="none" stroke="black"/>
<path d="M63.9961,118.434h -6.80315" fill="none" stroke="black"/>
<path d="M70.7992,108.951h -13.6063" fill="none" stroke="black"/>
<path d="M63.9961,99.468h -6.80315" fill="none" stroke="black"/>
<path d="M63.9961,89.9852h -6.80315" fill="none" stroke="black"/>
<path d="M63.9961,80.5023h -6.80315" fill="none" stroke="black"/>
<path d="M63.9961,71.0195h -6.80315" fill="none" stroke="black"/>
<path d="M70.7992,61.5366h -13.6063" fill="none" stroke="black"/>
<path d="M70.7992,61.5366h -13.6063" fill="none" stroke="black"/>
<path d="M63.9961,52.0538h -6.80315" fill="none" stroke="black"/>
<path d="M63.9961,42.5709h -6.80315" fill="none" stroke="black"/>
<text x="46.115" y="351.072" fill="black" font-size="15.4459" font-family="Helvetica">
0
</text>
<text x="18.4202" y="303.828" fill="black" font-size="15.4459" font-family="Helvetica">
0.001
</text>
<text x="15.9765" y="256.584" fill="black" font-size="15.4459" font-family="Helvetica">
0.002
</text>
<text x="15.9765" y="209.34" fill="black" font-size="15.4459" font-family="Helvetica">
0.003
</text>
<text x="15.9765" y="161.282" fill="black" font-size="15.4459" font-family="Helvetica">
0.004
</text>
<text x="15.9765" y="114.037" fill="black" font-size="15.4459" font-family="Helvetica">
0.005
</text>
<text x="15.9765" y="66.7934" fill="black" font-size="15.4459" font-family="Helvetica">
0.006
</text>
<path d="M57.1929,346.022h 40.8189v -5.75556h 0.453543v 5.75556h 8.16378v -5.75556h 0.907087v -11.5111h 0.453543v 17.2667h 0.453543v -5.75556h 0.453543v 5.75556h 0.453543v -11.5111h 0.453543v -11.5111h 0.453543v 5.75556h 0.453543v -11.5111h 0.453543v
 17.2667h 0.453543v -92.0889h 0.453543v 51.8h 0.453543v 5.75556h 0.453543v -11.5111h 0.453543v 5.75556h 0.453543v -51.8h 0.453543v 57.5556h 0.453543v -23.0222h 0.453543v -28.7778h 0.453543v 5.75556h 0.453543v 11.5111h 0.453543v -51.8h 0.453543v
 46.0445h 0.453543v -86.3334h 0.453543v 74.8222h 0.453543v -69.0667h 0.453543v 28.7778h 0.453543v -63.3111h 0.453543v 23.0222h 0.453543v 17.2667h 0.453543v -5.75556h 0.453543v 17.2667h 0.453543v 28.7778h 0.453543v -92.0889h 0.453543v -11.5111h
 0.453543v 28.7778h 0.453543v -34.5333h 0.453543v -11.5111h 0.453543v 28.7778h 0.453543v -17.2667h 0.453543v -23.0222h 0.453543v 23.0222h 0.453543v 23.0222h 0.453543v 23.0222h 0.453543v -34.5333h 0.453543v -51.8h 0.453543v 40.2889h 0.907087v 63.3111h
 0.453543v -46.0445h 0.453543v -34.5333h 0.453543v -11.5111h 0.453543v 63.3111h 0.453543v 17.2667h 0.453543v -51.8h 0.453543v -5.75556h 0.453543v -11.5111h 0.453543v -23.0222h 0.453543v 51.8h 0.453543v -63.3111h 0.453543v 23.0222h 0.453543v -23.0222h
 0.453543v 149.644h 0.453543v -92.0889h 0.453543v -11.5111h 0.453543v -28.7778h 0.453543v 46.0445h 0.453543v -5.75556h 0.453543v -63.3111h 0.453543v 63.3111h 0.453543v -34.5333h 0.453543v 5.75556h 0.453543v 23.0222h 0.453543v 17.2667h 0.453543v
 57.5556h 0.453543v -115.111h 0.453543v 69.0667h 0.453543v 17.2667h 0.453543v -51.8h 0.453543v 11.5111h 0.453543v -23.0222h 0.453543v -17.2667h 0.453543v 69.0667h 0.453543v -86.3334h 0.453543v 86.3334h 0.453543v 28.7778h 0.453543v -69.0667h 1.36063v
 40.2889h 0.453543v -5.75556h 0.453543v -5.75556h 0.907087v -23.0222h 0.453543v 57.5556h 0.453543v -86.3334h 0.453543v 80.5778h 0.453543v -28.7778h 0.453543v -40.2889h 0.453543v -34.5333h 0.453543v 92.0889h 0.453543v 11.5111h 0.453543v 5.75556h
 0.453543v -17.2667h 0.453543v -11.5111h 0.453543v 40.2889h 0.453543v 5.75556h 0.453543v 28.7778h 0.453543v -92.0889h 0.453543v 11.5111h 0.453543v 23.0222h 0.453543v 34.5333h 0.453543v -5.75556h 0.453543v -11.5111h 0.453543v 11.5111h 0.453543v
 -5.75556h 0.907087v -92.0889h 0.453543v 57.5556h 0.453543v 34.5333h 0.453543v 5.75556h 0.453543v -34.5333h 0.453543v -11.5111h 0.453543v -46.0445h 0.453543v 132.378h 0.453543v -74.8222h 0.453543v 23.0222h 0.453543v -34.5333h 0.453543v 28.7778h
 0.453543v -23.0222h 0.453543v 46.0445h 0.453543v -17.2667h 0.453543v -11.5111h 0.453543v 34.5333h 0.907087v -28.7778h 0.453543v 34.5333h 0.907087v -23.0222h 0.453543v 17.2667h 0.453543v -11.5111h 0.453543v -17.2667h 0.453543v 23.0222h 0.453543v
 -28.7778h 0.453543v 46.0445h 0.453543v -5.75556h 0.453543v -17.2667h 0.453543v -23.0222h 0.453543v 17.2667h 0.453543v 34.5333h 0.453543v -28.7778h 0.453543v 23.0222h 0.453543v -46.0445h 0.453543v 86.3334h 0.453543v -126.622h 0.453543v 109.356h
 0.453543v -23.0222h 0.453543v 11.5111h 0.453543v -11.5111h 0.453543v -11.5111h 0.453543v -5.75556h 0.453543v -17.2667h 0.453543v 17.2667h 0.453543v 17.2667h 0.453543v -34.5333h 0.453543v 40.2889h 0.453543v 34.5333h 0.453543v -40.2889h 0.453543v
 -11.5111h 0.453543v 34.5333h 0.453543v -17.2667h 0.453543v 5.75556h 0.453543v 11.5111h 0.453543v -23.0222h 0.453543v 28.7778h 0.453543v -17.2667h 0.907087v 17.2667h 0.453543v 11.5111h 0.453543v -5.75556h 0.453543v -23.0222h 0.453543v -40.2889h
 0.453543v 5.75556h 0.453543v 40.2889h 0.453543v 11.5111h 0.453543v 5.75556h 0.453543v -17.2667h 0.453543v 11.5111h 0.907087v 17.2667h 0.453543v -17.2667h 0.453543v 23.0222h 0.453543v -57.5556h 0.453543v 86.3334h 0.453543v -57.5556h 0.453543v
 40.2889h 0.453543v -28.7778h 0.453543v 5.75556h 0.453543v -5.75556h 0.453543v 23.0222h 0.453543v -40.2889h 0.453543v 17.2667h 0.453543v 40.2889h 0.453543v -17.2667h 0.453543v 17.2667h 0.453543v -40.2889h 0.453543v 28.7778h 0.453543v 17.2667h
 0.453543v -51.8h 0.453543v 57.5556h 0.453543v -63.3111h 0.453543v 63.3111h 0.453543v -17.2667h 0.453543v -17.2667h 0.453543v 51.8h 0.453543v -28.7778h 0.453543v 5.75556h 0.453543v -46.0445h 0.453543v 17.2667h 0.453543v 17.2667h 0.453543v 23.0222h
 0.453543v -40.2889h 0.453543v 11.5111h 0.453543v -17.2667h 0.453543v 17.2667h 0.453543v 5.75556h 0.453543v -11.5111h 0.453543v 28.7778h 0.453543v -11.5111h 0.453543v -5.75556h 0.453543v -5.75556h 0.453543v 23.0222h 0.453543v -17.2667h 0.453543v
 40.2889h 0.453543v -51.8h 0.453543v 17.2667h 0.453543v -28.7778h 0.453543v 17.2667h 0.453543v -11.5111h 0.453543v 17.2667h 0.907087v 17.2667h 0.453543v -23.0222h 0.453543v 28.7778h 0.453543v -5.75556h 0.453543v -5.75556h 0.453543v -5.75556h
 0.907087v 11.5111h 0.453543v -34.5333h 0.453543v 17.2667h 0.453543v 46.0445h 0.453543v -23.0222h 0.907087v -17.2667h 0.453543v 5.75556h 0.453543v -11.5111h 0.453543v 5.75556h 0.453543v 11.5111h 0.453543v -11.5111h 0.453543v 23.0222h 0.453543v
 -5.75556h 0.453543v -34.5333h 0.453543v 11.5111h 0.453543v 23.0222h 0.453543v -40.2889h 0.453543v 17.2667h 0.453543v 23.0222h 0.453543v -5.75556h 0.453543v 17.2667h 0.453543v -5.75556h 0.453543v -11.5111h 0.907087v -5.75556h 0.453543v 23.0222h
 0.453543v -23.0222h 0.453543v -17.2667h 0.453543v 23.0222h 0.453543v -11.5111h 0.453543v 23.0222h 0.453543v -23.0222h 0.453543v -11.5111h 0.453543v -5.75556h 0.453543v 11.5111h 0.453543v 5.75556h 0.453543v -5.75556h 0.453543v -46.0445h 0.453543v
 46.0445h 0.453543v 11.5111h 0.453543v -23.0222h 0.453543v -23.0222h 0.453543v 23.0222h 0.453543v 34.5333h 0.453543v -63.3111h 0.453543v 51.8h 0.453543v 5.75556h 0.453543v -40.2889h 0.453543v 11.5111h 0.453543v -23.0222h 0.453543v 51.8h 0.453543v
 -40.2889h 1.36063v -34.5333h 0.453543v 40.2889h 0.907087v -17.2667h 0.453543v -28.7778h 0.453543v 23.0222h 0.453543v 5.75556h 0.453543v -11.5111h 0.907087v 40.2889h 0.453543v -34.5333h 0.453543v -11.5111h 0.453543v 40.2889h 0.453543v 5.75556h
 0.453543v -34.5333h 0.453543v -74.8222h 0.453543v 63.3111h 0.453543v 28.7778h 0.453543v -34.5333h 0.453543v 28.7778h 0.453543v 17.2667h 0.453543v -23.0222h 0.453543v -11.5111h 0.453543v 40.2889h 0.453543v -23.0222h 0.453543v 11.5111h 0.453543v
 28.7778h 0.453543v 11.5111h 0.453543v -17.2667h 0.453543v 17.2667h 0.453543v -46.0445h 0.453543v -23.0222h 0.453543v 34.5333h 0.453543v -11.5111h 0.453543v 34.5333h 0.453543v 17.2667h 0.453543v -23.0222h 0.453543v -17.2667h 0.453543v -28.7778h
 0.453543v 34.5333h 0.453543v -11.5111h 0.453543v -5.75556h 0.453543v 17.2667h 0.907087v -23.0222h 0.453543v 46.0445h 0.453543v -40.2889h 0.453543v 11.5111h 0.453543v 34.5333h 0.453543v -23.0222h 0.453543v -11.5111h 0.453543v 5.75556h 0.453543v
 5.75556h 0.453543v 23.0222h 0.453543v 5.75556h 0.453543v -11.5111h 0.453543v -5.75556h 0.453543v -28.7778h 0.453543v 11.5111h 0.453543v 34.5333h 0.453543v -17.2667h 0.453543v -17.2667h 0.453543v 17.2667h 0.453543v -5.75556h 0.453543v 23.0222h
 0.453543v 17.2667h 0.453543v -28.7778h 0.907087v -11.5111h 0.453543v 5.75556h 0.453543v 28.7778h 0.453543v -23.0222h 0.907087v 11.5111h 0.453543v -11.5111h 0.453543v 11.5111h 0.453543v -11.5111h 0.453543v 5.75556h 0.907087v 23.0222h 0.453543v
 -5.75556h 0.453543v 11.5111h 0.453543v -34.5333h 0.453543v -11.5111h 0.453543v 28.7778h 0.453543v -23.0222h 0.453543v 28.7778h 1.36063v -11.5111h 0.453543v 17.2667h 0.453543v 17.2667h 0.453543v -23.0222h 0.453543v 11.5111h 0.453543v -11.5111h
 0.453543v -23.0222h 0.453543v 17.2667h 0.453543v -5.75556h 0.453543v -11.5111h 0.453543v 23.0222h 0.453543v 5.75556h 0.907087v -17.2667h 0.453543v 28.7778h 0.453543v -17.2667h 0.453543v -17.2667h 0.907087v 17.2667h 0.453543v -34.5333h 0.453543v
 40.2889h 0.453543v -28.7778h 0.453543v 17.2667h 0.453543v 5.75556h 0.453543v -5.75556h 0.453543v 23.0222h 0.453543v -46.0445h 0.453543v 34.5333h 0.453543v -11.5111h 0.453543v -5.75556h 0.453543v -5.75556h 0.453543v 23.0222h 0.453543v -23.0222h
 0.453543v 5.75556h 0.453543v 5.75556h 0.907087v -5.75556h 0.453543v 5.75556h 0.453543v -11.5111h 0.453543v 17.2667h 0.453543v -17.2667h 0.453543v 5.75556h 0.453543v 5.75556h 0.453543v 11.5111h 0.453543v -5.75556h 0.907087v 11.5111h 0.453543v
 -11.5111h 0.453543v 5.75556h 0.453543v -11.5111h 0.453543v 11.5111h 0.907087v -34.5333h 0.453543v 28.7778h 0.907087v -5.75556h 0.453543v 5.75556h 0.453543v -17.2667h 0.907087v 11.5111h 0.453543v 5.75556h 0.907087v 11.5111h 0.453543v -11.5111h
 0.453543v -11.5111h 0.453543v -5.75556h 0.453543v 5.75556h 0.453543v -17.2667h 0.453543v 28.7778h 0.453543v -17.2667h 0.907087v 28.7778h 0.453543v -23.0222h 0.453543v -5.75556h 0.453543v 5.75556h 0.453543v 5.75556h 0.453543v -11.5111h 0.453543v
 11.5111h 0.907087v -11.5111h 0.453543v 23.0222h 0.453543v -23.0222h 0.907087v 11.5111h 0.453543v 11.5111h 0.453543v -5.75556h 0.453543v 5.75556h 0.453543v -28.7778h 0.453543v 28.7778h 0.453543v 17.2667h 0.453543v -23.0222h 0.453543v -5.75556h
 0.453543v 17.2667h 1.36063v 5.75556h 0.907087v -17.2667h 0.453543v 11.5111h 0.907087v -5.75556h 0.453543v 5.75556h 0.453543v 11.5111h 179.603" fill="none" stroke="#3366ff" stroke-width="2"/>
<rect x="340.657" y="38.4469" width="170.079" height="76.8938" fill="white"/>
<path d="M340.657,115.341h 170.079" fill="none" stroke="black"/>
<path d="M510.736,115.341v -76.8938" fill="none" stroke="black"/>
<path d="M510.736,38.4469h -170.079" fill="none" stroke="black"/>
<path d="M340.657,38.4469v 76.8938" fill="none" stroke="black"/>
<text x="382.526" y="60.2769" fill="black" font-size="8.87835" font-family="Helvetica">
MC 17mm Steel in Front
</text>
<path d="M347.035,71.1268h 29.7638v -26.9128h -29.7638z" fill="white"/>
<path d="M347.035,57.6704h 29.7638" fill="none" stroke="#000033" stroke-width="2"/>
<g stroke="black" stroke-width="2" fill="none">
<line x1="360.917" y1="57.6704" x2="361.917" y2="57.6704"/>
</g>
<text x="382.526" y="99.3755" fill="black" font-size="8.87835" font-family="Helvetica">
MC 17mm no Steel
</text>
<path d="M347.035,109.574h 29.7638v -26.9128h -29.7638z" fill="white"/>
<path d="M347.035,96.1173h 29.7638" fill="none" stroke="#3366ff" stroke-width="2"/>
<g stroke="black" stroke-width="2" fill="none">
<line x1="360.917" y1="96.1173" x2="361.917" y2="96.1173"/>
</g>
<text x="101.505" y="17.9202" fill="black" font-size="16.4218" font-family="Helvetica">
Center of Gravity in Z Direction after data selection
</text></svg>
