<?xml version="1.0" standalone="no"?>
<svg width="567.429" height="384.969" viewBox="0 0 567.429 384.969" xmlns="http://www.w3.org/2000/svg">
<title>
../plots/17_06_05/pions_compare_mc_17steel_50steel_nHits.svg
</title>
<desc>
Creator: ROOT Version 5.34/30
CreationDate: Mon Jun  5 19:39:16 2017</desc>
<defs>
</defs>
<rect x="0.5" y="0" width="566.929" height="384.469" fill="white"/>
<rect x="57.1929" y="38.4469" width="453.543" height="307.575" fill="white"/>
<rect x="57.1929" y="38.4469" width="453.543" height="307.575" fill="none" stroke="black"/>
<rect x="57.1929" y="38.4469" width="453.543" height="307.575" fill="white"/>
<rect x="57.1929" y="38.4469" width="453.543" height="307.575" fill="none" stroke="black"/>
<path d="M57.1929,346.022h 31.748v -2.7898h 4.53543v 2.7898h 2.26772v -5.5796h 2.26772v -25.1082h 2.26772v -125.541h 2.26772v 19.5286h 2.26772v -36.2674h 2.26772v -2.7898h 2.26772v 47.4266h 2.26772v -86.4838h 2.26772v 64.1654h 2.26772v -36.2674h
 2.26772v -30.6878h 4.53543v 44.6368h 2.26772v -13.949h 2.26772v -33.4776h 2.26772v 27.898h 2.26772v -8.3694h 2.26772v 19.5286h 2.26772v 5.5796h 2.26772v -2.7898h 2.26772v 8.3694h 2.26772v -19.5286h 2.26772v -2.7898h 2.26772v -8.3694h 2.26772v
 -5.5796h 2.26772v 39.0572h 2.26772v -22.3184h 2.26772v 16.7388h 4.53543v -16.7388h 2.26772v -41.847h 2.26772v 41.847h 2.26772v -11.1592h 2.26772v -33.4776h 2.26772v 66.9552h 2.26772v -2.7898h 2.26772v 19.5286h 2.26772v -19.5286h 4.53543v -11.1592h
 2.26772v -16.7388h 2.26772v 16.7388h 2.26772v 8.3694h 2.26772v -27.898h 2.26772v 11.1592h 2.26772v -11.1592h 2.26772v 30.6878h 2.26772v -27.898h 2.26772v 33.4776h 2.26772v -5.5796h 2.26772v 22.3184h 2.26772v -2.7898h 2.26772v -5.5796h 2.26772v
 -5.5796h 2.26772v -16.7388h 2.26772v -41.847h 2.26772v 22.3184h 2.26772v -5.5796h 2.26772v 13.949h 2.26772v -5.5796h 2.26772v 2.7898h 2.26772v 2.7898h 2.26772v 2.7898h 2.26772v 25.1082h 2.26772v 2.7898h 2.26772v -69.745h 2.26772v 72.5348h 2.26772v
 -11.1592h 2.26772v -13.949h 2.26772v -2.7898h 2.26772v -19.5286h 2.26772v -8.3694h 2.26772v -30.6878h 2.26772v 50.2164h 2.26772v -80.9042h 2.26772v 55.796h 2.26772v -36.2674h 2.26772v -39.0572h 2.26772v 33.4776h 2.26772v 47.4266h 2.26772v 13.949h
 2.26772v -41.847h 2.26772v -30.6878h 2.26772v 50.2164h 2.26772v -19.5286h 2.26772v 5.5796h 2.26772v -33.4776h 2.26772v 69.745h 2.26772v -41.847h 2.26772v 16.7388h 2.26772v -16.7388h 2.26772v 27.898h 2.26772v -41.847h 2.26772v 61.3756h 2.26772v
 11.1592h 2.26772v -44.6368h 2.26772v -11.1592h 2.26772v 25.1082h 2.26772v 39.0572h 2.26772v -22.3184h 2.26772v -53.0062h 2.26772v 69.745h 2.26772v 19.5286h 2.26772v 25.1082h 2.26772v -44.6368h 2.26772v 61.3756h 2.26772v -100.433h 2.26772v 50.2164h
 2.26772v 8.3694h 2.26772v 19.5286h 2.26772v -16.7388h 2.26772v 8.3694h 2.26772v 55.796h 2.26772v -13.949h 2.26772v -19.5286h 2.26772v 41.847h 2.26772v -13.949h 2.26772v 8.3694h 2.26772v -22.3184h 2.26772v 27.898h 2.26772v 25.1082h 2.26772v -11.1592h
 2.26772v 2.7898h 2.26772v 25.1082h 2.26772v -33.4776h 2.26772v 13.949h 2.26772v 16.7388h 2.26772v 5.5796h 2.26772v -16.7388h 2.26772v 27.898h 2.26772v -25.1082h 2.26772v 27.898h 2.26772v -11.1592h 2.26772v -5.5796h 2.26772v 19.5286h 4.53543v 8.3694h
 2.26772v -16.7388h 2.26772v 16.7388h 2.26772v 5.5796h 2.26772v -11.1592h 2.26772v -2.7898h 4.53543v 11.1592h 2.26772v 2.7898h 2.26772v 2.7898h 2.26772v -2.7898h 2.26772v 5.5796h 2.26772v -2.7898h 4.53543v 5.5796h 2.26772v -2.7898h 4.53543v 2.7898h
 6.80315v -2.7898h 6.80315v 2.7898h 4.53543v -2.7898h 2.26772v 2.7898h 47.622" fill="none" stroke="#000033" stroke-width="2"/>
<path d="M57.1929,346.022h 453.543" fill="none" stroke="black"/>
<text x="406.962" y="377.138" fill="black" font-size="15.4459" font-family="Helvetica">
Number of Hits
</text>
<path d="M57.1929,336.795v 9.22726" fill="none" stroke="black"/>
<path d="M68.5315,341.409v 4.61363" fill="none" stroke="black"/>
<path d="M79.8701,341.409v 4.61363" fill="none" stroke="black"/>
<path d="M91.2087,341.409v 4.61363" fill="none" stroke="black"/>
<path d="M102.547,336.795v 9.22726" fill="none" stroke="black"/>
<path d="M113.886,341.409v 4.61363" fill="none" stroke="black"/>
<path d="M125.224,341.409v 4.61363" fill="none" stroke="black"/>
<path d="M136.563,341.409v 4.61363" fill="none" stroke="black"/>
<path d="M147.902,336.795v 9.22726" fill="none" stroke="black"/>
<path d="M159.24,341.409v 4.61363" fill="none" stroke="black"/>
<path d="M170.579,341.409v 4.61363" fill="none" stroke="black"/>
<path d="M181.917,341.409v 4.61363" fill="none" stroke="black"/>
<path d="M193.256,336.795v 9.22726" fill="none" stroke="black"/>
<path d="M204.594,341.409v 4.61363" fill="none" stroke="black"/>
<path d="M215.933,341.409v 4.61363" fill="none" stroke="black"/>
<path d="M227.272,341.409v 4.61363" fill="none" stroke="black"/>
<path d="M238.61,336.795v 9.22726" fill="none" stroke="black"/>
<path d="M249.949,341.409v 4.61363" fill="none" stroke="black"/>
<path d="M261.287,341.409v 4.61363" fill="none" stroke="black"/>
<path d="M272.626,341.409v 4.61363" fill="none" stroke="black"/>
<path d="M283.965,336.795v 9.22726" fill="none" stroke="black"/>
<path d="M295.303,341.409v 4.61363" fill="none" stroke="black"/>
<path d="M306.642,341.409v 4.61363" fill="none" stroke="black"/>
<path d="M317.98,341.409v 4.61363" fill="none" stroke="black"/>
<path d="M329.319,336.795v 9.22726" fill="none" stroke="black"/>
<path d="M340.657,341.409v 4.61363" fill="none" stroke="black"/>
<path d="M351.996,341.409v 4.61363" fill="none" stroke="black"/>
<path d="M363.335,341.409v 4.61363" fill="none" stroke="black"/>
<path d="M374.673,336.795v 9.22726" fill="none" stroke="black"/>
<path d="M386.012,341.409v 4.61363" fill="none" stroke="black"/>
<path d="M397.35,341.409v 4.61363" fill="none" stroke="black"/>
<path d="M408.689,341.409v 4.61363" fill="none" stroke="black"/>
<path d="M420.028,336.795v 9.22726" fill="none" stroke="black"/>
<path d="M431.366,341.409v 4.61363" fill="none" stroke="black"/>
<path d="M442.705,341.409v 4.61363" fill="none" stroke="black"/>
<path d="M454.043,341.409v 4.61363" fill="none" stroke="black"/>
<path d="M465.382,336.795v 9.22726" fill="none" stroke="black"/>
<path d="M476.72,341.409v 4.61363" fill="none" stroke="black"/>
<path d="M488.059,341.409v 4.61363" fill="none" stroke="black"/>
<path d="M499.398,341.409v 4.61363" fill="none" stroke="black"/>
<path d="M510.736,336.795v 9.22726" fill="none" stroke="black"/>
<text x="52.6314" y="360.847" fill="black" font-size="15.4459" font-family="Helvetica">
0
</text>
<text x="93.3591" y="360.847" fill="black" font-size="15.4459" font-family="Helvetica">
20
</text>
<text x="138.16" y="360.847" fill="black" font-size="15.4459" font-family="Helvetica">
40
</text>
<text x="183.775" y="360.847" fill="black" font-size="15.4459" font-family="Helvetica">
60
</text>
<text x="229.389" y="360.847" fill="black" font-size="15.4459" font-family="Helvetica">
80
</text>
<text x="270.932" y="360.847" fill="black" font-size="15.4459" font-family="Helvetica">
100
</text>
<text x="315.732" y="360.847" fill="black" font-size="15.4459" font-family="Helvetica">
120
</text>
<text x="361.347" y="360.847" fill="black" font-size="15.4459" font-family="Helvetica">
140
</text>
<text x="406.962" y="360.847" fill="black" font-size="15.4459" font-family="Helvetica">
160
</text>
<text x="451.763" y="360.847" fill="black" font-size="15.4459" font-family="Helvetica">
180
</text>
<text x="497.378" y="360.847" fill="black" font-size="15.4459" font-family="Helvetica">
200
</text>
<path d="M57.1929,346.022v -307.575" fill="none" stroke="black"/>
<g transform="rotate(-90,12.7183,168.613)">
<text x="12.7183" y="168.613" fill="black" font-size="15.4459" font-family="Helvetica">
Normalized Entries
</text>
</g>
<path d="M70.7992,346.022h -13.6063" fill="none" stroke="black"/>
<path d="M63.9961,334.507h -6.80315" fill="none" stroke="black"/>
<path d="M63.9961,322.992h -6.80315" fill="none" stroke="black"/>
<path d="M63.9961,311.478h -6.80315" fill="none" stroke="black"/>
<path d="M70.7992,299.963h -13.6063" fill="none" stroke="black"/>
<path d="M63.9961,288.448h -6.80315" fill="none" stroke="black"/>
<path d="M63.9961,276.933h -6.80315" fill="none" stroke="black"/>
<path d="M63.9961,265.418h -6.80315" fill="none" stroke="black"/>
<path d="M70.7992,253.903h -13.6063" fill="none" stroke="black"/>
<path d="M63.9961,242.388h -6.80315" fill="none" stroke="black"/>
<path d="M63.9961,230.873h -6.80315" fill="none" stroke="black"/>
<path d="M63.9961,219.358h -6.80315" fill="none" stroke="black"/>
<path d="M70.7992,207.844h -13.6063" fill="none" stroke="black"/>
<path d="M63.9961,196.329h -6.80315" fill="none" stroke="black"/>
<path d="M63.9961,184.814h -6.80315" fill="none" stroke="black"/>
<path d="M63.9961,173.299h -6.80315" fill="none" stroke="black"/>
<path d="M70.7992,161.784h -13.6063" fill="none" stroke="black"/>
<path d="M63.9961,150.269h -6.80315" fill="none" stroke="black"/>
<path d="M63.9961,138.754h -6.80315" fill="none" stroke="black"/>
<path d="M63.9961,127.239h -6.80315" fill="none" stroke="black"/>
<path d="M70.7992,115.724h -13.6063" fill="none" stroke="black"/>
<path d="M63.9961,104.209h -6.80315" fill="none" stroke="black"/>
<path d="M63.9961,92.6946h -6.80315" fill="none" stroke="black"/>
<path d="M63.9961,81.1797h -6.80315" fill="none" stroke="black"/>
<path d="M70.7992,69.6648h -13.6063" fill="none" stroke="black"/>
<path d="M70.7992,69.6648h -13.6063" fill="none" stroke="black"/>
<path d="M63.9961,58.1499h -6.80315" fill="none" stroke="black"/>
<path d="M63.9961,46.635h -6.80315" fill="none" stroke="black"/>
<text x="46.115" y="351.072" fill="black" font-size="15.4459" font-family="Helvetica">
0
</text>
<text x="15.9765" y="305.457" fill="black" font-size="15.4459" font-family="Helvetica">
0.002
</text>
<text x="15.9765" y="259.028" fill="black" font-size="15.4459" font-family="Helvetica">
0.004
</text>
<text x="15.9765" y="213.413" fill="black" font-size="15.4459" font-family="Helvetica">
0.006
</text>
<text x="15.9765" y="166.983" fill="black" font-size="15.4459" font-family="Helvetica">
0.008
</text>
<text x="26.5657" y="121.368" fill="black" font-size="15.4459" font-family="Helvetica">
0.01
</text>
<text x="15.9765" y="74.9389" fill="black" font-size="15.4459" font-family="Helvetica">
0.012
</text>
<path d="M57.1929,346.022h 31.748v -2.80407h 2.26772v 2.80407h 2.26772v -2.80407h 2.26772v 2.80407h 2.26772v -25.2366h 2.26772v -123.379h 2.26772v -2.80407h 2.26772v 5.60813h 2.26772v -5.60813h 2.26772v -39.2569h 2.26772v 30.8447h 2.26772v -44.865h
 2.26772v 28.0407h 2.26772v -28.0407h 4.53543v 39.2569h 4.53543v -2.80407h 2.26772v -14.0203h 4.53543v 8.4122h 2.26772v 11.2163h 2.26772v -25.2366h 2.26772v -16.8244h 2.26772v -8.4122h 2.26772v 44.865h 2.26772v -44.865h 2.26772v 25.2366h 2.26772v
 -16.8244h 2.26772v -8.4122h 2.26772v 39.2569h 2.26772v -28.0407h 2.26772v 44.865h 2.26772v -8.4122h 2.26772v -25.2366h 2.26772v -39.2569h 2.26772v 67.2976h 2.26772v -22.4325h 2.26772v -22.4325h 2.26772v 39.2569h 2.26772v -5.60813h 2.26772v 11.2163h
 2.26772v -53.2772h 2.26772v 19.6285h 2.26772v -14.0203h 2.26772v 8.4122h 2.26772v -30.8447h 2.26772v -5.60813h 2.26772v 47.6691h 2.26772v -36.4529h 2.26772v 39.2569h 2.26772v -8.4122h 2.26772v 2.80407h 2.26772v -25.2366h 2.26772v 2.80407h 2.26772v
 -5.60813h 2.26772v 8.4122h 2.26772v -53.2772h 2.26772v 78.5138h 2.26772v -61.6894h 2.26772v 22.4325h 2.26772v -8.4122h 2.26772v 42.061h 2.26772v -33.6488h 2.26772v 42.061h 2.26772v -61.6894h 2.26772v 42.061h 6.80315v -22.4325h 2.26772v -5.60813h
 2.26772v 44.865h 2.26772v -47.6691h 2.26772v 39.2569h 2.26772v -64.4935h 2.26772v 16.8244h 2.26772v 11.2163h 2.26772v 8.4122h 2.26772v -2.80407h 2.26772v 39.2569h 2.26772v -44.865h 2.26772v -50.4732h 2.26772v 78.5138h 2.26772v -16.8244h 2.26772v
 25.2366h 2.26772v -50.4732h 2.26772v 25.2366h 2.26772v -5.60813h 2.26772v 2.80407h 2.26772v 16.8244h 2.26772v 19.6285h 2.26772v 5.60813h 2.26772v -8.4122h 2.26772v -30.8447h 2.26772v 11.2163h 2.26772v 53.2772h 2.26772v -58.8854h 2.26772v 56.0813h
 2.26772v -8.4122h 2.26772v -14.0203h 2.26772v 2.80407h 2.26772v -28.0407h 2.26772v 25.2366h 2.26772v -28.0407h 2.26772v 33.6488h 2.26772v 36.4529h 2.26772v -2.80407h 2.26772v 19.6285h 2.26772v 8.4122h 2.26772v -2.80407h 2.26772v -44.865h 2.26772v
 47.6691h 2.26772v -14.0203h 2.26772v 11.2163h 2.26772v -36.4529h 2.26772v 42.061h 2.26772v 19.6285h 2.26772v -39.2569h 2.26772v 50.4732h 2.26772v -25.2366h 2.26772v 16.8244h 2.26772v -22.4325h 2.26772v 67.2976h 2.26772v -30.8447h 2.26772v 16.8244h
 2.26772v -5.60813h 2.26772v -2.80407h 2.26772v 8.4122h 2.26772v -2.80407h 2.26772v 8.4122h 2.26772v 16.8244h 2.26772v -2.80407h 2.26772v 25.2366h 2.26772v -16.8244h 2.26772v -5.60813h 2.26772v 11.2163h 4.53543v 2.80407h 2.26772v -8.4122h 2.26772v
 16.8244h 2.26772v -11.2163h 2.26772v 5.60813h 2.26772v 8.4122h 2.26772v 5.60813h 4.53543v 2.80407h 2.26772v -8.4122h 2.26772v 8.4122h 2.26772v -5.60813h 4.53543v 2.80407h 2.26772v -5.60813h 2.26772v 2.80407h 2.26772v 8.4122h 9.07087v -2.80407h
 4.53543v 2.80407h 9.07087v -2.80407h 2.26772v 2.80407h 49.8898" fill="none" stroke="#3366ff" stroke-width="2"/>
<rect x="340.657" y="38.4469" width="170.079" height="76.8938" fill="white"/>
<path d="M340.657,115.341h 170.079" fill="none" stroke="black"/>
<path d="M510.736,115.341v -76.8938" fill="none" stroke="black"/>
<path d="M510.736,38.4469h -170.079" fill="none" stroke="black"/>
<path d="M340.657,38.4469v 76.8938" fill="none" stroke="black"/>
<text x="382.526" y="60.2769" fill="black" font-size="8.87835" font-family="Helvetica">
MC 17mm Steel in Front
</text>
<path d="M347.035,71.1268h 29.7638v -26.9128h -29.7638z" fill="white"/>
<path d="M347.035,57.6704h 29.7638" fill="none" stroke="#000033" stroke-width="2"/>
<g stroke="black" stroke-width="2" fill="none">
<line x1="360.917" y1="57.6704" x2="361.917" y2="57.6704"/>
</g>
<text x="382.526" y="99.3755" fill="black" font-size="8.87835" font-family="Helvetica">
MC 50mm Steel in Front
</text>
<path d="M347.035,109.574h 29.7638v -26.9128h -29.7638z" fill="white"/>
<path d="M347.035,96.1173h 29.7638" fill="none" stroke="#3366ff" stroke-width="2"/>
<g stroke="black" stroke-width="2" fill="none">
<line x1="360.917" y1="96.1173" x2="361.917" y2="96.1173"/>
</g>
<text x="148.749" y="18.7347" fill="black" font-size="16.9898" font-family="Helvetica">
Number of Hits After Data Selection
</text></svg>
