<?xml version="1.0" standalone="no"?>
<svg width="567.429" height="384.969" viewBox="0 0 567.429 384.969" xmlns="http://www.w3.org/2000/svg">
<title>
../plots/17_06_05/pions_compare_mc_datamean_nHitsPerChip.svg
</title>
<desc>
Creator: ROOT Version 5.34/30
CreationDate: Mon Jun  5 16:57:04 2017</desc>
<defs>
</defs>
<rect x="0.5" y="0" width="566.929" height="384.469" fill="white"/>
<rect x="57.1929" y="38.4469" width="453.543" height="307.575" fill="white"/>
<rect x="57.1929" y="38.4469" width="453.543" height="307.575" fill="none" stroke="black"/>
<rect x="57.1929" y="38.4469" width="453.543" height="307.575" fill="white"/>
<rect x="57.1929" y="38.4469" width="453.543" height="307.575" fill="none" stroke="black"/>
<path d="M57.1929,292.734h 4.53543v -54.4691h 4.53543v -22.6762h 4.53543v -55.368h 4.53543v -3.33851h 4.53543v 32.2809h 4.53543v -41.3976h 4.53543v -56.1641h 4.53543v 30.74h 4.53543v -0.783267h 4.53543v 224.464h 4.53543v -230.601h 4.53543v 25.4112h
 4.53543v -9.15523h 4.53543v -2.99182h 4.53543v -2.68365h 4.53543v 220.021h 4.53543v -76.5162h 4.53543v -26.9649h 4.53543v -42.2707h 4.53543v 145.752h 36.2835v -6.65135h 4.53543v -14.5225h 4.53543v 4.90505h 4.53543v -223.295h 4.53543v 221.151h
 4.53543v 13.3669h 4.53543v -281.347h 4.53543v 267.081h 4.53543v -1.19416h 4.53543v -261.701h 4.53543v 275.864h 4.53543v -14.0988h 4.53543v -240.065h 4.53543v 241.708h 4.53543v -1.88754h 4.53543v 18.4389h 4.53543v -6.62567h 4.53543v -15.1902h
 4.53543v 1.48949h 4.53543v -263.64h 4.53543v 262.369h 4.53543v 17.386h 4.53543v -286.47h 4.53543v 269.213h 4.53543v 0.937352h 4.53543v -262.099h 4.53543v 278.073h 4.53543v -16.2175h 4.53543v -264.128h 4.53543v 264.654h 4.53543v 0.487937h 4.53543v
 14.4712h 4.53543v -1.43813h 4.53543v -16.8852h 4.53543v -0.0256809h 4.53543v -250.466h 4.53543v 249.31h 4.53543v 17.8739h 4.53543v -268.083h 4.53543v 252.34h 4.53543v -0.57782h 4.53543v -250.774h 4.53543v 267.646h 4.53543v -18.5159h 4.53543v
 -228.303h 4.53543v 230.396h 4.53543v -0.911671h 4.53543v 17.0393h 4.53543v 4.53267h 4.53543v -8.57741h 4.53543v 0.359532h 4.53543v -160.916h 4.53543v 160.056h 4.53543v 8.91126h 4.53543v -177.339h 4.53543v 169.237h 4.53543v -0.398054h 4.53543v
 -161.648h 4.53543v 171.214h 4.53543v -8.20504h 4.53543v -165.333h 4.53543v 165.077h 4.53543v -1.23268h 4.53543v 8.29492h 4.53543v -124.09h 4.53543v -3.65952h 4.53543v 3.10739h 4.53543v -1.73346h 4.53543v 131.255h 18.1417" fill="none"
 stroke="#000033" stroke-width="2"/>
<path d="M57.1929,346.022h 453.543" fill="none" stroke="black"/>
<text x="-104869" y="30764.1" fill="black" font-size="17636.7" font-family="Helvetica">
Chip Number
</text>
<path d="M57.1929,336.795v 9.22726" fill="none" stroke="black"/>
<path d="M66.2638,341.409v 4.61363" fill="none" stroke="black"/>
<path d="M75.3346,341.409v 4.61363" fill="none" stroke="black"/>
<path d="M84.4055,341.409v 4.61363" fill="none" stroke="black"/>
<path d="M93.4764,341.409v 4.61363" fill="none" stroke="black"/>
<path d="M102.547,336.795v 9.22726" fill="none" stroke="black"/>
<path d="M111.618,341.409v 4.61363" fill="none" stroke="black"/>
<path d="M120.689,341.409v 4.61363" fill="none" stroke="black"/>
<path d="M129.76,341.409v 4.61363" fill="none" stroke="black"/>
<path d="M138.831,341.409v 4.61363" fill="none" stroke="black"/>
<path d="M147.902,336.795v 9.22726" fill="none" stroke="black"/>
<path d="M156.972,341.409v 4.61363" fill="none" stroke="black"/>
<path d="M166.043,341.409v 4.61363" fill="none" stroke="black"/>
<path d="M175.114,341.409v 4.61363" fill="none" stroke="black"/>
<path d="M184.185,341.409v 4.61363" fill="none" stroke="black"/>
<path d="M193.256,336.795v 9.22726" fill="none" stroke="black"/>
<path d="M202.327,341.409v 4.61363" fill="none" stroke="black"/>
<path d="M211.398,341.409v 4.61363" fill="none" stroke="black"/>
<path d="M220.469,341.409v 4.61363" fill="none" stroke="black"/>
<path d="M229.539,341.409v 4.61363" fill="none" stroke="black"/>
<path d="M238.61,336.795v 9.22726" fill="none" stroke="black"/>
<path d="M247.681,341.409v 4.61363" fill="none" stroke="black"/>
<path d="M256.752,341.409v 4.61363" fill="none" stroke="black"/>
<path d="M265.823,341.409v 4.61363" fill="none" stroke="black"/>
<path d="M274.894,341.409v 4.61363" fill="none" stroke="black"/>
<path d="M283.965,336.795v 9.22726" fill="none" stroke="black"/>
<path d="M293.035,341.409v 4.61363" fill="none" stroke="black"/>
<path d="M302.106,341.409v 4.61363" fill="none" stroke="black"/>
<path d="M311.177,341.409v 4.61363" fill="none" stroke="black"/>
<path d="M320.248,341.409v 4.61363" fill="none" stroke="black"/>
<path d="M329.319,336.795v 9.22726" fill="none" stroke="black"/>
<path d="M338.39,341.409v 4.61363" fill="none" stroke="black"/>
<path d="M347.461,341.409v 4.61363" fill="none" stroke="black"/>
<path d="M356.531,341.409v 4.61363" fill="none" stroke="black"/>
<path d="M365.602,341.409v 4.61363" fill="none" stroke="black"/>
<path d="M374.673,336.795v 9.22726" fill="none" stroke="black"/>
<path d="M383.744,341.409v 4.61363" fill="none" stroke="black"/>
<path d="M392.815,341.409v 4.61363" fill="none" stroke="black"/>
<path d="M401.886,341.409v 4.61363" fill="none" stroke="black"/>
<path d="M410.957,341.409v 4.61363" fill="none" stroke="black"/>
<path d="M420.028,336.795v 9.22726" fill="none" stroke="black"/>
<path d="M429.098,341.409v 4.61363" fill="none" stroke="black"/>
<path d="M438.169,341.409v 4.61363" fill="none" stroke="black"/>
<path d="M447.24,341.409v 4.61363" fill="none" stroke="black"/>
<path d="M456.311,341.409v 4.61363" fill="none" stroke="black"/>
<path d="M465.382,336.795v 9.22726" fill="none" stroke="black"/>
<path d="M474.453,341.409v 4.61363" fill="none" stroke="black"/>
<path d="M483.524,341.409v 4.61363" fill="none" stroke="black"/>
<path d="M492.594,341.409v 4.61363" fill="none" stroke="black"/>
<path d="M501.665,341.409v 4.61363" fill="none" stroke="black"/>
<path d="M510.736,336.795v 9.22726" fill="none" stroke="black"/>
<text x="46.115" y="358.403" fill="black" font-size="12.8453" font-family="Helvetica">
140
</text>
<text x="91.73" y="358.403" fill="black" font-size="12.8453" font-family="Helvetica">
150
</text>
<text x="136.53" y="358.403" fill="black" font-size="12.8453" font-family="Helvetica">
160
</text>
<text x="182.145" y="358.403" fill="black" font-size="12.8453" font-family="Helvetica">
170
</text>
<text x="227.76" y="358.403" fill="black" font-size="12.8453" font-family="Helvetica">
180
</text>
<text x="273.375" y="358.403" fill="black" font-size="12.8453" font-family="Helvetica">
190
</text>
<text x="318.176" y="358.403" fill="black" font-size="12.8453" font-family="Helvetica">
200
</text>
<text x="363.791" y="358.403" fill="black" font-size="12.8453" font-family="Helvetica">
210
</text>
<text x="409.406" y="358.403" fill="black" font-size="12.8453" font-family="Helvetica">
220
</text>
<text x="454.206" y="358.403" fill="black" font-size="12.8453" font-family="Helvetica">
230
</text>
<text x="499.821" y="358.403" fill="black" font-size="12.8453" font-family="Helvetica">
240
</text>
<path d="M57.1929,346.022v -307.575" fill="none" stroke="black"/>
<g transform="rotate(-90,-13.3474,184.089)">
<text x="-13.3474" y="184.089" fill="black" font-size="19.1824" font-family="Helvetica">
&lt;# Hits per Chip&gt;
</text>
</g>
<path d="M70.7992,346.022h -13.6063" fill="none" stroke="black"/>
<path d="M63.9961,335.422h -6.80315" fill="none" stroke="black"/>
<path d="M63.9961,324.823h -6.80315" fill="none" stroke="black"/>
<path d="M63.9961,314.223h -6.80315" fill="none" stroke="black"/>
<path d="M63.9961,303.623h -6.80315" fill="none" stroke="black"/>
<path d="M70.7992,293.023h -13.6063" fill="none" stroke="black"/>
<path d="M63.9961,282.424h -6.80315" fill="none" stroke="black"/>
<path d="M63.9961,271.824h -6.80315" fill="none" stroke="black"/>
<path d="M63.9961,261.224h -6.80315" fill="none" stroke="black"/>
<path d="M63.9961,250.624h -6.80315" fill="none" stroke="black"/>
<path d="M70.7992,240.024h -13.6063" fill="none" stroke="black"/>
<path d="M63.9961,229.425h -6.80315" fill="none" stroke="black"/>
<path d="M63.9961,218.825h -6.80315" fill="none" stroke="black"/>
<path d="M63.9961,208.225h -6.80315" fill="none" stroke="black"/>
<path d="M63.9961,197.625h -6.80315" fill="none" stroke="black"/>
<path d="M70.7992,187.026h -13.6063" fill="none" stroke="black"/>
<path d="M63.9961,176.426h -6.80315" fill="none" stroke="black"/>
<path d="M63.9961,165.826h -6.80315" fill="none" stroke="black"/>
<path d="M63.9961,155.226h -6.80315" fill="none" stroke="black"/>
<path d="M63.9961,144.626h -6.80315" fill="none" stroke="black"/>
<path d="M70.7992,134.027h -13.6063" fill="none" stroke="black"/>
<path d="M63.9961,123.427h -6.80315" fill="none" stroke="black"/>
<path d="M63.9961,112.827h -6.80315" fill="none" stroke="black"/>
<path d="M63.9961,102.227h -6.80315" fill="none" stroke="black"/>
<path d="M63.9961,91.6275h -6.80315" fill="none" stroke="black"/>
<path d="M70.7992,81.0277h -13.6063" fill="none" stroke="black"/>
<path d="M70.7992,81.0277h -13.6063" fill="none" stroke="black"/>
<path d="M63.9961,70.428h -6.80315" fill="none" stroke="black"/>
<path d="M63.9961,59.8282h -6.80315" fill="none" stroke="black"/>
<path d="M63.9961,49.2284h -6.80315" fill="none" stroke="black"/>
<path d="M63.9961,38.6286h -6.80315" fill="none" stroke="black"/>
<text x="44.4859" y="352.702" fill="black" font-size="19.1824" font-family="Helvetica">
0
</text>
<text x="28.1948" y="299.756" fill="black" font-size="19.1824" font-family="Helvetica">
0.5
</text>
<text x="46.9295" y="246.81" fill="black" font-size="19.1824" font-family="Helvetica">
1
</text>
<text x="28.1948" y="193.864" fill="black" font-size="19.1824" font-family="Helvetica">
1.5
</text>
<text x="44.4859" y="140.918" fill="black" font-size="19.1824" font-family="Helvetica">
2
</text>
<text x="28.1948" y="87.9718" fill="black" font-size="19.1824" font-family="Helvetica">
2.5
</text>
<path d="M57.1929,328.171h 4.53543v -19.3335h 4.53543v -21.3777h 4.53543v -111.941h 4.53543v -71.5634h 4.53543v 74.3292h 4.53543v -99.7972h 4.53543v -40.0403" fill="none" stroke="#3366ff" stroke-width="2"/>
<path d="M93.4764,38.4469v 0.673878" fill="none" stroke="#3366ff" stroke-width="2"/>
<path d="M93.4764,39.1208h 4.53543v 21.3659h 4.53543v 285.536h 4.53543v -307.575" fill="none" stroke="#3366ff" stroke-width="2"/>
<path d="M111.618,38.4469v 54.0505" fill="none" stroke="#3366ff" stroke-width="2"/>
<path d="M111.618,92.4974h 4.53543v -0.880718h 4.53543v -8.4261h 4.53543v -44.7437" fill="none" stroke="#3366ff" stroke-width="2"/>
<path d="M129.76,38.4469v 307.575" fill="none" stroke="#3366ff" stroke-width="2"/>
<path d="M129.76,346.022h 4.53543v -90.6411h 4.53543v -3.20277h 4.53543v -87.208h 4.53543v 181.052h 36.2835v -5.67047h 4.53543v -12.1251h 4.53543v 0.823133h 4.53543v -239.554h 4.53543v 239.178h 4.53543v 12.308h 4.53543v -276.374h 4.53543v 261.446h
 4.53543v -4.00727h 4.53543v -283.599" fill="none" stroke="#3366ff" stroke-width="2"/>
<path d="M229.539,38.4469v 299.39" fill="none" stroke="#3366ff" stroke-width="2"/>
<path d="M229.539,337.837h 4.53543v -15.9461h 4.53543v -256.668h 4.53543v 262.085h 4.53543v -3.10453h 4.53543v 19.5553h 4.53543v -5.12171h 4.53543v -13.5919h 4.53543v -0.545368h 4.53543v -256.551h 4.53543v 256.513h 4.53543v 15.4109h 4.53543v
 -275.229h 4.53543v 259.649h 4.53543v -1.46335h 4.53543v -283.876h 4.53543v 300.223h 4.53543v -16.3289h 4.53543v -284.399" fill="none" stroke="#3366ff" stroke-width="2"/>
<path d="M315.713,38.4469v 285.141" fill="none" stroke="#3366ff" stroke-width="2"/>
<path d="M315.713,323.588h 4.53543v -0.889187h 4.53543v 15.6548h 4.53543v -2.35761h 4.53543v -15.2889h 4.53543v -1.53448h 4.53543v -241.674h 4.53543v 241.872h 4.53543v 17.0571h 4.53543v -242.008h 4.53543v 225.574h 4.53543v -1.74619h 4.53543v
 -254.406h 4.53543v 272.154h 4.53543v -17.7668h 4.53543v -222.481h 4.53543v 224.188h 4.53543v -1.75636h 4.53543v 17.4077h 4.53543v 1.91556h 4.53543v -13.7477h 4.53543v -1.1805h 4.53543v -173.435h 4.53543v 174.294h 4.53543v 14.0627h 4.53543v -180.788h
 4.53543v 168.656h 4.53543v -2.98089h 4.53543v -179.568h 4.53543v 194.744h 4.53543v -13.9272h 4.53543v -173.173h 4.53543v 174.135h 4.53543v -1.58529h 4.53543v 14.2541h 4.53543v -136.65h 4.53543v 3.12655h 4.53543v -29.0383h 4.53543v -0.370918h
 4.53543v 171.693h 18.1417" fill="none" stroke="#3366ff" stroke-width="2"/>
<rect x="340.657" y="38.4469" width="170.079" height="76.8938" fill="white"/>
<path d="M340.657,115.341h 170.079" fill="none" stroke="black"/>
<path d="M510.736,115.341v -76.8938" fill="none" stroke="black"/>
<path d="M510.736,38.4469h -170.079" fill="none" stroke="black"/>
<path d="M340.657,38.4469v 76.8938" fill="none" stroke="black"/>
<text x="382.526" y="65.9788" fill="black" font-size="20.1099" font-family="Helvetica">
Simulation
</text>
<path d="M347.035,71.1268h 29.7638v -26.9128h -29.7638z" fill="white"/>
<path d="M347.035,57.6704h 29.7638" fill="none" stroke="#000033" stroke-width="2"/>
<g stroke="black" stroke-width="2" fill="none">
<line x1="360.917" y1="57.6704" x2="361.917" y2="57.6704"/>
</g>
<text x="382.526" y="104.263" fill="black" font-size="20.1099" font-family="Helvetica">
Data
</text>
<path d="M347.035,109.574h 29.7638v -26.9128h -29.7638z" fill="white"/>
<path d="M347.035,96.1173h 29.7638" fill="none" stroke="#3366ff" stroke-width="2"/>
<g stroke="black" stroke-width="2" fill="none">
<line x1="360.917" y1="96.1173" x2="361.917" y2="96.1173"/>
</g>
<text x="99.061" y="17.9202" fill="black" font-size="16.2384" font-family="Helvetica">
Mean Number of Hits per Chip After Data Selection
</text></svg>
