<?xml version="1.0" standalone="no"?>
<svg width="567.429" height="384.969" viewBox="0 0 567.429 384.969" xmlns="http://www.w3.org/2000/svg">
<title>
../plots/17_06_05/pions_compare_mc_17steel_near_far_energySum.svg
</title>
<desc>
Creator: ROOT Version 5.34/30
CreationDate: Mon Jun  5 19:28:50 2017</desc>
<defs>
</defs>
<rect x="0.5" y="0" width="566.929" height="384.469" fill="white"/>
<rect x="57.1929" y="38.4469" width="453.543" height="307.575" fill="white"/>
<rect x="57.1929" y="38.4469" width="453.543" height="307.575" fill="none" stroke="black"/>
<rect x="57.1929" y="38.4469" width="453.543" height="307.575" fill="white"/>
<rect x="57.1929" y="38.4469" width="453.543" height="307.575" fill="none" stroke="black"/>
<path d="M57.1929,346.022h 13.1528v -12.736h 0.453543v 12.736h 0.453543v -25.4721h 0.907087v 25.4721h 0.907087v -38.2081h 0.453543v 25.4721h 0.453543v -12.736h 0.453543v 12.736h 0.453543v -38.2081h 0.453543v 25.4721h 0.453543v 12.736h 0.453543v
 -12.736h 0.453543v 12.736h 0.453543v -25.4721h 0.453543v -12.736h 0.453543v 38.2081h 0.453543v -50.9442h 0.453543v 25.4721h 0.453543v -12.736h 0.453543v -12.736h 0.453543v 38.2081h 0.453543v -12.736h 0.453543v -12.736h 0.453543v 12.736h 1.36063v
 -25.4721h 0.453543v 12.736h 0.453543v -25.4721h 0.453543v 12.736h 0.453543v -38.2081h 0.453543v 25.4721h 0.453543v 50.9442h 0.453543v -89.1523h 1.36063v -12.736h 0.453543v 63.6802h 0.453543v -38.2081h 0.907087v 50.9442h 0.453543v 12.736h 0.453543v
 -89.1523h 0.453543v -25.4721h 0.453543v 63.6802h 0.453543v -12.736h 0.453543v 50.9442h 0.453543v -101.888h 0.453543v 63.6802h 0.453543v -25.4721h 0.453543v -63.6802h 0.453543v 63.6802h 0.907087v 12.736h 0.453543v -25.4721h 0.453543v 38.2081h
 0.907087v -12.736h 0.907087v -38.2081h 0.453543v 63.6802h 0.907087v -25.4721h 0.453543v -12.736h 0.453543v 38.2081h 0.453543v -63.6802h 0.907087v 76.4162h 0.453543v -63.6802h 0.453543v -12.736h 0.453543v 38.2081h 0.453543v 63.6802h 0.453543v
 -50.9442h 0.453543v -50.9442h 0.453543v 38.2081h 0.453543v -76.4162h 0.453543v 101.888h 0.907087v -76.4162h 0.453543v 25.4721h 0.453543v 38.2081h 0.453543v -63.6802h 0.453543v -50.9442h 0.453543v 25.4721h 0.907087v 114.624h 0.453543v -25.4721h
 0.453543v -25.4721h 0.453543v -50.9442h 0.453543v 12.736h 0.907087v 38.2081h 0.453543v -50.9442h 0.453543v -38.2081h 0.453543v 63.6802h 0.453543v 50.9442h 0.453543v -38.2081h 0.453543v -50.9442h 0.907087v 63.6802h 0.453543v -63.6802h 0.453543v
 38.2081h 0.453543v -50.9442h 0.453543v 25.4721h 0.453543v 89.1523h 0.453543v -12.736h 0.453543v -114.624h 0.453543v 63.6802h 0.453543v -12.736h 0.453543v -25.4721h 0.907087v 12.736h 0.907087v -63.6802h 0.453543v 89.1523h 0.907087v 38.2081h 0.453543v
 -38.2081h 1.36063v -76.4162h 0.453543v 114.624h 0.453543v -76.4162h 0.453543v 25.4721h 0.453543v -25.4721h 0.453543v 12.736h 0.453543v 38.2081h 0.453543v 25.4721h 0.453543v -76.4162h 0.453543v 63.6802h 0.453543v -12.736h 0.907087v -38.2081h
 0.453543v -25.4721h 0.907087v 76.4162h 0.453543v -25.4721h 0.453543v 101.888h 0.453543v -50.9442h 0.453543v -114.624h 0.453543v 63.6802h 0.907087v -101.888h 0.453543v 89.1523h 0.453543v -25.4721h 0.453543v 12.736h 0.453543v 25.4721h 0.453543v
 63.6802h 0.453543v -63.6802h 0.453543v -63.6802h 0.453543v -25.4721h 0.453543v 114.624h 0.453543v -127.36h 0.453543v 101.888h 0.453543v -76.4162h 0.453543v 12.736h 0.453543v 12.736h 0.453543v 63.6802h 0.453543v -63.6802h 0.453543v 25.4721h 0.453543v
 -38.2081h 0.453543v 50.9442h 0.453543v 25.4721h 0.453543v -63.6802h 0.453543v -12.736h 0.453543v -12.736h 0.453543v 114.624h 0.453543v -76.4162h 0.453543v 25.4721h 0.453543v 12.736h 0.453543v -101.888h 0.453543v 63.6802h 0.453543v 38.2081h 0.453543v
 -38.2081h 0.453543v -12.736h 0.907087v 25.4721h 0.453543v -25.4721h 0.453543v 89.1523h 0.453543v 12.736h 0.453543v -50.9442h 0.453543v -76.4162h 0.453543v 63.6802h 0.453543v -38.2081h 0.453543v 50.9442h 0.453543v -50.9442h 0.453543v 76.4162h
 0.453543v 38.2081h 0.453543v -89.1523h 0.907087v 63.6802h 0.453543v -127.36h 0.453543v 12.736h 0.453543v 12.736h 0.453543v 63.6802h 0.453543v -89.1523h 0.453543v 114.624h 0.453543v -76.4162h 0.453543v 25.4721h 0.907087v -38.2081h 0.453543v 50.9442h
 0.453543v 101.888h 0.453543v -140.096h 0.453543v 76.4162h 0.453543v 12.736h 0.453543v 38.2081h 0.453543v -12.736h 0.453543v -63.6802h 0.453543v 50.9442h 0.907087v 12.736h 0.453543v -50.9442h 0.453543v -38.2081h 0.453543v -50.9442h 0.453543v 101.888h
 0.907087v -38.2081h 0.453543v -12.736h 0.453543v -12.736h 0.453543v 50.9442h 0.453543v 89.1523h 0.453543v -114.624h 0.453543v 50.9442h 0.453543v -38.2081h 0.453543v 63.6802h 0.453543v -101.888h 0.453543v 76.4162h 0.453543v -38.2081h 0.453543v
 63.6802h 0.453543v 12.736h 0.453543v -89.1523h 0.453543v -63.6802h 0.453543v 89.1523h 0.453543v 38.2081h 0.453543v 12.736h 0.453543v -76.4162h 0.453543v 12.736h 0.453543v 25.4721h 0.453543v 12.736h 0.453543v -25.4721h 0.453543v 38.2081h 0.453543v
 -12.736h 0.453543v 25.4721h 0.453543v -50.9442h 0.453543v -38.2081h 0.453543v 114.624h 0.453543v -127.36h 0.453543v 89.1523h 0.453543v -114.624h 0.453543v 25.4721h 0.453543v 63.6802h 0.453543v -38.2081h 0.453543v 114.624h 0.453543v -101.888h
 0.453543v 38.2081h 0.907087v 12.736h 0.453543v -50.9442h 0.453543v 12.736h 0.453543v 12.736h 0.453543v 50.9442h 0.453543v -63.6802h 0.453543v -12.736h 0.453543v 38.2081h 0.453543v 12.736h 0.453543v 25.4721h 0.453543v -38.2081h 0.453543v 50.9442h
 0.453543v -63.6802h 0.453543v 76.4162h 0.453543v -38.2081h 0.453543v -25.4721h 0.453543v 12.736h 0.907087v 38.2081h 0.453543v -38.2081h 0.907087v -12.736h 0.453543v -38.2081h 0.453543v -12.736h 0.453543v 12.736h 0.453543v -38.2081h 0.453543v 12.736h
 0.453543v 89.1523h 0.453543v 50.9442h 0.453543v -50.9442h 0.453543v -12.736h 0.453543v -25.4721h 0.453543v -12.736h 0.907087v 63.6802h 0.453543v -114.624h 0.453543v 140.096h 0.907087v -63.6802h 0.453543v 12.736h 0.453543v -76.4162h 0.453543v
 76.4162h 0.453543v 38.2081h 0.453543v -25.4721h 0.453543v -38.2081h 0.453543v -12.736h 0.453543v 25.4721h 0.453543v 38.2081h 0.453543v -50.9442h 0.453543v 50.9442h 0.453543v -25.4721h 0.907087v -12.736h 0.453543v -25.4721h 0.453543v 50.9442h
 0.907087v -25.4721h 0.453543v 12.736h 0.453543v -50.9442h 0.453543v 25.4721h 0.907087v 25.4721h 0.453543v 25.4721h 0.453543v -25.4721h 0.453543v 12.736h 1.36063v -63.6802h 0.453543v 25.4721h 0.453543v -25.4721h 0.453543v 50.9442h 0.453543v 12.736h
 0.453543v 12.736h 0.453543v -76.4162h 0.453543v 101.888h 0.453543v -12.736h 0.453543v -25.4721h 0.907087v -50.9442h 0.453543v 25.4721h 0.453543v 25.4721h 0.907087v -12.736h 0.453543v -25.4721h 0.453543v 63.6802h 0.453543v -76.4162h 0.453543v
 63.6802h 0.453543v -127.36h 0.453543v 114.624h 0.453543v -38.2081h 0.453543v 50.9442h 0.453543v -63.6802h 0.453543v -12.736h 0.453543v 63.6802h 0.453543v -25.4721h 0.453543v 25.4721h 0.453543v -50.9442h 0.453543v 12.736h 0.453543v -25.4721h
 0.453543v 12.736h 0.453543v 38.2081h 0.453543v -12.736h 0.453543v 12.736h 0.453543v 25.4721h 0.453543v -12.736h 0.453543v -50.9442h 0.453543v 12.736h 0.453543v -50.9442h 0.453543v 50.9442h 0.453543v -12.736h 0.453543v 12.736h 0.453543v -12.736h
 0.453543v -38.2081h 0.453543v 89.1523h 0.453543v -25.4721h 0.453543v 12.736h 0.453543v -38.2081h 0.453543v -76.4162h 0.453543v 63.6802h 0.453543v 38.2081h 0.453543v -63.6802h 0.453543v 50.9442h 0.453543v 12.736h 0.453543v 12.736h 0.453543v -25.4721h
 0.453543v 12.736h 0.453543v 38.2081h 0.453543v -101.888h 0.453543v 63.6802h 0.453543v -12.736h 0.453543v -25.4721h 0.907087v 25.4721h 0.907087v 38.2081h 0.453543v -12.736h 0.453543v 12.736h 0.453543v 12.736h 0.453543v -25.4721h 0.453543v -25.4721h
 0.453543v 12.736h 0.453543v 25.4721h 0.453543v -76.4162h 0.453543v 12.736h 0.453543v -50.9442h 0.453543v 76.4162h 0.453543v 76.4162h 0.453543v -101.888h 0.453543v 38.2081h 0.453543v -25.4721h 0.453543v 12.736h 0.453543v -89.1523h 0.453543v 89.1523h
 0.453543v 38.2081h 0.453543v -12.736h 0.907087v -38.2081h 0.453543v -25.4721h 0.453543v 63.6802h 0.453543v -50.9442h 0.453543v 50.9442h 0.453543v -50.9442h 1.36063v 50.9442h 0.453543v -38.2081h 0.453543v 76.4162h 0.453543v -140.096h 0.453543v
 101.888h 0.453543v -25.4721h 0.453543v -76.4162h 0.453543v 127.36h 0.453543v -25.4721h 0.453543v -63.6802h 0.453543v -25.4721h 0.453543v 89.1523h 0.453543v 12.736h 0.453543v -50.9442h 0.453543v -12.736h 0.453543v 50.9442h 0.453543v -114.624h
 0.453543v 76.4162h 0.453543v 12.736h 0.453543v -25.4721h 0.453543v -63.6802h 0.453543v 101.888h 0.453543v -63.6802h 0.453543v 12.736h 0.907087v 12.736h 0.453543v 12.736h 0.453543v 38.2081h 0.453543v -76.4162h 0.453543v 12.736h 0.453543v 25.4721h
 0.453543v 12.736h 0.453543v -12.736h 0.453543v -63.6802h 0.453543v 25.4721h 0.453543v -12.736h 0.907087v -38.2081h 0.453543v 76.4162h 0.453543v 38.2081h 0.453543v -101.888h 0.453543v 38.2081h 0.453543v 25.4721h 0.453543v -25.4721h 0.453543v 38.2081h
 0.453543v 12.736h 0.453543v -63.6802h 0.453543v 50.9442h 0.453543v -12.736h 0.907087v -76.4162h 0.453543v 76.4162h 0.453543v 38.2081h 0.907087v -89.1523h 0.453543v 50.9442h 0.453543v 12.736h 0.453543v -89.1523h 0.453543v 76.4162h 0.453543v -63.6802h
 0.453543v -12.736h 0.453543v 38.2081h 0.453543v 25.4721h 0.453543v 12.736h 0.453543v 12.736h 0.453543v 25.4721h 0.453543v -101.888h 0.453543v -12.736h 0.453543v 63.6802h 0.453543v -25.4721h 0.453543v -12.736h 0.453543v 25.4721h 0.453543v -25.4721h
 0.453543v 50.9442h 0.907087v 12.736h 0.453543v -140.096h 0.453543v -12.736h 0.453543v 76.4162h 0.907087v 12.736h 0.453543v 63.6802h 0.453543v -89.1523h 0.453543v 101.888h 0.453543v -63.6802h 0.453543v -12.736h 0.453543v -38.2081h 0.453543v 127.36h
 0.453543v -76.4162h 0.907087v -89.1523h 0.453543v 76.4162h 0.907087v 76.4162h 0.453543v -38.2081h 0.453543v -25.4721h 0.453543v -25.4721h 0.453543v -63.6802h 0.453543v 101.888h 0.907087v 12.736h 0.453543v -38.2081h 0.453543v -76.4162h 0.453543v
 114.624h 0.453543v -12.736h 0.453543v 12.736h 0.453543v -12.736h 0.453543v 25.4721h 0.453543v -12.736h 0.453543v -127.36h 0.453543v -12.736h 0.453543v 50.9442h 0.453543v 89.1523h 0.453543v -76.4162h 0.453543v 50.9442h 0.453543v 89.1523h 0.453543v
 -76.4162h 0.453543v -50.9442h 0.453543v 25.4721h 0.453543v 89.1523h 0.453543v -50.9442h 0.453543v 25.4721h 0.453543v -63.6802h 0.453543v 63.6802h 0.453543v -89.1523h 0.453543v 38.2081h 0.907087v -76.4162h 0.453543v 101.888h 0.453543v 25.4721h
 0.453543v -50.9442h 0.453543v 12.736h 0.453543v 12.736h 0.453543v -25.4721h 0.453543v -12.736h 0.453543v -38.2081h 0.453543v 127.36h 0.453543v -89.1523h 0.453543v 12.736h 0.453543v 25.4721h 0.453543v 25.4721h 0.453543v -38.2081h 0.453543v 12.736h
 0.453543v -89.1523h 0.453543v 114.624h 0.453543v -165.568h 0.453543v 191.041h 0.453543v -63.6802h 0.453543v -114.624h 0.453543v 38.2081h 0.453543v 50.9442h 0.453543v -25.4721h 0.453543v 63.6802h 0.453543v 38.2081h 0.453543v -38.2081h 0.453543v
 38.2081h 0.453543v -101.888h 0.453543v 25.4721h 0.453543v 63.6802h 0.453543v -25.4721h 0.453543v -50.9442h 0.453543v 50.9442h 0.907087v 50.9442h 0.453543v -89.1523h 0.453543v -25.4721h 0.453543v 50.9442h 0.453543v 25.4721h 0.453543v 25.4721h
 0.453543v -63.6802h 0.453543v -25.4721h 0.453543v 50.9442h 0.453543v 12.736h 0.453543v -101.888h 0.453543v 101.888h 0.907087v -25.4721h 0.453543v 50.9442h 0.453543v -50.9442h 0.907087v -12.736h 0.453543v 50.9442h 0.453543v 38.2081h 0.453543v
 -76.4162h 0.453543v 50.9442h 0.453543v 25.4721h 0.453543v -63.6802h 0.453543v 12.736h 0.453543v 38.2081h 0.453543v -25.4721h 0.453543v -101.888h 0.453543v 89.1523h 0.453543v -25.4721h 0.907087v -38.2081h 0.453543v 25.4721h 0.453543v 63.6802h
 0.453543v -25.4721h 1.36063v -63.6802h 0.907087v 76.4162h 0.453543v 63.6802h 0.453543v -89.1523h 0.453543v 25.4721h 0.453543v -76.4162h 0.453543v 76.4162h 0.453543v -38.2081h 0.453543v 63.6802h 0.453543v 12.736h 0.453543v -50.9442h 0.453543v
 -25.4721h 0.453543v -76.4162h 0.453543v 165.568h 0.453543v -89.1523h 0.453543v 76.4162h 0.453543v -25.4721h 0.453543v -76.4162h 0.453543v -12.736h 0.453543v 140.096h 0.453543v -12.736h 0.453543v -101.888h 0.453543v 25.4721h 0.453543v -76.4162h
 0.453543v 89.1523h 0.453543v -50.9442h 0.453543v 12.736h 0.453543v 38.2081h 0.453543v 50.9442h 0.453543v -12.736h 0.907087v -25.4721h 0.453543v 12.736h 0.453543v 38.2081h 0.453543v -38.2081h 0.453543v -12.736h 0.453543v 50.9442h 0.453543v -63.6802h
 0.453543v -12.736h 0.453543v 50.9442h 0.453543v -101.888h 0.907087v 63.6802h 0.453543v 38.2081h 0.453543v 38.2081h 0.453543v -76.4162h 0.453543v 38.2081h 0.453543v -101.888h 0.453543v 12.736h 0.453543v 127.36h 0.453543v -50.9442h 0.453543v 38.2081h
 0.907087v -63.6802h 0.453543v -12.736h 0.453543v -25.4721h 0.907087v 89.1523h 0.453543v -38.2081h 0.453543v 76.4162h 0.453543v -63.6802h 1.36063v 63.6802h 0.453543v -63.6802h 0.453543v 50.9442h 0.453543v -12.736h 0.907087v -101.888h 0.453543v
 12.736h 0.453543v 50.9442h 0.453543v -12.736h 0.453543v -25.4721h 0.907087v -38.2081h 0.453543v 63.6802h 0.453543v 38.2081h 0.453543v -63.6802h 0.453543v 25.4721h 0.453543v 63.6802h 0.453543v -101.888h 0.453543v -25.4721h 0.453543v 127.36h 0.453543v
 -101.888h 0.453543v 12.736h 0.453543v -38.2081h 0.453543v 127.36h 0.453543v -89.1523h 0.907087v 63.6802h 0.453543v -63.6802h 0.453543v 12.736h 0.453543v 50.9442h 0.453543v -38.2081h 0.453543v -38.2081h 0.453543v 89.1523h 0.453543v 38.2081h 0.453543v
 -140.096h 0.453543v 63.6802h 0.453543v 12.736h 0.907087v 12.736h 0.453543v -12.736h 0.453543v 38.2081h 0.453543v -76.4162h 0.453543v 76.4162h 0.453543v -76.4162h 0.453543v 76.4162h 0.453543v 12.736h 0.453543v -12.736h 0.453543v 25.4721h 0.453543v
 -25.4721h 0.453543v 25.4721h 0.453543v -76.4162h 0.453543v 89.1523h 0.453543v -76.4162h 0.453543v 25.4721h 0.907087v -12.736h 0.453543v -12.736h 0.907087v 38.2081h 0.453543v -38.2081h 0.453543v -50.9442h 0.453543v 89.1523h 0.453543v 25.4721h
 0.453543v -63.6802h 0.453543v 50.9442h 0.453543v 12.736h 0.453543v -63.6802h 0.453543v 50.9442h 0.453543v -101.888h 0.453543v 50.9442h 0.453543v -25.4721h 0.453543v 38.2081h 0.453543v 12.736h 0.453543v 25.4721h 0.453543v 12.736h 0.453543v -38.2081h
 0.453543v 50.9442h 0.453543v -140.096h 0.453543v 63.6802h 0.453543v 76.4162h 0.453543v -12.736h 0.907087v 25.4721h 0.453543v -89.1523h 0.453543v -12.736h 0.453543v 76.4162h 0.453543v -38.2081h 0.453543v 38.2081h 0.453543v -50.9442h 0.453543v
 50.9442h 0.907087v 12.736h 0.453543v -50.9442h 0.907087v 12.736h 0.907087v 25.4721h 0.907087v -38.2081h 0.907087v 25.4721h 0.453543v -38.2081h 0.453543v 38.2081h 0.907087v -12.736h 0.907087v 38.2081h 0.907087v -38.2081h 0.453543v 25.4721h 0.453543v
 -76.4162h 0.453543v 38.2081h 0.453543v 50.9442h 0.453543v -25.4721h 0.453543v 12.736h 0.453543v -50.9442h 0.453543v 38.2081h 0.907087v 38.2081h 0.453543v -12.736h 0.453543v -38.2081h 0.453543v 38.2081h 0.453543v -12.736h 0.453543v -38.2081h
 0.453543v 25.4721h 0.907087v -12.736h 0.453543v -12.736h 0.453543v 50.9442h 0.907087v -25.4721h 0.453543v 50.9442h 0.453543v -50.9442h 0.453543v -38.2081h 0.453543v 25.4721h 0.907087v 38.2081h 0.453543v -12.736h 0.453543v -12.736h 1.36063v 25.4721h
 0.453543v -12.736h 0.907087v -12.736h 0.907087v 12.736h 0.453543v 12.736h 0.453543v -12.736h 0.907087v 25.4721h 0.453543v -38.2081h 0.453543v 38.2081h 0.453543v 12.736h 0.453543v -63.6802h 0.453543v 38.2081h 1.81417v -12.736h 0.453543v 12.736h
 0.453543v 12.736h 0.453543v -38.2081h 0.453543v 25.4721h 0.453543v 12.736h 0.907087v -12.736h 0.453543v -38.2081h 0.907087v 50.9442h 0.453543v -25.4721h 0.453543v -12.736h 0.907087v 12.736h 0.453543v 25.4721h 0.453543v -12.736h 0.907087v 25.4721h
 0.453543v -12.736h 0.453543v -12.736h 0.453543v 12.736h 0.453543v -25.4721h 0.453543v 25.4721h 0.453543v -12.736h 0.453543v -12.736h 0.453543v 12.736h 0.907087v 12.736h 0.453543v -12.736h 0.907087v -25.4721h 0.453543v 12.736h 0.453543v 38.2081h
 0.453543v -12.736h 0.907087v -12.736h 0.453543v 12.736h 0.907087v -12.736h 0.453543v -12.736h 0.907087v 38.2081h 0.453543v -25.4721h 0.453543v 25.4721h 0.453543v -38.2081h 0.453543v 25.4721h 0.907087v -12.736h 0.453543v 12.736h 1.81417v -12.736h
 0.453543v -12.736h 0.453543v 38.2081h 0.453543v -12.736h 0.453543v 12.736h 0.453543v -25.4721h 0.907087v 25.4721h 0.907087v -12.736h 0.453543v -38.2081h 0.453543v 50.9442h 0.453543v -25.4721h 0.453543v 25.4721h 0.453543v -25.4721h 0.453543v 12.736h
 0.453543v 12.736h 0.453543v -12.736h 0.453543v -50.9442h 0.453543v 63.6802h 0.453543v -50.9442h 0.453543v 38.2081h 0.453543v -12.736h 0.453543v 12.736h 0.453543v 12.736h 0.907087v -12.736h 1.81417v -12.736h 0.453543v 12.736h 0.453543v 12.736h
 0.453543v -12.736h 0.453543v 12.736h 0.907087v -25.4721h 0.453543v 12.736h 0.907087v 12.736h 0.907087v -12.736h 0.453543v -12.736h 0.453543v 25.4721h 0.453543v -12.736h 0.907087v -12.736h 0.907087v 12.736h 0.907087v 12.736h 0.907087v -12.736h
 0.453543v 12.736h 0.453543v -12.736h 0.453543v 12.736h 0.453543v -12.736h 1.81417v -25.4721h 0.453543v 25.4721h 0.453543v 12.736h 0.907087v -12.736h 0.453543v -12.736h 0.453543v 25.4721h 0.453543v -25.4721h 0.453543v 12.736h 1.36063v 12.736h
 0.453543" fill="none" stroke="#000033" stroke-width="2"/>
<path d="M57.1929,346.022h 453.543" fill="none" stroke="black"/>
<text x="-143890" y="30764.1" fill="black" font-size="17636.7" font-family="Helvetica">
Energy Sum [MIP]
</text>
<path d="M57.1929,336.795v 9.22726" fill="none" stroke="black"/>
<path d="M66.2638,341.409v 4.61363" fill="none" stroke="black"/>
<path d="M75.3346,341.409v 4.61363" fill="none" stroke="black"/>
<path d="M84.4055,341.409v 4.61363" fill="none" stroke="black"/>
<path d="M93.4764,341.409v 4.61363" fill="none" stroke="black"/>
<path d="M102.547,336.795v 9.22726" fill="none" stroke="black"/>
<path d="M111.618,341.409v 4.61363" fill="none" stroke="black"/>
<path d="M120.689,341.409v 4.61363" fill="none" stroke="black"/>
<path d="M129.76,341.409v 4.61363" fill="none" stroke="black"/>
<path d="M138.831,341.409v 4.61363" fill="none" stroke="black"/>
<path d="M147.902,336.795v 9.22726" fill="none" stroke="black"/>
<path d="M156.972,341.409v 4.61363" fill="none" stroke="black"/>
<path d="M166.043,341.409v 4.61363" fill="none" stroke="black"/>
<path d="M175.114,341.409v 4.61363" fill="none" stroke="black"/>
<path d="M184.185,341.409v 4.61363" fill="none" stroke="black"/>
<path d="M193.256,336.795v 9.22726" fill="none" stroke="black"/>
<path d="M202.327,341.409v 4.61363" fill="none" stroke="black"/>
<path d="M211.398,341.409v 4.61363" fill="none" stroke="black"/>
<path d="M220.469,341.409v 4.61363" fill="none" stroke="black"/>
<path d="M229.539,341.409v 4.61363" fill="none" stroke="black"/>
<path d="M238.61,336.795v 9.22726" fill="none" stroke="black"/>
<path d="M247.681,341.409v 4.61363" fill="none" stroke="black"/>
<path d="M256.752,341.409v 4.61363" fill="none" stroke="black"/>
<path d="M265.823,341.409v 4.61363" fill="none" stroke="black"/>
<path d="M274.894,341.409v 4.61363" fill="none" stroke="black"/>
<path d="M283.965,336.795v 9.22726" fill="none" stroke="black"/>
<path d="M293.035,341.409v 4.61363" fill="none" stroke="black"/>
<path d="M302.106,341.409v 4.61363" fill="none" stroke="black"/>
<path d="M311.177,341.409v 4.61363" fill="none" stroke="black"/>
<path d="M320.248,341.409v 4.61363" fill="none" stroke="black"/>
<path d="M329.319,336.795v 9.22726" fill="none" stroke="black"/>
<path d="M338.39,341.409v 4.61363" fill="none" stroke="black"/>
<path d="M347.461,341.409v 4.61363" fill="none" stroke="black"/>
<path d="M356.531,341.409v 4.61363" fill="none" stroke="black"/>
<path d="M365.602,341.409v 4.61363" fill="none" stroke="black"/>
<path d="M374.673,336.795v 9.22726" fill="none" stroke="black"/>
<path d="M383.744,341.409v 4.61363" fill="none" stroke="black"/>
<path d="M392.815,341.409v 4.61363" fill="none" stroke="black"/>
<path d="M401.886,341.409v 4.61363" fill="none" stroke="black"/>
<path d="M410.957,341.409v 4.61363" fill="none" stroke="black"/>
<path d="M420.028,336.795v 9.22726" fill="none" stroke="black"/>
<path d="M429.098,341.409v 4.61363" fill="none" stroke="black"/>
<path d="M438.169,341.409v 4.61363" fill="none" stroke="black"/>
<path d="M447.24,341.409v 4.61363" fill="none" stroke="black"/>
<path d="M456.311,341.409v 4.61363" fill="none" stroke="black"/>
<path d="M465.382,336.795v 9.22726" fill="none" stroke="black"/>
<path d="M474.453,341.409v 4.61363" fill="none" stroke="black"/>
<path d="M483.524,341.409v 4.61363" fill="none" stroke="black"/>
<path d="M492.594,341.409v 4.61363" fill="none" stroke="black"/>
<path d="M501.665,341.409v 4.61363" fill="none" stroke="black"/>
<path d="M510.736,336.795v 9.22726" fill="none" stroke="black"/>
<text x="53.446" y="358.403" fill="black" font-size="12.8453" font-family="Helvetica">
0
</text>
<text x="91.73" y="358.403" fill="black" font-size="12.8453" font-family="Helvetica">
100
</text>
<text x="136.53" y="358.403" fill="black" font-size="12.8453" font-family="Helvetica">
200
</text>
<text x="182.145" y="358.403" fill="black" font-size="12.8453" font-family="Helvetica">
300
</text>
<text x="227.76" y="358.403" fill="black" font-size="12.8453" font-family="Helvetica">
400
</text>
<text x="273.375" y="358.403" fill="black" font-size="12.8453" font-family="Helvetica">
500
</text>
<text x="318.176" y="358.403" fill="black" font-size="12.8453" font-family="Helvetica">
600
</text>
<text x="363.791" y="358.403" fill="black" font-size="12.8453" font-family="Helvetica">
700
</text>
<text x="409.406" y="358.403" fill="black" font-size="12.8453" font-family="Helvetica">
800
</text>
<text x="454.206" y="358.403" fill="black" font-size="12.8453" font-family="Helvetica">
900
</text>
<text x="496.563" y="358.403" fill="black" font-size="12.8453" font-family="Helvetica">
1000
</text>
<path d="M57.1929,346.022v -307.575" fill="none" stroke="black"/>
<g transform="rotate(-90,-11.7183,111.594)">
<text x="-11.7183" y="111.594" fill="black" font-size="19.1824" font-family="Helvetica">
# Entries
</text>
</g>
<path d="M70.7992,346.022h -13.6063" fill="none" stroke="black"/>
<path d="M63.9961,335.509h -6.80315" fill="none" stroke="black"/>
<path d="M63.9961,324.995h -6.80315" fill="none" stroke="black"/>
<path d="M63.9961,314.481h -6.80315" fill="none" stroke="black"/>
<path d="M63.9961,303.968h -6.80315" fill="none" stroke="black"/>
<path d="M70.7992,293.454h -13.6063" fill="none" stroke="black"/>
<path d="M63.9961,282.941h -6.80315" fill="none" stroke="black"/>
<path d="M63.9961,272.427h -6.80315" fill="none" stroke="black"/>
<path d="M63.9961,261.913h -6.80315" fill="none" stroke="black"/>
<path d="M63.9961,251.4h -6.80315" fill="none" stroke="black"/>
<path d="M70.7992,240.886h -13.6063" fill="none" stroke="black"/>
<path d="M63.9961,230.373h -6.80315" fill="none" stroke="black"/>
<path d="M63.9961,219.859h -6.80315" fill="none" stroke="black"/>
<path d="M63.9961,209.345h -6.80315" fill="none" stroke="black"/>
<path d="M63.9961,198.832h -6.80315" fill="none" stroke="black"/>
<path d="M70.7992,188.318h -13.6063" fill="none" stroke="black"/>
<path d="M63.9961,177.805h -6.80315" fill="none" stroke="black"/>
<path d="M63.9961,167.291h -6.80315" fill="none" stroke="black"/>
<path d="M63.9961,156.777h -6.80315" fill="none" stroke="black"/>
<path d="M63.9961,146.264h -6.80315" fill="none" stroke="black"/>
<path d="M70.7992,135.75h -13.6063" fill="none" stroke="black"/>
<path d="M63.9961,125.237h -6.80315" fill="none" stroke="black"/>
<path d="M63.9961,114.723h -6.80315" fill="none" stroke="black"/>
<path d="M63.9961,104.209h -6.80315" fill="none" stroke="black"/>
<path d="M63.9961,93.6959h -6.80315" fill="none" stroke="black"/>
<path d="M70.7992,83.1823h -13.6063" fill="none" stroke="black"/>
<path d="M70.7992,83.1823h -13.6063" fill="none" stroke="black"/>
<path d="M63.9961,72.6687h -6.80315" fill="none" stroke="black"/>
<path d="M63.9961,62.1551h -6.80315" fill="none" stroke="black"/>
<path d="M63.9961,51.6415h -6.80315" fill="none" stroke="black"/>
<path d="M63.9961,41.1279h -6.80315" fill="none" stroke="black"/>
<text x="44.4859" y="352.702" fill="black" font-size="19.1824" font-family="Helvetica">
0
</text>
<text x="-2.75821" y="300.57" fill="black" font-size="19.1824" font-family="Helvetica">
0.0005
</text>
<text x="11.0892" y="247.624" fill="black" font-size="19.1824" font-family="Helvetica">
0.001
</text>
<text x="-2.75821" y="195.493" fill="black" font-size="19.1824" font-family="Helvetica">
0.0015
</text>
<text x="7.83098" y="142.547" fill="black" font-size="19.1824" font-family="Helvetica">
0.002
</text>
<text x="-2.75821" y="90.4154" fill="black" font-size="19.1824" font-family="Helvetica">
0.0025
</text>
<path d="M57.1929,346.022h 14.0598v -12.7083h 0.453543v -12.7083h 2.26772v 25.4167h 0.453543v -12.7083h 0.907087v -12.7083h 0.907087v -25.4167h 0.907087v -12.7083h 0.453543v 38.125h 0.453543v -38.125h 0.453543v 25.4167h 0.453543v -12.7083h 0.453543v
 12.7083h 0.453543v -12.7083h 1.36063v 38.125h 0.453543v -38.125h 0.453543v -50.8333h 0.453543v 63.5416h 0.453543v -38.125h 0.453543v 50.8333h 0.453543v -76.25h 0.453543v 12.7083h 0.453543v 63.5416h 0.453543v -50.8333h 0.453543v 25.4167h 1.36063v
 -38.125h 0.907087v -38.125h 0.453543v 88.9583h 0.453543v -12.7083h 0.453543v -76.25h 0.453543v 38.125h 0.453543v 12.7083h 0.453543v -63.5416h 0.453543v 25.4167h 0.453543v 12.7083h 0.453543v 25.4167h 0.453543v -25.4167h 0.453543v -63.5416h 0.453543v
 38.125h 0.453543v 25.4167h 0.453543v -25.4167h 0.453543v 50.8333h 0.453543v -63.5416h 0.453543v 38.125h 0.453543v 38.125h 0.453543v -50.8333h 0.453543v 50.8333h 0.453543v -38.125h 0.453543v -63.5416h 0.453543v -50.8333h 0.453543v 76.25h 0.453543v
 -12.7083h 0.453543v 25.4167h 0.453543v -25.4167h 0.453543v 12.7083h 0.453543v 63.5416h 0.453543v -38.125h 0.453543v 38.125h 0.453543v -76.25h 0.453543v 88.9583h 0.907087v 12.7083h 0.453543v -88.9583h 0.453543v 25.4167h 0.453543v 50.8333h 0.453543v
 -76.25h 0.453543v 12.7083h 0.453543v -25.4167h 0.453543v 50.8333h 0.453543v -63.5416h 0.453543v 12.7083h 0.453543v 12.7083h 0.453543v 50.8333h 0.453543v -101.667h 0.453543v -25.4167h 0.453543v 25.4167h 0.453543v 38.125h 0.453543v -12.7083h 0.453543v
 25.4167h 0.453543v -25.4167h 0.453543v 76.25h 0.453543v -88.9583h 0.453543v 12.7083h 1.36063v -101.667h 0.453543v 76.25h 0.453543v 101.667h 0.453543v -63.5416h 0.453543v 63.5416h 0.453543v -139.792h 0.453543v 101.667h 0.453543v 12.7083h 0.453543v
 -38.125h 0.453543v 12.7083h 0.453543v 25.4167h 0.453543v -63.5416h 0.453543v 50.8333h 0.453543v -127.083h 0.453543v 114.375h 0.453543v 50.8333h 0.453543v -50.8333h 0.453543v -63.5416h 0.907087v 63.5416h 0.453543v -139.792h 0.453543v 190.625h
 0.453543v -88.9583h 0.453543v 76.25h 0.453543v -63.5416h 0.907087v 101.667h 0.453543v -127.083h 0.453543v 63.5416h 0.453543v -25.4167h 0.453543v -50.8333h 0.453543v 12.7083h 0.453543v 63.5416h 0.453543v -25.4167h 0.453543v 25.4167h 0.453543v
 12.7083h 0.453543v -50.8333h 0.453543v -25.4167h 0.453543v 63.5416h 0.453543v -88.9583h 0.453543v 12.7083h 0.453543v 38.125h 0.453543v -38.125h 0.453543v -12.7083h 0.453543v 50.8333h 0.453543v -50.8333h 0.453543v 76.25h 0.453543v -88.9583h 0.453543v
 127.083h 0.453543v -152.5h 0.453543v 50.8333h 0.453543v 38.125h 0.453543v 12.7083h 0.453543v -38.125h 0.453543v 25.4167h 0.453543v 25.4167h 0.453543v -12.7083h 0.453543v -63.5416h 0.453543v -38.125h 0.453543v 88.9583h 0.453543v 38.125h 0.453543v
 -25.4167h 0.453543v 50.8333h 0.453543v -12.7083h 0.453543v -38.125h 0.453543v -50.8333h 0.453543v 76.25h 0.453543v 12.7083h 0.453543v -12.7083h 0.453543v -63.5416h 0.453543v 50.8333h 0.453543v 76.25h 0.453543v -139.792h 0.907087v 101.667h 0.453543v
 -101.667h 0.453543v 63.5416h 0.453543v -63.5416h 0.453543v 25.4167h 0.453543v 76.25h 0.907087v -101.667h 0.453543v 38.125h 0.453543v 25.4167h 0.453543v 12.7083h 0.453543v -25.4167h 0.453543v 63.5416h 0.453543v -38.125h 0.907087v -63.5416h 0.453543v
 127.083h 0.453543v -88.9583h 0.453543v 25.4167h 0.453543v -139.792h 0.453543v 152.5h 0.907087v -114.375h 0.453543v 88.9583h 0.453543v 38.125h 0.453543v -50.8333h 0.453543v -25.4167h 0.453543v 25.4167h 0.453543v 38.125h 0.453543v -50.8333h 0.453543v
 -12.7083h 0.453543v 25.4167h 0.453543v 38.125h 0.453543v -25.4167h 0.453543v -38.125h 0.453543v -12.7083h 0.453543v 101.667h 0.453543v 38.125h 0.453543v -50.8333h 0.907087v -63.5416h 0.453543v 63.5416h 0.453543v 12.7083h 0.453543v -101.667h
 0.453543v 76.25h 0.453543v -127.083h 0.453543v 101.667h 0.453543v -12.7083h 0.453543v -76.25h 0.453543v 114.375h 0.453543v -63.5416h 0.453543v 25.4167h 0.453543v 38.125h 0.453543v 25.4167h 0.453543v -101.667h 0.453543v 88.9583h 0.453543v -50.8333h
 0.453543v -38.125h 0.453543v 63.5416h 0.453543v -25.4167h 0.453543v -38.125h 0.453543v 38.125h 0.453543v 12.7083h 0.453543v 25.4167h 0.453543v -12.7083h 0.907087v -38.125h 0.453543v 101.667h 0.453543v 12.7083h 0.907087v -63.5416h 1.36063v -25.4167h
 0.453543v 50.8333h 0.453543v -101.667h 0.453543v 114.375h 0.453543v -63.5416h 0.453543v 12.7083h 0.453543v 12.7083h 0.453543v 12.7083h 0.453543v -12.7083h 0.453543v -25.4167h 0.453543v 12.7083h 0.453543v -12.7083h 0.453543v 63.5416h 0.453543v
 -38.125h 0.453543v 25.4167h 0.453543v -25.4167h 0.453543v -63.5416h 0.907087v 76.25h 0.453543v -101.667h 0.453543v 114.375h 0.453543v -38.125h 0.453543v 12.7083h 0.907087v 25.4167h 0.453543v -63.5416h 0.453543v 127.083h 0.453543v -127.083h 0.453543v
 25.4167h 0.453543v 63.5416h 0.453543v -12.7083h 0.453543v -25.4167h 0.453543v 50.8333h 0.453543v -50.8333h 0.453543v -50.8333h 0.453543v 25.4167h 0.453543v 63.5416h 0.453543v -38.125h 1.81417v 25.4167h 0.453543v -50.8333h 0.453543v 25.4167h
 0.453543v -25.4167h 0.907087v 38.125h 0.453543v 38.125h 0.453543v -190.625h 0.453543v 114.375h 0.453543v -38.125h 0.453543v 12.7083h 0.453543v 25.4167h 0.453543v 50.8333h 0.453543v -12.7083h 0.453543v -50.8333h 0.453543v 63.5416h 0.907087v -38.125h
 0.453543v 25.4167h 0.453543v -50.8333h 0.453543v 38.125h 0.453543v -50.8333h 0.453543v 101.667h 0.453543v -50.8333h 0.453543v -63.5416h 0.453543v 76.25h 0.453543v -25.4167h 0.907087v 25.4167h 0.453543v -76.25h 0.453543v 25.4167h 0.453543v 12.7083h
 0.453543v 50.8333h 0.453543v -50.8333h 0.453543v 38.125h 0.907087v -25.4167h 0.453543v 12.7083h 0.453543v 12.7083h 0.453543v -127.083h 0.453543v 101.667h 0.453543v 38.125h 0.453543v 12.7083h 0.453543v -50.8333h 0.453543v -38.125h 0.453543v 38.125h
 0.453543v -12.7083h 0.907087v -12.7083h 0.453543v 12.7083h 0.453543v 12.7083h 0.453543v 12.7083h 0.453543v 25.4167h 0.453543v -25.4167h 0.907087v 12.7083h 0.453543v -88.9583h 0.453543v 101.667h 0.453543v -63.5416h 0.453543v -25.4167h 0.453543v
 38.125h 0.907087v 63.5416h 0.453543v -25.4167h 0.453543v -50.8333h 0.453543v 25.4167h 0.907087v 25.4167h 0.453543v 25.4167h 0.453543v -76.25h 0.453543v 63.5416h 0.453543v 25.4167h 0.453543v -63.5416h 0.453543v -12.7083h 0.907087v -38.125h 0.453543v
 63.5416h 0.453543v -63.5416h 0.453543v 101.667h 0.453543v -63.5416h 0.453543v -12.7083h 0.453543v 12.7083h 0.453543v -38.125h 0.453543v 25.4167h 0.453543v 38.125h 0.453543v 12.7083h 0.453543v -38.125h 0.453543v 12.7083h 0.453543v 12.7083h 0.453543v
 12.7083h 0.453543v -12.7083h 0.453543v 50.8333h 0.907087v -76.25h 0.453543v 38.125h 0.453543v 12.7083h 0.453543v -101.667h 0.453543v 114.375h 0.453543v -76.25h 0.453543v -12.7083h 0.453543v 12.7083h 0.453543v -38.125h 0.453543v 50.8333h 0.453543v
 12.7083h 0.453543v 25.4167h 0.453543v -114.375h 0.453543v 88.9583h 0.453543v -63.5416h 0.453543v 76.25h 0.453543v -50.8333h 0.453543v 38.125h 0.453543v 12.7083h 0.907087v -38.125h 0.453543v 38.125h 0.453543v -88.9583h 0.453543v 88.9583h 0.907087v
 -12.7083h 0.453543v -25.4167h 0.453543v 38.125h 0.453543v -50.8333h 0.453543v -38.125h 0.453543v 127.083h 0.453543v -190.625h 0.453543v 50.8333h 0.453543v 25.4167h 0.453543v -12.7083h 0.453543v 38.125h 0.453543v -38.125h 0.453543v 88.9583h 0.453543v
 -38.125h 0.453543v -38.125h 0.453543v 12.7083h 0.453543v 50.8333h 0.453543v 50.8333h 0.453543v -50.8333h 0.453543v -76.25h 0.453543v 63.5416h 0.453543v 25.4167h 0.453543v -76.25h 0.453543v -12.7083h 0.907087v 50.8333h 0.453543v -25.4167h 0.453543v
 76.25h 0.453543v -88.9583h 0.453543v -38.125h 0.453543v 139.792h 0.453543v -63.5416h 0.453543v -50.8333h 0.907087v 63.5416h 0.453543v 63.5416h 0.453543v -101.667h 0.453543v 38.125h 0.453543v -50.8333h 0.453543v 12.7083h 0.453543v 38.125h 0.453543v
 -38.125h 0.453543v 25.4167h 0.453543v -50.8333h 0.453543v 63.5416h 0.453543v 12.7083h 0.453543v -76.25h 0.453543v 88.9583h 0.453543v -76.25h 1.36063v 25.4167h 0.907087v 63.5416h 0.453543v -101.667h 0.453543v 63.5416h 0.453543v -50.8333h 0.453543v
 50.8333h 0.453543v -25.4167h 0.453543v 25.4167h 0.453543v -25.4167h 0.453543v 12.7083h 0.453543v -25.4167h 0.453543v -12.7083h 0.453543v -76.25h 0.453543v 88.9583h 0.453543v -38.125h 0.453543v 88.9583h 0.453543v 12.7083h 0.453543v -76.25h 0.453543v
 12.7083h 0.907087v -25.4167h 0.453543v -63.5416h 0.453543v -25.4167h 0.453543v 127.083h 0.907087v 38.125h 0.453543v 12.7083h 0.453543v -101.667h 0.453543v 12.7083h 0.453543v 50.8333h 0.453543v -25.4167h 0.453543v -50.8333h 0.453543v 38.125h
 0.453543v 63.5416h 0.453543v -38.125h 0.453543v 50.8333h 0.453543v -12.7083h 0.453543v -76.25h 0.453543v -63.5416h 0.907087v 139.792h 0.453543v -88.9583h 0.453543v 63.5416h 0.453543v -76.25h 0.453543v 38.125h 0.453543v 50.8333h 0.453543v 38.125h
 0.453543v -38.125h 0.453543v -38.125h 0.453543v -12.7083h 0.453543v 38.125h 0.453543v -25.4167h 0.453543v -50.8333h 0.453543v 114.375h 0.453543v -101.667h 0.453543v 38.125h 0.453543v -25.4167h 0.453543v 38.125h 0.453543v -50.8333h 0.907087v 12.7083h
 0.453543v 50.8333h 0.453543v 38.125h 0.453543v -63.5416h 0.453543v -38.125h 0.453543v 25.4167h 0.453543v -12.7083h 0.453543v 12.7083h 0.453543v 63.5416h 0.453543v -38.125h 0.453543v -25.4167h 0.453543v 101.667h 0.453543v -63.5416h 0.453543v 25.4167h
 0.453543v -76.25h 0.453543v 12.7083h 0.453543v -114.375h 0.453543v 50.8333h 0.453543v 101.667h 0.453543v 12.7083h 0.453543v -25.4167h 0.453543v 38.125h 0.453543v -76.25h 0.453543v 50.8333h 0.453543v -12.7083h 0.453543v 25.4167h 0.453543v -114.375h
 0.453543v 38.125h 0.453543v 50.8333h 0.453543v -101.667h 0.453543v 127.083h 0.453543v -88.9583h 0.453543v 101.667h 0.453543v -76.25h 0.453543v 50.8333h 0.453543v -38.125h 0.907087v 76.25h 0.453543v -101.667h 0.453543v 25.4167h 0.453543v -12.7083h
 0.453543v -25.4167h 0.453543v 50.8333h 0.453543v 25.4167h 0.453543v -127.083h 0.453543v 165.208h 0.453543v -38.125h 0.453543v 12.7083h 0.453543v -88.9583h 0.453543v 101.667h 0.453543v -25.4167h 0.453543v -25.4167h 0.453543v -12.7083h 0.453543v
 101.667h 0.453543v -88.9583h 1.36063v -139.792h 0.453543v 190.625h 0.453543v -76.25h 0.453543v -12.7083h 0.453543v 76.25h 0.453543v 25.4167h 0.453543v -25.4167h 0.453543v -50.8333h 0.453543v 88.9583h 0.453543v -25.4167h 0.453543v -63.5416h 0.453543v
 -38.125h 0.453543v 38.125h 0.453543v 25.4167h 0.453543v -63.5416h 0.453543v 88.9583h 0.453543v 63.5416h 0.453543v -88.9583h 0.453543v 63.5416h 0.907087v -88.9583h 0.453543v 76.25h 0.453543v -101.667h 0.453543v 88.9583h 0.453543v -63.5416h 0.453543v
 114.375h 0.453543v -88.9583h 0.453543v 25.4167h 0.453543v 50.8333h 0.453543v -101.667h 0.453543v 50.8333h 0.453543v -12.7083h 0.453543v 12.7083h 0.453543v -114.375h 0.453543v 88.9583h 0.453543v -155.075" fill="none" stroke="#3366ff"
 stroke-width="2"/>
<path d="M346.554,38.4469v 167.784" fill="none" stroke="#3366ff" stroke-width="2"/>
<path d="M346.554,206.231h 0.453543v -25.4167h 0.453543v 63.5416h 0.453543v -38.125h 1.81417v 50.8333h 0.453543v -38.125h 0.453543v -101.667h 0.453543v 139.792h 0.453543v -38.125h 0.453543v -25.4167h 0.453543v -88.9583h 0.453543v 101.667h 0.453543v
 63.5416h 0.453543v -25.4167h 0.453543v -38.125h 0.453543v 38.125h 0.453543v -25.4167h 0.453543v -38.125h 0.453543v 50.8333h 0.453543v 38.125h 0.453543v -114.375h 0.907087v 63.5416h 0.453543v 50.8333h 0.453543v -76.25h 0.907087v 38.125h 0.453543v
 -38.125h 0.453543v 38.125h 0.453543v 63.5416h 0.453543v 25.4167h 0.453543v -76.25h 0.453543v -127.083h 0.453543v 63.5416h 0.453543v -12.7083h 0.453543v 50.8333h 0.453543v -12.7083h 0.453543v -25.4167h 0.453543v 38.125h 0.907087v 12.7083h 0.907087v
 -25.4167h 0.453543v -12.7083h 0.453543v 63.5416h 0.453543v 38.125h 0.453543v -88.9583h 0.453543v 12.7083h 0.453543v -12.7083h 0.453543v -25.4167h 0.453543v 12.7083h 0.453543v 76.25h 0.453543v 12.7083h 0.453543v -101.667h 0.453543v 12.7083h 0.453543v
 38.125h 1.36063v -12.7083h 0.453543v -25.4167h 0.453543v 76.25h 0.453543v -12.7083h 0.453543v -38.125h 0.453543v 25.4167h 0.453543v -50.8333h 0.453543v 101.667h 0.453543v -190.625h 0.453543v 127.083h 0.453543v 25.4167h 0.453543v -63.5416h 0.453543v
 50.8333h 0.453543v -38.125h 0.453543v -12.7083h 0.453543v 88.9583h 0.453543v -25.4167h 0.453543v 63.5416h 0.453543v -38.125h 0.453543v -38.125h 0.453543v -88.9583h 0.453543v 101.667h 0.453543v -12.7083h 0.453543v 25.4167h 0.453543v -25.4167h
 1.36063v 25.4167h 0.453543v -38.125h 0.453543v -12.7083h 0.453543v 50.8333h 0.453543v -38.125h 0.907087v 50.8333h 0.453543v -76.25h 0.453543v 12.7083h 0.453543v 38.125h 0.907087v -38.125h 0.453543v 50.8333h 0.453543v 12.7083h 0.453543v -25.4167h
 0.453543v -38.125h 0.453543v 76.25h 0.453543v -50.8333h 0.453543v -12.7083h 0.453543v 12.7083h 0.453543v 12.7083h 0.453543v 38.125h 0.453543v -114.375h 0.453543v 25.4167h 0.453543v 50.8333h 0.453543v 12.7083h 0.453543v 25.4167h 0.453543v -25.4167h
 0.453543v -50.8333h 0.453543v 88.9583h 0.907087v -38.125h 0.907087v 25.4167h 0.453543v -25.4167h 0.907087v 12.7083h 0.907087v 12.7083h 0.453543v -50.8333h 0.453543v 12.7083h 0.453543v 25.4167h 0.453543v -12.7083h 0.453543v 12.7083h 0.453543v
 25.4167h 0.453543v -50.8333h 0.453543v -12.7083h 0.453543v 25.4167h 0.907087v 38.125h 0.453543v -12.7083h 0.453543v -25.4167h 0.453543v 50.8333h 0.453543v 12.7083h 0.453543v -76.25h 0.453543v 25.4167h 0.453543v -50.8333h 0.453543v 12.7083h 0.453543v
 25.4167h 0.453543v 25.4167h 0.453543v -25.4167h 0.453543v 12.7083h 0.453543v -25.4167h 0.907087v -63.5416h 0.453543v 50.8333h 0.907087v 50.8333h 0.453543v -12.7083h 0.453543v 12.7083h 0.453543v 25.4167h 0.453543v -12.7083h 0.453543v 12.7083h
 0.453543v -38.125h 0.453543v -25.4167h 0.453543v 50.8333h 0.453543v -12.7083h 0.453543v 12.7083h 0.907087v -88.9583h 0.453543v 63.5416h 0.453543v 25.4167h 0.453543v -63.5416h 0.453543v 25.4167h 0.453543v -12.7083h 0.453543v 50.8333h 0.453543v
 -38.125h 0.453543v -50.8333h 0.453543v 101.667h 0.453543v -38.125h 0.453543v 12.7083h 0.907087v 12.7083h 0.907087v 12.7083h 0.453543v -12.7083h 0.453543v -25.4167h 0.907087v -76.25h 0.453543v 101.667h 0.907087v 25.4167h 0.453543v 12.7083h 0.453543v
 -63.5416h 0.453543v 12.7083h 0.453543v 12.7083h 0.453543v -38.125h 0.453543v 25.4167h 0.453543v -12.7083h 0.453543v 25.4167h 0.453543v 12.7083h 0.453543v -38.125h 0.453543v 25.4167h 0.453543v -38.125h 0.453543v 38.125h 0.907087v -12.7083h 0.453543v
 -50.8333h 0.453543v 63.5416h 0.453543v 38.125h 0.453543v -25.4167h 0.453543v -38.125h 0.453543v 12.7083h 0.453543v 25.4167h 0.453543v -12.7083h 0.453543v 12.7083h 0.453543v -12.7083h 0.453543v -12.7083h 0.453543v 12.7083h 0.453543v 25.4167h
 0.453543v -63.5416h 0.453543v 50.8333h 0.453543v -12.7083h 0.453543v 38.125h 0.453543v -12.7083h 0.453543v -38.125h 0.453543v 38.125h 0.453543v -38.125h 0.453543v 12.7083h 0.453543v -12.7083h 0.453543v 25.4167h 0.453543v -12.7083h 0.453543v
 -12.7083h 0.453543v 38.125h 0.453543v -25.4167h 0.453543v 12.7083h 0.453543v 25.4167h 0.907087v -38.125h 0.453543v 38.125h 0.453543v -12.7083h 0.453543v 12.7083h 0.453543v -38.125h 0.453543v 12.7083h 0.453543v -12.7083h 2.26772v -12.7083h 0.453543v
 25.4167h 0.453543v 12.7083h 0.453543v -12.7083h 0.453543v 12.7083h 0.453543v -12.7083h 0.453543v 12.7083h 0.453543v -50.8333h 0.453543v 50.8333h 0.453543v 12.7083h 0.907087v -12.7083h 0.453543v -12.7083h 0.453543v -25.4167h 0.453543v 38.125h
 0.453543v -38.125h 0.453543v 25.4167h 0.453543v -25.4167h 0.907087v 38.125h 0.907087v -25.4167h 0.453543v 38.125h 0.453543v -25.4167h 0.453543v 25.4167h 0.453543v -50.8333h 0.907087v 25.4167h 0.907087v 12.7083h 0.453543v -12.7083h 0.453543v 25.4167h
 0.907087v -25.4167h 0.453543v -25.4167h 0.453543v 38.125h 0.453543v -25.4167h 0.453543v 12.7083h 0.907087v -25.4167h 0.453543v 25.4167h 1.36063v 25.4167h 0.453543v -12.7083h 0.453543v -12.7083h 0.453543v 12.7083h 0.453543v 12.7083h 0.453543v
 -12.7083h 0.453543v -25.4167h 0.453543v 12.7083h 0.453543v 12.7083h 0.907087v -12.7083h 0.453543v 12.7083h 1.36063v 12.7083h 0.907087v -25.4167h 0.453543v 12.7083h 0.453543v -12.7083h 0.453543v 25.4167h 0.907087v -12.7083h 0.907087v -25.4167h
 0.453543v 25.4167h 2.26772v 12.7083h 0.907087v -12.7083h 0.453543v -25.4167h 0.453543v 38.125h 0.453543v -12.7083h 1.81417v 12.7083h 0.453543v -38.125h 0.453543v 38.125h 0.453543v -25.4167h 0.453543v 25.4167h 0.453543v -12.7083h 0.453543v 12.7083h
 0.907087v -12.7083h 0.453543v -12.7083h 0.907087v 25.4167h 0.453543v -12.7083h 0.453543v 12.7083h 0.907087v -25.4167h 0.453543v 12.7083h 0.453543v 12.7083h 0.907087v -25.4167h 0.453543v 25.4167h 0.453543v -12.7083h 0.453543v 12.7083h 1.81417v
 -12.7083h 0.453543v 12.7083h 0.453543v -12.7083h 1.81417v 12.7083h 0.907087" fill="none" stroke="#3366ff" stroke-width="2"/>
<rect x="340.657" y="38.4469" width="170.079" height="76.8938" fill="white"/>
<path d="M340.657,115.341h 170.079" fill="none" stroke="black"/>
<path d="M510.736,115.341v -76.8938" fill="none" stroke="black"/>
<path d="M510.736,38.4469h -170.079" fill="none" stroke="black"/>
<path d="M340.657,38.4469v 76.8938" fill="none" stroke="black"/>
<text x="382.526" y="61.0915" fill="black" font-size="10.4652" font-family="Helvetica">
MC 17mm Steel in Front
</text>
<path d="M347.035,71.1268h 29.7638v -26.9128h -29.7638z" fill="white"/>
<path d="M347.035,57.6704h 29.7638" fill="none" stroke="#000033" stroke-width="2"/>
<g stroke="black" stroke-width="2" fill="none">
<line x1="360.917" y1="57.6704" x2="361.917" y2="57.6704"/>
</g>
<text x="382.526" y="99.3755" fill="black" font-size="10.4652" font-family="Helvetica">
MC 17mm Steel 5m away
</text>
<path d="M347.035,109.574h 29.7638v -26.9128h -29.7638z" fill="white"/>
<path d="M347.035,96.1173h 29.7638" fill="none" stroke="#3366ff" stroke-width="2"/>
<g stroke="black" stroke-width="2" fill="none">
<line x1="360.917" y1="96.1173" x2="361.917" y2="96.1173"/>
</g>
<text x="109.65" y="18.7347" fill="black" font-size="18.7938" font-family="Helvetica">
Energy Sum of Event After Data Selection
</text></svg>
